%!PS-Adobe-3.0 EPSF-3.0
%%Creator: (MATLAB, The Mathworks, Inc. Version 9.0.0.341360 \(R2016a\). Operating System: Windows 8)
%%Title: ../doc/thesis/figures/Annealing_Best.eps
%%CreationDate: 2016-08-23T23:41:47
%%Pages: (atend)
%%BoundingBox:    17     2   383   305
%%LanguageLevel: 3
%%EndComments
%%BeginProlog
%%BeginResource: procset (Apache XML Graphics Std ProcSet) 1.2 0
%%Version: 1.2 0
%%Copyright: (Copyright 2001-2003,2010 The Apache Software Foundation. License terms: http://www.apache.org/licenses/LICENSE-2.0)
/bd{bind def}bind def
/ld{load def}bd
/GR/grestore ld
/M/moveto ld
/LJ/setlinejoin ld
/C/curveto ld
/f/fill ld
/LW/setlinewidth ld
/GC/setgray ld
/t/show ld
/N/newpath ld
/CT/concat ld
/cp/closepath ld
/S/stroke ld
/L/lineto ld
/CC/setcmykcolor ld
/A/ashow ld
/GS/gsave ld
/RC/setrgbcolor ld
/RM/rmoveto ld
/ML/setmiterlimit ld
/re {4 2 roll M
1 index 0 rlineto
0 exch rlineto
neg 0 rlineto
cp } bd
/_ctm matrix def
/_tm matrix def
/BT { _ctm currentmatrix pop matrix _tm copy pop 0 0 moveto } bd
/ET { _ctm setmatrix } bd
/iTm { _ctm setmatrix _tm concat } bd
/Tm { _tm astore pop iTm 0 0 moveto } bd
/ux 0.0 def
/uy 0.0 def
/F {
  /Tp exch def
  /Tf exch def
  Tf findfont Tp scalefont setfont
  /cf Tf def  /cs Tp def
} bd
/ULS {currentpoint /uy exch def /ux exch def} bd
/ULE {
  /Tcx currentpoint pop def
  gsave
  newpath
  cf findfont cs scalefont dup
  /FontMatrix get 0 get /Ts exch def /FontInfo get dup
  /UnderlinePosition get Ts mul /To exch def
  /UnderlineThickness get Ts mul /Tt exch def
  ux uy To add moveto  Tcx uy To add lineto
  Tt setlinewidth stroke
  grestore
} bd
/OLE {
  /Tcx currentpoint pop def
  gsave
  newpath
  cf findfont cs scalefont dup
  /FontMatrix get 0 get /Ts exch def /FontInfo get dup
  /UnderlinePosition get Ts mul /To exch def
  /UnderlineThickness get Ts mul /Tt exch def
  ux uy To add cs add moveto Tcx uy To add cs add lineto
  Tt setlinewidth stroke
  grestore
} bd
/SOE {
  /Tcx currentpoint pop def
  gsave
  newpath
  cf findfont cs scalefont dup
  /FontMatrix get 0 get /Ts exch def /FontInfo get dup
  /UnderlinePosition get Ts mul /To exch def
  /UnderlineThickness get Ts mul /Tt exch def
  ux uy To add cs 10 mul 26 idiv add moveto Tcx uy To add cs 10 mul 26 idiv add lineto
  Tt setlinewidth stroke
  grestore
} bd
/QT {
/Y22 exch store
/X22 exch store
/Y21 exch store
/X21 exch store
currentpoint
/Y21 load 2 mul add 3 div exch
/X21 load 2 mul add 3 div exch
/X21 load 2 mul /X22 load add 3 div
/Y21 load 2 mul /Y22 load add 3 div
/X22 load /Y22 load curveto
} bd
/SSPD {
dup length /d exch dict def
{
/v exch def
/k exch def
currentpagedevice k known {
/cpdv currentpagedevice k get def
v cpdv ne {
/upd false def
/nullv v type /nulltype eq def
/nullcpdv cpdv type /nulltype eq def
nullv nullcpdv or
{
/upd true def
} {
/sametype v type cpdv type eq def
sametype {
v type /arraytype eq {
/vlen v length def
/cpdvlen cpdv length def
vlen cpdvlen eq {
0 1 vlen 1 sub {
/i exch def
/obj v i get def
/cpdobj cpdv i get def
obj cpdobj ne {
/upd true def
exit
} if
} for
} {
/upd true def
} ifelse
} {
v type /dicttype eq {
v {
/dv exch def
/dk exch def
/cpddv cpdv dk get def
dv cpddv ne {
/upd true def
exit
} if
} forall
} {
/upd true def
} ifelse
} ifelse
} if
} ifelse
upd true eq {
d k v put
} if
} if
} if
} forall
d length 0 gt {
d setpagedevice
} if
} bd
%%EndResource
%%BeginResource: procset (Apache XML Graphics EPS ProcSet) 1.0 0
%%Version: 1.0 0
%%Copyright: (Copyright 2002-2003 The Apache Software Foundation. License terms: http://www.apache.org/licenses/LICENSE-2.0)
/BeginEPSF { %def
/b4_Inc_state save def         % Save state for cleanup
/dict_count countdictstack def % Count objects on dict stack
/op_count count 1 sub def      % Count objects on operand stack
userdict begin                 % Push userdict on dict stack
/showpage { } def              % Redefine showpage, { } = null proc
0 setgray 0 setlinecap         % Prepare graphics state
1 setlinewidth 0 setlinejoin
10 setmiterlimit [ ] 0 setdash newpath
/languagelevel where           % If level not equal to 1 then
{pop languagelevel             % set strokeadjust and
1 ne                           % overprint to their defaults.
{false setstrokeadjust false setoverprint
} if
} if
} bd
/EndEPSF { %def
count op_count sub {pop} repeat            % Clean up stacks
countdictstack dict_count sub {end} repeat
b4_Inc_state restore
} bd
%%EndResource
%FOPBeginFontDict
%%IncludeResource: font Courier-Bold
%%IncludeResource: font Helvetica
%%IncludeResource: font Courier-BoldOblique
%%IncludeResource: font Courier-Oblique
%%IncludeResource: font Times-Roman
%%IncludeResource: font Helvetica-BoldOblique
%%IncludeResource: font Helvetica-Bold
%%IncludeResource: font Helvetica-Oblique
%%IncludeResource: font Times-BoldItalic
%%IncludeResource: font Courier
%%IncludeResource: font Times-Italic
%%IncludeResource: font Times-Bold
%%IncludeResource: font Symbol
%%IncludeResource: font ZapfDingbats
%FOPEndFontDict
%%BeginResource: encoding WinAnsiEncoding
/WinAnsiEncoding [
/.notdef /.notdef /.notdef /.notdef /.notdef
/.notdef /.notdef /.notdef /.notdef /.notdef
/.notdef /.notdef /.notdef /.notdef /.notdef
/.notdef /.notdef /.notdef /.notdef /.notdef
/.notdef /.notdef /.notdef /.notdef /.notdef
/.notdef /.notdef /.notdef /.notdef /.notdef
/.notdef /.notdef /space /exclam /quotedbl
/numbersign /dollar /percent /ampersand /quotesingle
/parenleft /parenright /asterisk /plus /comma
/hyphen /period /slash /zero /one
/two /three /four /five /six
/seven /eight /nine /colon /semicolon
/less /equal /greater /question /at
/A /B /C /D /E
/F /G /H /I /J
/K /L /M /N /O
/P /Q /R /S /T
/U /V /W /X /Y
/Z /bracketleft /backslash /bracketright /asciicircum
/underscore /quoteleft /a /b /c
/d /e /f /g /h
/i /j /k /l /m
/n /o /p /q /r
/s /t /u /v /w
/x /y /z /braceleft /bar
/braceright /asciitilde /bullet /Euro /bullet
/quotesinglbase /florin /quotedblbase /ellipsis /dagger
/daggerdbl /circumflex /perthousand /Scaron /guilsinglleft
/OE /bullet /Zcaron /bullet /bullet
/quoteleft /quoteright /quotedblleft /quotedblright /bullet
/endash /emdash /asciitilde /trademark /scaron
/guilsinglright /oe /bullet /zcaron /Ydieresis
/space /exclamdown /cent /sterling /currency
/yen /brokenbar /section /dieresis /copyright
/ordfeminine /guillemotleft /logicalnot /sfthyphen /registered
/macron /degree /plusminus /twosuperior /threesuperior
/acute /mu /paragraph /middot /cedilla
/onesuperior /ordmasculine /guillemotright /onequarter /onehalf
/threequarters /questiondown /Agrave /Aacute /Acircumflex
/Atilde /Adieresis /Aring /AE /Ccedilla
/Egrave /Eacute /Ecircumflex /Edieresis /Igrave
/Iacute /Icircumflex /Idieresis /Eth /Ntilde
/Ograve /Oacute /Ocircumflex /Otilde /Odieresis
/multiply /Oslash /Ugrave /Uacute /Ucircumflex
/Udieresis /Yacute /Thorn /germandbls /agrave
/aacute /acircumflex /atilde /adieresis /aring
/ae /ccedilla /egrave /eacute /ecircumflex
/edieresis /igrave /iacute /icircumflex /idieresis
/eth /ntilde /ograve /oacute /ocircumflex
/otilde /odieresis /divide /oslash /ugrave
/uacute /ucircumflex /udieresis /yacute /thorn
/ydieresis
] def
%%EndResource
%FOPBeginFontReencode
/Courier-Bold findfont
dup length dict begin
  {1 index /FID ne {def} {pop pop} ifelse} forall
  /Encoding WinAnsiEncoding def
  currentdict
end
/Courier-Bold exch definefont pop
/Helvetica findfont
dup length dict begin
  {1 index /FID ne {def} {pop pop} ifelse} forall
  /Encoding WinAnsiEncoding def
  currentdict
end
/Helvetica exch definefont pop
/Courier-BoldOblique findfont
dup length dict begin
  {1 index /FID ne {def} {pop pop} ifelse} forall
  /Encoding WinAnsiEncoding def
  currentdict
end
/Courier-BoldOblique exch definefont pop
/Courier-Oblique findfont
dup length dict begin
  {1 index /FID ne {def} {pop pop} ifelse} forall
  /Encoding WinAnsiEncoding def
  currentdict
end
/Courier-Oblique exch definefont pop
/Times-Roman findfont
dup length dict begin
  {1 index /FID ne {def} {pop pop} ifelse} forall
  /Encoding WinAnsiEncoding def
  currentdict
end
/Times-Roman exch definefont pop
/Helvetica-BoldOblique findfont
dup length dict begin
  {1 index /FID ne {def} {pop pop} ifelse} forall
  /Encoding WinAnsiEncoding def
  currentdict
end
/Helvetica-BoldOblique exch definefont pop
/Helvetica-Bold findfont
dup length dict begin
  {1 index /FID ne {def} {pop pop} ifelse} forall
  /Encoding WinAnsiEncoding def
  currentdict
end
/Helvetica-Bold exch definefont pop
/Helvetica-Oblique findfont
dup length dict begin
  {1 index /FID ne {def} {pop pop} ifelse} forall
  /Encoding WinAnsiEncoding def
  currentdict
end
/Helvetica-Oblique exch definefont pop
/Times-BoldItalic findfont
dup length dict begin
  {1 index /FID ne {def} {pop pop} ifelse} forall
  /Encoding WinAnsiEncoding def
  currentdict
end
/Times-BoldItalic exch definefont pop
/Courier findfont
dup length dict begin
  {1 index /FID ne {def} {pop pop} ifelse} forall
  /Encoding WinAnsiEncoding def
  currentdict
end
/Courier exch definefont pop
/Times-Italic findfont
dup length dict begin
  {1 index /FID ne {def} {pop pop} ifelse} forall
  /Encoding WinAnsiEncoding def
  currentdict
end
/Times-Italic exch definefont pop
/Times-Bold findfont
dup length dict begin
  {1 index /FID ne {def} {pop pop} ifelse} forall
  /Encoding WinAnsiEncoding def
  currentdict
end
/Times-Bold exch definefont pop
%FOPEndFontReencode
%%EndProlog
%%Page: 1 1
%%PageBoundingBox: 0 0 420 315
%%BeginPageSetup
[1 0 0 -1 0 315] CT
%%EndPageSetup
GS
[0.75 0 0 0.75 0 0] CT
1 GC
N
0 0 560 420 re
f
GR
GS
[0.75 0 0 0.75 0 0] CT
1 GC
N
0 0 560 420 re
f
GR
GS
[0.75 0 0 0.75 0 0] CT
1 GC
N
73 374 M
507 374 L
507 31 L
73 31 L
cp
f
GR
GS
[0.75 0 0 0.75 0 0] CT
0.149 GC
2 setlinecap
1 LJ
0.667 LW
N
73 374 M
507 374 L
S
GR
GS
[0.75 0 0 0.75 0 0] CT
0.149 GC
2 setlinecap
1 LJ
0.667 LW
N
73 374 M
73 369.66 L
S
GR
GS
[0.75 0 0 0.75 0 0] CT
0.149 GC
2 setlinecap
1 LJ
0.667 LW
N
116.4 374 M
116.4 369.66 L
S
GR
GS
[0.75 0 0 0.75 0 0] CT
0.149 GC
2 setlinecap
1 LJ
0.667 LW
N
159.8 374 M
159.8 369.66 L
S
GR
GS
[0.75 0 0 0.75 0 0] CT
0.149 GC
2 setlinecap
1 LJ
0.667 LW
N
203.2 374 M
203.2 369.66 L
S
GR
GS
[0.75 0 0 0.75 0 0] CT
0.149 GC
2 setlinecap
1 LJ
0.667 LW
N
246.6 374 M
246.6 369.66 L
S
GR
GS
[0.75 0 0 0.75 0 0] CT
0.149 GC
2 setlinecap
1 LJ
0.667 LW
N
290 374 M
290 369.66 L
S
GR
GS
[0.75 0 0 0.75 0 0] CT
0.149 GC
2 setlinecap
1 LJ
0.667 LW
N
333.4 374 M
333.4 369.66 L
S
GR
GS
[0.75 0 0 0.75 0 0] CT
0.149 GC
2 setlinecap
1 LJ
0.667 LW
N
376.8 374 M
376.8 369.66 L
S
GR
GS
[0.75 0 0 0.75 0 0] CT
0.149 GC
2 setlinecap
1 LJ
0.667 LW
N
420.2 374 M
420.2 369.66 L
S
GR
GS
[0.75 0 0 0.75 0 0] CT
0.149 GC
2 setlinecap
1 LJ
0.667 LW
N
463.6 374 M
463.6 369.66 L
S
GR
GS
[0.75 0 0 0.75 0 0] CT
0.149 GC
2 setlinecap
1 LJ
0.667 LW
N
507 374 M
507 369.66 L
S
GR
GS
[0.75 0 0 0.75 54.75 284.49998] CT
0.149 GC
/Helvetica 13.333 F
GS
[1 0 0 1 0 0] CT
-4 14 moveto 
1 -1 scale
(0) t 
GR
GR
GS
[0.75 0 0 0.75 87.3 284.49998] CT
0.149 GC
/Helvetica 13.333 F
GS
[1 0 0 1 0 0] CT
-9.5 14 moveto 
1 -1 scale
(0.2) t 
GR
GR
GS
[0.75 0 0 0.75 119.85 284.49998] CT
0.149 GC
/Helvetica 13.333 F
GS
[1 0 0 1 0 0] CT
-9.5 14 moveto 
1 -1 scale
(0.4) t 
GR
GR
GS
[0.75 0 0 0.75 152.40001 284.49998] CT
0.149 GC
/Helvetica 13.333 F
GS
[1 0 0 1 0 0] CT
-9.5 14 moveto 
1 -1 scale
(0.6) t 
GR
GR
GS
[0.75 0 0 0.75 184.95 284.49998] CT
0.149 GC
/Helvetica 13.333 F
GS
[1 0 0 1 0 0] CT
-9.5 14 moveto 
1 -1 scale
(0.8) t 
GR
GR
GS
[0.75 0 0 0.75 217.5 284.49998] CT
0.149 GC
/Helvetica 13.333 F
GS
[1 0 0 1 0 0] CT
-4 14 moveto 
1 -1 scale
(1) t 
GR
GR
GS
[0.75 0 0 0.75 250.05002 284.49998] CT
0.149 GC
/Helvetica 13.333 F
GS
[1 0 0 1 0 0] CT
-9.5 14 moveto 
1 -1 scale
(1.2) t 
GR
GR
GS
[0.75 0 0 0.75 282.59999 284.49998] CT
0.149 GC
/Helvetica 13.333 F
GS
[1 0 0 1 0 0] CT
-9.5 14 moveto 
1 -1 scale
(1.4) t 
GR
GR
GS
[0.75 0 0 0.75 315.15001 284.49998] CT
0.149 GC
/Helvetica 13.333 F
GS
[1 0 0 1 0 0] CT
-9.5 14 moveto 
1 -1 scale
(1.6) t 
GR
GR
GS
[0.75 0 0 0.75 347.69998 284.49998] CT
0.149 GC
/Helvetica 13.333 F
GS
[1 0 0 1 0 0] CT
-9.5 14 moveto 
1 -1 scale
(1.8) t 
GR
GR
GS
[0.75 0 0 0.75 380.25 284.49998] CT
0.149 GC
/Helvetica 13.333 F
GS
[1 0 0 1 0 0] CT
-4 14 moveto 
1 -1 scale
(2) t 
GR
GR
GS
[0.75 0 0 0.75 217.50016 298.24995] CT
0.149 GC
/Helvetica 14.667 F
GS
[1 0 0 1 0 0] CT
-29.5 16 moveto 
1 -1 scale
(#Epochs) t 
GR
GR
GS
[0.75 0 0 0.75 0 0] CT
0.149 GC
2 setlinecap
1 LJ
0.667 LW
N
73 374 M
73 31 L
S
GR
GS
[0.75 0 0 0.75 0 0] CT
0.149 GC
2 setlinecap
1 LJ
0.667 LW
N
73 374 M
77.34 374 L
S
GR
GS
[0.75 0 0 0.75 0 0] CT
0.149 GC
2 setlinecap
1 LJ
0.667 LW
N
73 316.833 M
77.34 316.833 L
S
GR
GS
[0.75 0 0 0.75 0 0] CT
0.149 GC
2 setlinecap
1 LJ
0.667 LW
N
73 259.667 M
77.34 259.667 L
S
GR
GS
[0.75 0 0 0.75 0 0] CT
0.149 GC
2 setlinecap
1 LJ
0.667 LW
N
73 202.5 M
77.34 202.5 L
S
GR
GS
[0.75 0 0 0.75 0 0] CT
0.149 GC
2 setlinecap
1 LJ
0.667 LW
N
73 145.333 M
77.34 145.333 L
S
GR
GS
[0.75 0 0 0.75 0 0] CT
0.149 GC
2 setlinecap
1 LJ
0.667 LW
N
73 88.167 M
77.34 88.167 L
S
GR
GS
[0.75 0 0 0.75 0 0] CT
0.149 GC
2 setlinecap
1 LJ
0.667 LW
N
73 31 M
77.34 31 L
S
GR
GS
[0.75 0 0 0.75 50.75 280.49998] CT
0.149 GC
/Helvetica 13.333 F
GS
[1 0 0 1 0 0] CT
-19 5.5 moveto 
1 -1 scale
(0.6) t 
GR
GR
GS
[0.75 0 0 0.75 50.75 237.62503] CT
0.149 GC
/Helvetica 13.333 F
GS
[1 0 0 1 0 0] CT
-26 5.5 moveto 
1 -1 scale
(0.65) t 
GR
GR
GS
[0.75 0 0 0.75 50.75 194.75002] CT
0.149 GC
/Helvetica 13.333 F
GS
[1 0 0 1 0 0] CT
-19 5.5 moveto 
1 -1 scale
(0.7) t 
GR
GR
GS
[0.75 0 0 0.75 50.75 151.875] CT
0.149 GC
/Helvetica 13.333 F
GS
[1 0 0 1 0 0] CT
-26 5.5 moveto 
1 -1 scale
(0.75) t 
GR
GR
GS
[0.75 0 0 0.75 50.75 108.99998] CT
0.149 GC
/Helvetica 13.333 F
GS
[1 0 0 1 0 0] CT
-19 5.5 moveto 
1 -1 scale
(0.8) t 
GR
GR
GS
[0.75 0 0 0.75 50.75 66.12498] CT
0.149 GC
/Helvetica 13.333 F
GS
[1 0 0 1 0 0] CT
-26 5.5 moveto 
1 -1 scale
(0.85) t 
GR
GR
GS
[0.75 0 0 0.75 50.75 23.25002] CT
0.149 GC
/Helvetica 13.333 F
GS
[1 0 0 1 0 0] CT
-19 5.5 moveto 
1 -1 scale
(0.9) t 
GR
GR
GS
[0 -0.75 0.75 0 28.25 151.8749] CT
0.149 GC
/Helvetica 14.667 F
GS
[1 0 0 1 0 0] CT
-58.5 -4 moveto 
1 -1 scale
(f1 score on aidaB) t 
GR
GR
GS
[0.75 0 0 0.75 217.50021 21.18754] CT
/Helvetica-Bold 14.667 F
GS
[1 0 0 1 0 0] CT
-55 -4 moveto 
1 -1 scale
(Annealing Best) t 
GR
GR
GS
[0.75 0 0 0.75 0 0] CT
0 0.447 0.741 RC
1 LJ
0.667 LW
N
73.33 305.374 M
73.661 289.658 L
73.991 280.333 L
74.321 297.202 L
74.651 288.348 L
74.982 286.462 L
75.312 284.157 L
75.642 288.505 L
75.973 267.813 L
76.303 270.275 L
76.633 272.318 L
76.963 274.675 L
77.294 271.323 L
77.624 266.084 L
77.954 266.451 L
78.285 270.17 L
78.615 268.075 L
78.945 271.585 L
79.275 274.675 L
79.606 277.819 L
79.936 273.051 L
80.266 272.475 L
80.597 267.394 L
80.927 270.904 L
81.257 261.631 L
81.588 264.984 L
81.918 263.046 L
82.248 262.679 L
82.578 245.601 L
82.909 254.035 L
83.239 252.987 L
83.569 260.898 L
83.9 265.665 L
84.23 282.009 L
84.56 295.682 L
84.89 301.707 L
85.221 310.089 L
85.551 323.814 L
85.881 333.243 L
86.212 326.381 L
86.542 326.014 L
86.872 321.509 L
87.202 304.955 L
87.533 291.334 L
87.863 278.185 L
88.193 279.495 L
88.524 273.313 L
88.854 270.799 L
89.184 263.779 L
89.514 267.865 L
89.845 261.893 L
90.175 257.021 L
90.505 259.326 L
90.836 264.146 L
91.166 267.603 L
91.496 261.474 L
91.826 262.784 L
92.157 261.526 L
92.487 259.85 L
92.817 246.492 L
93.148 240.834 L
93.478 238.267 L
93.808 239.367 L
94.139 237.481 L
94.469 246.701 L
94.799 247.906 L
95.129 248.22 L
95.46 245.129 L
95.79 246.596 L
96.12 239.419 L
96.451 242.51 L
96.781 239.943 L
97.111 237.743 L
97.441 234.443 L
97.772 239.419 L
98.102 242.72 L
98.432 238.529 L
98.763 242.248 L
99.093 250.735 L
99.423 249.373 L
99.753 243.034 L
100.084 247.644 L
100.414 246.334 L
100.744 237.01 L
101.075 238.529 L
101.405 238.529 L
101.735 243.558 L
102.065 236.905 L
102.396 237.167 L
102.726 229.047 L
103.056 225.799 L
103.387 216.055 L
103.717 217.522 L
104.047 215.636 L
104.377 221.818 L
104.708 219.512 L
105.038 219.827 L
105.368 222.079 L
105.699 221.503 L
106.029 222.079 L
106.359 224.122 L
106.689 218.412 L
107.02 210.083 L
107.35 210.45 L
107.68 201.858 L
108.011 202.12 L
108.341 213.069 L
108.671 215.898 L
109.002 217.679 L
109.332 217.784 L
109.662 221.608 L
109.992 215.479 L
110.323 216.841 L
110.653 210.974 L
110.983 212.44 L
111.314 202.015 L
111.644 197.563 L
111.974 191.067 L
112.304 186.614 L
112.635 184.518 L
112.965 188.133 L
113.295 184.623 L
113.626 192.638 L
113.956 198.872 L
114.286 201.073 L
114.616 199.868 L
114.947 205.997 L
115.277 201.177 L
115.607 198.61 L
115.938 194.262 L
116.268 193.948 L
116.598 189.443 L
116.928 188.971 L
117.259 193.005 L
117.589 197.667 L
117.919 198.139 L
118.25 199.082 L
118.58 198.296 L
118.91 192.062 L
119.24 185.304 L
119.571 184.099 L
119.901 187.609 L
120.231 188.762 L
120.562 188.919 L
120.892 191.643 L
121.222 188.238 L
121.553 181.847 L
121.883 174.722 L
122.213 172.522 L
122.543 171.946 L
122.874 171.788 L
123.204 176.137 L
123.534 179.384 L
123.865 181.847 L
124.195 181.323 L
124.525 181.742 L
124.855 179.594 L
125.186 182.528 L
125.516 180.799 L
125.846 179.175 L
126.177 178.808 L
126.507 177.132 L
126.837 173.412 L
127.167 178.075 L
127.498 177.603 L
127.828 180.38 L
128.158 181.428 L
128.489 183.418 L
128.819 180.904 L
129.149 183.261 L
129.479 180.747 L
129.81 184.728 L
130.14 187.819 L
130.47 185.985 L
130.801 182.056 L
131.131 179.594 L
131.461 172.312 L
131.791 168.017 L
132.122 169.588 L
132.452 173.517 L
132.782 178.389 L
133.113 186.666 L
133.443 189.338 L
133.773 196.253 L
134.104 198.925 L
134.434 195.153 L
134.764 189.128 L
135.094 191.748 L
135.425 182.371 L
135.755 179.437 L
136.085 181.323 L
136.416 189.652 L
136.746 187.138 L
137.076 185.985 L
137.406 185.199 L
137.737 187.138 L
138.067 183.523 L
138.397 181.061 L
138.728 182.475 L
139.058 187.347 L
139.388 188.028 L
139.718 186.981 L
140.049 186.876 L
140.379 188.709 L
140.709 181.218 L
141.04 186.352 L
141.37 188.133 L
141.7 186.404 L
142.03 187.085 L
142.361 188.552 L
142.691 182.213 L
143.021 179.175 L
143.352 181.69 L
143.682 186.352 L
144.012 189.128 L
144.342 186.823 L
144.673 187.452 L
145.003 183.733 L
145.333 177.761 L
145.664 176.713 L
145.994 178.546 L
146.324 177.918 L
146.654 178.599 L
146.985 175.77 L
147.315 176.503 L
147.645 170.269 L
147.976 163.511 L
148.306 167.493 L
148.636 165.188 L
148.967 164.664 L
149.297 172.469 L
149.627 172.731 L
149.957 169.483 L
150.288 175.56 L
150.618 171.422 L
150.948 166.759 L
151.279 169.274 L
151.609 168.121 L
151.939 167.388 L
152.269 171.893 L
152.6 171.684 L
152.93 170.688 L
153.26 172.208 L
153.591 168.121 L
153.921 160.997 L
154.251 156.806 L
154.581 156.073 L
154.912 154.868 L
155.242 158.378 L
155.572 160.84 L
155.903 163.092 L
156.233 163.145 L
156.563 159.74 L
156.893 157.382 L
157.224 156.492 L
157.554 162.883 L
157.884 166.497 L
158.215 173.989 L
158.545 176.346 L
158.875 178.18 L
159.205 175.613 L
159.536 174.827 L
159.866 169.064 L
160.196 165.031 L
160.527 166.864 L
160.857 168.436 L
161.187 169.693 L
161.518 169.274 L
161.848 169.955 L
162.178 171.893 L
162.508 169.641 L
162.839 171.684 L
163.169 174.408 L
163.499 176.556 L
163.83 172.208 L
164.16 173.203 L
164.49 170.636 L
164.82 168.645 L
165.151 168.54 L
165.481 172.731 L
165.811 171.16 L
166.142 168.593 L
166.472 168.802 L
166.802 172.889 L
167.132 169.221 L
167.463 168.802 L
167.793 170.741 L
168.123 170.322 L
168.454 165.24 L
168.784 166.445 L
169.114 168.121 L
169.444 167.44 L
169.775 168.383 L
170.105 171.946 L
170.435 170.793 L
170.766 173.151 L
171.096 174.774 L
171.426 175.875 L
171.756 171.841 L
172.087 170.479 L
172.417 167.807 L
172.747 163.983 L
173.078 164.245 L
173.408 167.021 L
173.738 174.408 L
174.068 182.475 L
174.399 183.366 L
174.729 181.951 L
175.059 185.199 L
175.39 180.589 L
175.72 170.426 L
176.05 171.841 L
176.381 172.26 L
176.711 167.493 L
177.041 165.135 L
177.371 166.183 L
177.702 164.507 L
178.032 166.707 L
178.362 170.06 L
178.693 174.198 L
179.023 174.722 L
179.353 175.508 L
179.683 173.674 L
180.014 170.479 L
180.344 167.231 L
180.674 168.698 L
181.005 172.05 L
181.335 174.827 L
181.665 176.503 L
181.995 177.551 L
182.326 175.665 L
182.656 179.332 L
182.986 177.551 L
183.317 174.408 L
183.647 176.241 L
183.977 177.813 L
184.307 172.05 L
184.638 175.141 L
184.968 175.613 L
185.298 178.389 L
185.629 182.318 L
185.959 184.833 L
186.289 182.737 L
186.619 183.261 L
186.95 179.384 L
187.28 171.055 L
187.61 170.374 L
187.941 169.85 L
188.271 171.998 L
188.601 167.178 L
188.932 170.636 L
189.262 166.707 L
189.592 165.031 L
189.922 163.511 L
190.253 168.855 L
190.583 169.326 L
190.913 176.137 L
191.244 174.565 L
191.574 175.036 L
191.904 176.189 L
192.234 179.646 L
192.565 175.822 L
192.895 181.69 L
193.225 180.799 L
193.556 180.537 L
193.886 178.546 L
194.216 173.465 L
194.546 169.588 L
194.877 168.75 L
195.207 163.616 L
195.537 163.721 L
195.868 171.474 L
196.198 173.412 L
196.528 179.175 L
196.858 184.361 L
197.189 183.418 L
197.519 178.18 L
197.849 180.327 L
198.18 187.4 L
198.51 182.58 L
198.84 178.284 L
199.17 177.184 L
199.501 169.745 L
199.831 157.277 L
200.161 166.288 L
200.492 166.759 L
200.822 170.479 L
201.152 170.217 L
201.482 167.912 L
201.813 162.097 L
202.143 163.669 L
202.473 162.202 L
202.804 166.812 L
203.134 166.131 L
203.464 164.402 L
203.795 166.34 L
204.125 167.859 L
204.455 167.65 L
204.785 174.67 L
205.116 172.941 L
205.446 172.889 L
205.776 172.05 L
206.107 173.989 L
206.437 172.417 L
206.767 175.246 L
207.097 175.089 L
207.428 180.432 L
207.758 173.412 L
208.088 164.612 L
208.419 160.787 L
208.749 156.177 L
209.079 146.538 L
209.409 148.372 L
209.74 150.834 L
210.07 152.72 L
210.4 151.253 L
210.731 149.262 L
211.061 147.848 L
211.391 148.634 L
211.721 146.433 L
212.052 153.715 L
212.382 155.811 L
212.712 154.082 L
213.043 157.801 L
213.373 158.482 L
213.703 154.606 L
214.033 160.263 L
214.364 164.035 L
214.694 159.216 L
215.024 157.12 L
215.355 156.125 L
215.685 154.187 L
216.015 163.04 L
216.346 166.917 L
216.676 172.993 L
217.006 177.603 L
217.336 176.451 L
217.667 164.769 L
217.997 160.263 L
218.327 157.068 L
218.658 151.777 L
218.988 152.982 L
219.318 154.082 L
219.648 155.653 L
219.979 153.872 L
220.309 152.301 L
220.639 149.943 L
220.97 149.943 L
221.3 150.258 L
221.63 152.877 L
221.96 153.872 L
222.291 156.02 L
222.621 157.016 L
222.951 159.059 L
223.282 164.664 L
223.612 172.784 L
223.942 173.884 L
224.272 175.403 L
224.603 178.494 L
224.933 173.255 L
225.263 171.474 L
225.594 172.941 L
225.924 172.889 L
226.254 168.907 L
226.584 166.131 L
226.915 164.192 L
227.245 163.826 L
227.575 169.274 L
227.906 175.036 L
228.236 175.927 L
228.566 176.294 L
228.896 178.546 L
229.227 173.884 L
229.557 171.841 L
229.887 175.822 L
230.218 178.756 L
230.548 171.579 L
230.878 170.269 L
231.209 171.631 L
231.539 169.379 L
231.869 164.245 L
232.199 164.454 L
232.53 162.83 L
232.86 155.077 L
233.19 153.558 L
233.521 155.811 L
233.851 161.049 L
234.181 162.935 L
234.511 165.921 L
234.842 166.236 L
235.172 164.873 L
235.502 167.231 L
235.833 173.936 L
236.163 180.275 L
236.493 184.099 L
236.823 184.833 L
237.154 178.18 L
237.484 170.741 L
237.814 164.035 L
238.145 162.568 L
238.475 162.411 L
238.805 163.249 L
239.135 165.764 L
239.466 168.645 L
239.796 169.379 L
240.126 167.074 L
240.457 168.069 L
240.787 172.784 L
241.117 168.488 L
241.447 163.93 L
241.778 167.021 L
242.108 167.598 L
242.438 164.978 L
242.769 168.645 L
243.099 172.522 L
243.429 173.465 L
243.76 174.198 L
244.09 172.103 L
244.42 168.436 L
244.75 163.354 L
245.081 157.12 L
245.411 155.968 L
245.741 154.187 L
246.072 156.439 L
246.402 163.669 L
246.732 168.645 L
247.062 166.131 L
247.393 165.293 L
247.723 166.183 L
248.053 160.054 L
248.384 156.754 L
248.714 160.473 L
249.044 161.364 L
249.374 161.521 L
249.705 165.397 L
250.035 170.007 L
250.365 174.093 L
250.696 176.713 L
251.026 177.499 L
251.356 175.77 L
251.686 173.151 L
252.017 167.336 L
252.347 166.131 L
252.677 167.912 L
253.008 166.969 L
253.338 169.903 L
253.668 171.893 L
253.998 173.098 L
254.329 176.975 L
254.659 185.304 L
254.989 188.657 L
255.32 182.056 L
255.65 179.699 L
255.98 173.622 L
256.311 167.964 L
256.641 162.935 L
256.971 168.75 L
257.301 168.75 L
257.632 166.969 L
257.962 170.322 L
258.292 168.226 L
258.623 165.816 L
258.953 165.974 L
259.283 171.841 L
259.613 162.883 L
259.944 163.407 L
260.274 164.821 L
260.604 164.35 L
260.935 157.068 L
261.265 160.787 L
261.595 157.958 L
261.925 157.435 L
262.256 160.683 L
262.586 159.949 L
262.916 158.901 L
263.247 157.277 L
263.577 154.972 L
263.907 151.201 L
264.237 155.706 L
264.568 158.43 L
264.898 164.559 L
265.228 162.359 L
265.559 162.359 L
265.889 163.878 L
266.219 162.778 L
266.549 162.935 L
266.88 169.064 L
267.21 170.374 L
267.54 170.636 L
267.871 174.617 L
268.201 174.251 L
268.531 175.246 L
268.861 178.127 L
269.192 173.151 L
269.522 165.607 L
269.852 161.626 L
270.183 167.493 L
270.513 163.564 L
270.843 161.626 L
271.174 164.978 L
271.504 165.816 L
271.834 156.125 L
272.164 159.897 L
272.495 164.612 L
272.825 165.712 L
273.155 167.126 L
273.486 167.545 L
273.816 164.978 L
274.146 163.878 L
274.476 163.983 L
274.807 163.721 L
275.137 165.764 L
275.467 166.812 L
275.798 160.578 L
276.128 161.73 L
276.458 160.683 L
276.788 157.487 L
277.119 152.353 L
277.449 156.334 L
277.779 151.672 L
278.11 150.886 L
278.44 151.096 L
278.77 152.563 L
279.1 147.848 L
279.431 146.957 L
279.761 146.538 L
280.091 146.748 L
280.422 147.219 L
280.752 154.92 L
281.082 153.139 L
281.412 156.806 L
281.743 159.792 L
282.073 161.521 L
282.403 161.835 L
282.734 166.34 L
283.064 163.773 L
283.394 163.773 L
283.725 162.411 L
284.055 158.797 L
284.385 156.492 L
284.715 159.635 L
285.046 155.706 L
285.376 153.034 L
285.706 154.815 L
286.037 158.849 L
286.367 157.277 L
286.697 159.006 L
287.027 164.664 L
287.358 164.978 L
287.688 170.06 L
288.018 172.469 L
288.349 176.241 L
288.679 174.932 L
289.009 179.123 L
289.339 177.813 L
289.67 172.993 L
290 168.802 L
290.33 167.021 L
290.661 157.277 L
290.991 150.834 L
291.321 152.144 L
291.651 150.31 L
291.982 147.481 L
292.312 149.734 L
292.642 146.381 L
292.973 143.605 L
293.303 141.352 L
293.633 141.457 L
293.963 147.586 L
294.294 155.025 L
294.624 159.635 L
294.954 165.031 L
295.285 171.422 L
295.615 167.388 L
295.945 162.149 L
296.275 158.639 L
296.606 153.244 L
296.936 148.005 L
297.266 147.481 L
297.597 147.115 L
297.927 147.01 L
298.257 148.372 L
298.588 147.429 L
298.918 144.495 L
299.248 143.552 L
299.578 143.028 L
299.909 144.6 L
300.239 147.586 L
300.569 149.524 L
300.9 149.681 L
301.23 153.034 L
301.56 152.406 L
301.89 152.615 L
302.221 155.182 L
302.551 159.478 L
302.881 158.901 L
303.212 160.421 L
303.542 159.216 L
303.872 159.478 L
304.202 159.582 L
304.533 159.216 L
304.863 156.649 L
305.193 155.077 L
305.524 150.31 L
305.854 146.014 L
306.184 143.133 L
306.514 143.186 L
306.845 140.776 L
307.175 140.095 L
307.505 139.414 L
307.836 139.885 L
308.166 139.518 L
308.496 140.566 L
308.826 141.823 L
309.157 141.666 L
309.487 140.304 L
309.817 138.942 L
310.148 137.528 L
310.478 136.218 L
310.808 135.275 L
311.139 134.489 L
311.469 135.275 L
311.799 136.585 L
312.129 137.842 L
312.46 138.785 L
312.79 139.466 L
313.12 138.785 L
313.451 137.894 L
313.781 136.428 L
314.111 135.747 L
314.441 135.118 L
314.772 134.489 L
315.102 133.965 L
315.432 133.651 L
315.763 133.232 L
316.093 133.127 L
316.423 133.18 L
316.753 132.865 L
317.084 132.603 L
317.414 132.184 L
317.744 131.66 L
318.075 131.032 L
318.405 130.979 L
318.735 130.298 L
319.065 129.775 L
319.396 129.408 L
319.726 129.146 L
320.056 128.727 L
320.387 129.094 L
320.717 129.565 L
321.047 130.089 L
321.377 130.613 L
321.708 130.979 L
322.038 131.084 L
322.368 130.927 L
322.699 130.298 L
323.029 129.67 L
323.359 128.989 L
323.689 128.413 L
324.02 127.836 L
324.35 127.627 L
324.68 127.522 L
325.011 127.417 L
325.341 127.26 L
325.671 127.208 L
326.002 126.946 L
326.332 126.684 L
326.662 126.631 L
326.992 126.684 L
327.323 126.736 L
327.653 126.841 L
327.983 126.911 L
328.314 126.474 L
S
GR
GS
[0.75 0 0 0.75 0 0] CT
0.851 0.325 0.098 RC
1 LJ
0.667 LW
N
73.33 305.374 M
73.661 289.658 L
73.991 280.333 L
74.321 297.202 L
74.651 288.348 L
74.982 286.462 L
75.312 284.157 L
75.642 288.505 L
75.973 267.813 L
76.303 270.275 L
76.633 272.318 L
76.963 274.675 L
77.294 271.323 L
77.624 266.084 L
77.954 266.451 L
78.285 270.17 L
78.615 268.075 L
78.945 271.585 L
79.275 274.675 L
79.606 277.819 L
79.936 273.051 L
80.266 272.475 L
80.597 267.394 L
80.927 270.904 L
81.257 261.631 L
81.588 264.984 L
81.918 263.046 L
82.248 262.679 L
82.578 245.601 L
82.909 254.035 L
83.239 252.987 L
83.569 260.898 L
83.9 265.665 L
84.23 282.009 L
84.56 295.682 L
84.89 301.707 L
85.221 310.089 L
85.551 323.814 L
85.881 333.243 L
86.212 326.381 L
86.542 326.014 L
86.872 321.509 L
87.202 304.955 L
87.533 291.334 L
87.863 278.185 L
88.193 279.495 L
88.524 273.313 L
88.854 270.799 L
89.184 263.779 L
89.514 267.865 L
89.845 261.893 L
90.175 257.021 L
90.505 259.326 L
90.836 264.146 L
91.166 267.603 L
91.496 261.474 L
91.826 262.784 L
92.157 261.526 L
92.487 259.85 L
92.817 246.492 L
93.148 240.834 L
93.478 238.267 L
93.808 239.367 L
94.139 237.481 L
94.469 246.701 L
94.799 247.906 L
95.129 248.22 L
95.46 245.129 L
95.79 246.596 L
96.12 239.419 L
96.451 242.51 L
96.781 239.943 L
97.111 237.743 L
97.441 234.443 L
97.772 239.419 L
98.102 242.72 L
98.432 238.529 L
98.763 242.248 L
99.093 250.735 L
99.423 249.373 L
99.753 243.034 L
100.084 247.644 L
100.414 246.334 L
100.744 237.01 L
101.075 238.529 L
101.405 238.529 L
101.735 243.558 L
102.065 236.905 L
102.396 237.167 L
102.726 229.047 L
103.056 225.799 L
103.387 216.055 L
103.717 217.522 L
104.047 215.636 L
104.377 221.818 L
104.708 219.512 L
105.038 219.827 L
105.368 222.079 L
105.699 221.503 L
106.029 222.079 L
106.359 224.122 L
106.689 218.412 L
107.02 210.083 L
107.35 210.45 L
107.68 201.858 L
108.011 202.12 L
108.341 213.069 L
108.671 215.898 L
109.002 217.679 L
109.332 217.784 L
109.662 221.608 L
109.992 215.479 L
110.323 216.841 L
110.653 210.974 L
110.983 212.44 L
111.314 202.015 L
111.644 197.563 L
111.974 191.067 L
112.304 186.614 L
112.635 184.518 L
112.965 188.133 L
113.295 184.623 L
113.626 192.638 L
113.956 198.872 L
114.286 201.073 L
114.616 199.868 L
114.947 205.997 L
115.277 201.177 L
115.607 198.61 L
115.938 194.262 L
116.268 193.948 L
116.598 189.443 L
116.928 188.971 L
117.259 193.005 L
117.589 197.667 L
117.919 198.139 L
118.25 199.082 L
118.58 198.296 L
118.91 192.062 L
119.24 185.304 L
119.571 184.099 L
119.901 187.609 L
120.231 188.762 L
120.562 188.919 L
120.892 191.643 L
121.222 188.238 L
121.553 181.847 L
121.883 174.722 L
122.213 172.522 L
122.543 171.946 L
122.874 171.788 L
123.204 176.137 L
123.534 179.384 L
123.865 181.847 L
124.195 181.323 L
124.525 181.742 L
124.855 179.594 L
125.186 182.528 L
125.516 180.799 L
125.846 179.175 L
126.177 178.808 L
126.507 177.132 L
126.837 173.412 L
127.167 178.075 L
127.498 177.603 L
127.828 180.38 L
128.158 181.428 L
128.489 183.418 L
128.819 180.904 L
129.149 183.261 L
129.479 180.747 L
129.81 184.728 L
130.14 187.819 L
130.47 185.985 L
130.801 182.056 L
131.131 179.594 L
131.461 172.312 L
131.791 168.017 L
132.122 169.588 L
132.452 173.517 L
132.782 178.389 L
133.113 186.666 L
133.443 189.338 L
133.773 196.253 L
134.104 198.925 L
134.434 195.153 L
134.764 189.128 L
135.094 191.748 L
135.425 182.371 L
135.755 179.437 L
136.085 181.323 L
136.416 189.652 L
136.746 187.138 L
137.076 185.985 L
137.406 185.199 L
137.737 187.138 L
138.067 183.523 L
138.397 181.061 L
138.728 182.475 L
139.058 187.347 L
139.388 188.028 L
139.718 186.981 L
140.049 186.876 L
140.379 188.709 L
140.709 181.218 L
141.04 186.352 L
141.37 188.133 L
141.7 186.404 L
142.03 187.085 L
142.361 188.552 L
142.691 182.213 L
143.021 179.175 L
143.352 181.69 L
143.682 186.352 L
144.012 189.128 L
144.342 186.823 L
144.673 187.452 L
145.003 183.733 L
145.333 177.761 L
145.664 176.713 L
145.994 178.546 L
146.324 177.918 L
146.654 178.599 L
146.985 175.77 L
147.315 176.503 L
147.645 170.269 L
147.976 163.511 L
148.306 167.493 L
148.636 165.188 L
148.967 164.664 L
149.297 172.469 L
149.627 172.731 L
149.957 169.483 L
150.288 175.56 L
150.618 171.422 L
150.948 166.759 L
151.279 169.274 L
151.609 168.121 L
151.939 167.388 L
152.269 171.893 L
152.6 171.684 L
152.93 170.688 L
153.26 172.208 L
153.591 168.121 L
153.921 160.997 L
154.251 156.806 L
154.581 156.073 L
154.912 154.868 L
155.242 158.378 L
155.572 160.84 L
155.903 163.092 L
156.233 163.145 L
156.563 159.74 L
156.893 157.382 L
157.224 156.492 L
157.554 162.883 L
157.884 166.497 L
158.215 173.989 L
158.545 176.346 L
158.875 178.18 L
159.205 175.613 L
159.536 174.827 L
159.866 169.064 L
160.196 165.031 L
160.527 166.864 L
160.857 168.436 L
161.187 169.693 L
161.518 169.274 L
161.848 169.955 L
162.178 171.893 L
162.508 169.641 L
162.839 171.684 L
163.169 174.408 L
163.499 176.556 L
163.83 172.208 L
164.16 173.203 L
164.49 170.636 L
164.82 168.645 L
165.151 168.54 L
165.481 172.731 L
165.811 171.16 L
166.142 168.593 L
166.472 168.802 L
166.802 172.889 L
167.132 169.221 L
167.463 168.802 L
167.793 170.741 L
168.123 170.322 L
168.454 165.24 L
168.784 166.445 L
169.114 168.121 L
169.444 167.44 L
169.775 168.383 L
170.105 171.946 L
170.435 170.793 L
170.766 173.151 L
171.096 174.774 L
171.426 175.875 L
171.756 171.841 L
172.087 170.479 L
172.417 167.807 L
172.747 163.983 L
173.078 164.245 L
173.408 167.021 L
173.738 174.408 L
174.068 182.475 L
174.399 183.366 L
174.729 181.951 L
175.059 185.199 L
175.39 180.589 L
175.72 170.426 L
176.05 171.841 L
176.381 172.26 L
176.711 167.493 L
177.041 165.135 L
177.371 166.183 L
177.702 164.507 L
178.032 166.707 L
178.362 170.06 L
178.693 174.198 L
179.023 174.722 L
179.353 175.508 L
179.683 173.674 L
180.014 170.479 L
180.344 167.231 L
180.674 168.698 L
181.005 172.05 L
181.335 174.827 L
181.665 176.503 L
181.995 177.551 L
182.326 175.665 L
182.656 179.332 L
182.986 177.551 L
183.317 174.408 L
183.647 176.241 L
183.977 177.813 L
184.307 172.05 L
184.638 175.141 L
184.968 175.613 L
185.298 178.389 L
185.629 182.318 L
185.959 184.833 L
186.289 182.737 L
186.619 183.261 L
186.95 179.384 L
187.28 171.055 L
187.61 170.374 L
187.941 169.85 L
188.271 171.998 L
188.601 167.178 L
188.932 170.636 L
189.262 166.707 L
189.592 165.031 L
189.922 163.511 L
190.253 168.855 L
190.583 169.326 L
190.913 176.137 L
191.244 174.565 L
191.574 175.036 L
191.904 176.189 L
192.234 179.646 L
192.565 175.822 L
192.895 181.69 L
193.225 180.799 L
193.556 180.537 L
193.886 178.546 L
194.216 173.465 L
194.546 169.588 L
194.877 168.75 L
195.207 163.616 L
195.537 163.721 L
195.868 171.474 L
196.198 173.412 L
196.528 179.175 L
196.858 184.361 L
197.189 183.418 L
197.519 178.18 L
197.849 180.327 L
198.18 187.4 L
198.51 182.58 L
198.84 178.284 L
199.17 177.184 L
199.501 169.745 L
199.831 157.277 L
200.161 166.288 L
200.492 166.759 L
200.822 170.479 L
201.152 170.217 L
201.482 167.912 L
201.813 162.097 L
202.143 163.669 L
202.473 162.202 L
202.804 166.812 L
203.134 166.131 L
203.464 164.402 L
203.795 166.34 L
204.125 167.859 L
204.455 167.65 L
204.785 174.67 L
205.116 172.941 L
205.446 172.889 L
205.776 172.05 L
206.107 173.989 L
206.437 172.417 L
206.767 175.246 L
207.097 175.089 L
207.428 180.432 L
207.758 173.412 L
208.088 164.612 L
208.419 160.787 L
208.749 156.177 L
209.079 146.538 L
209.409 148.372 L
209.74 150.834 L
210.07 152.72 L
210.4 151.253 L
210.731 149.262 L
211.061 147.848 L
211.391 148.634 L
211.721 146.433 L
212.052 153.715 L
212.382 155.811 L
212.712 154.082 L
213.043 157.801 L
213.373 158.482 L
213.703 154.606 L
214.033 160.263 L
214.364 164.035 L
214.694 159.216 L
215.024 157.12 L
215.355 156.125 L
215.685 154.187 L
216.015 163.04 L
216.346 166.917 L
216.676 172.993 L
217.006 177.603 L
217.336 176.451 L
217.667 164.769 L
217.997 160.263 L
218.327 157.068 L
218.658 151.777 L
218.988 152.982 L
219.318 154.082 L
219.648 155.653 L
219.979 153.872 L
220.309 152.301 L
220.639 149.943 L
220.97 149.943 L
221.3 150.258 L
221.63 152.877 L
221.96 153.872 L
222.291 156.02 L
222.621 157.016 L
222.951 159.059 L
223.282 164.664 L
223.612 172.784 L
223.942 173.884 L
224.272 175.403 L
224.603 178.494 L
224.933 173.255 L
225.263 171.474 L
225.594 172.941 L
225.924 172.889 L
226.254 168.907 L
226.584 166.131 L
226.915 164.192 L
227.245 163.826 L
227.575 169.274 L
227.906 175.036 L
228.236 175.927 L
228.566 176.294 L
228.896 178.546 L
229.227 173.884 L
229.557 171.841 L
229.887 175.822 L
230.218 178.756 L
230.548 171.579 L
230.878 170.269 L
231.209 171.631 L
231.539 169.379 L
231.869 164.245 L
232.199 164.454 L
232.53 162.83 L
232.86 155.077 L
233.19 153.558 L
233.521 155.811 L
233.851 161.049 L
234.181 162.935 L
234.511 165.921 L
234.842 166.236 L
235.172 164.873 L
235.502 167.231 L
235.833 173.936 L
236.163 180.275 L
236.493 184.099 L
236.823 184.833 L
237.154 178.18 L
237.484 170.741 L
237.814 164.035 L
238.145 162.568 L
238.475 162.411 L
238.805 163.249 L
239.135 165.764 L
239.466 168.645 L
239.796 169.379 L
240.126 167.074 L
240.457 168.069 L
240.787 172.784 L
241.117 168.488 L
241.447 163.93 L
241.778 167.021 L
242.108 167.598 L
242.438 164.978 L
242.769 168.645 L
243.099 172.522 L
243.429 173.465 L
243.76 174.198 L
244.09 172.103 L
244.42 168.436 L
244.75 163.354 L
245.081 157.12 L
245.411 155.968 L
245.741 154.187 L
246.072 156.439 L
246.402 163.669 L
246.732 168.645 L
247.062 166.131 L
247.393 165.293 L
247.723 166.183 L
248.053 160.054 L
248.384 156.754 L
248.714 160.473 L
249.044 161.364 L
249.374 161.521 L
249.705 165.397 L
250.035 170.007 L
250.365 174.093 L
250.696 176.713 L
251.026 177.499 L
251.356 175.77 L
251.686 173.151 L
252.017 167.336 L
252.347 166.131 L
252.677 167.912 L
253.008 166.969 L
253.338 169.903 L
253.668 171.893 L
253.998 173.098 L
254.329 176.975 L
254.659 185.304 L
254.989 188.657 L
255.32 182.056 L
255.65 179.699 L
255.98 173.622 L
256.311 167.964 L
256.641 162.935 L
256.971 168.75 L
257.301 168.75 L
257.632 166.969 L
257.962 170.322 L
258.292 168.226 L
258.623 165.816 L
258.953 165.974 L
259.283 171.841 L
259.613 162.883 L
259.944 163.407 L
260.274 164.821 L
260.604 164.35 L
260.935 157.068 L
261.265 160.787 L
261.595 157.958 L
261.925 157.435 L
262.256 160.683 L
262.586 159.949 L
262.916 158.901 L
263.247 157.277 L
263.577 154.972 L
263.907 151.201 L
264.237 155.706 L
264.568 158.43 L
264.898 164.559 L
265.228 162.359 L
265.559 162.359 L
265.889 163.878 L
266.219 162.778 L
266.549 162.935 L
266.88 169.064 L
267.21 170.374 L
267.54 170.636 L
267.871 174.617 L
268.201 174.251 L
268.531 175.246 L
268.861 178.127 L
269.192 173.151 L
269.522 165.607 L
269.852 161.626 L
270.183 167.493 L
270.513 163.564 L
270.843 161.626 L
271.174 164.978 L
271.504 165.816 L
271.834 156.125 L
272.164 159.897 L
272.495 164.612 L
272.825 165.712 L
273.155 167.126 L
273.486 167.545 L
273.816 164.978 L
274.146 163.878 L
274.476 163.983 L
274.807 163.721 L
275.137 165.764 L
275.467 166.812 L
275.798 160.578 L
276.128 161.73 L
276.458 160.683 L
276.788 157.487 L
277.119 152.353 L
277.449 156.334 L
277.779 151.672 L
278.11 150.886 L
278.44 151.096 L
278.77 152.563 L
279.1 147.848 L
279.431 146.957 L
279.761 146.538 L
280.091 146.748 L
280.422 147.219 L
280.752 154.92 L
281.082 153.139 L
281.412 156.806 L
281.743 159.792 L
282.073 161.521 L
282.403 161.835 L
282.734 166.34 L
283.064 163.773 L
283.394 163.773 L
283.725 162.411 L
284.055 158.797 L
284.385 156.492 L
284.715 159.635 L
285.046 155.706 L
285.376 153.034 L
285.706 154.815 L
286.037 158.849 L
286.367 157.277 L
286.697 159.006 L
287.027 164.664 L
287.358 164.978 L
287.688 170.06 L
288.018 172.469 L
288.349 176.241 L
288.679 174.932 L
289.009 179.123 L
289.339 177.813 L
289.67 172.312 L
290 164.192 L
290.33 159.635 L
290.661 153.768 L
290.991 147.429 L
291.321 150.939 L
291.651 156.282 L
291.982 154.815 L
292.312 158.744 L
292.642 164.14 L
292.973 164.559 L
293.303 165.031 L
293.633 166.707 L
293.963 168.96 L
294.294 169.955 L
294.624 170.846 L
294.954 171.16 L
295.285 180.642 L
295.615 175.56 L
295.945 170.793 L
296.275 168.331 L
296.606 168.75 L
296.936 168.331 L
297.266 170.688 L
297.597 173.046 L
297.927 177.341 L
298.257 176.922 L
298.588 169.903 L
298.918 168.855 L
299.248 168.593 L
299.578 164.873 L
299.909 165.502 L
300.239 167.178 L
300.569 168.54 L
300.9 167.859 L
301.23 177.708 L
301.56 182.056 L
301.89 192.9 L
302.221 204.373 L
302.551 214.169 L
302.881 209.926 L
303.212 213.96 L
303.542 214.379 L
303.872 217.155 L
304.202 218.098 L
304.533 220.246 L
304.863 211.759 L
305.193 204.058 L
305.524 188.552 L
305.854 181.166 L
306.184 175.298 L
306.514 180.485 L
306.845 182.528 L
307.175 184.833 L
307.505 184.204 L
307.836 190.7 L
308.166 193.634 L
308.496 196.777 L
308.826 197.667 L
309.157 197.877 L
309.487 194.053 L
309.817 188.29 L
310.148 181.637 L
310.478 178.808 L
310.808 175.979 L
311.139 173.622 L
311.469 172.836 L
311.799 172.941 L
312.129 169.588 L
312.46 167.283 L
312.79 163.983 L
313.12 157.854 L
313.451 154.972 L
313.781 163.249 L
314.111 164.14 L
314.441 164.612 L
314.772 171.003 L
315.102 174.303 L
315.432 168.907 L
315.763 169.274 L
316.093 174.617 L
316.423 169.536 L
316.753 169.379 L
317.084 169.326 L
317.414 169.903 L
317.744 166.183 L
318.075 167.126 L
318.405 163.564 L
318.735 163.407 L
319.065 162.935 L
319.396 164.035 L
319.726 166.707 L
320.056 168.436 L
320.387 171.317 L
320.717 172.836 L
321.047 169.117 L
321.377 167.231 L
321.708 168.383 L
322.038 165.24 L
322.368 161.259 L
322.699 164.297 L
323.029 162.307 L
323.359 161.573 L
323.689 164.14 L
324.02 168.54 L
324.35 166.131 L
324.68 166.707 L
325.011 166.602 L
325.341 162.778 L
325.671 163.564 L
326.002 167.912 L
326.332 164.769 L
326.662 163.092 L
326.992 165.083 L
327.323 158.744 L
327.653 153.034 L
327.983 151.096 L
328.314 147.953 L
328.644 145.857 L
328.974 146.381 L
329.304 144.338 L
329.635 146.748 L
329.965 145.543 L
330.295 143.186 L
330.626 142.924 L
330.956 142.19 L
331.286 142.452 L
331.616 143.081 L
331.947 142.138 L
332.277 143.762 L
332.607 146.853 L
332.938 148.477 L
333.268 151.986 L
333.598 152.144 L
333.928 150.886 L
334.259 148.215 L
334.589 150.153 L
334.919 152.563 L
335.25 155.392 L
335.58 154.344 L
335.91 151.986 L
336.24 146.381 L
336.571 138.314 L
336.901 132.761 L
337.231 131.503 L
337.562 135.956 L
337.892 138.576 L
338.222 138.366 L
338.553 140.357 L
338.883 139.99 L
339.213 137.894 L
339.543 136.428 L
339.874 140.461 L
340.204 140.514 L
340.534 139.728 L
340.865 143.605 L
341.195 147.272 L
341.525 148.477 L
341.855 150.205 L
342.186 153.034 L
342.516 147.848 L
342.846 141.142 L
343.177 134.908 L
343.507 131.399 L
343.837 130.456 L
344.167 135.013 L
344.498 140.304 L
344.828 145.91 L
345.158 150.939 L
345.489 152.248 L
345.819 152.72 L
346.149 153.977 L
346.479 154.868 L
346.81 157.487 L
347.14 158.011 L
347.47 159.006 L
347.801 158.273 L
348.131 157.016 L
348.461 152.929 L
348.791 152.091 L
349.122 150.991 L
349.452 152.877 L
349.782 152.563 L
350.113 152.982 L
350.443 152.982 L
350.773 152.982 L
351.104 152.091 L
351.434 152.772 L
351.764 153.61 L
352.094 155.392 L
352.425 156.439 L
352.755 156.492 L
353.085 159.216 L
353.416 161.94 L
353.746 161.626 L
354.076 161.678 L
354.406 161.102 L
354.737 158.535 L
355.067 156.177 L
355.397 154.553 L
355.728 149.577 L
356.058 147.062 L
356.388 144.6 L
356.718 141.142 L
357.049 139.885 L
357.379 140.933 L
357.709 142.138 L
358.04 143.395 L
358.37 144.181 L
358.7 145.543 L
359.03 147.167 L
359.361 146.695 L
359.691 143.605 L
360.021 146.119 L
360.352 149.839 L
360.682 149.629 L
361.012 150.991 L
361.342 153.61 L
361.673 150.467 L
362.003 144.233 L
362.333 144.495 L
362.664 144.809 L
362.994 142.924 L
363.324 140.566 L
363.654 140.514 L
363.985 137.737 L
364.315 134.332 L
364.645 135.799 L
364.976 138.523 L
365.306 143.238 L
365.636 141.719 L
365.967 146.276 L
366.297 148.424 L
366.627 151.567 L
366.957 145.595 L
367.288 148.424 L
367.618 145.595 L
367.948 144.862 L
368.279 144.128 L
368.609 145.386 L
368.939 144.809 L
369.269 146.695 L
369.6 148.896 L
369.93 148.372 L
370.26 150.31 L
370.591 151.62 L
370.921 147.534 L
371.251 144.39 L
371.581 142.138 L
371.912 143.29 L
372.242 144.705 L
372.572 145.386 L
372.903 144.914 L
373.233 146.119 L
373.563 144.39 L
373.893 142.033 L
374.224 143.29 L
374.554 144.862 L
374.884 143.133 L
375.215 142.714 L
375.545 141.562 L
375.875 139.78 L
376.205 136.637 L
376.536 139.728 L
376.866 139.938 L
377.196 137.58 L
377.527 137.947 L
377.857 139.833 L
378.187 140.461 L
378.518 142.347 L
378.848 146.329 L
379.178 149.158 L
379.508 149.681 L
379.839 147.324 L
380.169 148.319 L
380.499 148.11 L
380.83 146.014 L
381.16 149.262 L
381.49 150.258 L
381.82 148.005 L
382.151 148.948 L
382.481 146.329 L
382.811 142.347 L
383.142 139.047 L
383.472 137.056 L
383.802 137.58 L
384.132 138.68 L
384.463 138.576 L
384.793 140.304 L
385.123 143.657 L
385.454 143.552 L
385.784 144.705 L
386.114 145.805 L
386.444 147.429 L
386.775 147.324 L
387.105 147.9 L
387.435 149.419 L
387.766 150.1 L
388.096 149.419 L
388.426 150.415 L
388.756 153.506 L
389.087 155.077 L
389.417 153.715 L
389.747 156.492 L
390.078 155.811 L
390.408 150.31 L
390.738 148.215 L
391.068 148.843 L
391.399 146.853 L
391.729 145.91 L
392.059 146.433 L
392.39 144.39 L
392.72 142.033 L
393.05 142.033 L
393.381 142.924 L
393.711 145.49 L
394.041 146.853 L
394.371 148.372 L
394.702 146.119 L
395.032 141.666 L
395.362 140.095 L
395.693 137.894 L
396.023 136.009 L
396.353 137.737 L
396.683 140.776 L
397.014 138.628 L
397.344 140.252 L
397.674 140.828 L
398.005 140.933 L
398.335 140.252 L
398.665 140.304 L
398.995 139.938 L
399.326 140.88 L
399.656 139.99 L
399.986 139.623 L
400.317 141.509 L
400.647 138.785 L
400.977 139.204 L
401.307 135.328 L
401.638 133.389 L
401.968 132.97 L
402.298 137.947 L
402.629 136.532 L
402.959 138.418 L
403.289 138.785 L
403.619 138.628 L
403.95 137.213 L
404.28 136.69 L
404.61 138.052 L
404.941 138.995 L
405.271 139.099 L
405.601 141.195 L
405.932 143.971 L
406.262 149.053 L
406.592 152.458 L
406.922 152.353 L
407.253 151.934 L
407.583 150.31 L
407.913 147.638 L
408.244 145.386 L
408.574 146.957 L
408.904 143.919 L
409.234 145.281 L
409.565 142.924 L
409.895 145.595 L
410.225 147.691 L
410.556 149.053 L
410.886 148.686 L
411.216 146.224 L
411.546 141.876 L
411.877 138.366 L
412.207 139.571 L
412.537 141.247 L
412.868 148.11 L
413.198 151.62 L
413.528 152.406 L
413.858 151.882 L
414.189 149 L
414.519 143.395 L
414.849 142.924 L
415.18 146.276 L
415.51 145.386 L
415.84 146.381 L
416.17 149.629 L
416.501 148.948 L
416.831 145.857 L
417.161 144.548 L
417.492 141.404 L
417.822 140.88 L
418.152 143.867 L
418.482 144.233 L
418.813 146.695 L
419.143 149.158 L
419.473 149.891 L
419.804 149.891 L
420.134 150.153 L
420.464 150.048 L
420.795 152.772 L
421.125 153.087 L
421.455 150.1 L
421.785 148.267 L
422.116 149.21 L
422.446 147.691 L
422.776 149.524 L
423.107 150.782 L
423.437 154.658 L
423.767 156.073 L
424.097 157.697 L
424.428 157.173 L
424.758 155.915 L
425.088 155.025 L
425.419 152.929 L
425.749 152.563 L
426.079 148.424 L
426.409 147.638 L
426.74 143.238 L
427.07 142.976 L
427.4 137.475 L
427.731 134.804 L
428.061 130.298 L
428.391 129.355 L
428.721 126.265 L
429.052 130.77 L
429.382 135.223 L
429.712 138.523 L
430.043 137.894 L
430.373 140.828 L
430.703 138.156 L
431.033 135.275 L
431.364 133.965 L
431.694 138.366 L
432.024 137.685 L
432.355 139.518 L
432.685 142.4 L
433.015 144.967 L
433.346 143.605 L
433.676 145.648 L
434.006 144.443 L
434.336 142.347 L
434.667 140.042 L
434.997 137.947 L
435.327 135.537 L
435.658 136.428 L
435.988 138.366 L
436.318 140.828 L
436.648 141.823 L
436.979 139.571 L
437.309 138.209 L
437.639 139.571 L
437.97 139.571 L
438.3 141.981 L
438.63 143.395 L
438.96 141.457 L
439.291 139.466 L
439.621 140.147 L
439.951 138.261 L
440.282 137.947 L
440.612 139.414 L
440.942 139.361 L
441.272 136.009 L
441.603 135.066 L
441.933 136.585 L
442.263 136.48 L
442.594 136.27 L
442.924 137.58 L
443.254 137.213 L
443.584 135.223 L
443.915 137.161 L
444.245 136.113 L
444.575 138.785 L
444.906 140.88 L
445.236 144.443 L
445.566 145.805 L
445.896 146.591 L
446.227 145.595 L
446.557 144.128 L
446.887 142.557 L
447.218 139.833 L
447.548 141.038 L
447.878 141.928 L
448.209 145.229 L
448.539 148.686 L
448.869 149.839 L
449.199 147.586 L
449.53 143.814 L
449.86 139.78 L
450.19 137.423 L
450.521 140.095 L
450.851 143.814 L
451.181 149.105 L
451.511 152.039 L
451.842 150.258 L
452.172 148.477 L
452.502 147.796 L
452.833 147.01 L
453.163 147.167 L
453.493 148.581 L
453.823 148.896 L
454.154 148.634 L
454.484 146.643 L
454.814 145.805 L
455.145 145.857 L
455.475 145.648 L
455.805 144.809 L
456.135 145.438 L
456.466 148.372 L
456.796 149.524 L
457.126 150.048 L
457.457 149.681 L
457.787 149.786 L
458.117 146.853 L
458.447 143.919 L
458.778 142.033 L
459.108 142.871 L
459.438 139.414 L
459.769 136.166 L
460.099 136.637 L
460.429 137.737 L
460.76 139.885 L
461.09 144.39 L
461.42 147.481 L
461.75 147.743 L
462.081 146.905 L
462.411 146.486 L
462.741 146.853 L
463.072 146.957 L
463.402 147.638 L
463.732 150.415 L
464.062 148.948 L
464.393 150.677 L
464.723 153.506 L
465.053 153.558 L
465.384 151.986 L
465.714 151.777 L
466.044 149.681 L
466.374 148.005 L
466.705 149.472 L
467.035 148.634 L
467.365 150.886 L
467.696 152.144 L
468.026 152.563 L
468.356 153.296 L
468.686 154.553 L
469.017 152.563 L
469.347 151.829 L
469.677 154.501 L
470.008 156.754 L
470.338 158.744 L
470.668 158.639 L
470.998 159.53 L
471.329 156.806 L
471.659 152.301 L
471.989 149 L
472.32 150.31 L
472.65 147.062 L
472.98 147.848 L
473.311 151.829 L
473.641 154.606 L
473.971 153.925 L
474.301 160.892 L
474.632 162.097 L
474.962 160.159 L
475.292 160.735 L
475.623 159.582 L
475.953 154.92 L
476.283 154.606 L
476.613 152.72 L
476.944 151.567 L
477.274 154.972 L
477.604 152.929 L
477.935 151.515 L
478.265 153.558 L
478.595 152.144 L
478.925 152.144 L
479.256 153.453 L
479.586 151.672 L
479.916 146.119 L
480.247 144.233 L
480.577 139.099 L
480.907 135.694 L
481.237 134.227 L
481.568 136.218 L
481.898 139.361 L
482.228 138.576 L
482.559 141.038 L
482.889 143.447 L
483.219 147.01 L
483.549 147.167 L
483.88 150.1 L
484.21 150.258 L
484.54 152.982 L
484.871 150.52 L
485.201 149.891 L
485.531 149.472 L
485.861 148.948 L
486.192 144.443 L
486.522 145.333 L
486.852 144.757 L
487.183 145.176 L
487.513 147.062 L
487.843 148.424 L
488.174 146.224 L
488.504 147.953 L
488.834 152.248 L
489.164 153.087 L
489.495 155.13 L
489.825 155.811 L
490.155 153.139 L
490.486 148.896 L
490.816 146.591 L
491.146 146.643 L
491.476 149.158 L
491.807 149.891 L
492.137 148.791 L
492.467 149.681 L
492.798 148.738 L
493.128 147.115 L
493.458 145.962 L
493.788 146.224 L
494.119 146.538 L
494.449 143.343 L
494.779 143.29 L
495.11 146.119 L
495.44 147.9 L
495.77 145.176 L
496.1 147.324 L
496.431 148.057 L
496.761 144.548 L
497.091 141.352 L
497.422 139.309 L
497.752 135.118 L
498.082 134.594 L
498.412 133.18 L
498.743 133.599 L
499.073 137.371 L
499.403 140.461 L
499.734 140.252 L
500.064 142.243 L
500.394 141.247 L
500.725 141.09 L
501.055 138.837 L
501.385 138.89 L
501.715 141.247 L
502.046 143.028 L
502.376 143.867 L
502.706 146.643 L
503.037 148.319 L
503.367 148.791 L
503.697 149.996 L
504.027 151.672 L
504.358 155.077 L
504.688 155.968 L
505.018 156.125 L
505.349 156.387 L
505.679 154.71 L
506.009 152.929 L
506.339 153.663 L
506.67 154.501 L
507 161.049 L
S
GR
GS
[0.75 0 0 0.75 0 0] CT
1 GC
N
374 361 M
374 324 L
494 324 L
494 361 L
cp
f
GR
GS
[0.75 0 0 0.75 308.25 250.60275] CT
/Helvetica 12 F
GS
[1 0 0 1 0 0] CT
0 5 moveto 
1 -1 scale
(mem150A) t 
GR
GR
GS
[0.75 0 0 0.75 0 0] CT
0 0.447 0.741 RC
1 LJ
0.667 LW
N
378 334.137 M
408 334.137 L
S
GR
GS
[0.75 0 0 0.75 308.25 263.14725] CT
/Helvetica 12 F
GS
[1 0 0 1 0 0] CT
0 5 moveto 
1 -1 scale
(mem150ABest) t 
GR
GR
GS
[0.75 0 0 0.75 0 0] CT
0.851 0.325 0.098 RC
1 LJ
0.667 LW
N
378 350.863 M
408 350.863 L
S
GR
GS
[0.75 0 0 0.75 0 0] CT
0.149 GC
10.0 ML
0.667 LW
N
374 361 M
374 324 L
494 324 L
494 361 L
cp
S
GR
%%Trailer
%%Pages: 1
%%EOF
