%!PS-Adobe-3.0 EPSF-3.0
%%Creator: (MATLAB, The Mathworks, Inc. Version 9.0.0.341360 \(R2016a\). Operating System: Windows 8)
%%Title: ../doc/thesis/figures/Annealing_rate.eps
%%CreationDate: 2016-08-23T23:41:46
%%Pages: (atend)
%%BoundingBox:    17     2   383   305
%%LanguageLevel: 3
%%EndComments
%%BeginProlog
%%BeginResource: procset (Apache XML Graphics Std ProcSet) 1.2 0
%%Version: 1.2 0
%%Copyright: (Copyright 2001-2003,2010 The Apache Software Foundation. License terms: http://www.apache.org/licenses/LICENSE-2.0)
/bd{bind def}bind def
/ld{load def}bd
/GR/grestore ld
/M/moveto ld
/LJ/setlinejoin ld
/C/curveto ld
/f/fill ld
/LW/setlinewidth ld
/GC/setgray ld
/t/show ld
/N/newpath ld
/CT/concat ld
/cp/closepath ld
/S/stroke ld
/L/lineto ld
/CC/setcmykcolor ld
/A/ashow ld
/GS/gsave ld
/RC/setrgbcolor ld
/RM/rmoveto ld
/ML/setmiterlimit ld
/re {4 2 roll M
1 index 0 rlineto
0 exch rlineto
neg 0 rlineto
cp } bd
/_ctm matrix def
/_tm matrix def
/BT { _ctm currentmatrix pop matrix _tm copy pop 0 0 moveto } bd
/ET { _ctm setmatrix } bd
/iTm { _ctm setmatrix _tm concat } bd
/Tm { _tm astore pop iTm 0 0 moveto } bd
/ux 0.0 def
/uy 0.0 def
/F {
  /Tp exch def
  /Tf exch def
  Tf findfont Tp scalefont setfont
  /cf Tf def  /cs Tp def
} bd
/ULS {currentpoint /uy exch def /ux exch def} bd
/ULE {
  /Tcx currentpoint pop def
  gsave
  newpath
  cf findfont cs scalefont dup
  /FontMatrix get 0 get /Ts exch def /FontInfo get dup
  /UnderlinePosition get Ts mul /To exch def
  /UnderlineThickness get Ts mul /Tt exch def
  ux uy To add moveto  Tcx uy To add lineto
  Tt setlinewidth stroke
  grestore
} bd
/OLE {
  /Tcx currentpoint pop def
  gsave
  newpath
  cf findfont cs scalefont dup
  /FontMatrix get 0 get /Ts exch def /FontInfo get dup
  /UnderlinePosition get Ts mul /To exch def
  /UnderlineThickness get Ts mul /Tt exch def
  ux uy To add cs add moveto Tcx uy To add cs add lineto
  Tt setlinewidth stroke
  grestore
} bd
/SOE {
  /Tcx currentpoint pop def
  gsave
  newpath
  cf findfont cs scalefont dup
  /FontMatrix get 0 get /Ts exch def /FontInfo get dup
  /UnderlinePosition get Ts mul /To exch def
  /UnderlineThickness get Ts mul /Tt exch def
  ux uy To add cs 10 mul 26 idiv add moveto Tcx uy To add cs 10 mul 26 idiv add lineto
  Tt setlinewidth stroke
  grestore
} bd
/QT {
/Y22 exch store
/X22 exch store
/Y21 exch store
/X21 exch store
currentpoint
/Y21 load 2 mul add 3 div exch
/X21 load 2 mul add 3 div exch
/X21 load 2 mul /X22 load add 3 div
/Y21 load 2 mul /Y22 load add 3 div
/X22 load /Y22 load curveto
} bd
/SSPD {
dup length /d exch dict def
{
/v exch def
/k exch def
currentpagedevice k known {
/cpdv currentpagedevice k get def
v cpdv ne {
/upd false def
/nullv v type /nulltype eq def
/nullcpdv cpdv type /nulltype eq def
nullv nullcpdv or
{
/upd true def
} {
/sametype v type cpdv type eq def
sametype {
v type /arraytype eq {
/vlen v length def
/cpdvlen cpdv length def
vlen cpdvlen eq {
0 1 vlen 1 sub {
/i exch def
/obj v i get def
/cpdobj cpdv i get def
obj cpdobj ne {
/upd true def
exit
} if
} for
} {
/upd true def
} ifelse
} {
v type /dicttype eq {
v {
/dv exch def
/dk exch def
/cpddv cpdv dk get def
dv cpddv ne {
/upd true def
exit
} if
} forall
} {
/upd true def
} ifelse
} ifelse
} if
} ifelse
upd true eq {
d k v put
} if
} if
} if
} forall
d length 0 gt {
d setpagedevice
} if
} bd
%%EndResource
%%BeginResource: procset (Apache XML Graphics EPS ProcSet) 1.0 0
%%Version: 1.0 0
%%Copyright: (Copyright 2002-2003 The Apache Software Foundation. License terms: http://www.apache.org/licenses/LICENSE-2.0)
/BeginEPSF { %def
/b4_Inc_state save def         % Save state for cleanup
/dict_count countdictstack def % Count objects on dict stack
/op_count count 1 sub def      % Count objects on operand stack
userdict begin                 % Push userdict on dict stack
/showpage { } def              % Redefine showpage, { } = null proc
0 setgray 0 setlinecap         % Prepare graphics state
1 setlinewidth 0 setlinejoin
10 setmiterlimit [ ] 0 setdash newpath
/languagelevel where           % If level not equal to 1 then
{pop languagelevel             % set strokeadjust and
1 ne                           % overprint to their defaults.
{false setstrokeadjust false setoverprint
} if
} if
} bd
/EndEPSF { %def
count op_count sub {pop} repeat            % Clean up stacks
countdictstack dict_count sub {end} repeat
b4_Inc_state restore
} bd
%%EndResource
%FOPBeginFontDict
%%IncludeResource: font Courier-Bold
%%IncludeResource: font Helvetica
%%IncludeResource: font Courier-BoldOblique
%%IncludeResource: font Courier-Oblique
%%IncludeResource: font Times-Roman
%%IncludeResource: font Helvetica-BoldOblique
%%IncludeResource: font Helvetica-Bold
%%IncludeResource: font Helvetica-Oblique
%%IncludeResource: font Times-BoldItalic
%%IncludeResource: font Courier
%%IncludeResource: font Times-Italic
%%IncludeResource: font Times-Bold
%%IncludeResource: font Symbol
%%IncludeResource: font ZapfDingbats
%FOPEndFontDict
%%BeginResource: encoding WinAnsiEncoding
/WinAnsiEncoding [
/.notdef /.notdef /.notdef /.notdef /.notdef
/.notdef /.notdef /.notdef /.notdef /.notdef
/.notdef /.notdef /.notdef /.notdef /.notdef
/.notdef /.notdef /.notdef /.notdef /.notdef
/.notdef /.notdef /.notdef /.notdef /.notdef
/.notdef /.notdef /.notdef /.notdef /.notdef
/.notdef /.notdef /space /exclam /quotedbl
/numbersign /dollar /percent /ampersand /quotesingle
/parenleft /parenright /asterisk /plus /comma
/hyphen /period /slash /zero /one
/two /three /four /five /six
/seven /eight /nine /colon /semicolon
/less /equal /greater /question /at
/A /B /C /D /E
/F /G /H /I /J
/K /L /M /N /O
/P /Q /R /S /T
/U /V /W /X /Y
/Z /bracketleft /backslash /bracketright /asciicircum
/underscore /quoteleft /a /b /c
/d /e /f /g /h
/i /j /k /l /m
/n /o /p /q /r
/s /t /u /v /w
/x /y /z /braceleft /bar
/braceright /asciitilde /bullet /Euro /bullet
/quotesinglbase /florin /quotedblbase /ellipsis /dagger
/daggerdbl /circumflex /perthousand /Scaron /guilsinglleft
/OE /bullet /Zcaron /bullet /bullet
/quoteleft /quoteright /quotedblleft /quotedblright /bullet
/endash /emdash /asciitilde /trademark /scaron
/guilsinglright /oe /bullet /zcaron /Ydieresis
/space /exclamdown /cent /sterling /currency
/yen /brokenbar /section /dieresis /copyright
/ordfeminine /guillemotleft /logicalnot /sfthyphen /registered
/macron /degree /plusminus /twosuperior /threesuperior
/acute /mu /paragraph /middot /cedilla
/onesuperior /ordmasculine /guillemotright /onequarter /onehalf
/threequarters /questiondown /Agrave /Aacute /Acircumflex
/Atilde /Adieresis /Aring /AE /Ccedilla
/Egrave /Eacute /Ecircumflex /Edieresis /Igrave
/Iacute /Icircumflex /Idieresis /Eth /Ntilde
/Ograve /Oacute /Ocircumflex /Otilde /Odieresis
/multiply /Oslash /Ugrave /Uacute /Ucircumflex
/Udieresis /Yacute /Thorn /germandbls /agrave
/aacute /acircumflex /atilde /adieresis /aring
/ae /ccedilla /egrave /eacute /ecircumflex
/edieresis /igrave /iacute /icircumflex /idieresis
/eth /ntilde /ograve /oacute /ocircumflex
/otilde /odieresis /divide /oslash /ugrave
/uacute /ucircumflex /udieresis /yacute /thorn
/ydieresis
] def
%%EndResource
%FOPBeginFontReencode
/Courier-Bold findfont
dup length dict begin
  {1 index /FID ne {def} {pop pop} ifelse} forall
  /Encoding WinAnsiEncoding def
  currentdict
end
/Courier-Bold exch definefont pop
/Helvetica findfont
dup length dict begin
  {1 index /FID ne {def} {pop pop} ifelse} forall
  /Encoding WinAnsiEncoding def
  currentdict
end
/Helvetica exch definefont pop
/Courier-BoldOblique findfont
dup length dict begin
  {1 index /FID ne {def} {pop pop} ifelse} forall
  /Encoding WinAnsiEncoding def
  currentdict
end
/Courier-BoldOblique exch definefont pop
/Courier-Oblique findfont
dup length dict begin
  {1 index /FID ne {def} {pop pop} ifelse} forall
  /Encoding WinAnsiEncoding def
  currentdict
end
/Courier-Oblique exch definefont pop
/Times-Roman findfont
dup length dict begin
  {1 index /FID ne {def} {pop pop} ifelse} forall
  /Encoding WinAnsiEncoding def
  currentdict
end
/Times-Roman exch definefont pop
/Helvetica-BoldOblique findfont
dup length dict begin
  {1 index /FID ne {def} {pop pop} ifelse} forall
  /Encoding WinAnsiEncoding def
  currentdict
end
/Helvetica-BoldOblique exch definefont pop
/Helvetica-Bold findfont
dup length dict begin
  {1 index /FID ne {def} {pop pop} ifelse} forall
  /Encoding WinAnsiEncoding def
  currentdict
end
/Helvetica-Bold exch definefont pop
/Helvetica-Oblique findfont
dup length dict begin
  {1 index /FID ne {def} {pop pop} ifelse} forall
  /Encoding WinAnsiEncoding def
  currentdict
end
/Helvetica-Oblique exch definefont pop
/Times-BoldItalic findfont
dup length dict begin
  {1 index /FID ne {def} {pop pop} ifelse} forall
  /Encoding WinAnsiEncoding def
  currentdict
end
/Times-BoldItalic exch definefont pop
/Courier findfont
dup length dict begin
  {1 index /FID ne {def} {pop pop} ifelse} forall
  /Encoding WinAnsiEncoding def
  currentdict
end
/Courier exch definefont pop
/Times-Italic findfont
dup length dict begin
  {1 index /FID ne {def} {pop pop} ifelse} forall
  /Encoding WinAnsiEncoding def
  currentdict
end
/Times-Italic exch definefont pop
/Times-Bold findfont
dup length dict begin
  {1 index /FID ne {def} {pop pop} ifelse} forall
  /Encoding WinAnsiEncoding def
  currentdict
end
/Times-Bold exch definefont pop
%FOPEndFontReencode
%%EndProlog
%%Page: 1 1
%%PageBoundingBox: 0 0 420 315
%%BeginPageSetup
[1 0 0 -1 0 315] CT
%%EndPageSetup
GS
[0.75 0 0 0.75 0 0] CT
1 GC
N
0 0 560 420 re
f
GR
GS
[0.75 0 0 0.75 0 0] CT
1 GC
N
0 0 560 420 re
f
GR
GS
[0.75 0 0 0.75 0 0] CT
1 GC
N
73 374 M
507 374 L
507 31 L
73 31 L
cp
f
GR
GS
[0.75 0 0 0.75 0 0] CT
0.149 GC
2 setlinecap
1 LJ
0.667 LW
N
73 374 M
507 374 L
S
GR
GS
[0.75 0 0 0.75 0 0] CT
0.149 GC
2 setlinecap
1 LJ
0.667 LW
N
73 374 M
73 369.66 L
S
GR
GS
[0.75 0 0 0.75 0 0] CT
0.149 GC
2 setlinecap
1 LJ
0.667 LW
N
145.333 374 M
145.333 369.66 L
S
GR
GS
[0.75 0 0 0.75 0 0] CT
0.149 GC
2 setlinecap
1 LJ
0.667 LW
N
217.667 374 M
217.667 369.66 L
S
GR
GS
[0.75 0 0 0.75 0 0] CT
0.149 GC
2 setlinecap
1 LJ
0.667 LW
N
290 374 M
290 369.66 L
S
GR
GS
[0.75 0 0 0.75 0 0] CT
0.149 GC
2 setlinecap
1 LJ
0.667 LW
N
362.333 374 M
362.333 369.66 L
S
GR
GS
[0.75 0 0 0.75 0 0] CT
0.149 GC
2 setlinecap
1 LJ
0.667 LW
N
434.667 374 M
434.667 369.66 L
S
GR
GS
[0.75 0 0 0.75 0 0] CT
0.149 GC
2 setlinecap
1 LJ
0.667 LW
N
507 374 M
507 369.66 L
S
GR
GS
[0.75 0 0 0.75 54.75 284.49998] CT
0.149 GC
/Helvetica 13.333 F
GS
[1 0 0 1 0 0] CT
-4 14 moveto 
1 -1 scale
(0) t 
GR
GR
GS
[0.75 0 0 0.75 109 284.49998] CT
0.149 GC
/Helvetica 13.333 F
GS
[1 0 0 1 0 0] CT
-9.5 14 moveto 
1 -1 scale
(0.5) t 
GR
GR
GS
[0.75 0 0 0.75 163.25 284.49998] CT
0.149 GC
/Helvetica 13.333 F
GS
[1 0 0 1 0 0] CT
-4 14 moveto 
1 -1 scale
(1) t 
GR
GR
GS
[0.75 0 0 0.75 217.5 284.49998] CT
0.149 GC
/Helvetica 13.333 F
GS
[1 0 0 1 0 0] CT
-9.5 14 moveto 
1 -1 scale
(1.5) t 
GR
GR
GS
[0.75 0 0 0.75 271.75001 284.49998] CT
0.149 GC
/Helvetica 13.333 F
GS
[1 0 0 1 0 0] CT
-4 14 moveto 
1 -1 scale
(2) t 
GR
GR
GS
[0.75 0 0 0.75 325.99999 284.49998] CT
0.149 GC
/Helvetica 13.333 F
GS
[1 0 0 1 0 0] CT
-9.5 14 moveto 
1 -1 scale
(2.5) t 
GR
GR
GS
[0.75 0 0 0.75 380.25 284.49998] CT
0.149 GC
/Helvetica 13.333 F
GS
[1 0 0 1 0 0] CT
-4 14 moveto 
1 -1 scale
(3) t 
GR
GR
GS
[0.75 0 0 0.75 217.50016 298.24995] CT
0.149 GC
/Helvetica 14.667 F
GS
[1 0 0 1 0 0] CT
-29.5 16 moveto 
1 -1 scale
(#Epochs) t 
GR
GR
GS
[0.75 0 0 0.75 0 0] CT
0.149 GC
2 setlinecap
1 LJ
0.667 LW
N
73 374 M
73 31 L
S
GR
GS
[0.75 0 0 0.75 0 0] CT
0.149 GC
2 setlinecap
1 LJ
0.667 LW
N
73 374 M
77.34 374 L
S
GR
GS
[0.75 0 0 0.75 0 0] CT
0.149 GC
2 setlinecap
1 LJ
0.667 LW
N
73 316.833 M
77.34 316.833 L
S
GR
GS
[0.75 0 0 0.75 0 0] CT
0.149 GC
2 setlinecap
1 LJ
0.667 LW
N
73 259.667 M
77.34 259.667 L
S
GR
GS
[0.75 0 0 0.75 0 0] CT
0.149 GC
2 setlinecap
1 LJ
0.667 LW
N
73 202.5 M
77.34 202.5 L
S
GR
GS
[0.75 0 0 0.75 0 0] CT
0.149 GC
2 setlinecap
1 LJ
0.667 LW
N
73 145.333 M
77.34 145.333 L
S
GR
GS
[0.75 0 0 0.75 0 0] CT
0.149 GC
2 setlinecap
1 LJ
0.667 LW
N
73 88.167 M
77.34 88.167 L
S
GR
GS
[0.75 0 0 0.75 0 0] CT
0.149 GC
2 setlinecap
1 LJ
0.667 LW
N
73 31 M
77.34 31 L
S
GR
GS
[0.75 0 0 0.75 50.75 280.49998] CT
0.149 GC
/Helvetica 13.333 F
GS
[1 0 0 1 0 0] CT
-19 5.5 moveto 
1 -1 scale
(0.6) t 
GR
GR
GS
[0.75 0 0 0.75 50.75 237.62503] CT
0.149 GC
/Helvetica 13.333 F
GS
[1 0 0 1 0 0] CT
-26 5.5 moveto 
1 -1 scale
(0.65) t 
GR
GR
GS
[0.75 0 0 0.75 50.75 194.75002] CT
0.149 GC
/Helvetica 13.333 F
GS
[1 0 0 1 0 0] CT
-19 5.5 moveto 
1 -1 scale
(0.7) t 
GR
GR
GS
[0.75 0 0 0.75 50.75 151.875] CT
0.149 GC
/Helvetica 13.333 F
GS
[1 0 0 1 0 0] CT
-26 5.5 moveto 
1 -1 scale
(0.75) t 
GR
GR
GS
[0.75 0 0 0.75 50.75 108.99998] CT
0.149 GC
/Helvetica 13.333 F
GS
[1 0 0 1 0 0] CT
-19 5.5 moveto 
1 -1 scale
(0.8) t 
GR
GR
GS
[0.75 0 0 0.75 50.75 66.12498] CT
0.149 GC
/Helvetica 13.333 F
GS
[1 0 0 1 0 0] CT
-26 5.5 moveto 
1 -1 scale
(0.85) t 
GR
GR
GS
[0.75 0 0 0.75 50.75 23.25002] CT
0.149 GC
/Helvetica 13.333 F
GS
[1 0 0 1 0 0] CT
-19 5.5 moveto 
1 -1 scale
(0.9) t 
GR
GR
GS
[0 -0.75 0.75 0 28.25 151.8749] CT
0.149 GC
/Helvetica 14.667 F
GS
[1 0 0 1 0 0] CT
-58.5 -4 moveto 
1 -1 scale
(f1 score on aidaB) t 
GR
GR
GS
[0.75 0 0 0.75 217.50021 21.18754] CT
/Helvetica-Bold 14.667 F
GS
[1 0 0 1 0 0] CT
-52.5 -4 moveto 
1 -1 scale
(Annealing rate) t 
GR
GR
GS
[0.75 0 0 0.75 0 0] CT
0 0.447 0.741 RC
1 LJ
0.667 LW
N
73.22 295.42 M
73.44 280.578 L
73.661 280.228 L
73.881 280.438 L
74.101 287.72 L
74.321 283.791 L
74.541 282.062 L
74.762 279.966 L
74.982 272.318 L
75.202 266.136 L
75.422 269.961 L
75.642 270.904 L
75.863 270.642 L
76.083 270.013 L
76.303 268.232 L
76.523 273.628 L
76.743 274.937 L
76.963 271.061 L
77.184 274.099 L
77.404 277.399 L
77.624 271.218 L
77.844 274.78 L
78.064 278.447 L
78.285 276.299 L
78.505 271.951 L
78.725 269.594 L
78.945 267.289 L
79.165 262.103 L
79.386 260.583 L
79.606 261.631 L
79.826 269.437 L
80.046 266.398 L
80.266 269.856 L
80.487 274.309 L
80.707 281.433 L
80.927 284.629 L
81.147 294.32 L
81.367 305.531 L
81.588 314.699 L
81.808 313.337 L
82.028 310.246 L
82.248 303.54 L
82.468 294.739 L
82.688 295.211 L
82.909 295.735 L
83.129 301.916 L
83.349 305.793 L
83.569 305.531 L
83.789 289.082 L
84.01 281.8 L
84.23 262.731 L
84.45 255.659 L
84.67 253.773 L
84.89 257.493 L
85.111 263.727 L
85.331 269.437 L
85.551 273.837 L
85.771 276.876 L
85.991 280.333 L
86.212 273.89 L
86.432 269.856 L
86.652 264.617 L
86.872 265.717 L
87.092 262.574 L
87.313 257.859 L
87.533 266.451 L
87.753 266.975 L
87.973 255.03 L
88.193 247.487 L
88.413 246.02 L
88.634 242.143 L
88.854 238.476 L
89.074 245.758 L
89.294 244.396 L
89.514 245.496 L
89.735 243.61 L
89.955 241.672 L
90.175 241.096 L
90.395 246.492 L
90.615 242.039 L
90.836 237.062 L
91.056 237.952 L
91.276 230.88 L
91.496 225.851 L
91.716 233.814 L
91.937 237.219 L
92.157 234.809 L
92.377 232.504 L
92.597 230.147 L
92.817 228.471 L
93.038 220.822 L
93.258 221.241 L
93.478 219.827 L
93.698 224.856 L
93.918 222.76 L
94.139 227.161 L
94.359 227.318 L
94.579 229.833 L
94.799 222.446 L
95.019 217.574 L
95.239 215.269 L
95.46 206.887 L
95.68 208.145 L
95.9 215.007 L
96.12 213.436 L
96.34 211.655 L
96.561 213.54 L
96.781 208.93 L
97.001 207.464 L
97.221 201.858 L
97.441 194.786 L
97.662 189.128 L
97.882 189.652 L
98.102 188.185 L
98.322 192.114 L
98.542 202.854 L
98.763 204.844 L
98.983 202.801 L
99.203 198.453 L
99.423 198.191 L
99.643 194.629 L
99.864 198.872 L
100.084 206.259 L
100.304 209.769 L
100.524 216.212 L
100.744 219.251 L
100.964 217.26 L
101.185 204.844 L
101.405 200.025 L
101.625 195.415 L
101.845 192.481 L
102.065 193.319 L
102.286 199.868 L
102.506 205.054 L
102.726 207.516 L
102.946 202.33 L
103.166 201.02 L
103.387 205.211 L
103.607 197.405 L
103.827 185.566 L
104.047 183.052 L
104.267 179.594 L
104.488 172.836 L
104.708 171.212 L
104.928 178.284 L
105.148 177.08 L
105.368 178.389 L
105.589 174.146 L
105.809 179.018 L
106.029 178.232 L
106.249 180.223 L
106.469 179.437 L
106.689 179.437 L
106.91 173.36 L
107.13 170.164 L
107.35 169.536 L
107.57 166.864 L
107.79 168.069 L
108.011 171.998 L
108.231 174.67 L
108.451 175.351 L
108.671 172.05 L
108.891 167.598 L
109.112 166.864 L
109.332 164.664 L
109.552 164.14 L
109.772 168.331 L
109.992 174.827 L
110.213 175.56 L
110.433 172.784 L
110.653 173.622 L
110.873 176.975 L
111.093 176.294 L
111.314 183.418 L
111.534 185.933 L
111.754 186.352 L
111.974 184.833 L
112.194 180.799 L
112.415 174.093 L
112.635 175.141 L
112.855 174.722 L
113.075 175.403 L
113.295 175.979 L
113.515 174.146 L
113.736 174.827 L
113.956 174.146 L
114.176 170.479 L
114.396 172.05 L
114.616 171.579 L
114.837 171.107 L
115.057 172.679 L
115.277 176.975 L
115.497 179.961 L
115.717 183.68 L
115.938 182.423 L
116.158 185.357 L
116.378 185.252 L
116.598 182.685 L
116.818 183.733 L
117.039 183.785 L
117.259 180.956 L
117.479 176.294 L
117.699 175.717 L
117.919 168.383 L
118.14 167.755 L
118.36 167.021 L
118.58 167.493 L
118.8 166.655 L
119.02 169.798 L
119.24 166.759 L
119.461 167.126 L
119.681 166.236 L
119.901 167.336 L
120.121 169.588 L
120.341 174.879 L
120.562 172.103 L
120.782 173.255 L
121.002 171.107 L
121.222 166.288 L
121.442 160.683 L
121.663 157.697 L
121.883 154.239 L
122.103 152.301 L
122.323 151.829 L
122.543 150.677 L
122.764 147.324 L
122.984 148.634 L
123.204 153.296 L
123.424 152.72 L
123.644 153.925 L
123.865 158.954 L
124.085 156.387 L
124.305 153.401 L
124.525 152.51 L
124.745 152.72 L
124.965 149.367 L
125.186 153.034 L
125.406 146.957 L
125.626 146.538 L
125.846 145.648 L
126.066 149.472 L
126.287 148.372 L
126.507 154.239 L
126.727 154.92 L
126.947 155.392 L
127.167 153.558 L
127.388 152.51 L
127.608 152.51 L
127.828 160.316 L
128.048 161.94 L
128.268 161.73 L
128.489 166.445 L
128.709 164.612 L
128.929 160.735 L
129.149 160.63 L
129.369 160.106 L
129.59 158.22 L
129.81 156.387 L
130.03 149.839 L
130.25 146.853 L
130.47 145.595 L
130.691 145.019 L
130.911 149.734 L
131.131 153.139 L
131.351 152.929 L
131.571 159.163 L
131.791 162.726 L
132.012 161.73 L
132.232 161.626 L
132.452 164.088 L
132.672 160.211 L
132.892 154.501 L
133.113 153.139 L
133.333 152.825 L
133.553 152.144 L
133.773 153.61 L
133.993 157.697 L
134.214 160.63 L
134.434 161.521 L
134.654 161.835 L
134.874 156.963 L
135.094 154.658 L
135.315 151.829 L
135.535 151.62 L
135.755 150.153 L
135.975 152.667 L
136.195 152.091 L
136.416 154.868 L
136.636 150.991 L
136.856 156.177 L
137.076 155.339 L
137.296 155.392 L
137.516 158.901 L
137.737 165.24 L
137.957 161.835 L
138.177 163.616 L
138.397 162.359 L
138.617 157.382 L
138.838 155.811 L
139.058 156.02 L
139.278 156.282 L
139.498 160.735 L
139.718 159.268 L
139.939 159.74 L
140.159 157.958 L
140.379 156.439 L
140.599 154.029 L
140.819 154.396 L
141.04 154.449 L
141.26 157.382 L
141.48 154.396 L
141.7 152.825 L
141.92 154.239 L
142.141 150.677 L
142.361 148.477 L
142.581 154.92 L
142.801 155.653 L
143.021 155.392 L
143.242 155.863 L
143.462 154.658 L
143.682 150.153 L
143.902 151.934 L
144.122 149 L
144.342 148.319 L
144.563 147.9 L
144.783 150.834 L
145.003 151.934 L
145.223 155.444 L
145.443 157.854 L
145.664 161.73 L
145.884 163.511 L
146.104 162.045 L
146.324 161.416 L
146.544 162.673 L
146.765 160.892 L
146.985 161.206 L
147.205 161.73 L
147.425 156.492 L
147.645 149.839 L
147.866 149.943 L
148.086 148.162 L
148.306 147.01 L
148.526 149.839 L
148.746 153.82 L
148.967 152.196 L
149.187 147.376 L
149.407 145.071 L
149.627 146.957 L
149.847 147.219 L
150.067 149.472 L
150.288 151.567 L
150.508 152.144 L
150.728 148.896 L
150.948 153.558 L
151.168 155.549 L
151.389 156.963 L
151.609 157.539 L
151.829 159.897 L
152.049 158.43 L
152.269 155.392 L
152.49 158.011 L
152.71 159.478 L
152.93 162.254 L
153.15 158.587 L
153.37 160.525 L
153.591 159.687 L
153.811 157.173 L
154.031 156.911 L
154.251 159.635 L
154.471 158.116 L
154.692 156.492 L
154.912 155.601 L
155.132 151.62 L
155.352 149.577 L
155.572 146.853 L
155.792 149.629 L
156.013 153.558 L
156.233 170.688 L
156.453 183.366 L
156.673 190.281 L
156.893 186.928 L
157.114 187.714 L
157.334 172.679 L
157.554 164.192 L
157.774 163.878 L
157.994 170.479 L
158.215 171.684 L
158.435 172.889 L
158.655 168.383 L
158.875 171.736 L
159.095 169.064 L
159.316 163.354 L
159.536 160.892 L
159.756 161.73 L
159.976 158.168 L
160.196 155.13 L
160.417 159.687 L
160.637 158.954 L
160.857 164.297 L
161.077 164.192 L
161.297 164.873 L
161.518 160.473 L
161.738 161.678 L
161.958 154.606 L
162.178 150.31 L
162.398 145.176 L
162.618 143.605 L
162.839 144.024 L
163.059 138.418 L
163.279 136.428 L
163.499 136.794 L
163.719 135.799 L
163.94 131.294 L
164.16 133.965 L
164.38 133.18 L
164.6 134.28 L
164.82 132.027 L
165.041 131.399 L
165.261 129.984 L
165.481 128.36 L
165.701 130.875 L
165.921 138.576 L
166.142 143.081 L
166.362 146.433 L
166.582 153.925 L
166.802 152.144 L
167.022 154.815 L
167.243 154.396 L
167.463 156.963 L
167.683 151.672 L
167.903 151.567 L
168.123 145.7 L
168.343 143.709 L
168.564 141.981 L
168.784 141.509 L
169.004 141.666 L
169.224 144.495 L
169.444 143.552 L
169.665 145.49 L
169.885 145.124 L
170.105 144.967 L
170.325 149.839 L
170.545 158.378 L
170.766 158.011 L
170.986 157.749 L
171.206 158.43 L
171.426 153.348 L
171.646 146.748 L
171.867 144.862 L
172.087 145.648 L
172.307 143.919 L
172.527 143.552 L
172.747 141.614 L
172.968 142.085 L
173.188 141.509 L
173.408 143.867 L
173.628 143.657 L
173.848 147.481 L
174.068 144.076 L
174.289 143.447 L
174.509 140.671 L
174.729 141.352 L
174.949 139.885 L
175.169 142.085 L
175.39 143.971 L
175.61 144.967 L
175.83 140.042 L
176.05 140.776 L
176.27 142.085 L
176.491 142.452 L
176.711 145.91 L
176.931 150.624 L
177.151 151.515 L
177.371 151.463 L
177.592 150.939 L
177.812 148.372 L
178.032 152.458 L
178.252 156.439 L
178.472 155.496 L
178.693 156.177 L
178.913 154.344 L
179.133 146.8 L
179.353 140.409 L
179.573 141.509 L
179.794 144.862 L
180.014 147.638 L
180.234 149.734 L
180.454 151.253 L
180.674 151.201 L
180.894 147.691 L
181.115 146.695 L
181.335 149.367 L
181.555 157.277 L
181.775 166.969 L
181.995 173.727 L
182.216 179.28 L
182.436 183.156 L
182.656 179.542 L
182.876 174.67 L
183.096 166.602 L
183.317 160.84 L
183.537 156.073 L
183.757 150.048 L
183.977 146.433 L
184.197 151.829 L
184.418 156.858 L
184.638 156.701 L
184.858 159.373 L
185.078 158.22 L
185.298 157.801 L
185.519 158.116 L
185.739 158.011 L
185.959 159.216 L
186.179 158.063 L
186.399 154.972 L
186.619 151.043 L
186.84 151.515 L
187.06 150.624 L
187.28 155.234 L
187.5 156.23 L
187.72 153.453 L
187.941 150.729 L
188.161 149.419 L
188.381 143.657 L
188.601 140.147 L
188.821 143.29 L
189.042 143.081 L
189.262 145.49 L
189.482 147.481 L
189.702 146.695 L
189.922 143.605 L
190.143 145.857 L
190.363 139.728 L
190.583 142.347 L
190.803 147.167 L
191.023 146.748 L
191.244 145.543 L
191.464 150.782 L
191.684 150.729 L
191.904 150.52 L
192.124 151.096 L
192.344 150.048 L
192.565 148.581 L
192.785 150.048 L
193.005 150.782 L
193.225 155.025 L
193.445 161.259 L
193.666 163.616 L
193.886 162.988 L
194.106 161.73 L
194.326 160.002 L
194.546 154.501 L
194.767 156.911 L
194.987 154.868 L
195.207 155.549 L
195.427 157.12 L
195.647 154.029 L
195.868 149.734 L
196.088 147.953 L
196.308 148.791 L
196.528 146.538 L
196.748 147.01 L
196.969 143.552 L
197.189 142.819 L
197.409 136.637 L
197.629 139.361 L
197.849 140.985 L
198.07 145.543 L
198.29 148.267 L
198.51 152.196 L
198.73 151.62 L
198.95 149.734 L
199.17 145.281 L
199.391 148.896 L
199.611 146.748 L
199.831 141.666 L
200.051 142.452 L
200.271 148.005 L
200.492 140.671 L
200.712 141.771 L
200.932 144.495 L
201.152 143.5 L
201.372 138.628 L
201.593 139.676 L
201.813 138.209 L
202.033 136.375 L
202.253 137.109 L
202.473 141.981 L
202.694 147.115 L
202.914 148.057 L
203.134 150.52 L
203.354 157.592 L
203.574 157.539 L
203.795 153.558 L
204.015 153.61 L
204.235 151.986 L
204.455 147.219 L
204.675 141.928 L
204.895 142.347 L
205.116 142.976 L
205.336 141.562 L
205.556 143.447 L
205.776 152.144 L
205.996 156.387 L
206.217 162.988 L
206.437 169.431 L
206.657 169.693 L
206.877 165.607 L
207.097 162.464 L
207.318 155.182 L
207.538 152.772 L
207.758 153.61 L
207.978 155.025 L
208.198 158.849 L
208.419 161.049 L
208.639 158.587 L
208.859 158.273 L
209.079 154.658 L
209.299 149.786 L
209.52 148.529 L
209.74 150.834 L
209.96 150.624 L
210.18 151.305 L
210.4 151.724 L
210.62 152.825 L
210.841 149.105 L
211.061 146.8 L
211.281 143.814 L
211.501 141.09 L
211.721 147.848 L
211.942 155.758 L
212.162 161.364 L
212.382 161.73 L
212.602 162.359 L
212.822 155.706 L
213.043 149.524 L
213.263 142.505 L
213.483 146.643 L
213.703 146.8 L
213.923 146.433 L
214.144 149.21 L
214.364 152.144 L
214.584 152.406 L
214.804 156.177 L
215.024 152.196 L
215.245 152.982 L
215.465 152.72 L
215.685 152.091 L
215.905 151.043 L
216.125 160.106 L
216.346 162.621 L
216.566 161.259 L
216.786 157.33 L
217.006 154.815 L
217.226 148.581 L
217.446 144.181 L
217.667 145.438 L
217.887 146.538 L
218.107 146.8 L
218.327 149.315 L
218.547 147.324 L
218.768 145.229 L
218.988 143.081 L
219.208 145.333 L
219.428 145.805 L
219.648 147.481 L
219.869 149.315 L
220.089 151.567 L
220.309 149 L
220.529 151.358 L
220.749 150.886 L
220.97 150.624 L
221.19 157.277 L
221.41 160.944 L
221.63 156.439 L
221.85 158.325 L
222.071 157.487 L
222.291 150.624 L
222.511 145.648 L
222.731 143.971 L
222.951 138.418 L
223.171 136.847 L
223.392 134.908 L
223.612 134.908 L
223.832 132.813 L
224.052 133.389 L
224.272 133.284 L
224.493 135.432 L
224.713 134.542 L
224.933 134.332 L
225.153 134.332 L
225.373 132.865 L
225.594 133.075 L
225.814 135.642 L
226.034 140.199 L
226.254 140.723 L
226.474 140.828 L
226.695 139.099 L
226.915 138.837 L
227.135 137.842 L
227.355 137.894 L
227.575 137.58 L
227.796 137.528 L
228.016 135.799 L
228.236 133.965 L
228.456 132.499 L
228.676 133.023 L
228.896 132.237 L
229.117 131.137 L
229.337 130.036 L
229.557 130.77 L
229.777 131.137 L
229.997 132.342 L
230.218 134.699 L
230.438 136.585 L
230.658 137.371 L
230.878 137.318 L
231.098 136.794 L
231.319 135.851 L
231.539 134.804 L
231.759 134.489 L
231.979 134.856 L
232.199 135.38 L
232.42 135.904 L
232.64 136.375 L
232.86 136.113 L
233.08 136.27 L
233.3 135.747 L
233.521 134.751 L
233.741 133.442 L
233.961 131.922 L
234.181 130.665 L
234.401 130.351 L
234.622 130.665 L
234.842 131.294 L
235.062 132.237 L
235.282 132.446 L
235.502 132.237 L
235.722 131.818 L
235.943 131.608 L
236.163 131.241 L
236.383 131.084 L
236.603 130.927 L
236.823 130.875 L
237.044 130.351 L
237.264 130.194 L
237.484 130.089 L
237.704 129.775 L
237.924 129.46 L
238.145 129.565 L
238.365 129.67 L
238.585 129.722 L
238.805 130.141 L
239.025 130.508 L
239.246 130.613 L
239.466 130.718 L
239.686 130.979 L
239.906 130.77 L
240.126 130.718 L
240.347 130.718 L
240.567 130.77 L
240.787 130.613 L
241.007 130.822 L
241.227 130.875 L
241.447 130.927 L
241.668 130.822 L
241.888 130.77 L
242.108 130.77 L
242.328 130.822 L
242.548 130.77 L
242.769 130.84 L
242.989 130.665 L
S
GR
GS
[0.75 0 0 0.75 0 0] CT
0.851 0.325 0.098 RC
1 LJ
0.667 LW
N
73.22 295.42 M
73.44 280.578 L
73.661 280.228 L
73.881 280.438 L
74.101 287.72 L
74.321 283.791 L
74.541 282.062 L
74.762 279.966 L
74.982 272.318 L
75.202 266.136 L
75.422 269.961 L
75.642 270.904 L
75.863 270.642 L
76.083 270.013 L
76.303 268.232 L
76.523 273.628 L
76.743 274.937 L
76.963 271.061 L
77.184 274.099 L
77.404 277.399 L
77.624 271.218 L
77.844 274.78 L
78.064 278.447 L
78.285 276.299 L
78.505 271.951 L
78.725 269.594 L
78.945 267.289 L
79.165 262.103 L
79.386 260.583 L
79.606 261.631 L
79.826 269.437 L
80.046 266.398 L
80.266 269.856 L
80.487 274.309 L
80.707 281.433 L
80.927 284.629 L
81.147 294.32 L
81.367 305.531 L
81.588 314.699 L
81.808 313.337 L
82.028 310.246 L
82.248 303.54 L
82.468 294.739 L
82.688 295.211 L
82.909 295.735 L
83.129 301.916 L
83.349 305.793 L
83.569 305.531 L
83.789 289.082 L
84.01 281.8 L
84.23 262.731 L
84.45 255.659 L
84.67 253.773 L
84.89 257.493 L
85.111 263.727 L
85.331 269.437 L
85.551 273.837 L
85.771 276.876 L
85.991 280.333 L
86.212 273.89 L
86.432 269.856 L
86.652 264.617 L
86.872 265.717 L
87.092 262.574 L
87.313 257.859 L
87.533 266.451 L
87.753 266.975 L
87.973 255.03 L
88.193 247.487 L
88.413 246.02 L
88.634 242.143 L
88.854 238.476 L
89.074 245.758 L
89.294 244.396 L
89.514 245.496 L
89.735 243.61 L
89.955 241.672 L
90.175 241.096 L
90.395 246.492 L
90.615 242.039 L
90.836 237.062 L
91.056 237.952 L
91.276 230.88 L
91.496 225.851 L
91.716 233.814 L
91.937 237.219 L
92.157 234.809 L
92.377 232.504 L
92.597 230.147 L
92.817 228.471 L
93.038 220.822 L
93.258 221.241 L
93.478 219.827 L
93.698 224.856 L
93.918 222.76 L
94.139 227.161 L
94.359 227.318 L
94.579 229.833 L
94.799 222.446 L
95.019 217.574 L
95.239 215.269 L
95.46 206.887 L
95.68 208.145 L
95.9 215.007 L
96.12 213.436 L
96.34 211.655 L
96.561 213.54 L
96.781 208.93 L
97.001 207.464 L
97.221 201.858 L
97.441 194.786 L
97.662 189.128 L
97.882 189.652 L
98.102 188.185 L
98.322 192.114 L
98.542 202.854 L
98.763 204.844 L
98.983 202.801 L
99.203 198.453 L
99.423 198.191 L
99.643 194.629 L
99.864 198.872 L
100.084 206.259 L
100.304 209.769 L
100.524 216.212 L
100.744 219.251 L
100.964 217.26 L
101.185 204.844 L
101.405 200.025 L
101.625 195.415 L
101.845 192.481 L
102.065 193.319 L
102.286 199.868 L
102.506 205.054 L
102.726 207.516 L
102.946 202.33 L
103.166 201.02 L
103.387 205.211 L
103.607 197.405 L
103.827 185.566 L
104.047 183.052 L
104.267 179.594 L
104.488 172.836 L
104.708 171.212 L
104.928 178.284 L
105.148 177.08 L
105.368 178.389 L
105.589 174.146 L
105.809 179.018 L
106.029 178.232 L
106.249 180.223 L
106.469 179.437 L
106.689 179.437 L
106.91 173.36 L
107.13 170.164 L
107.35 169.536 L
107.57 166.864 L
107.79 168.069 L
108.011 171.998 L
108.231 174.67 L
108.451 175.351 L
108.671 172.05 L
108.891 167.598 L
109.112 166.864 L
109.332 164.664 L
109.552 164.14 L
109.772 168.331 L
109.992 174.827 L
110.213 175.56 L
110.433 172.784 L
110.653 173.622 L
110.873 176.975 L
111.093 176.294 L
111.314 183.418 L
111.534 185.933 L
111.754 186.352 L
111.974 184.833 L
112.194 180.799 L
112.415 174.093 L
112.635 175.141 L
112.855 174.722 L
113.075 175.403 L
113.295 175.979 L
113.515 174.146 L
113.736 174.827 L
113.956 174.146 L
114.176 170.479 L
114.396 172.05 L
114.616 171.579 L
114.837 171.107 L
115.057 172.679 L
115.277 176.975 L
115.497 179.961 L
115.717 183.68 L
115.938 182.423 L
116.158 185.357 L
116.378 185.252 L
116.598 182.685 L
116.818 183.733 L
117.039 183.785 L
117.259 180.956 L
117.479 176.294 L
117.699 175.717 L
117.919 168.383 L
118.14 167.755 L
118.36 167.021 L
118.58 167.493 L
118.8 166.655 L
119.02 169.798 L
119.24 166.759 L
119.461 167.126 L
119.681 166.236 L
119.901 167.336 L
120.121 169.588 L
120.341 174.879 L
120.562 172.103 L
120.782 173.255 L
121.002 171.107 L
121.222 166.288 L
121.442 160.683 L
121.663 157.697 L
121.883 154.239 L
122.103 152.301 L
122.323 151.829 L
122.543 150.677 L
122.764 147.324 L
122.984 148.634 L
123.204 153.296 L
123.424 152.72 L
123.644 153.925 L
123.865 158.954 L
124.085 156.387 L
124.305 153.401 L
124.525 152.51 L
124.745 152.72 L
124.965 149.367 L
125.186 153.034 L
125.406 146.957 L
125.626 146.538 L
125.846 145.648 L
126.066 149.472 L
126.287 148.372 L
126.507 154.239 L
126.727 154.92 L
126.947 155.392 L
127.167 153.558 L
127.388 152.51 L
127.608 152.51 L
127.828 160.316 L
128.048 161.94 L
128.268 161.73 L
128.489 166.445 L
128.709 164.612 L
128.929 160.735 L
129.149 160.63 L
129.369 160.106 L
129.59 158.22 L
129.81 156.387 L
130.03 149.839 L
130.25 146.853 L
130.47 145.595 L
130.691 145.019 L
130.911 149.734 L
131.131 153.139 L
131.351 152.929 L
131.571 159.163 L
131.791 162.726 L
132.012 161.73 L
132.232 161.626 L
132.452 164.088 L
132.672 160.211 L
132.892 154.501 L
133.113 153.139 L
133.333 152.825 L
133.553 152.144 L
133.773 153.61 L
133.993 157.697 L
134.214 160.63 L
134.434 161.521 L
134.654 161.835 L
134.874 156.963 L
135.094 154.658 L
135.315 151.829 L
135.535 151.62 L
135.755 150.153 L
135.975 152.667 L
136.195 152.091 L
136.416 154.868 L
136.636 150.991 L
136.856 156.177 L
137.076 155.339 L
137.296 155.392 L
137.516 158.901 L
137.737 165.24 L
137.957 161.835 L
138.177 163.616 L
138.397 162.359 L
138.617 157.382 L
138.838 155.811 L
139.058 156.02 L
139.278 156.282 L
139.498 160.735 L
139.718 159.268 L
139.939 159.74 L
140.159 157.958 L
140.379 156.439 L
140.599 154.029 L
140.819 154.396 L
141.04 154.449 L
141.26 157.382 L
141.48 154.396 L
141.7 152.825 L
141.92 154.239 L
142.141 150.677 L
142.361 148.477 L
142.581 154.92 L
142.801 155.653 L
143.021 155.392 L
143.242 155.863 L
143.462 154.658 L
143.682 150.153 L
143.902 151.934 L
144.122 149 L
144.342 148.319 L
144.563 147.9 L
144.783 150.834 L
145.003 151.934 L
145.223 155.444 L
145.443 157.854 L
145.664 161.73 L
145.884 163.511 L
146.104 162.045 L
146.324 161.416 L
146.544 162.673 L
146.765 160.892 L
146.985 161.206 L
147.205 161.73 L
147.425 156.492 L
147.645 149.839 L
147.866 149.943 L
148.086 148.162 L
148.306 147.01 L
148.526 149.839 L
148.746 153.82 L
148.967 152.196 L
149.187 147.376 L
149.407 145.071 L
149.627 146.957 L
149.847 147.219 L
150.067 149.472 L
150.288 151.567 L
150.508 152.144 L
150.728 148.896 L
150.948 153.558 L
151.168 155.549 L
151.389 156.963 L
151.609 157.539 L
151.829 159.897 L
152.049 158.43 L
152.269 155.392 L
152.49 158.011 L
152.71 159.478 L
152.93 162.254 L
153.15 158.587 L
153.37 160.525 L
153.591 159.687 L
153.811 157.173 L
154.031 156.911 L
154.251 159.635 L
154.471 158.116 L
154.692 156.492 L
154.912 155.601 L
155.132 151.62 L
155.352 149.577 L
155.572 146.853 L
155.792 149.629 L
156.013 153.558 L
156.233 170.688 L
156.453 183.366 L
156.673 190.281 L
156.893 186.928 L
157.114 187.714 L
157.334 172.679 L
157.554 164.192 L
157.774 163.878 L
157.994 170.479 L
158.215 171.684 L
158.435 172.889 L
158.655 168.383 L
158.875 171.736 L
159.095 169.064 L
159.316 163.354 L
159.536 160.892 L
159.756 161.73 L
159.976 158.168 L
160.196 155.13 L
160.417 159.687 L
160.637 158.954 L
160.857 164.297 L
161.077 164.192 L
161.297 164.873 L
161.518 160.473 L
161.738 161.678 L
161.958 154.606 L
162.178 150.31 L
162.398 145.176 L
162.618 143.605 L
162.839 144.024 L
163.059 138.418 L
163.279 136.428 L
163.499 136.794 L
163.719 135.799 L
163.94 131.294 L
164.16 133.965 L
164.38 133.18 L
164.6 134.28 L
164.82 132.027 L
165.041 131.399 L
165.261 129.984 L
165.481 128.36 L
165.701 130.875 L
165.921 138.576 L
166.142 143.081 L
166.362 146.433 L
166.582 153.925 L
166.802 152.144 L
167.022 154.815 L
167.243 154.396 L
167.463 156.963 L
167.683 151.672 L
167.903 151.567 L
168.123 145.7 L
168.343 143.709 L
168.564 141.981 L
168.784 141.509 L
169.004 141.666 L
169.224 144.495 L
169.444 143.552 L
169.665 145.49 L
169.885 145.124 L
170.105 144.967 L
170.325 149.839 L
170.545 158.378 L
170.766 158.011 L
170.986 157.749 L
171.206 158.43 L
171.426 153.348 L
171.646 146.748 L
171.867 144.862 L
172.087 145.648 L
172.307 143.919 L
172.527 143.552 L
172.747 141.614 L
172.968 142.085 L
173.188 141.509 L
173.408 143.867 L
173.628 143.657 L
173.848 147.481 L
174.068 144.076 L
174.289 143.447 L
174.509 140.671 L
174.729 141.352 L
174.949 139.885 L
175.169 142.085 L
175.39 143.971 L
175.61 144.967 L
175.83 140.042 L
176.05 140.776 L
176.27 142.085 L
176.491 142.452 L
176.711 145.91 L
176.931 150.624 L
177.151 151.515 L
177.371 151.463 L
177.592 150.939 L
177.812 148.372 L
178.032 152.458 L
178.252 156.439 L
178.472 155.496 L
178.693 156.177 L
178.913 154.344 L
179.133 146.8 L
179.353 140.409 L
179.573 141.509 L
179.794 144.862 L
180.014 147.638 L
180.234 149.734 L
180.454 151.253 L
180.674 151.201 L
180.894 147.691 L
181.115 146.695 L
181.335 149.367 L
181.555 157.277 L
181.775 166.969 L
181.995 173.727 L
182.216 179.28 L
182.436 183.156 L
182.656 179.542 L
182.876 174.67 L
183.096 166.602 L
183.317 160.84 L
183.537 156.073 L
183.757 150.048 L
183.977 146.433 L
184.197 151.829 L
184.418 156.858 L
184.638 156.701 L
184.858 159.373 L
185.078 158.22 L
185.298 157.801 L
185.519 158.116 L
185.739 158.011 L
185.959 159.216 L
186.179 158.063 L
186.399 154.972 L
186.619 151.043 L
186.84 151.515 L
187.06 150.624 L
187.28 155.234 L
187.5 156.23 L
187.72 153.453 L
187.941 150.729 L
188.161 149.419 L
188.381 143.657 L
188.601 140.147 L
188.821 143.29 L
189.042 143.081 L
189.262 145.49 L
189.482 147.481 L
189.702 146.695 L
189.922 143.605 L
190.143 145.857 L
190.363 139.728 L
190.583 142.347 L
190.803 147.167 L
191.023 146.748 L
191.244 145.543 L
191.464 150.782 L
191.684 150.729 L
191.904 150.52 L
192.124 151.096 L
192.344 150.048 L
192.565 148.581 L
192.785 150.048 L
193.005 150.782 L
193.225 155.025 L
193.445 161.259 L
193.666 163.616 L
193.886 162.988 L
194.106 161.73 L
194.326 160.002 L
194.546 154.501 L
194.767 156.911 L
194.987 154.868 L
195.207 155.549 L
195.427 157.12 L
195.647 154.029 L
195.868 149.734 L
196.088 147.953 L
196.308 148.791 L
196.528 146.538 L
196.748 147.01 L
196.969 143.552 L
197.189 142.819 L
197.409 136.637 L
197.629 139.361 L
197.849 140.985 L
198.07 145.543 L
198.29 148.267 L
198.51 152.196 L
198.73 151.62 L
198.95 149.734 L
199.17 145.281 L
199.391 148.896 L
199.611 146.748 L
199.831 141.666 L
200.051 142.452 L
200.271 148.005 L
200.492 140.671 L
200.712 141.771 L
200.932 144.495 L
201.152 143.5 L
201.372 138.628 L
201.593 139.676 L
201.813 138.209 L
202.033 136.375 L
202.253 137.109 L
202.473 141.981 L
202.694 147.115 L
202.914 148.057 L
203.134 150.52 L
203.354 157.592 L
203.574 157.539 L
203.795 153.558 L
204.015 153.61 L
204.235 151.986 L
204.455 147.219 L
204.675 141.928 L
204.895 142.347 L
205.116 142.976 L
205.336 141.562 L
205.556 143.447 L
205.776 152.144 L
205.996 156.387 L
206.217 162.988 L
206.437 169.431 L
206.657 169.693 L
206.877 165.607 L
207.097 162.464 L
207.318 155.182 L
207.538 152.772 L
207.758 153.61 L
207.978 155.025 L
208.198 158.849 L
208.419 161.049 L
208.639 158.587 L
208.859 158.273 L
209.079 154.658 L
209.299 149.786 L
209.52 148.529 L
209.74 150.834 L
209.96 150.624 L
210.18 151.305 L
210.4 151.724 L
210.62 152.825 L
210.841 149.105 L
211.061 146.8 L
211.281 143.814 L
211.501 141.09 L
211.721 147.848 L
211.942 155.758 L
212.162 161.364 L
212.382 161.73 L
212.602 162.359 L
212.822 155.706 L
213.043 149.524 L
213.263 142.505 L
213.483 146.643 L
213.703 146.8 L
213.923 146.433 L
214.144 149.21 L
214.364 152.144 L
214.584 152.406 L
214.804 156.177 L
215.024 152.196 L
215.245 152.982 L
215.465 152.72 L
215.685 152.091 L
215.905 151.043 L
216.125 160.106 L
216.346 162.621 L
216.566 161.259 L
216.786 157.33 L
217.006 154.815 L
217.226 148.581 L
217.446 145.176 L
217.667 146.538 L
217.887 149 L
218.107 150.572 L
218.327 153.139 L
218.547 152.72 L
218.768 152.825 L
218.988 153.715 L
219.208 154.92 L
219.428 154.92 L
219.648 154.082 L
219.869 153.977 L
220.089 153.977 L
220.309 152.248 L
220.529 153.663 L
220.749 154.029 L
220.97 152.248 L
221.19 153.034 L
221.41 154.187 L
221.63 150.153 L
221.85 151.043 L
222.071 151.305 L
222.291 150.782 L
222.511 153.453 L
222.731 158.22 L
222.951 160.787 L
223.171 164.926 L
223.392 167.021 L
223.612 169.117 L
223.832 168.279 L
224.052 162.149 L
224.272 157.906 L
224.493 155.025 L
224.713 152.563 L
224.933 147.638 L
225.153 155.287 L
225.373 157.016 L
225.594 163.354 L
225.814 165.397 L
226.034 175.194 L
226.254 176.189 L
226.474 181.218 L
226.695 180.485 L
226.915 181.899 L
227.135 179.28 L
227.355 175.403 L
227.575 171.317 L
227.796 168.121 L
228.016 164.559 L
228.236 161.678 L
228.456 160.944 L
228.676 161.102 L
228.896 163.407 L
229.117 164.402 L
229.337 165.031 L
229.557 166.602 L
229.777 170.06 L
229.997 169.012 L
230.218 169.641 L
230.438 167.493 L
230.658 164.035 L
230.878 158.378 L
231.098 158.639 L
231.319 156.23 L
231.539 160.683 L
231.759 164.926 L
231.979 169.379 L
232.199 168.96 L
232.42 171.474 L
232.64 165.397 L
232.86 158.22 L
233.08 154.082 L
233.3 150.886 L
233.521 142.976 L
233.741 145.7 L
233.961 146.119 L
234.181 144.652 L
234.401 145.229 L
234.622 149.839 L
234.842 148.005 L
235.062 148.424 L
235.282 147.953 L
235.502 146.014 L
235.722 143.657 L
235.943 140.776 L
236.163 140.985 L
236.383 140.828 L
236.603 142.557 L
236.823 146.643 L
237.044 149.367 L
237.264 156.125 L
237.484 160.316 L
237.704 160.316 L
237.924 156.02 L
238.145 156.544 L
238.365 150.362 L
238.585 151.043 L
238.805 151.672 L
239.025 153.506 L
239.246 155.811 L
239.466 155.496 L
239.686 150.205 L
239.906 147.324 L
240.126 145.386 L
240.347 141.038 L
240.567 139.257 L
240.787 137.004 L
241.007 132.708 L
241.227 131.713 L
241.447 131.503 L
241.668 134.018 L
241.888 137.004 L
242.108 142.976 L
242.328 144.338 L
242.548 144.967 L
242.769 144.443 L
242.989 142.662 L
243.209 138.104 L
243.429 137.213 L
243.649 136.899 L
243.87 136.585 L
244.09 138.942 L
244.31 141.666 L
244.53 142.505 L
244.75 141.038 L
244.971 140.304 L
245.191 141.3 L
245.411 143.657 L
245.631 145.019 L
245.851 147.9 L
246.072 149.158 L
246.292 145.91 L
246.512 141.247 L
246.732 137.213 L
246.952 134.385 L
247.173 133.442 L
247.393 136.27 L
247.613 140.88 L
247.833 143.186 L
248.053 149.21 L
248.273 146.172 L
248.494 143.343 L
248.714 139.99 L
248.934 139.047 L
249.154 131.765 L
249.374 131.608 L
249.595 130.665 L
249.815 129.984 L
250.035 130.613 L
250.255 132.027 L
250.475 132.656 L
250.696 131.765 L
250.916 130.089 L
251.136 128.203 L
251.356 128.936 L
251.576 127.836 L
251.797 128.36 L
252.017 127.836 L
252.237 126.16 L
252.457 123.122 L
252.677 124.222 L
252.898 122.912 L
253.118 123.907 L
253.338 125.688 L
253.558 126.108 L
253.778 125.636 L
253.998 127.784 L
254.219 128.151 L
254.439 129.565 L
254.659 132.813 L
254.879 135.799 L
255.099 134.804 L
255.32 136.48 L
255.54 137.633 L
255.76 136.794 L
255.98 136.847 L
256.2 139.676 L
256.421 139.204 L
256.641 139.204 L
256.861 140.252 L
257.081 140.88 L
257.301 143.5 L
257.522 145.386 L
257.742 146.329 L
257.962 149.367 L
258.182 150.1 L
258.402 147.167 L
258.623 145.857 L
258.843 143.5 L
259.063 140.671 L
259.283 139.885 L
259.503 142.609 L
259.723 142.819 L
259.944 140.88 L
260.164 139.571 L
260.384 134.699 L
260.604 132.708 L
260.824 133.599 L
261.045 138.576 L
261.265 140.828 L
261.485 145.543 L
261.705 144.548 L
261.925 144.757 L
262.146 143.29 L
262.366 140.566 L
262.586 137.371 L
262.806 137.475 L
263.026 134.751 L
263.247 133.546 L
263.467 135.275 L
263.687 136.794 L
263.907 136.375 L
264.127 136.585 L
264.348 135.485 L
264.568 134.908 L
264.788 135.642 L
265.008 135.747 L
265.228 136.113 L
265.449 136.166 L
265.669 136.009 L
265.889 136.428 L
266.109 137.004 L
266.329 137.266 L
266.549 136.952 L
266.77 134.542 L
266.99 134.175 L
267.21 134.856 L
267.43 136.794 L
267.65 137.894 L
267.871 142.19 L
268.091 140.199 L
268.311 141.509 L
268.531 141.719 L
268.751 142.766 L
268.972 139.466 L
269.192 139.728 L
269.412 135.956 L
269.632 132.394 L
269.852 130.141 L
270.073 129.041 L
270.293 130.56 L
270.513 130.822 L
270.733 133.861 L
270.953 134.385 L
271.174 134.227 L
271.394 132.708 L
271.614 131.399 L
271.834 130.613 L
272.054 132.603 L
272.274 137.161 L
272.495 141.823 L
272.715 143.971 L
272.935 141.981 L
273.155 140.514 L
273.375 140.095 L
273.596 136.952 L
273.816 136.637 L
274.036 136.061 L
274.256 136.48 L
274.476 132.918 L
274.697 131.818 L
274.917 130.927 L
275.137 130.718 L
275.357 129.879 L
275.577 127.103 L
275.798 125.636 L
276.018 126.527 L
276.238 126.527 L
276.458 126.684 L
276.678 129.46 L
276.899 127.417 L
277.119 125.06 L
277.339 124.431 L
277.559 120.397 L
277.779 119.035 L
277.999 121.445 L
278.22 122.545 L
278.44 123.488 L
278.66 124.903 L
278.88 125.217 L
279.1 126.055 L
279.321 124.588 L
279.541 125.269 L
279.761 126.474 L
279.981 128.255 L
280.201 126.422 L
280.422 126.579 L
280.642 123.017 L
280.862 121.498 L
281.082 120.135 L
281.302 120.031 L
281.523 120.24 L
281.743 123.593 L
281.963 127.627 L
282.183 128.36 L
282.403 130.351 L
282.624 130.979 L
282.844 132.813 L
283.064 130.979 L
283.284 131.503 L
283.504 131.399 L
283.725 133.599 L
283.945 131.818 L
284.165 133.389 L
284.385 133.756 L
284.605 134.646 L
284.825 134.751 L
285.046 134.699 L
285.266 132.918 L
285.486 131.556 L
285.706 130.665 L
285.926 128.832 L
286.147 128.046 L
286.367 127.417 L
286.587 127.103 L
286.807 125.688 L
287.027 125.584 L
287.248 125.95 L
287.468 124.85 L
287.688 125.165 L
287.908 126.317 L
288.128 126.736 L
288.349 126.055 L
288.569 126.684 L
288.789 126.736 L
289.009 126.317 L
289.229 125.479 L
289.45 125.636 L
289.67 126.998 L
289.89 127.889 L
290.11 127.417 L
290.33 126.893 L
290.55 129.565 L
290.771 129.041 L
290.991 126.422 L
291.211 126.055 L
291.431 126.317 L
291.651 123.593 L
291.872 121.498 L
292.092 120.607 L
292.312 119.454 L
292.532 118.721 L
292.752 119.769 L
292.973 121.078 L
293.193 121.917 L
293.413 123.436 L
293.633 124.641 L
293.853 122.179 L
294.074 120.816 L
294.294 121.445 L
294.514 118.669 L
294.734 119.507 L
294.954 120.031 L
295.175 121.498 L
295.395 121.288 L
295.615 123.698 L
295.835 121.445 L
296.055 121.655 L
296.275 121.34 L
296.496 120.974 L
296.716 119.716 L
296.936 119.088 L
297.156 118.459 L
297.376 117.621 L
297.597 117.883 L
297.817 119.297 L
298.037 120.869 L
298.257 121.55 L
298.477 121.131 L
298.698 120.45 L
298.918 120.293 L
299.138 119.926 L
299.358 120.24 L
299.578 122.441 L
299.799 123.436 L
300.019 123.226 L
300.239 124.536 L
300.459 126.369 L
300.679 125.112 L
300.9 126.946 L
301.12 129.513 L
301.34 128.151 L
301.56 127.26 L
301.78 127.208 L
302.001 124.955 L
302.221 120.397 L
302.441 118.197 L
302.661 115.525 L
302.881 113.849 L
303.101 115.106 L
303.322 116.259 L
303.542 117.778 L
303.762 117.778 L
303.982 118.25 L
304.202 116.364 L
304.423 115.525 L
304.643 115.578 L
304.863 116.311 L
305.083 118.092 L
305.303 119.507 L
305.524 119.035 L
305.744 119.14 L
305.964 120.555 L
306.184 120.974 L
306.404 119.664 L
306.625 122.231 L
306.845 122.702 L
307.065 121.655 L
307.285 121.759 L
307.505 124.117 L
307.726 124.536 L
307.946 124.431 L
308.166 125.584 L
308.386 124.536 L
308.606 122.388 L
308.826 119.874 L
309.047 119.874 L
309.267 119.874 L
309.487 120.607 L
309.707 121.759 L
309.927 122.912 L
310.148 121.864 L
310.368 121.393 L
310.588 120.135 L
310.808 119.874 L
311.028 119.245 L
311.249 120.293 L
311.469 119.559 L
311.689 120.974 L
311.909 121.34 L
312.129 122.231 L
312.35 120.659 L
312.57 121.445 L
312.79 119.454 L
313.01 118.773 L
313.23 118.512 L
313.451 120.345 L
313.671 121.34 L
313.891 121.288 L
314.111 121.759 L
314.331 123.803 L
314.551 123.645 L
314.772 123.803 L
314.992 126.265 L
315.212 126.212 L
315.432 122.964 L
315.652 120.502 L
315.873 118.197 L
316.093 117.045 L
316.313 118.092 L
316.533 121.445 L
316.753 124.484 L
316.974 126.631 L
317.194 128.413 L
317.414 128.57 L
317.634 127.732 L
317.854 126.789 L
318.075 125.846 L
318.295 124.379 L
318.515 123.279 L
318.735 122.231 L
318.955 123.593 L
319.176 122.86 L
319.396 121.969 L
319.616 122.074 L
319.836 122.021 L
320.056 121.55 L
320.277 122.493 L
320.497 124.012 L
320.717 124.169 L
320.937 125.374 L
321.157 125.479 L
321.377 125.374 L
321.598 124.484 L
321.818 125.007 L
322.038 123.645 L
322.258 123.75 L
322.478 124.85 L
322.699 125.95 L
322.919 124.955 L
323.139 124.955 L
323.359 126.422 L
323.579 125.322 L
323.8 124.693 L
324.02 125.269 L
324.24 125.793 L
324.46 123.383 L
324.68 123.803 L
324.901 124.745 L
325.121 125.898 L
325.341 125.112 L
325.561 124.85 L
325.781 123.017 L
326.002 120.659 L
326.222 120.659 L
326.442 122.545 L
326.662 125.007 L
326.882 127.836 L
327.102 131.032 L
327.323 132.446 L
327.543 133.756 L
327.763 134.07 L
327.983 134.594 L
328.203 133.494 L
328.424 131.922 L
328.644 129.984 L
328.864 129.041 L
329.084 128.046 L
329.304 127.993 L
329.525 127.417 L
329.745 128.151 L
329.965 128.046 L
330.185 128.203 L
330.405 129.355 L
330.626 129.146 L
330.846 129.146 L
331.066 129.094 L
331.286 129.303 L
331.506 128.779 L
331.727 130.194 L
331.947 130.298 L
332.167 130.246 L
332.387 129.041 L
332.607 128.255 L
332.827 128.674 L
333.048 127.941 L
333.268 129.827 L
333.488 130.979 L
333.708 130.508 L
333.928 129.67 L
334.149 130.298 L
334.369 128.36 L
334.589 127.574 L
334.809 127.993 L
335.029 127.732 L
335.25 126.893 L
335.47 127.889 L
335.69 129.932 L
335.91 130.246 L
336.13 131.451 L
336.351 133.18 L
336.571 133.284 L
336.791 132.08 L
337.011 132.499 L
337.231 131.556 L
337.452 130.456 L
337.672 130.246 L
337.892 130.089 L
338.112 129.879 L
338.332 130.141 L
338.553 130.822 L
338.773 130.875 L
338.993 130.875 L
339.213 130.456 L
339.433 131.084 L
339.653 131.87 L
339.874 132.551 L
340.094 133.075 L
340.314 134.385 L
340.534 134.175 L
340.754 133.389 L
340.975 132.446 L
341.195 132.132 L
341.415 131.556 L
341.635 130.456 L
341.855 130.875 L
342.076 130.875 L
342.296 131.346 L
342.516 131.713 L
342.736 132.08 L
342.956 130.822 L
343.177 130.979 L
343.397 129.879 L
343.617 130.089 L
343.837 130.665 L
344.057 131.608 L
344.278 131.818 L
344.498 132.184 L
344.718 130.403 L
344.938 128.989 L
345.158 128.517 L
345.378 128.255 L
345.599 127.941 L
345.819 128.57 L
346.039 128.57 L
346.259 128.308 L
346.479 127.312 L
346.7 128.413 L
346.92 129.198 L
347.14 130.822 L
347.36 132.132 L
347.58 133.808 L
347.801 133.442 L
348.021 133.756 L
348.241 134.804 L
348.461 134.385 L
348.681 134.07 L
348.902 133.599 L
349.122 132.289 L
349.342 130.456 L
349.562 130.246 L
349.782 129.932 L
350.003 131.818 L
350.223 131.818 L
350.443 131.608 L
350.663 131.346 L
350.883 131.556 L
351.104 131.294 L
351.324 132.813 L
351.544 133.284 L
351.764 134.07 L
351.984 133.023 L
352.204 132.342 L
352.425 133.18 L
352.645 133.494 L
352.865 133.913 L
353.085 135.17 L
353.305 135.223 L
353.526 134.961 L
353.746 135.904 L
353.966 135.851 L
354.186 136.48 L
354.406 137.109 L
354.627 136.48 L
354.847 135.275 L
355.067 134.489 L
355.287 133.913 L
355.507 132.603 L
355.728 131.294 L
355.948 129.879 L
356.168 128.936 L
356.388 127.732 L
356.608 126.579 L
356.829 126.736 L
357.049 126.841 L
357.269 125.95 L
357.489 126.212 L
357.709 126.893 L
357.929 127.05 L
358.15 128.465 L
358.37 130.141 L
358.59 129.827 L
358.81 132.184 L
359.03 133.284 L
359.251 134.594 L
359.471 135.851 L
359.691 137.213 L
359.911 135.642 L
360.131 134.489 L
360.352 133.232 L
360.572 132.551 L
360.792 132.551 L
361.012 133.232 L
361.232 133.861 L
361.453 133.913 L
361.673 133.861 L
361.893 133.704 L
362.113 133.546 L
362.333 133.704 L
362.554 134.018 L
362.774 134.385 L
362.994 134.489 L
363.214 135.013 L
363.434 134.646 L
363.654 134.07 L
363.875 133.546 L
364.095 133.704 L
364.315 133.442 L
364.535 133.756 L
364.755 133.861 L
364.976 133.127 L
365.196 132.918 L
365.416 132.394 L
365.636 132.08 L
365.856 132.499 L
366.077 133.808 L
366.297 133.389 L
366.517 133.546 L
366.737 134.018 L
366.957 133.442 L
367.178 132.394 L
367.398 132.132 L
367.618 131.608 L
367.838 131.032 L
368.058 130.56 L
368.279 130.403 L
368.499 129.879 L
368.719 128.884 L
368.939 127.889 L
369.159 127.627 L
369.38 127.522 L
369.6 127.574 L
369.82 128.36 L
370.04 129.094 L
370.26 130.246 L
370.48 131.241 L
370.701 132.289 L
370.921 133.704 L
371.141 133.704 L
371.361 133.494 L
371.581 133.389 L
371.802 133.442 L
372.022 132.446 L
372.242 132.237 L
372.462 131.189 L
372.682 129.617 L
372.903 128.308 L
373.123 127.155 L
373.343 127.522 L
373.563 127.47 L
373.783 127.732 L
374.004 127.941 L
374.224 128.203 L
374.444 127.784 L
374.664 128.674 L
374.884 128.779 L
375.104 129.146 L
375.325 129.251 L
375.545 128.936 L
375.765 127.941 L
375.985 127.889 L
376.206 127.574 L
376.426 127.47 L
376.646 127.836 L
376.866 128.255 L
377.086 128.151 L
377.306 128.046 L
377.527 127.941 L
377.747 127.679 L
377.967 127.208 L
378.187 126.789 L
378.407 126.16 L
378.628 125.426 L
378.848 124.641 L
379.068 124.431 L
379.288 124.536 L
379.508 124.955 L
379.729 125.374 L
379.949 125.95 L
380.169 126.108 L
380.389 126.317 L
380.609 125.95 L
380.83 125.322 L
381.05 124.431 L
381.27 123.96 L
381.49 123.174 L
381.71 121.864 L
381.93 121.917 L
382.151 122.231 L
382.371 122.283 L
382.591 121.917 L
382.811 123.069 L
383.031 122.388 L
383.252 122.388 L
383.472 122.021 L
383.692 122.388 L
383.912 121.445 L
384.132 122.021 L
384.353 121.445 L
384.573 121.183 L
384.793 121.602 L
385.013 122.65 L
385.233 123.226 L
385.454 123.645 L
385.674 124.274 L
385.894 123.593 L
386.114 122.807 L
386.334 121.917 L
386.555 121.55 L
386.775 121.236 L
386.995 121.812 L
387.215 121.969 L
387.435 121.812 L
387.656 121.288 L
387.876 120.974 L
388.096 119.874 L
388.316 119.245 L
388.536 119.245 L
388.756 119.507 L
388.977 119.874 L
389.197 120.24 L
389.417 120.607 L
389.637 120.345 L
389.857 120.135 L
390.078 119.612 L
390.298 119.664 L
390.518 119.874 L
390.738 120.083 L
390.958 120.293 L
391.179 120.502 L
391.399 120.555 L
391.619 120.764 L
391.839 120.816 L
392.059 120.869 L
392.28 120.712 L
392.5 120.869 L
392.72 120.555 L
392.94 120.555 L
393.16 120.45 L
393.38 120.555 L
393.601 120.816 L
393.821 120.397 L
394.041 120.293 L
394.261 120.345 L
394.482 119.874 L
394.702 119.245 L
394.922 119.769 L
395.142 119.664 L
395.362 119.612 L
395.582 119.874 L
395.803 119.454 L
396.023 118.931 L
396.243 119.14 L
396.463 118.826 L
396.683 118.616 L
396.904 118.669 L
397.124 118.878 L
397.344 118.459 L
397.564 118.616 L
397.784 118.354 L
398.005 117.988 L
398.225 117.202 L
398.445 116.416 L
398.665 115.578 L
398.885 114.844 L
399.106 114.74 L
399.326 114.792 L
399.546 115.264 L
399.766 115.578 L
399.986 115.945 L
400.206 116.102 L
400.427 116.259 L
400.647 116.468 L
400.867 116.992 L
401.087 117.883 L
401.307 118.564 L
401.528 118.826 L
401.748 119.454 L
401.968 119.926 L
402.188 120.345 L
402.408 120.397 L
402.629 121.445 L
402.849 121.759 L
403.069 121.759 L
403.289 121.602 L
403.509 121.864 L
403.73 121.917 L
403.95 121.445 L
404.17 120.921 L
404.39 120.869 L
404.61 120.764 L
404.831 120.555 L
405.051 120.555 L
405.271 121.445 L
405.491 121.288 L
405.711 121.498 L
405.932 121.078 L
406.152 120.921 L
406.372 119.769 L
406.592 119.874 L
406.812 119.821 L
407.032 120.188 L
407.253 120.764 L
407.473 121.812 L
407.693 121.969 L
407.913 121.969 L
408.133 122.074 L
408.354 122.021 L
408.574 122.074 L
408.794 122.336 L
409.014 121.917 L
409.234 121.498 L
409.455 121.498 L
409.675 121.026 L
409.895 120.188 L
410.115 119.664 L
410.335 119.245 L
410.556 118.564 L
410.776 118.616 L
410.996 118.773 L
411.216 119.297 L
411.436 119.559 L
411.656 119.664 L
411.877 119.769 L
412.097 119.507 L
412.317 119.193 L
412.537 119.088 L
412.758 119.088 L
412.978 118.512 L
413.198 118.931 L
413.418 119.297 L
413.638 119.454 L
413.858 119.35 L
414.079 118.983 L
414.299 118.512 L
414.519 118.302 L
414.739 117.935 L
414.959 117.988 L
415.18 118.092 L
415.4 118.04 L
415.62 117.883 L
415.84 117.83 L
416.06 117.516 L
416.281 118.145 L
416.501 118.616 L
416.721 118.616 L
416.941 118.878 L
417.161 119.821 L
417.382 119.507 L
417.602 118.931 L
417.822 118.564 L
418.042 118.354 L
418.262 117.726 L
418.482 117.883 L
418.703 118.354 L
418.923 118.931 L
419.143 119.035 L
419.363 119.088 L
419.583 118.931 L
419.804 118.826 L
420.024 118.669 L
420.244 118.302 L
420.464 118.04 L
420.684 117.83 L
420.905 117.83 L
421.125 118.145 L
421.345 118.616 L
421.565 118.512 L
421.785 118.773 L
422.006 118.773 L
422.226 118.564 L
422.446 118.512 L
422.666 118.721 L
422.886 118.669 L
423.107 118.773 L
423.327 118.669 L
423.547 118.407 L
423.767 118.407 L
423.987 118.512 L
424.208 118.197 L
424.428 117.988 L
424.648 118.145 L
424.868 117.988 L
425.088 117.516 L
425.308 117.254 L
425.529 117.097 L
425.749 116.835 L
425.969 116.678 L
426.189 116.364 L
426.409 116.206 L
426.63 115.735 L
426.85 115.159 L
427.07 115.054 L
427.29 115.368 L
427.51 115.683 L
427.731 116.154 L
427.951 116.468 L
428.171 116.521 L
428.391 116.416 L
428.611 116.206 L
428.832 115.84 L
429.052 115.787 L
429.272 115.525 L
429.492 115.473 L
429.712 115.63 L
429.932 115.997 L
430.153 115.787 L
430.373 115.473 L
430.593 115.211 L
430.813 115.264 L
431.034 115.421 L
431.254 115.945 L
431.474 116.626 L
431.694 117.097 L
431.914 117.464 L
432.134 117.83 L
432.355 118.354 L
432.575 118.983 L
432.795 119.507 L
433.015 119.559 L
433.235 119.769 L
433.456 119.874 L
433.676 119.769 L
433.896 119.821 L
434.116 119.926 L
434.336 119.874 L
434.557 119.769 L
434.777 119.769 L
434.997 119.559 L
435.217 119.507 L
435.437 119.402 L
435.658 118.983 L
435.878 118.931 L
436.098 118.669 L
436.318 118.459 L
436.538 118.354 L
436.758 118.302 L
436.979 118.04 L
437.199 117.673 L
437.419 117.202 L
437.639 116.94 L
437.859 116.992 L
438.08 116.888 L
438.3 116.94 L
438.52 117.359 L
438.74 117.516 L
438.96 117.464 L
439.181 117.411 L
439.401 117.621 L
439.621 117.411 L
439.841 117.307 L
440.061 117.621 L
440.282 117.883 L
440.502 118.302 L
440.722 118.826 L
440.942 119.193 L
441.162 119.507 L
441.383 119.821 L
441.603 120.083 L
441.823 120.188 L
442.043 120.345 L
442.263 120.397 L
442.484 120.397 L
442.704 120.45 L
442.924 120.659 L
443.144 120.555 L
443.364 120.293 L
443.584 119.769 L
443.805 119.35 L
444.025 118.721 L
444.245 118.145 L
444.465 117.726 L
444.685 117.778 L
444.906 117.621 L
445.126 117.778 L
445.346 118.092 L
445.566 118.302 L
445.786 118.616 L
446.007 119.088 L
446.227 119.245 L
446.447 119.402 L
446.667 119.559 L
446.887 119.559 L
447.108 119.454 L
447.328 119.402 L
447.548 119.193 L
447.768 119.088 L
447.988 118.878 L
448.208 118.616 L
448.429 118.512 L
448.649 118.616 L
448.869 118.669 L
449.089 118.773 L
449.31 118.721 L
449.53 118.616 L
449.75 118.459 L
449.97 118.302 L
450.19 118.354 L
450.41 118.721 L
450.631 118.983 L
450.851 119.297 L
451.071 119.559 L
451.291 119.454 L
451.511 119.193 L
451.732 119.193 L
451.952 119.35 L
452.172 119.507 L
452.392 119.35 L
452.612 119.245 L
452.833 118.721 L
453.053 118.197 L
453.273 117.778 L
453.493 117.935 L
453.713 118.092 L
453.934 118.512 L
454.154 118.931 L
454.374 119.035 L
454.594 118.878 L
454.814 118.616 L
455.034 118.354 L
455.255 118.092 L
455.475 117.988 L
455.695 118.145 L
455.915 118.407 L
456.135 118.773 L
456.356 118.878 L
456.576 119.035 L
456.796 119.297 L
457.016 119.35 L
457.236 119.402 L
457.457 119.402 L
457.677 119.454 L
457.897 119.245 L
458.117 119.035 L
458.337 118.669 L
458.558 118.512 L
458.778 118.302 L
458.998 118.092 L
459.218 118.092 L
459.438 118.145 L
459.659 118.407 L
459.879 118.931 L
460.099 119.35 L
460.319 119.821 L
460.539 119.874 L
460.76 119.716 L
460.98 119.35 L
461.2 119.14 L
461.42 118.721 L
461.64 118.564 L
461.86 118.354 L
462.081 118.302 L
462.301 118.145 L
462.521 118.302 L
462.741 118.512 L
462.961 118.773 L
463.182 118.931 L
463.402 119.35 L
463.622 119.507 L
463.842 119.507 L
464.062 119.454 L
464.283 119.297 L
464.503 119.088 L
464.723 118.878 L
464.943 118.983 L
465.163 119.245 L
465.384 119.612 L
465.604 120.083 L
465.824 120.502 L
466.044 120.869 L
466.264 121.236 L
466.485 121.34 L
466.705 121.183 L
466.925 121.236 L
467.145 121.236 L
467.365 121.078 L
467.586 121.131 L
467.806 121.236 L
468.026 121.288 L
468.246 121.445 L
468.466 121.55 L
468.686 121.445 L
468.907 121.55 L
469.127 121.55 L
469.347 121.445 L
469.567 121.183 L
469.787 121.288 L
470.008 121.183 L
470.228 121.393 L
470.448 121.393 L
470.668 121.55 L
470.888 121.655 L
471.109 121.759 L
471.329 121.55 L
471.549 121.602 L
471.769 121.393 L
471.989 121.236 L
472.21 121.393 L
472.43 121.602 L
472.65 121.707 L
472.87 121.917 L
473.09 122.074 L
473.31 121.969 L
473.531 121.969 L
473.751 121.917 L
473.971 122.074 L
474.191 122.179 L
474.411 122.126 L
474.632 121.812 L
474.852 121.55 L
475.072 121.393 L
475.292 121.288 L
475.512 121.34 L
475.733 121.55 L
475.953 121.969 L
476.173 122.441 L
476.393 122.65 L
476.613 122.755 L
476.834 122.964 L
477.054 122.912 L
477.274 122.702 L
477.494 122.65 L
477.714 122.598 L
477.935 122.493 L
478.155 122.441 L
478.375 122.388 L
478.595 122.126 L
478.815 121.969 L
479.036 121.707 L
479.256 121.498 L
479.476 121.34 L
479.696 121.34 L
479.916 121.288 L
480.136 121.288 L
480.357 121.655 L
480.577 121.917 L
480.797 122.179 L
481.017 122.441 L
481.237 122.702 L
481.458 122.545 L
481.678 122.441 L
481.898 122.493 L
482.118 122.493 L
482.338 122.65 L
482.559 122.964 L
482.779 123.226 L
482.999 123.331 L
483.219 123.488 L
483.439 123.436 L
483.66 123.436 L
483.88 123.488 L
484.1 123.488 L
484.32 123.541 L
484.54 123.593 L
484.761 123.541 L
484.981 123.541 L
485.201 123.541 L
485.421 123.593 L
485.641 123.75 L
485.862 123.907 L
486.082 123.907 L
486.302 123.907 L
486.522 123.645 L
486.742 123.436 L
486.962 123.122 L
487.183 122.912 L
487.403 122.702 L
487.623 122.755 L
487.843 122.598 L
488.063 122.493 L
488.284 122.598 L
488.504 122.598 L
488.724 122.441 L
488.944 122.388 L
489.164 122.441 L
489.385 122.283 L
489.605 122.493 L
489.825 122.86 L
490.045 123.174 L
490.265 123.383 L
490.486 123.593 L
490.706 123.593 L
490.926 123.383 L
491.146 123.383 L
491.366 123.331 L
491.586 123.383 L
491.807 123.75 L
492.027 124.117 L
492.247 124.326 L
492.467 124.693 L
492.687 124.903 L
492.908 124.85 L
493.128 124.85 L
493.348 124.798 L
493.568 124.588 L
493.788 124.379 L
494.009 124.169 L
494.229 124.012 L
494.449 124.012 L
494.669 124.012 L
494.889 124.274 L
495.11 124.484 L
495.33 124.693 L
495.55 124.798 L
495.77 125.06 L
495.99 125.007 L
496.211 124.955 L
496.431 124.903 L
496.651 124.798 L
496.871 124.379 L
497.091 123.855 L
497.312 123.436 L
497.532 123.122 L
497.752 122.912 L
497.972 123.226 L
498.192 123.593 L
498.412 124.012 L
498.633 124.431 L
498.853 124.85 L
499.073 124.798 L
499.293 124.798 L
499.513 124.693 L
499.734 124.536 L
499.954 124.169 L
500.174 123.96 L
500.394 123.803 L
500.614 123.75 L
500.835 123.698 L
501.055 123.96 L
501.275 124.169 L
501.495 124.379 L
501.715 124.484 L
501.936 124.588 L
502.156 124.536 L
502.376 124.326 L
502.596 124.169 L
502.816 124.064 L
503.037 123.907 L
503.257 123.75 L
503.477 123.803 L
503.697 123.907 L
503.917 124.117 L
504.138 124.222 L
504.358 124.466 L
504.578 124.379 L
S
GR
GS
[0.75 0 0 0.75 0 0] CT
1 GC
N
363 361 M
363 324 L
494 324 L
494 361 L
cp
f
GR
GS
[0.75 0 0 0.75 300 250.60275] CT
/Helvetica 12 F
GS
[1 0 0 1 0 0] CT
0 5 moveto 
1 -1 scale
(gloD80M150A) t 
GR
GR
GS
[0.75 0 0 0.75 0 0] CT
0 0.447 0.741 RC
1 LJ
0.667 LW
N
367 334.137 M
397 334.137 L
S
GR
GS
[0.75 0 0 0.75 300 263.14725] CT
/Helvetica 12 F
GS
[1 0 0 1 0 0] CT
0 5 moveto 
1 -1 scale
(gloD80M150A99) t 
GR
GR
GS
[0.75 0 0 0.75 0 0] CT
0.851 0.325 0.098 RC
1 LJ
0.667 LW
N
367 350.863 M
397 350.863 L
S
GR
GS
[0.75 0 0 0.75 0 0] CT
0.149 GC
10.0 ML
0.667 LW
N
363 361 M
363 324 L
494 324 L
494 361 L
cp
S
GR
%%Trailer
%%Pages: 1
%%EOF
