%!PS-Adobe-3.0 EPSF-3.0
%%Creator: (MATLAB, The Mathworks, Inc. Version 9.0.0.341360 \(R2016a\). Operating System: Windows 8)
%%Title: ../doc/thesis/figures/Initialization_Type.eps
%%CreationDate: 2016-08-23T23:41:44
%%Pages: (atend)
%%BoundingBox:    17     2   387   305
%%LanguageLevel: 3
%%EndComments
%%BeginProlog
%%BeginResource: procset (Apache XML Graphics Std ProcSet) 1.2 0
%%Version: 1.2 0
%%Copyright: (Copyright 2001-2003,2010 The Apache Software Foundation. License terms: http://www.apache.org/licenses/LICENSE-2.0)
/bd{bind def}bind def
/ld{load def}bd
/GR/grestore ld
/M/moveto ld
/LJ/setlinejoin ld
/C/curveto ld
/f/fill ld
/LW/setlinewidth ld
/GC/setgray ld
/t/show ld
/N/newpath ld
/CT/concat ld
/cp/closepath ld
/S/stroke ld
/L/lineto ld
/CC/setcmykcolor ld
/A/ashow ld
/GS/gsave ld
/RC/setrgbcolor ld
/RM/rmoveto ld
/ML/setmiterlimit ld
/re {4 2 roll M
1 index 0 rlineto
0 exch rlineto
neg 0 rlineto
cp } bd
/_ctm matrix def
/_tm matrix def
/BT { _ctm currentmatrix pop matrix _tm copy pop 0 0 moveto } bd
/ET { _ctm setmatrix } bd
/iTm { _ctm setmatrix _tm concat } bd
/Tm { _tm astore pop iTm 0 0 moveto } bd
/ux 0.0 def
/uy 0.0 def
/F {
  /Tp exch def
  /Tf exch def
  Tf findfont Tp scalefont setfont
  /cf Tf def  /cs Tp def
} bd
/ULS {currentpoint /uy exch def /ux exch def} bd
/ULE {
  /Tcx currentpoint pop def
  gsave
  newpath
  cf findfont cs scalefont dup
  /FontMatrix get 0 get /Ts exch def /FontInfo get dup
  /UnderlinePosition get Ts mul /To exch def
  /UnderlineThickness get Ts mul /Tt exch def
  ux uy To add moveto  Tcx uy To add lineto
  Tt setlinewidth stroke
  grestore
} bd
/OLE {
  /Tcx currentpoint pop def
  gsave
  newpath
  cf findfont cs scalefont dup
  /FontMatrix get 0 get /Ts exch def /FontInfo get dup
  /UnderlinePosition get Ts mul /To exch def
  /UnderlineThickness get Ts mul /Tt exch def
  ux uy To add cs add moveto Tcx uy To add cs add lineto
  Tt setlinewidth stroke
  grestore
} bd
/SOE {
  /Tcx currentpoint pop def
  gsave
  newpath
  cf findfont cs scalefont dup
  /FontMatrix get 0 get /Ts exch def /FontInfo get dup
  /UnderlinePosition get Ts mul /To exch def
  /UnderlineThickness get Ts mul /Tt exch def
  ux uy To add cs 10 mul 26 idiv add moveto Tcx uy To add cs 10 mul 26 idiv add lineto
  Tt setlinewidth stroke
  grestore
} bd
/QT {
/Y22 exch store
/X22 exch store
/Y21 exch store
/X21 exch store
currentpoint
/Y21 load 2 mul add 3 div exch
/X21 load 2 mul add 3 div exch
/X21 load 2 mul /X22 load add 3 div
/Y21 load 2 mul /Y22 load add 3 div
/X22 load /Y22 load curveto
} bd
/SSPD {
dup length /d exch dict def
{
/v exch def
/k exch def
currentpagedevice k known {
/cpdv currentpagedevice k get def
v cpdv ne {
/upd false def
/nullv v type /nulltype eq def
/nullcpdv cpdv type /nulltype eq def
nullv nullcpdv or
{
/upd true def
} {
/sametype v type cpdv type eq def
sametype {
v type /arraytype eq {
/vlen v length def
/cpdvlen cpdv length def
vlen cpdvlen eq {
0 1 vlen 1 sub {
/i exch def
/obj v i get def
/cpdobj cpdv i get def
obj cpdobj ne {
/upd true def
exit
} if
} for
} {
/upd true def
} ifelse
} {
v type /dicttype eq {
v {
/dv exch def
/dk exch def
/cpddv cpdv dk get def
dv cpddv ne {
/upd true def
exit
} if
} forall
} {
/upd true def
} ifelse
} ifelse
} if
} ifelse
upd true eq {
d k v put
} if
} if
} if
} forall
d length 0 gt {
d setpagedevice
} if
} bd
%%EndResource
%%BeginResource: procset (Apache XML Graphics EPS ProcSet) 1.0 0
%%Version: 1.0 0
%%Copyright: (Copyright 2002-2003 The Apache Software Foundation. License terms: http://www.apache.org/licenses/LICENSE-2.0)
/BeginEPSF { %def
/b4_Inc_state save def         % Save state for cleanup
/dict_count countdictstack def % Count objects on dict stack
/op_count count 1 sub def      % Count objects on operand stack
userdict begin                 % Push userdict on dict stack
/showpage { } def              % Redefine showpage, { } = null proc
0 setgray 0 setlinecap         % Prepare graphics state
1 setlinewidth 0 setlinejoin
10 setmiterlimit [ ] 0 setdash newpath
/languagelevel where           % If level not equal to 1 then
{pop languagelevel             % set strokeadjust and
1 ne                           % overprint to their defaults.
{false setstrokeadjust false setoverprint
} if
} if
} bd
/EndEPSF { %def
count op_count sub {pop} repeat            % Clean up stacks
countdictstack dict_count sub {end} repeat
b4_Inc_state restore
} bd
%%EndResource
%FOPBeginFontDict
%%IncludeResource: font Courier-Bold
%%IncludeResource: font Helvetica
%%IncludeResource: font Courier-BoldOblique
%%IncludeResource: font Courier-Oblique
%%IncludeResource: font Times-Roman
%%IncludeResource: font Helvetica-BoldOblique
%%IncludeResource: font Helvetica-Bold
%%IncludeResource: font Helvetica-Oblique
%%IncludeResource: font Times-BoldItalic
%%IncludeResource: font Courier
%%IncludeResource: font Times-Italic
%%IncludeResource: font Times-Bold
%%IncludeResource: font Symbol
%%IncludeResource: font ZapfDingbats
%FOPEndFontDict
%%BeginResource: encoding WinAnsiEncoding
/WinAnsiEncoding [
/.notdef /.notdef /.notdef /.notdef /.notdef
/.notdef /.notdef /.notdef /.notdef /.notdef
/.notdef /.notdef /.notdef /.notdef /.notdef
/.notdef /.notdef /.notdef /.notdef /.notdef
/.notdef /.notdef /.notdef /.notdef /.notdef
/.notdef /.notdef /.notdef /.notdef /.notdef
/.notdef /.notdef /space /exclam /quotedbl
/numbersign /dollar /percent /ampersand /quotesingle
/parenleft /parenright /asterisk /plus /comma
/hyphen /period /slash /zero /one
/two /three /four /five /six
/seven /eight /nine /colon /semicolon
/less /equal /greater /question /at
/A /B /C /D /E
/F /G /H /I /J
/K /L /M /N /O
/P /Q /R /S /T
/U /V /W /X /Y
/Z /bracketleft /backslash /bracketright /asciicircum
/underscore /quoteleft /a /b /c
/d /e /f /g /h
/i /j /k /l /m
/n /o /p /q /r
/s /t /u /v /w
/x /y /z /braceleft /bar
/braceright /asciitilde /bullet /Euro /bullet
/quotesinglbase /florin /quotedblbase /ellipsis /dagger
/daggerdbl /circumflex /perthousand /Scaron /guilsinglleft
/OE /bullet /Zcaron /bullet /bullet
/quoteleft /quoteright /quotedblleft /quotedblright /bullet
/endash /emdash /asciitilde /trademark /scaron
/guilsinglright /oe /bullet /zcaron /Ydieresis
/space /exclamdown /cent /sterling /currency
/yen /brokenbar /section /dieresis /copyright
/ordfeminine /guillemotleft /logicalnot /sfthyphen /registered
/macron /degree /plusminus /twosuperior /threesuperior
/acute /mu /paragraph /middot /cedilla
/onesuperior /ordmasculine /guillemotright /onequarter /onehalf
/threequarters /questiondown /Agrave /Aacute /Acircumflex
/Atilde /Adieresis /Aring /AE /Ccedilla
/Egrave /Eacute /Ecircumflex /Edieresis /Igrave
/Iacute /Icircumflex /Idieresis /Eth /Ntilde
/Ograve /Oacute /Ocircumflex /Otilde /Odieresis
/multiply /Oslash /Ugrave /Uacute /Ucircumflex
/Udieresis /Yacute /Thorn /germandbls /agrave
/aacute /acircumflex /atilde /adieresis /aring
/ae /ccedilla /egrave /eacute /ecircumflex
/edieresis /igrave /iacute /icircumflex /idieresis
/eth /ntilde /ograve /oacute /ocircumflex
/otilde /odieresis /divide /oslash /ugrave
/uacute /ucircumflex /udieresis /yacute /thorn
/ydieresis
] def
%%EndResource
%FOPBeginFontReencode
/Courier-Bold findfont
dup length dict begin
  {1 index /FID ne {def} {pop pop} ifelse} forall
  /Encoding WinAnsiEncoding def
  currentdict
end
/Courier-Bold exch definefont pop
/Helvetica findfont
dup length dict begin
  {1 index /FID ne {def} {pop pop} ifelse} forall
  /Encoding WinAnsiEncoding def
  currentdict
end
/Helvetica exch definefont pop
/Courier-BoldOblique findfont
dup length dict begin
  {1 index /FID ne {def} {pop pop} ifelse} forall
  /Encoding WinAnsiEncoding def
  currentdict
end
/Courier-BoldOblique exch definefont pop
/Courier-Oblique findfont
dup length dict begin
  {1 index /FID ne {def} {pop pop} ifelse} forall
  /Encoding WinAnsiEncoding def
  currentdict
end
/Courier-Oblique exch definefont pop
/Times-Roman findfont
dup length dict begin
  {1 index /FID ne {def} {pop pop} ifelse} forall
  /Encoding WinAnsiEncoding def
  currentdict
end
/Times-Roman exch definefont pop
/Helvetica-BoldOblique findfont
dup length dict begin
  {1 index /FID ne {def} {pop pop} ifelse} forall
  /Encoding WinAnsiEncoding def
  currentdict
end
/Helvetica-BoldOblique exch definefont pop
/Helvetica-Bold findfont
dup length dict begin
  {1 index /FID ne {def} {pop pop} ifelse} forall
  /Encoding WinAnsiEncoding def
  currentdict
end
/Helvetica-Bold exch definefont pop
/Helvetica-Oblique findfont
dup length dict begin
  {1 index /FID ne {def} {pop pop} ifelse} forall
  /Encoding WinAnsiEncoding def
  currentdict
end
/Helvetica-Oblique exch definefont pop
/Times-BoldItalic findfont
dup length dict begin
  {1 index /FID ne {def} {pop pop} ifelse} forall
  /Encoding WinAnsiEncoding def
  currentdict
end
/Times-BoldItalic exch definefont pop
/Courier findfont
dup length dict begin
  {1 index /FID ne {def} {pop pop} ifelse} forall
  /Encoding WinAnsiEncoding def
  currentdict
end
/Courier exch definefont pop
/Times-Italic findfont
dup length dict begin
  {1 index /FID ne {def} {pop pop} ifelse} forall
  /Encoding WinAnsiEncoding def
  currentdict
end
/Times-Italic exch definefont pop
/Times-Bold findfont
dup length dict begin
  {1 index /FID ne {def} {pop pop} ifelse} forall
  /Encoding WinAnsiEncoding def
  currentdict
end
/Times-Bold exch definefont pop
%FOPEndFontReencode
%%EndProlog
%%Page: 1 1
%%PageBoundingBox: 0 0 420 315
%%BeginPageSetup
[1 0 0 -1 0 315] CT
%%EndPageSetup
GS
[0.75 0 0 0.75 0 0] CT
1 GC
N
0 0 560 420 re
f
GR
GS
[0.75 0 0 0.75 0 0] CT
1 GC
N
0 0 560 420 re
f
GR
GS
[0.75 0 0 0.75 0 0] CT
1 GC
N
73 374 M
507 374 L
507 31 L
73 31 L
cp
f
GR
GS
[0.75 0 0 0.75 0 0] CT
0.149 GC
2 setlinecap
1 LJ
0.667 LW
N
73 374 M
507 374 L
S
GR
GS
[0.75 0 0 0.75 0 0] CT
0.149 GC
2 setlinecap
1 LJ
0.667 LW
N
73 374 M
73 369.66 L
S
GR
GS
[0.75 0 0 0.75 0 0] CT
0.149 GC
2 setlinecap
1 LJ
0.667 LW
N
145.333 374 M
145.333 369.66 L
S
GR
GS
[0.75 0 0 0.75 0 0] CT
0.149 GC
2 setlinecap
1 LJ
0.667 LW
N
217.667 374 M
217.667 369.66 L
S
GR
GS
[0.75 0 0 0.75 0 0] CT
0.149 GC
2 setlinecap
1 LJ
0.667 LW
N
290 374 M
290 369.66 L
S
GR
GS
[0.75 0 0 0.75 0 0] CT
0.149 GC
2 setlinecap
1 LJ
0.667 LW
N
362.333 374 M
362.333 369.66 L
S
GR
GS
[0.75 0 0 0.75 0 0] CT
0.149 GC
2 setlinecap
1 LJ
0.667 LW
N
434.667 374 M
434.667 369.66 L
S
GR
GS
[0.75 0 0 0.75 0 0] CT
0.149 GC
2 setlinecap
1 LJ
0.667 LW
N
507 374 M
507 369.66 L
S
GR
GS
[0.75 0 0 0.75 54.75 284.49998] CT
0.149 GC
/Helvetica 13.333 F
GS
[1 0 0 1 0 0] CT
-4 14 moveto 
1 -1 scale
(0) t 
GR
GR
GS
[0.75 0 0 0.75 109 284.49998] CT
0.149 GC
/Helvetica 13.333 F
GS
[1 0 0 1 0 0] CT
-9.5 14 moveto 
1 -1 scale
(0.2) t 
GR
GR
GS
[0.75 0 0 0.75 163.25 284.49998] CT
0.149 GC
/Helvetica 13.333 F
GS
[1 0 0 1 0 0] CT
-9.5 14 moveto 
1 -1 scale
(0.4) t 
GR
GR
GS
[0.75 0 0 0.75 217.5 284.49998] CT
0.149 GC
/Helvetica 13.333 F
GS
[1 0 0 1 0 0] CT
-9.5 14 moveto 
1 -1 scale
(0.6) t 
GR
GR
GS
[0.75 0 0 0.75 271.75001 284.49998] CT
0.149 GC
/Helvetica 13.333 F
GS
[1 0 0 1 0 0] CT
-9.5 14 moveto 
1 -1 scale
(0.8) t 
GR
GR
GS
[0.75 0 0 0.75 325.99999 284.49998] CT
0.149 GC
/Helvetica 13.333 F
GS
[1 0 0 1 0 0] CT
-4 14 moveto 
1 -1 scale
(1) t 
GR
GR
GS
[0.75 0 0 0.75 380.25002 284.49998] CT
0.149 GC
/Helvetica 13.333 F
GS
[1 0 0 1 0 0] CT
-9.5 14 moveto 
1 -1 scale
(1.2) t 
GR
GR
GS
[0.75 0 0 0.75 217.50016 298.24995] CT
0.149 GC
/Helvetica 14.667 F
GS
[1 0 0 1 0 0] CT
-29.5 16 moveto 
1 -1 scale
(#Epochs) t 
GR
GR
GS
[0.75 0 0 0.75 0 0] CT
0.149 GC
2 setlinecap
1 LJ
0.667 LW
N
73 374 M
73 31 L
S
GR
GS
[0.75 0 0 0.75 0 0] CT
0.149 GC
2 setlinecap
1 LJ
0.667 LW
N
73 374 M
77.34 374 L
S
GR
GS
[0.75 0 0 0.75 0 0] CT
0.149 GC
2 setlinecap
1 LJ
0.667 LW
N
73 316.833 M
77.34 316.833 L
S
GR
GS
[0.75 0 0 0.75 0 0] CT
0.149 GC
2 setlinecap
1 LJ
0.667 LW
N
73 259.667 M
77.34 259.667 L
S
GR
GS
[0.75 0 0 0.75 0 0] CT
0.149 GC
2 setlinecap
1 LJ
0.667 LW
N
73 202.5 M
77.34 202.5 L
S
GR
GS
[0.75 0 0 0.75 0 0] CT
0.149 GC
2 setlinecap
1 LJ
0.667 LW
N
73 145.333 M
77.34 145.333 L
S
GR
GS
[0.75 0 0 0.75 0 0] CT
0.149 GC
2 setlinecap
1 LJ
0.667 LW
N
73 88.167 M
77.34 88.167 L
S
GR
GS
[0.75 0 0 0.75 0 0] CT
0.149 GC
2 setlinecap
1 LJ
0.667 LW
N
73 31 M
77.34 31 L
S
GR
GS
[0.75 0 0 0.75 50.75 280.49998] CT
0.149 GC
/Helvetica 13.333 F
GS
[1 0 0 1 0 0] CT
-19 5.5 moveto 
1 -1 scale
(0.6) t 
GR
GR
GS
[0.75 0 0 0.75 50.75 237.62503] CT
0.149 GC
/Helvetica 13.333 F
GS
[1 0 0 1 0 0] CT
-26 5.5 moveto 
1 -1 scale
(0.65) t 
GR
GR
GS
[0.75 0 0 0.75 50.75 194.75002] CT
0.149 GC
/Helvetica 13.333 F
GS
[1 0 0 1 0 0] CT
-19 5.5 moveto 
1 -1 scale
(0.7) t 
GR
GR
GS
[0.75 0 0 0.75 50.75 151.875] CT
0.149 GC
/Helvetica 13.333 F
GS
[1 0 0 1 0 0] CT
-26 5.5 moveto 
1 -1 scale
(0.75) t 
GR
GR
GS
[0.75 0 0 0.75 50.75 108.99998] CT
0.149 GC
/Helvetica 13.333 F
GS
[1 0 0 1 0 0] CT
-19 5.5 moveto 
1 -1 scale
(0.8) t 
GR
GR
GS
[0.75 0 0 0.75 50.75 66.12498] CT
0.149 GC
/Helvetica 13.333 F
GS
[1 0 0 1 0 0] CT
-26 5.5 moveto 
1 -1 scale
(0.85) t 
GR
GR
GS
[0.75 0 0 0.75 50.75 23.25002] CT
0.149 GC
/Helvetica 13.333 F
GS
[1 0 0 1 0 0] CT
-19 5.5 moveto 
1 -1 scale
(0.9) t 
GR
GR
GS
[0 -0.75 0.75 0 28.25 151.8749] CT
0.149 GC
/Helvetica 14.667 F
GS
[1 0 0 1 0 0] CT
-58.5 -4 moveto 
1 -1 scale
(f1 score on aidaB) t 
GR
GR
GS
[0.75 0 0 0.75 217.50021 21.18754] CT
/Helvetica-Bold 14.667 F
GS
[1 0 0 1 0 0] CT
-63 -4 moveto 
1 -1 scale
(Initialization Type) t 
GR
GR
GS
[0.75 0 0 0.75 0 0] CT
0 0.447 0.741 RC
1 LJ
0.667 LW
N
73.55 311.136 M
74.101 290.356 L
74.651 291.596 L
75.202 293.639 L
75.752 290.496 L
76.303 285.624 L
76.853 275.933 L
77.404 268.284 L
77.954 257.807 L
78.505 260.531 L
79.055 261.684 L
79.606 269.122 L
80.156 267.708 L
80.707 271.061 L
81.257 265.089 L
81.808 267.132 L
82.358 262.993 L
82.909 262.103 L
83.459 259.169 L
84.01 263.15 L
84.56 268.441 L
85.111 264.722 L
85.661 268.808 L
86.212 268.808 L
86.762 260.374 L
87.313 255.24 L
87.863 259.955 L
88.413 258.278 L
88.964 255.292 L
89.514 261.107 L
90.065 264.512 L
90.615 272.789 L
91.166 274.728 L
91.716 285.886 L
92.267 298.354 L
92.817 307.364 L
93.368 315.327 L
93.918 332.562 L
94.469 338.639 L
95.019 348.174 L
95.57 342.935 L
96.12 342.568 L
96.671 340.001 L
97.221 327.324 L
97.772 306.002 L
98.322 300.397 L
98.873 285.781 L
99.423 268.075 L
99.974 265.665 L
100.524 268.284 L
101.075 264.984 L
101.625 260.845 L
102.176 260.583 L
102.726 254.769 L
103.277 249.111 L
103.827 254.297 L
104.377 253.826 L
104.928 257.545 L
105.478 260.479 L
106.029 256.916 L
106.579 244.92 L
107.13 240.677 L
107.68 234.39 L
108.231 233.133 L
108.781 236.014 L
109.332 243.243 L
109.882 247.592 L
110.433 245.077 L
110.983 243.034 L
111.534 242.824 L
112.084 237.952 L
112.635 235.019 L
113.185 239.262 L
113.736 238.791 L
114.286 235.49 L
114.837 236.276 L
115.387 238.214 L
115.938 233.762 L
116.488 236.486 L
117.039 240.991 L
117.589 239.21 L
118.14 240.415 L
118.69 239.786 L
119.24 235.071 L
119.791 231.614 L
120.341 234.705 L
120.892 230.042 L
121.442 233.919 L
121.993 234.285 L
122.543 238.686 L
123.094 233.028 L
123.644 229.466 L
124.195 223.756 L
124.745 223.232 L
125.296 221.398 L
125.846 225.485 L
126.397 231.404 L
126.947 233.081 L
127.498 233.709 L
128.048 226.48 L
128.599 224.384 L
129.149 221.922 L
129.7 221.136 L
130.25 222.76 L
130.801 220.822 L
131.351 219.146 L
131.902 218.517 L
132.452 219.251 L
133.003 220.455 L
133.553 222.132 L
134.104 223.389 L
134.654 217.155 L
135.204 212.912 L
135.755 202.015 L
136.305 200.077 L
136.856 195.1 L
137.406 202.696 L
137.957 198.558 L
138.507 204.53 L
139.058 205.054 L
139.608 205.368 L
140.159 197.929 L
140.709 204.478 L
141.26 202.12 L
141.81 203.377 L
142.361 203.535 L
142.911 204.373 L
143.462 200.863 L
144.012 196.934 L
144.563 194.996 L
145.113 192.429 L
145.664 190.857 L
146.214 189.495 L
146.765 195.677 L
147.315 199.815 L
147.866 204.74 L
148.416 206.887 L
148.967 207.778 L
149.517 200.968 L
150.067 194.996 L
150.618 191.8 L
151.168 193.948 L
151.719 195.362 L
152.269 196.882 L
152.82 197.877 L
153.37 195.258 L
153.921 194.105 L
154.471 192.272 L
155.022 188.238 L
155.572 186.195 L
156.123 192.324 L
156.673 189.862 L
157.224 185.042 L
157.774 191.276 L
158.325 195.467 L
158.875 194.838 L
159.426 195.467 L
159.976 201.858 L
160.527 199.606 L
161.077 193.424 L
161.628 194.681 L
162.178 194.053 L
162.729 188.709 L
163.279 184.466 L
163.83 183.418 L
164.38 176.137 L
164.93 172.417 L
165.481 177.656 L
166.031 181.166 L
166.582 182.685 L
167.132 186.614 L
167.683 191.8 L
168.233 196.62 L
168.784 200.182 L
169.334 202.277 L
169.885 206.783 L
170.435 200.811 L
170.986 195.677 L
171.536 190.281 L
172.087 185.985 L
172.637 184.204 L
173.188 189.652 L
173.738 190.386 L
174.289 194.21 L
174.839 197.143 L
175.39 192.062 L
175.94 190.228 L
176.491 187.085 L
177.041 188.604 L
177.592 189.967 L
178.142 192.062 L
178.693 190.124 L
179.243 197.196 L
179.794 191.538 L
180.344 196.305 L
180.894 192.429 L
181.445 198.82 L
181.995 190.281 L
182.546 189.862 L
183.096 184.256 L
183.647 189.181 L
184.197 187.871 L
184.748 187.085 L
185.298 192.272 L
185.849 192.795 L
186.399 187.871 L
186.95 188.028 L
187.5 191.067 L
188.051 187.347 L
188.601 185.514 L
189.152 188.081 L
189.702 185.409 L
190.253 187.714 L
190.803 191.014 L
191.354 197.877 L
191.904 199.815 L
192.455 200.077 L
193.005 196.567 L
193.556 195.729 L
194.106 193.738 L
194.657 187.819 L
195.207 185.933 L
195.757 184.099 L
196.308 180.275 L
196.858 170.741 L
197.409 167.755 L
197.959 167.755 L
198.51 174.774 L
199.06 174.355 L
199.611 176.87 L
200.161 181.794 L
200.712 179.856 L
201.262 176.137 L
201.813 178.965 L
202.363 184.518 L
202.914 180.066 L
203.464 177.97 L
204.015 174.617 L
204.565 172.993 L
205.116 168.331 L
205.666 175.979 L
206.217 179.018 L
206.767 180.694 L
207.318 178.127 L
207.868 174.198 L
208.419 166.917 L
208.969 162.883 L
209.52 160.997 L
210.07 163.721 L
210.62 167.755 L
211.171 167.755 L
211.721 171.003 L
212.272 173.255 L
212.822 174.984 L
213.373 176.556 L
213.923 181.637 L
214.474 182.318 L
215.024 180.432 L
215.575 178.022 L
216.125 179.018 L
216.676 180.589 L
217.226 179.699 L
217.777 177.603 L
218.327 174.303 L
218.878 171.631 L
219.428 166.812 L
219.979 170.898 L
220.529 170.112 L
221.08 180.17 L
221.63 181.951 L
222.181 182.632 L
222.731 179.28 L
223.282 182.632 L
223.832 176.294 L
224.383 177.97 L
224.933 183.261 L
225.484 182.318 L
226.034 184.099 L
226.584 185.671 L
227.135 184.676 L
227.685 179.332 L
228.236 179.227 L
228.786 178.022 L
229.337 180.904 L
229.887 183.471 L
230.438 184.728 L
230.988 182.947 L
231.539 183.628 L
232.089 177.08 L
232.64 171.474 L
233.19 172.417 L
233.741 172.784 L
234.291 173.936 L
234.842 178.337 L
235.392 178.337 L
235.943 175.979 L
236.493 176.451 L
237.044 175.456 L
237.594 174.513 L
238.145 181.27 L
238.695 183.209 L
239.246 185.042 L
239.796 184.099 L
240.347 181.847 L
240.897 179.542 L
241.447 178.913 L
241.998 180.694 L
242.548 185.461 L
243.099 188.919 L
243.649 184.361 L
244.2 184.414 L
244.75 181.48 L
245.301 174.827 L
245.851 175.036 L
246.402 176.87 L
246.952 173.465 L
247.503 173.57 L
248.053 177.446 L
248.604 170.007 L
249.154 169.903 L
249.705 171.16 L
250.255 169.955 L
250.806 165.397 L
251.356 170.374 L
251.907 172.05 L
252.457 171.369 L
253.008 175.141 L
253.558 176.294 L
254.109 172.574 L
254.659 174.932 L
255.21 175.246 L
255.76 171.317 L
256.31 171.998 L
256.861 172.469 L
257.411 172.312 L
257.962 173.832 L
258.512 174.617 L
259.063 173.674 L
259.613 174.565 L
260.164 170.217 L
260.714 168.593 L
261.265 172.26 L
261.815 170.426 L
262.366 171.055 L
262.916 171.369 L
263.467 173.779 L
264.017 170.269 L
264.568 173.57 L
265.118 172.417 L
265.669 168.802 L
266.219 170.426 L
266.77 170.846 L
267.32 167.44 L
267.871 171.107 L
268.421 174.146 L
268.972 169.641 L
269.522 171.055 L
270.073 182.423 L
270.623 185.042 L
271.174 187.504 L
271.724 193.057 L
272.274 195.1 L
272.825 194.996 L
273.375 192.586 L
273.926 192.272 L
274.476 190.333 L
275.027 184.256 L
275.577 176.608 L
276.128 174.251 L
276.678 173.989 L
277.229 173.308 L
277.779 177.918 L
278.33 181.27 L
278.88 185.723 L
279.431 185.252 L
279.981 184.204 L
280.532 182.79 L
281.082 177.865 L
281.633 176.294 L
282.183 176.66 L
282.734 178.965 L
283.284 181.008 L
283.835 184.728 L
284.385 181.637 L
284.936 184.361 L
285.486 183.261 L
286.037 183.942 L
286.587 189.495 L
287.137 189.967 L
287.688 186.561 L
288.238 188.919 L
288.789 188.604 L
289.339 182.161 L
289.89 185.409 L
290.44 183.471 L
290.991 177.97 L
291.541 172.05 L
292.092 171.893 L
292.642 168.174 L
293.193 165.45 L
293.743 165.083 L
294.294 168.331 L
294.844 164.297 L
295.395 163.04 L
295.945 159.635 L
296.496 160.892 L
297.046 162.883 L
297.597 160.944 L
298.147 158.692 L
298.698 162.83 L
299.248 166.34 L
299.799 166.288 L
300.349 166.236 L
300.9 169.641 L
301.45 168.802 L
302.001 170.636 L
302.551 170.793 L
303.101 171.107 L
303.652 166.707 L
304.202 172.679 L
304.753 168.017 L
305.303 169.221 L
305.854 172.784 L
306.404 178.546 L
306.955 175.77 L
307.505 172.627 L
308.056 169.274 L
308.606 169.326 L
309.157 165.764 L
309.707 163.983 L
310.258 169.221 L
310.808 172.155 L
311.359 171.631 L
311.909 175.875 L
312.46 176.608 L
313.01 173.727 L
313.561 167.65 L
314.111 164.035 L
314.662 158.168 L
315.212 160.106 L
315.763 163.616 L
316.313 173.151 L
316.864 175.613 L
317.414 177.237 L
317.964 174.251 L
318.515 166.759 L
319.065 159.897 L
319.616 159.582 L
320.166 158.43 L
320.717 161.468 L
321.267 162.988 L
321.818 165.188 L
322.368 164.14 L
322.919 167.493 L
323.469 168.121 L
324.02 171.841 L
324.57 170.584 L
325.121 173.517 L
325.671 174.198 L
326.222 169.326 L
326.772 170.06 L
327.323 171.422 L
327.873 165.397 L
328.424 160.787 L
328.974 161.049 L
329.525 158.22 L
330.075 151.62 L
330.626 157.435 L
331.176 160.421 L
331.727 161.206 L
332.277 160.735 L
332.827 163.878 L
333.378 160.211 L
333.928 156.911 L
334.479 155.863 L
335.029 152.825 L
335.58 151.148 L
336.13 156.544 L
336.681 167.702 L
337.231 171.631 L
337.782 175.875 L
338.332 177.289 L
338.883 173.36 L
339.433 163.197 L
339.984 165.24 L
340.534 167.859 L
341.085 171.579 L
341.635 175.613 L
342.186 179.07 L
342.736 177.656 L
343.287 178.389 L
343.837 182.109 L
344.388 177.656 L
344.938 178.494 L
345.489 176.713 L
346.039 172.312 L
346.59 163.616 L
347.14 162.673 L
347.691 160.159 L
348.241 157.854 L
348.791 156.544 L
349.342 158.011 L
349.892 158.063 L
350.443 160.054 L
350.993 161.783 L
351.544 166.288 L
352.094 171.788 L
352.645 171.265 L
353.195 168.855 L
353.746 170.007 L
354.296 177.289 L
354.847 171.946 L
355.397 172.731 L
355.948 175.77 L
356.498 173.57 L
357.049 166.602 L
357.599 173.622 L
358.15 179.123 L
358.7 179.175 L
359.251 183.052 L
359.801 183.733 L
360.352 180.432 L
360.902 175.141 L
361.453 172.05 L
362.003 168.698 L
362.554 163.616 L
363.104 161.73 L
363.654 163.878 L
364.205 167.336 L
364.755 162.359 L
365.306 164.402 L
365.856 160.735 L
366.407 158.482 L
366.957 158.325 L
367.508 164.769 L
368.058 170.741 L
368.609 179.594 L
369.159 183.785 L
369.71 181.48 L
370.26 181.794 L
370.811 176.922 L
371.361 170.112 L
371.912 171.107 L
372.462 173.36 L
373.013 172.05 L
373.563 169.221 L
374.114 167.44 L
374.664 160.316 L
375.215 157.33 L
375.765 155.811 L
376.316 155.811 L
376.866 158.797 L
377.417 163.826 L
377.967 165.45 L
378.518 171.474 L
379.068 171.998 L
379.618 171.369 L
380.169 170.898 L
380.719 173.151 L
381.27 168.855 L
381.82 169.012 L
382.371 168.436 L
382.921 167.44 L
383.472 163.669 L
384.022 162.045 L
384.573 166.236 L
385.123 166.707 L
385.674 168.331 L
386.224 169.483 L
386.775 166.707 L
387.325 164.716 L
387.876 167.545 L
388.426 166.183 L
388.977 162.883 L
389.527 165.554 L
390.078 162.726 L
390.628 157.225 L
391.179 155.392 L
391.729 156.073 L
392.28 158.063 L
392.83 155.863 L
393.381 161.573 L
393.931 160.892 L
394.481 166.917 L
395.032 171.474 L
395.582 182.632 L
396.133 182.371 L
396.683 190.228 L
397.234 190.857 L
397.784 192.219 L
398.335 197.72 L
398.885 197.929 L
399.436 198.506 L
399.986 200.077 L
400.537 197.51 L
401.087 181.113 L
401.638 177.97 L
402.188 171.998 L
402.739 169.169 L
403.289 172.312 L
403.84 176.398 L
404.39 178.389 L
404.941 181.637 L
405.491 180.066 L
406.042 178.18 L
406.592 177.394 L
407.143 178.127 L
407.693 176.922 L
408.244 180.17 L
408.794 174.355 L
409.345 175.194 L
409.895 174.879 L
410.445 177.97 L
410.996 176.503 L
411.546 175.979 L
412.097 176.608 L
412.647 175.246 L
413.198 171.946 L
413.748 171.998 L
414.299 175.979 L
414.849 180.118 L
415.4 179.908 L
415.95 187.976 L
416.501 187.766 L
417.051 188.762 L
417.602 183.523 L
418.152 184.885 L
418.703 177.708 L
419.253 174.774 L
419.804 171.631 L
420.354 176.084 L
420.905 175.613 L
421.455 175.613 L
422.006 175.613 L
422.556 179.332 L
423.107 179.856 L
423.657 181.166 L
424.208 180.589 L
424.758 181.323 L
425.308 178.442 L
425.859 170.007 L
426.409 167.702 L
426.96 164.088 L
427.51 167.126 L
428.061 171.474 L
428.611 177.394 L
429.162 179.594 L
429.712 182.161 L
430.263 180.956 L
430.813 178.284 L
431.364 179.699 L
431.914 178.861 L
432.465 180.694 L
433.015 184.518 L
433.566 192.324 L
434.116 194 L
434.667 202.173 L
435.217 202.173 L
435.768 195.258 L
436.318 187.295 L
436.869 184.833 L
437.419 177.237 L
437.97 174.513 L
438.52 175.089 L
439.07 174.408 L
439.621 166.497 L
440.171 162.254 L
440.722 159.792 L
441.272 162.673 L
441.823 163.616 L
442.373 169.012 L
442.924 171.841 L
443.474 176.032 L
444.025 171.422 L
444.575 165.607 L
445.126 164.612 L
445.676 162.045 L
446.227 159.792 L
446.777 160.002 L
447.328 160.159 L
447.878 157.958 L
448.429 158.22 L
448.979 154.344 L
449.53 149.943 L
450.08 149.681 L
450.631 147.062 L
451.181 146.329 L
451.732 149.996 L
452.282 152.196 L
452.833 152.039 L
453.383 156.282 L
453.934 159.163 L
454.484 163.721 L
455.035 167.807 L
455.585 169.379 L
456.135 169.693 L
456.686 167.807 L
457.236 163.878 L
457.787 163.826 L
458.337 165.764 L
458.888 165.293 L
459.438 164.612 L
459.989 163.249 L
460.539 160.683 L
461.09 157.958 L
461.64 156.492 L
462.191 156.282 L
462.741 154.396 L
463.292 151.934 L
463.842 151.358 L
464.393 150.729 L
464.943 149.315 L
465.494 149.891 L
466.044 151.515 L
466.595 151.253 L
467.145 150.939 L
467.696 150.572 L
468.246 149.367 L
468.797 148.634 L
469.347 148.005 L
469.898 147.638 L
470.448 147.586 L
470.998 147.953 L
471.549 147.9 L
472.099 147.219 L
472.65 147.01 L
473.2 146.748 L
473.751 146.172 L
474.301 146.014 L
474.852 146.224 L
475.402 146.172 L
475.953 146.067 L
476.503 146.276 L
477.054 145.857 L
477.604 145.543 L
478.155 145.071 L
478.705 144.652 L
479.256 144.024 L
479.806 143.709 L
480.357 143.238 L
480.907 142.924 L
481.458 142.871 L
482.008 142.819 L
482.559 142.4 L
483.109 141.928 L
483.66 141.719 L
484.21 141.247 L
484.76 140.828 L
485.311 140.933 L
485.862 141.3 L
486.412 141.614 L
486.962 142.138 L
487.513 142.505 L
488.063 142.662 L
488.614 142.4 L
489.164 141.928 L
489.715 141.404 L
490.265 141.09 L
490.816 140.88 L
491.366 140.88 L
491.917 141.142 L
492.467 141.404 L
493.018 141.614 L
493.568 141.666 L
494.119 141.771 L
494.669 141.823 L
495.22 141.771 L
495.77 141.614 L
496.321 141.666 L
496.871 141.142 L
S
GR
GS
[0.75 0 0 0.75 0 0] CT
0.851 0.325 0.098 RC
1 LJ
0.667 LW
N
81.881 374.034 M
82.358 368.447 L
82.909 364.518 L
83.459 362.894 L
84.01 365.88 L
84.56 369.704 L
85.111 371.957 L
85.35 374.034 L
S
GR
GS
[0.75 0 0 0.75 0 0] CT
0.851 0.325 0.098 RC
1 LJ
0.667 LW
N
86.166 374.034 M
86.212 373.79 L
86.762 372.69 L
87.313 368.552 L
87.863 369.442 L
88.413 367.871 L
88.964 370.228 L
89.514 368.971 L
90.065 370.438 L
90.615 371.223 L
91.166 364.309 L
91.716 364.57 L
92.267 367.661 L
92.817 366.98 L
93.368 366.194 L
93.918 373.529 L
93.977 374.034 L
S
GR
GS
[0.75 0 0 0.75 0 0] CT
0.851 0.325 0.098 RC
1 LJ
0.667 LW
N
97.529 374.034 M
97.772 368.761 L
98.322 363.732 L
98.873 358.756 L
99.423 352.941 L
99.974 352.522 L
100.524 352.941 L
101.075 346.759 L
101.625 337.12 L
102.176 333.61 L
102.726 329.576 L
103.277 326.538 L
103.827 320.618 L
104.377 320.618 L
104.928 318.523 L
105.478 318.837 L
106.029 315.484 L
106.579 316.061 L
107.13 311.398 L
107.68 311.87 L
108.231 314.803 L
108.781 320.461 L
109.332 323.028 L
109.882 327.376 L
110.433 327.219 L
110.983 323.971 L
111.534 316.899 L
112.084 314.541 L
112.635 312.603 L
113.185 313.494 L
113.736 311.555 L
114.286 314.175 L
114.837 315.222 L
115.387 316.846 L
115.938 316.742 L
116.488 318.47 L
117.039 319.99 L
117.589 319.728 L
118.14 319.047 L
118.69 318.418 L
119.24 315.118 L
119.791 314.541 L
120.341 312.603 L
120.892 308.569 L
121.442 304.169 L
121.993 305.112 L
122.543 301.183 L
123.094 298.511 L
123.644 299.978 L
124.195 302.912 L
124.745 301.759 L
125.296 305.426 L
125.846 308.203 L
126.397 308.936 L
126.947 305.741 L
127.498 305.06 L
128.048 300.292 L
128.599 296.363 L
129.149 292.382 L
129.7 288.401 L
130.25 285.834 L
130.801 283.948 L
131.351 285.624 L
131.902 286.043 L
132.452 288.401 L
133.003 289.344 L
133.553 289.815 L
134.104 288.243 L
134.654 282.114 L
135.204 281.119 L
135.755 278.604 L
136.305 277.609 L
136.856 276.299 L
137.406 279.233 L
137.957 278.604 L
138.507 280.543 L
139.058 282.952 L
139.608 284 L
140.159 285.048 L
140.709 288.558 L
141.26 289.344 L
141.81 289.92 L
142.361 290.758 L
142.911 292.487 L
143.462 292.382 L
144.012 291.858 L
144.563 291.02 L
145.113 290.025 L
145.664 289.134 L
146.214 287.615 L
146.765 285.205 L
147.315 285.205 L
147.866 283.057 L
148.416 283.267 L
148.967 284.157 L
149.517 283.267 L
150.067 281.119 L
150.618 284.891 L
151.168 285.624 L
151.719 282.324 L
152.269 285.048 L
152.82 285.991 L
153.37 279.862 L
153.921 277.399 L
154.471 277.976 L
155.022 273.47 L
155.572 272.056 L
156.123 275.042 L
156.673 274.675 L
157.224 272.37 L
157.774 273.785 L
158.325 273.209 L
158.875 271.689 L
159.426 271.218 L
159.976 275.094 L
160.527 276.142 L
161.077 277.609 L
161.628 279.285 L
162.178 278.814 L
162.729 277.138 L
163.279 276.247 L
163.83 277.714 L
164.38 277.609 L
164.93 279.704 L
165.481 281.747 L
166.031 285.938 L
166.582 284.262 L
167.132 285.362 L
167.683 286.829 L
168.233 286.462 L
168.784 284.21 L
169.334 282.533 L
169.885 278.919 L
170.435 276.457 L
170.986 276.247 L
171.536 276.195 L
172.087 278.185 L
172.637 279.547 L
173.188 280.7 L
173.738 278.762 L
174.289 278.133 L
174.839 277.452 L
175.39 278.29 L
175.94 278.395 L
176.491 279.443 L
177.041 282.795 L
177.592 283.424 L
178.142 283.581 L
178.693 284.157 L
179.243 284.524 L
179.794 281.486 L
180.344 282.009 L
180.894 279.914 L
181.445 278.709 L
181.995 278.866 L
182.546 279.285 L
183.096 276.352 L
183.647 276.247 L
184.197 274.99 L
184.748 271.794 L
185.298 268.599 L
185.849 268.232 L
186.399 269.961 L
186.95 267.865 L
187.5 266.922 L
188.051 266.398 L
188.601 264.984 L
189.152 263.36 L
189.702 262.469 L
190.253 263.989 L
190.803 264.146 L
191.354 264.355 L
191.904 263.989 L
192.455 266.032 L
193.005 262.626 L
193.556 261.788 L
194.106 260.898 L
194.657 257.859 L
195.207 253.459 L
195.757 255.816 L
196.308 258.121 L
196.858 259.221 L
197.409 263.779 L
197.959 270.537 L
198.51 274.518 L
199.06 273.366 L
199.611 274.99 L
200.161 273.785 L
200.712 272.894 L
201.262 269.018 L
201.813 270.799 L
202.363 271.375 L
202.914 271.27 L
203.464 268.756 L
204.015 268.389 L
204.565 267.079 L
205.116 265.403 L
205.666 263.36 L
206.217 265.193 L
206.767 263.779 L
207.318 259.955 L
207.868 258.436 L
208.419 255.921 L
208.969 251.259 L
209.52 252.044 L
210.07 255.345 L
210.62 255.03 L
211.171 256.288 L
211.721 259.012 L
212.272 259.85 L
212.822 259.798 L
213.373 261.945 L
213.923 265.717 L
214.474 267.289 L
215.024 264.408 L
215.575 261.998 L
216.125 260.479 L
216.676 256.55 L
217.226 253.406 L
217.777 255.712 L
218.327 255.607 L
218.878 257.126 L
219.428 258.802 L
219.979 257.912 L
220.529 257.074 L
221.08 258.907 L
221.63 257.65 L
222.181 259.902 L
222.731 259.326 L
223.282 261.579 L
223.832 261.841 L
224.383 262.626 L
224.933 262.05 L
225.484 266.555 L
226.034 263.569 L
226.584 263.046 L
227.135 264.303 L
227.685 261.631 L
228.236 259.955 L
228.786 262.941 L
229.337 262.574 L
229.887 259.64 L
230.438 259.274 L
230.988 256.916 L
231.539 253.511 L
232.089 255.188 L
232.64 255.502 L
233.19 254.035 L
233.741 254.769 L
234.291 254.035 L
234.842 251.521 L
235.392 250.84 L
235.943 252.673 L
236.493 250.211 L
237.044 249.844 L
237.594 249.739 L
238.145 248.954 L
238.695 245.601 L
239.246 246.282 L
239.796 245.444 L
240.347 244.501 L
240.897 243.715 L
241.447 246.911 L
241.998 247.696 L
242.548 249.844 L
243.099 251.835 L
243.649 250.63 L
244.2 249.058 L
244.75 248.377 L
245.301 246.911 L
245.851 244.763 L
246.402 245.025 L
246.952 242.353 L
247.503 240.939 L
248.053 240.624 L
248.604 242.72 L
249.154 243.505 L
249.705 246.334 L
250.255 244.606 L
250.806 244.972 L
251.356 242.667 L
251.907 240.048 L
252.457 240.153 L
253.008 242.772 L
253.558 245.129 L
254.109 244.763 L
254.659 247.487 L
255.21 246.439 L
255.76 246.02 L
256.31 243.925 L
256.861 243.296 L
257.411 240.205 L
257.962 240.519 L
258.512 238.267 L
259.063 233.971 L
259.613 232.452 L
260.164 233.5 L
260.714 233.447 L
261.265 234.705 L
261.815 235.281 L
262.366 235.386 L
262.916 234.39 L
263.467 234.862 L
264.017 236.748 L
264.568 240.415 L
265.118 239.786 L
265.669 241.829 L
266.219 241.253 L
266.77 239.576 L
267.32 238.529 L
267.871 239.419 L
268.421 237.376 L
268.972 235.071 L
269.522 238.529 L
270.073 237.271 L
270.623 237.271 L
271.174 237.638 L
271.724 235.962 L
272.274 233.29 L
272.825 233.447 L
273.375 235.176 L
273.926 237.01 L
274.476 240.519 L
275.027 240.834 L
275.577 240.31 L
276.128 240.677 L
276.678 237.743 L
277.229 237.586 L
277.779 236.119 L
278.33 235.752 L
278.88 232.242 L
279.431 233.133 L
279.981 230.723 L
280.532 225.589 L
281.082 225.118 L
281.633 228.68 L
282.183 232.504 L
282.734 234.757 L
283.284 241.148 L
283.835 245.496 L
284.385 245.496 L
284.936 244.291 L
285.486 244.815 L
286.037 244.448 L
286.587 239.996 L
287.137 235.333 L
287.688 233.133 L
288.238 232.609 L
288.789 231.666 L
289.339 233.29 L
289.89 234.914 L
290.44 235.019 L
290.991 233.395 L
291.541 233.709 L
292.092 231.928 L
292.642 232.661 L
293.193 234.652 L
293.743 233.604 L
294.294 231.457 L
294.844 232.766 L
295.395 232.033 L
295.945 229.518 L
296.496 232.714 L
297.046 232.766 L
297.597 231.928 L
298.147 231.142 L
298.698 232.714 L
299.248 233.238 L
299.799 237.481 L
300.349 238.529 L
300.9 242.615 L
301.45 245.444 L
302.001 244.92 L
302.551 243.348 L
303.101 242.667 L
303.652 240.939 L
304.202 237.9 L
304.753 236.224 L
305.303 234.128 L
305.854 234.809 L
306.404 235.019 L
306.955 233.395 L
307.505 233.133 L
308.056 235.019 L
308.606 233.133 L
309.157 234.6 L
309.707 234.757 L
310.258 235.752 L
310.808 237.533 L
311.359 238.843 L
311.909 236.643 L
312.46 237.848 L
313.01 239.996 L
313.561 238.372 L
314.111 241.043 L
314.662 241.724 L
315.212 243.401 L
315.763 240.939 L
316.313 239.681 L
316.864 238.057 L
317.414 236.119 L
317.964 233.814 L
318.515 233.395 L
319.065 233.657 L
319.616 235.071 L
320.166 236.957 L
320.717 239.629 L
321.267 239.419 L
321.818 239.838 L
322.368 238.843 L
322.919 239.838 L
323.469 239.157 L
324.02 242.248 L
324.57 244.448 L
325.121 245.339 L
325.671 243.348 L
326.222 241.148 L
326.772 240.467 L
327.323 237.743 L
327.873 238.476 L
328.424 239.157 L
328.974 238.895 L
329.525 236.957 L
330.075 237.429 L
330.626 237.848 L
331.176 239.262 L
331.727 242.772 L
332.277 243.558 L
332.827 245.077 L
333.378 244.186 L
333.928 242.929 L
334.479 242.458 L
335.029 246.02 L
335.58 246.387 L
336.13 244.815 L
336.681 246.23 L
337.231 246.387 L
337.782 243.139 L
338.332 243.086 L
338.883 244.239 L
339.433 245.287 L
339.984 244.553 L
340.534 244.029 L
341.085 245.968 L
341.635 243.505 L
342.186 241.515 L
342.736 239.786 L
343.287 240.362 L
343.837 236.171 L
344.388 237.952 L
344.938 237.586 L
345.489 238.529 L
346.039 237.324 L
346.59 236.486 L
347.14 233.709 L
347.691 234.39 L
348.241 235.281 L
348.791 237.429 L
349.342 236.8 L
349.892 236.905 L
350.443 236.276 L
350.993 235.49 L
351.544 235.281 L
352.094 236.695 L
352.645 240.624 L
353.195 243.505 L
353.746 245.077 L
354.296 242.51 L
354.847 243.453 L
355.397 241.358 L
355.948 239.734 L
356.498 240.153 L
357.049 243.558 L
357.599 243.872 L
358.15 246.753 L
358.7 247.749 L
359.251 247.749 L
359.801 246.596 L
360.352 246.125 L
360.902 242.877 L
361.453 240.362 L
362.003 237.795 L
362.554 236.067 L
363.104 234.705 L
363.654 237.848 L
364.205 236.957 L
364.755 235.176 L
365.306 233.447 L
365.856 233.342 L
366.407 231.09 L
366.957 232.033 L
367.508 234.547 L
368.058 236.119 L
368.609 236.643 L
369.159 237.376 L
369.71 238.424 L
370.26 238.11 L
370.811 239.315 L
371.361 238.948 L
371.912 237.586 L
372.462 237.429 L
373.013 237.376 L
373.563 235.333 L
374.114 235.543 L
374.664 236.8 L
375.215 238.529 L
375.765 239.105 L
376.316 242.143 L
376.866 245.025 L
377.417 247.225 L
377.967 246.125 L
378.518 247.33 L
379.068 247.906 L
379.618 248.168 L
380.169 246.911 L
380.719 243.61 L
381.27 240.939 L
381.82 237.691 L
382.371 237.167 L
382.921 236.905 L
383.472 242.562 L
384.022 243.977 L
384.573 246.387 L
385.123 242.982 L
385.674 241.515 L
386.224 237.848 L
386.775 239.891 L
387.325 240.939 L
387.876 241.934 L
388.426 242.458 L
388.977 241.567 L
389.527 235.49 L
390.078 231.823 L
390.628 230.723 L
391.179 229.466 L
391.729 229.152 L
392.28 231.038 L
392.83 230.356 L
393.381 230.723 L
393.931 229.047 L
394.481 226.742 L
395.032 225.799 L
395.582 225.694 L
396.133 224.489 L
396.683 226.899 L
397.234 229.623 L
397.784 231.771 L
398.335 233.971 L
398.885 238.476 L
399.436 237.271 L
399.986 238.686 L
400.537 237.429 L
401.087 236.905 L
401.638 235.176 L
402.188 237.691 L
402.739 239.524 L
403.289 241.986 L
403.84 242.405 L
404.39 240.572 L
404.941 238.895 L
405.491 235.595 L
406.042 231.719 L
406.592 234.233 L
407.143 235.805 L
407.693 237.795 L
408.244 237.743 L
408.794 241.043 L
409.345 239.367 L
409.895 239.838 L
410.445 236.905 L
410.996 238.634 L
411.546 237.638 L
412.097 234.39 L
412.647 233.552 L
413.198 233.238 L
413.748 231.457 L
414.299 232.714 L
414.849 235.071 L
415.4 233.238 L
415.95 232.871 L
416.501 231.09 L
417.051 228.575 L
417.602 227.423 L
418.152 228.994 L
418.703 230.514 L
419.253 231.142 L
419.804 232.871 L
420.354 233.709 L
420.905 235.7 L
421.455 235.752 L
422.006 238.11 L
422.556 237.376 L
423.107 236.433 L
423.657 232.504 L
424.208 229.466 L
424.758 227.109 L
425.308 227.475 L
425.859 227.056 L
426.409 227.685 L
426.96 229.414 L
427.51 229.204 L
428.061 228.837 L
428.611 231.404 L
429.162 234.076 L
429.712 236.748 L
430.263 238.372 L
430.813 239.053 L
431.364 238.529 L
431.914 238.214 L
432.465 238.057 L
433.015 239.838 L
433.566 240.258 L
434.116 240.205 L
434.667 241.567 L
435.217 239.315 L
435.768 236.381 L
436.318 234.862 L
436.869 233.709 L
437.419 231.457 L
437.97 230.304 L
438.52 231.404 L
439.07 231.404 L
439.621 232.19 L
440.171 232.033 L
440.722 233.657 L
441.272 233.604 L
441.823 235.071 L
442.373 235.752 L
442.924 237.481 L
443.474 237.848 L
444.025 236.59 L
444.575 235.333 L
445.126 235.228 L
445.676 232.871 L
446.227 232.504 L
446.777 233.447 L
447.328 234.6 L
447.878 234.285 L
448.429 236.119 L
448.979 236.695 L
449.53 237.952 L
450.08 238.529 L
450.631 240.624 L
451.181 242.667 L
451.732 245.549 L
452.282 246.596 L
452.833 246.963 L
453.383 246.858 L
453.934 246.753 L
454.484 247.434 L
455.035 251.102 L
455.585 255.188 L
456.135 256.602 L
456.686 255.45 L
457.236 254.192 L
457.787 253.04 L
458.337 250.997 L
458.888 250.368 L
459.438 250.368 L
459.989 249.582 L
460.539 245.758 L
461.09 242.824 L
461.64 239.996 L
462.191 238.162 L
462.741 235.962 L
463.292 235.595 L
463.842 235.281 L
464.393 235.543 L
464.943 235.805 L
465.494 236.329 L
466.044 235.857 L
466.595 235.071 L
467.145 233.971 L
467.696 233.185 L
468.246 232.4 L
468.797 232.19 L
469.347 232.242 L
469.898 232.609 L
470.448 232.923 L
470.998 233.185 L
471.549 233.342 L
472.099 233.081 L
472.65 232.819 L
473.2 231.614 L
473.751 230.252 L
474.301 229.204 L
474.852 228.68 L
475.402 227.999 L
475.953 228.523 L
476.503 229.152 L
477.054 228.994 L
477.604 228.732 L
478.155 228.523 L
478.705 227.947 L
479.256 227.37 L
479.806 227.37 L
480.357 227.58 L
480.907 227.528 L
481.458 227.58 L
482.008 227.737 L
482.559 227.947 L
483.109 228.104 L
483.66 227.947 L
484.21 227.632 L
484.76 227.266 L
485.311 227.004 L
485.862 226.48 L
486.412 226.637 L
486.962 227.056 L
487.513 227.161 L
488.063 227.161 L
488.614 227.161 L
489.164 226.794 L
489.715 226.27 L
490.265 226.113 L
490.816 225.956 L
491.366 225.956 L
491.917 226.061 L
492.467 226.27 L
493.018 226.323 L
493.568 226.218 L
494.119 225.851 L
494.669 225.537 L
495.22 225.013 L
495.77 224.542 L
496.321 224.018 L
496.871 223.599 L
497.422 223.232 L
497.972 223.075 L
498.523 223.022 L
499.073 223.022 L
499.624 223.075 L
500.174 223.127 L
500.725 223.127 L
501.275 223.04 L
501.825 222.865 L
S
GR
GS
[0.75 0 0 0.75 0 0] CT
1 GC
N
388 361 M
388 324 L
494 324 L
494 361 L
cp
f
GR
GS
[0.75 0 0 0.75 318.75 250.60275] CT
/Helvetica 12 F
GS
[1 0 0 1 0 0] CT
0 5 moveto 
1 -1 scale
(gloveBaseA) t 
GR
GR
GS
[0.75 0 0 0.75 0 0] CT
0 0.447 0.741 RC
1 LJ
0.667 LW
N
392 334.137 M
422 334.137 L
S
GR
GS
[0.75 0 0 0.75 318.75 263.14725] CT
/Helvetica 12 F
GS
[1 0 0 1 0 0] CT
0 5 moveto 
1 -1 scale
(initrandA) t 
GR
GR
GS
[0.75 0 0 0.75 0 0] CT
0.851 0.325 0.098 RC
1 LJ
0.667 LW
N
392 350.863 M
422 350.863 L
S
GR
GS
[0.75 0 0 0.75 0 0] CT
0.149 GC
10.0 ML
0.667 LW
N
388 361 M
388 324 L
494 324 L
494 361 L
cp
S
GR
%%Trailer
%%Pages: 1
%%EOF
