%!PS-Adobe-3.0 EPSF-3.0
%%Creator: (MATLAB, The Mathworks, Inc. Version 9.0.0.341360 \(R2016a\). Operating System: Windows 8)
%%Title: ../doc/thesis/figures/Noise.eps
%%CreationDate: 2016-08-23T23:41:42
%%Pages: (atend)
%%BoundingBox:    17     2   387   305
%%LanguageLevel: 3
%%EndComments
%%BeginProlog
%%BeginResource: procset (Apache XML Graphics Std ProcSet) 1.2 0
%%Version: 1.2 0
%%Copyright: (Copyright 2001-2003,2010 The Apache Software Foundation. License terms: http://www.apache.org/licenses/LICENSE-2.0)
/bd{bind def}bind def
/ld{load def}bd
/GR/grestore ld
/M/moveto ld
/LJ/setlinejoin ld
/C/curveto ld
/f/fill ld
/LW/setlinewidth ld
/GC/setgray ld
/t/show ld
/N/newpath ld
/CT/concat ld
/cp/closepath ld
/S/stroke ld
/L/lineto ld
/CC/setcmykcolor ld
/A/ashow ld
/GS/gsave ld
/RC/setrgbcolor ld
/RM/rmoveto ld
/ML/setmiterlimit ld
/re {4 2 roll M
1 index 0 rlineto
0 exch rlineto
neg 0 rlineto
cp } bd
/_ctm matrix def
/_tm matrix def
/BT { _ctm currentmatrix pop matrix _tm copy pop 0 0 moveto } bd
/ET { _ctm setmatrix } bd
/iTm { _ctm setmatrix _tm concat } bd
/Tm { _tm astore pop iTm 0 0 moveto } bd
/ux 0.0 def
/uy 0.0 def
/F {
  /Tp exch def
  /Tf exch def
  Tf findfont Tp scalefont setfont
  /cf Tf def  /cs Tp def
} bd
/ULS {currentpoint /uy exch def /ux exch def} bd
/ULE {
  /Tcx currentpoint pop def
  gsave
  newpath
  cf findfont cs scalefont dup
  /FontMatrix get 0 get /Ts exch def /FontInfo get dup
  /UnderlinePosition get Ts mul /To exch def
  /UnderlineThickness get Ts mul /Tt exch def
  ux uy To add moveto  Tcx uy To add lineto
  Tt setlinewidth stroke
  grestore
} bd
/OLE {
  /Tcx currentpoint pop def
  gsave
  newpath
  cf findfont cs scalefont dup
  /FontMatrix get 0 get /Ts exch def /FontInfo get dup
  /UnderlinePosition get Ts mul /To exch def
  /UnderlineThickness get Ts mul /Tt exch def
  ux uy To add cs add moveto Tcx uy To add cs add lineto
  Tt setlinewidth stroke
  grestore
} bd
/SOE {
  /Tcx currentpoint pop def
  gsave
  newpath
  cf findfont cs scalefont dup
  /FontMatrix get 0 get /Ts exch def /FontInfo get dup
  /UnderlinePosition get Ts mul /To exch def
  /UnderlineThickness get Ts mul /Tt exch def
  ux uy To add cs 10 mul 26 idiv add moveto Tcx uy To add cs 10 mul 26 idiv add lineto
  Tt setlinewidth stroke
  grestore
} bd
/QT {
/Y22 exch store
/X22 exch store
/Y21 exch store
/X21 exch store
currentpoint
/Y21 load 2 mul add 3 div exch
/X21 load 2 mul add 3 div exch
/X21 load 2 mul /X22 load add 3 div
/Y21 load 2 mul /Y22 load add 3 div
/X22 load /Y22 load curveto
} bd
/SSPD {
dup length /d exch dict def
{
/v exch def
/k exch def
currentpagedevice k known {
/cpdv currentpagedevice k get def
v cpdv ne {
/upd false def
/nullv v type /nulltype eq def
/nullcpdv cpdv type /nulltype eq def
nullv nullcpdv or
{
/upd true def
} {
/sametype v type cpdv type eq def
sametype {
v type /arraytype eq {
/vlen v length def
/cpdvlen cpdv length def
vlen cpdvlen eq {
0 1 vlen 1 sub {
/i exch def
/obj v i get def
/cpdobj cpdv i get def
obj cpdobj ne {
/upd true def
exit
} if
} for
} {
/upd true def
} ifelse
} {
v type /dicttype eq {
v {
/dv exch def
/dk exch def
/cpddv cpdv dk get def
dv cpddv ne {
/upd true def
exit
} if
} forall
} {
/upd true def
} ifelse
} ifelse
} if
} ifelse
upd true eq {
d k v put
} if
} if
} if
} forall
d length 0 gt {
d setpagedevice
} if
} bd
%%EndResource
%%BeginResource: procset (Apache XML Graphics EPS ProcSet) 1.0 0
%%Version: 1.0 0
%%Copyright: (Copyright 2002-2003 The Apache Software Foundation. License terms: http://www.apache.org/licenses/LICENSE-2.0)
/BeginEPSF { %def
/b4_Inc_state save def         % Save state for cleanup
/dict_count countdictstack def % Count objects on dict stack
/op_count count 1 sub def      % Count objects on operand stack
userdict begin                 % Push userdict on dict stack
/showpage { } def              % Redefine showpage, { } = null proc
0 setgray 0 setlinecap         % Prepare graphics state
1 setlinewidth 0 setlinejoin
10 setmiterlimit [ ] 0 setdash newpath
/languagelevel where           % If level not equal to 1 then
{pop languagelevel             % set strokeadjust and
1 ne                           % overprint to their defaults.
{false setstrokeadjust false setoverprint
} if
} if
} bd
/EndEPSF { %def
count op_count sub {pop} repeat            % Clean up stacks
countdictstack dict_count sub {end} repeat
b4_Inc_state restore
} bd
%%EndResource
%FOPBeginFontDict
%%IncludeResource: font Courier-Bold
%%IncludeResource: font Helvetica
%%IncludeResource: font Courier-BoldOblique
%%IncludeResource: font Courier-Oblique
%%IncludeResource: font Times-Roman
%%IncludeResource: font Helvetica-BoldOblique
%%IncludeResource: font Helvetica-Bold
%%IncludeResource: font Helvetica-Oblique
%%IncludeResource: font Times-BoldItalic
%%IncludeResource: font Courier
%%IncludeResource: font Times-Italic
%%IncludeResource: font Times-Bold
%%IncludeResource: font Symbol
%%IncludeResource: font ZapfDingbats
%FOPEndFontDict
%%BeginResource: encoding WinAnsiEncoding
/WinAnsiEncoding [
/.notdef /.notdef /.notdef /.notdef /.notdef
/.notdef /.notdef /.notdef /.notdef /.notdef
/.notdef /.notdef /.notdef /.notdef /.notdef
/.notdef /.notdef /.notdef /.notdef /.notdef
/.notdef /.notdef /.notdef /.notdef /.notdef
/.notdef /.notdef /.notdef /.notdef /.notdef
/.notdef /.notdef /space /exclam /quotedbl
/numbersign /dollar /percent /ampersand /quotesingle
/parenleft /parenright /asterisk /plus /comma
/hyphen /period /slash /zero /one
/two /three /four /five /six
/seven /eight /nine /colon /semicolon
/less /equal /greater /question /at
/A /B /C /D /E
/F /G /H /I /J
/K /L /M /N /O
/P /Q /R /S /T
/U /V /W /X /Y
/Z /bracketleft /backslash /bracketright /asciicircum
/underscore /quoteleft /a /b /c
/d /e /f /g /h
/i /j /k /l /m
/n /o /p /q /r
/s /t /u /v /w
/x /y /z /braceleft /bar
/braceright /asciitilde /bullet /Euro /bullet
/quotesinglbase /florin /quotedblbase /ellipsis /dagger
/daggerdbl /circumflex /perthousand /Scaron /guilsinglleft
/OE /bullet /Zcaron /bullet /bullet
/quoteleft /quoteright /quotedblleft /quotedblright /bullet
/endash /emdash /asciitilde /trademark /scaron
/guilsinglright /oe /bullet /zcaron /Ydieresis
/space /exclamdown /cent /sterling /currency
/yen /brokenbar /section /dieresis /copyright
/ordfeminine /guillemotleft /logicalnot /sfthyphen /registered
/macron /degree /plusminus /twosuperior /threesuperior
/acute /mu /paragraph /middot /cedilla
/onesuperior /ordmasculine /guillemotright /onequarter /onehalf
/threequarters /questiondown /Agrave /Aacute /Acircumflex
/Atilde /Adieresis /Aring /AE /Ccedilla
/Egrave /Eacute /Ecircumflex /Edieresis /Igrave
/Iacute /Icircumflex /Idieresis /Eth /Ntilde
/Ograve /Oacute /Ocircumflex /Otilde /Odieresis
/multiply /Oslash /Ugrave /Uacute /Ucircumflex
/Udieresis /Yacute /Thorn /germandbls /agrave
/aacute /acircumflex /atilde /adieresis /aring
/ae /ccedilla /egrave /eacute /ecircumflex
/edieresis /igrave /iacute /icircumflex /idieresis
/eth /ntilde /ograve /oacute /ocircumflex
/otilde /odieresis /divide /oslash /ugrave
/uacute /ucircumflex /udieresis /yacute /thorn
/ydieresis
] def
%%EndResource
%FOPBeginFontReencode
/Courier-Bold findfont
dup length dict begin
  {1 index /FID ne {def} {pop pop} ifelse} forall
  /Encoding WinAnsiEncoding def
  currentdict
end
/Courier-Bold exch definefont pop
/Helvetica findfont
dup length dict begin
  {1 index /FID ne {def} {pop pop} ifelse} forall
  /Encoding WinAnsiEncoding def
  currentdict
end
/Helvetica exch definefont pop
/Courier-BoldOblique findfont
dup length dict begin
  {1 index /FID ne {def} {pop pop} ifelse} forall
  /Encoding WinAnsiEncoding def
  currentdict
end
/Courier-BoldOblique exch definefont pop
/Courier-Oblique findfont
dup length dict begin
  {1 index /FID ne {def} {pop pop} ifelse} forall
  /Encoding WinAnsiEncoding def
  currentdict
end
/Courier-Oblique exch definefont pop
/Times-Roman findfont
dup length dict begin
  {1 index /FID ne {def} {pop pop} ifelse} forall
  /Encoding WinAnsiEncoding def
  currentdict
end
/Times-Roman exch definefont pop
/Helvetica-BoldOblique findfont
dup length dict begin
  {1 index /FID ne {def} {pop pop} ifelse} forall
  /Encoding WinAnsiEncoding def
  currentdict
end
/Helvetica-BoldOblique exch definefont pop
/Helvetica-Bold findfont
dup length dict begin
  {1 index /FID ne {def} {pop pop} ifelse} forall
  /Encoding WinAnsiEncoding def
  currentdict
end
/Helvetica-Bold exch definefont pop
/Helvetica-Oblique findfont
dup length dict begin
  {1 index /FID ne {def} {pop pop} ifelse} forall
  /Encoding WinAnsiEncoding def
  currentdict
end
/Helvetica-Oblique exch definefont pop
/Times-BoldItalic findfont
dup length dict begin
  {1 index /FID ne {def} {pop pop} ifelse} forall
  /Encoding WinAnsiEncoding def
  currentdict
end
/Times-BoldItalic exch definefont pop
/Courier findfont
dup length dict begin
  {1 index /FID ne {def} {pop pop} ifelse} forall
  /Encoding WinAnsiEncoding def
  currentdict
end
/Courier exch definefont pop
/Times-Italic findfont
dup length dict begin
  {1 index /FID ne {def} {pop pop} ifelse} forall
  /Encoding WinAnsiEncoding def
  currentdict
end
/Times-Italic exch definefont pop
/Times-Bold findfont
dup length dict begin
  {1 index /FID ne {def} {pop pop} ifelse} forall
  /Encoding WinAnsiEncoding def
  currentdict
end
/Times-Bold exch definefont pop
%FOPEndFontReencode
%%EndProlog
%%Page: 1 1
%%PageBoundingBox: 0 0 420 315
%%BeginPageSetup
[1 0 0 -1 0 315] CT
%%EndPageSetup
GS
[0.75 0 0 0.75 0 0] CT
1 GC
N
0 0 560 420 re
f
GR
GS
[0.75 0 0 0.75 0 0] CT
1 GC
N
0 0 560 420 re
f
GR
GS
[0.75 0 0 0.75 0 0] CT
1 GC
N
73 374 M
507 374 L
507 31 L
73 31 L
cp
f
GR
GS
[0.75 0 0 0.75 0 0] CT
0.149 GC
2 setlinecap
1 LJ
0.667 LW
N
73 374 M
507 374 L
S
GR
GS
[0.75 0 0 0.75 0 0] CT
0.149 GC
2 setlinecap
1 LJ
0.667 LW
N
73 374 M
73 369.66 L
S
GR
GS
[0.75 0 0 0.75 0 0] CT
0.149 GC
2 setlinecap
1 LJ
0.667 LW
N
145.333 374 M
145.333 369.66 L
S
GR
GS
[0.75 0 0 0.75 0 0] CT
0.149 GC
2 setlinecap
1 LJ
0.667 LW
N
217.667 374 M
217.667 369.66 L
S
GR
GS
[0.75 0 0 0.75 0 0] CT
0.149 GC
2 setlinecap
1 LJ
0.667 LW
N
290 374 M
290 369.66 L
S
GR
GS
[0.75 0 0 0.75 0 0] CT
0.149 GC
2 setlinecap
1 LJ
0.667 LW
N
362.333 374 M
362.333 369.66 L
S
GR
GS
[0.75 0 0 0.75 0 0] CT
0.149 GC
2 setlinecap
1 LJ
0.667 LW
N
434.667 374 M
434.667 369.66 L
S
GR
GS
[0.75 0 0 0.75 0 0] CT
0.149 GC
2 setlinecap
1 LJ
0.667 LW
N
507 374 M
507 369.66 L
S
GR
GS
[0.75 0 0 0.75 54.75 284.49998] CT
0.149 GC
/Helvetica 13.333 F
GS
[1 0 0 1 0 0] CT
-4 14 moveto 
1 -1 scale
(0) t 
GR
GR
GS
[0.75 0 0 0.75 109 284.49998] CT
0.149 GC
/Helvetica 13.333 F
GS
[1 0 0 1 0 0] CT
-9.5 14 moveto 
1 -1 scale
(0.2) t 
GR
GR
GS
[0.75 0 0 0.75 163.25 284.49998] CT
0.149 GC
/Helvetica 13.333 F
GS
[1 0 0 1 0 0] CT
-9.5 14 moveto 
1 -1 scale
(0.4) t 
GR
GR
GS
[0.75 0 0 0.75 217.5 284.49998] CT
0.149 GC
/Helvetica 13.333 F
GS
[1 0 0 1 0 0] CT
-9.5 14 moveto 
1 -1 scale
(0.6) t 
GR
GR
GS
[0.75 0 0 0.75 271.75001 284.49998] CT
0.149 GC
/Helvetica 13.333 F
GS
[1 0 0 1 0 0] CT
-9.5 14 moveto 
1 -1 scale
(0.8) t 
GR
GR
GS
[0.75 0 0 0.75 325.99999 284.49998] CT
0.149 GC
/Helvetica 13.333 F
GS
[1 0 0 1 0 0] CT
-4 14 moveto 
1 -1 scale
(1) t 
GR
GR
GS
[0.75 0 0 0.75 380.25002 284.49998] CT
0.149 GC
/Helvetica 13.333 F
GS
[1 0 0 1 0 0] CT
-9.5 14 moveto 
1 -1 scale
(1.2) t 
GR
GR
GS
[0.75 0 0 0.75 217.50016 298.24995] CT
0.149 GC
/Helvetica 14.667 F
GS
[1 0 0 1 0 0] CT
-29.5 16 moveto 
1 -1 scale
(#Epochs) t 
GR
GR
GS
[0.75 0 0 0.75 0 0] CT
0.149 GC
2 setlinecap
1 LJ
0.667 LW
N
73 374 M
73 31 L
S
GR
GS
[0.75 0 0 0.75 0 0] CT
0.149 GC
2 setlinecap
1 LJ
0.667 LW
N
73 374 M
77.34 374 L
S
GR
GS
[0.75 0 0 0.75 0 0] CT
0.149 GC
2 setlinecap
1 LJ
0.667 LW
N
73 316.833 M
77.34 316.833 L
S
GR
GS
[0.75 0 0 0.75 0 0] CT
0.149 GC
2 setlinecap
1 LJ
0.667 LW
N
73 259.667 M
77.34 259.667 L
S
GR
GS
[0.75 0 0 0.75 0 0] CT
0.149 GC
2 setlinecap
1 LJ
0.667 LW
N
73 202.5 M
77.34 202.5 L
S
GR
GS
[0.75 0 0 0.75 0 0] CT
0.149 GC
2 setlinecap
1 LJ
0.667 LW
N
73 145.333 M
77.34 145.333 L
S
GR
GS
[0.75 0 0 0.75 0 0] CT
0.149 GC
2 setlinecap
1 LJ
0.667 LW
N
73 88.167 M
77.34 88.167 L
S
GR
GS
[0.75 0 0 0.75 0 0] CT
0.149 GC
2 setlinecap
1 LJ
0.667 LW
N
73 31 M
77.34 31 L
S
GR
GS
[0.75 0 0 0.75 50.75 280.49998] CT
0.149 GC
/Helvetica 13.333 F
GS
[1 0 0 1 0 0] CT
-19 5.5 moveto 
1 -1 scale
(0.6) t 
GR
GR
GS
[0.75 0 0 0.75 50.75 237.62503] CT
0.149 GC
/Helvetica 13.333 F
GS
[1 0 0 1 0 0] CT
-26 5.5 moveto 
1 -1 scale
(0.65) t 
GR
GR
GS
[0.75 0 0 0.75 50.75 194.75002] CT
0.149 GC
/Helvetica 13.333 F
GS
[1 0 0 1 0 0] CT
-19 5.5 moveto 
1 -1 scale
(0.7) t 
GR
GR
GS
[0.75 0 0 0.75 50.75 151.875] CT
0.149 GC
/Helvetica 13.333 F
GS
[1 0 0 1 0 0] CT
-26 5.5 moveto 
1 -1 scale
(0.75) t 
GR
GR
GS
[0.75 0 0 0.75 50.75 108.99998] CT
0.149 GC
/Helvetica 13.333 F
GS
[1 0 0 1 0 0] CT
-19 5.5 moveto 
1 -1 scale
(0.8) t 
GR
GR
GS
[0.75 0 0 0.75 50.75 66.12498] CT
0.149 GC
/Helvetica 13.333 F
GS
[1 0 0 1 0 0] CT
-26 5.5 moveto 
1 -1 scale
(0.85) t 
GR
GR
GS
[0.75 0 0 0.75 50.75 23.25002] CT
0.149 GC
/Helvetica 13.333 F
GS
[1 0 0 1 0 0] CT
-19 5.5 moveto 
1 -1 scale
(0.9) t 
GR
GR
GS
[0 -0.75 0.75 0 28.25 151.8749] CT
0.149 GC
/Helvetica 14.667 F
GS
[1 0 0 1 0 0] CT
-58.5 -4 moveto 
1 -1 scale
(f1 score on aidaB) t 
GR
GR
GS
[0.75 0 0 0.75 217.50021 21.18754] CT
/Helvetica-Bold 14.667 F
GS
[1 0 0 1 0 0] CT
-20.5 -4 moveto 
1 -1 scale
(Noise) t 
GR
GR
GS
[0.75 0 0 0.75 0 0] CT
0 0.447 0.741 RC
1 LJ
0.667 LW
N
73.55 311.136 M
74.101 290.356 L
74.651 291.596 L
75.202 293.639 L
75.752 290.496 L
76.303 285.624 L
76.853 275.933 L
77.404 268.284 L
77.954 257.807 L
78.505 260.531 L
79.055 261.684 L
79.606 269.122 L
80.156 267.708 L
80.707 271.061 L
81.257 265.089 L
81.808 267.132 L
82.358 262.993 L
82.909 262.103 L
83.459 259.169 L
84.01 263.15 L
84.56 268.441 L
85.111 264.722 L
85.661 268.808 L
86.212 268.808 L
86.762 260.374 L
87.313 255.24 L
87.863 259.955 L
88.413 258.278 L
88.964 255.292 L
89.514 261.107 L
90.065 264.512 L
90.615 272.789 L
91.166 274.728 L
91.716 285.886 L
92.267 298.354 L
92.817 307.364 L
93.368 315.327 L
93.918 332.562 L
94.469 338.639 L
95.019 348.174 L
95.57 342.935 L
96.12 342.568 L
96.671 340.001 L
97.221 327.324 L
97.772 306.002 L
98.322 300.397 L
98.873 285.781 L
99.423 268.075 L
99.974 265.665 L
100.524 268.284 L
101.075 264.984 L
101.625 260.845 L
102.176 260.583 L
102.726 254.769 L
103.277 249.111 L
103.827 254.297 L
104.377 253.826 L
104.928 257.545 L
105.478 260.479 L
106.029 256.916 L
106.579 244.92 L
107.13 240.677 L
107.68 234.39 L
108.231 233.133 L
108.781 236.014 L
109.332 243.243 L
109.882 247.592 L
110.433 245.077 L
110.983 243.034 L
111.534 242.824 L
112.084 237.952 L
112.635 235.019 L
113.185 239.262 L
113.736 238.791 L
114.286 235.49 L
114.837 236.276 L
115.387 238.214 L
115.938 233.762 L
116.488 236.486 L
117.039 240.991 L
117.589 239.21 L
118.14 240.415 L
118.69 239.786 L
119.24 235.071 L
119.791 231.614 L
120.341 234.705 L
120.892 230.042 L
121.442 233.919 L
121.993 234.285 L
122.543 238.686 L
123.094 233.028 L
123.644 229.466 L
124.195 223.756 L
124.745 223.232 L
125.296 221.398 L
125.846 225.485 L
126.397 231.404 L
126.947 233.081 L
127.498 233.709 L
128.048 226.48 L
128.599 224.384 L
129.149 221.922 L
129.7 221.136 L
130.25 222.76 L
130.801 220.822 L
131.351 219.146 L
131.902 218.517 L
132.452 219.251 L
133.003 220.455 L
133.553 222.132 L
134.104 223.389 L
134.654 217.155 L
135.204 212.912 L
135.755 202.015 L
136.305 200.077 L
136.856 195.1 L
137.406 202.696 L
137.957 198.558 L
138.507 204.53 L
139.058 205.054 L
139.608 205.368 L
140.159 197.929 L
140.709 204.478 L
141.26 202.12 L
141.81 203.377 L
142.361 203.535 L
142.911 204.373 L
143.462 200.863 L
144.012 196.934 L
144.563 194.996 L
145.113 192.429 L
145.664 190.857 L
146.214 189.495 L
146.765 195.677 L
147.315 199.815 L
147.866 204.74 L
148.416 206.887 L
148.967 207.778 L
149.517 200.968 L
150.067 194.996 L
150.618 191.8 L
151.168 193.948 L
151.719 195.362 L
152.269 196.882 L
152.82 197.877 L
153.37 195.258 L
153.921 194.105 L
154.471 192.272 L
155.022 188.238 L
155.572 186.195 L
156.123 192.324 L
156.673 189.862 L
157.224 185.042 L
157.774 191.276 L
158.325 195.467 L
158.875 194.838 L
159.426 195.467 L
159.976 201.858 L
160.527 199.606 L
161.077 193.424 L
161.628 194.681 L
162.178 194.053 L
162.729 188.709 L
163.279 184.466 L
163.83 183.418 L
164.38 176.137 L
164.93 172.417 L
165.481 177.656 L
166.031 181.166 L
166.582 182.685 L
167.132 186.614 L
167.683 191.8 L
168.233 196.62 L
168.784 200.182 L
169.334 202.277 L
169.885 206.783 L
170.435 200.811 L
170.986 195.677 L
171.536 190.281 L
172.087 185.985 L
172.637 184.204 L
173.188 189.652 L
173.738 190.386 L
174.289 194.21 L
174.839 197.143 L
175.39 192.062 L
175.94 190.228 L
176.491 187.085 L
177.041 188.604 L
177.592 189.967 L
178.142 192.062 L
178.693 190.124 L
179.243 197.196 L
179.794 191.538 L
180.344 196.305 L
180.894 192.429 L
181.445 198.82 L
181.995 190.281 L
182.546 189.862 L
183.096 184.256 L
183.647 189.181 L
184.197 187.871 L
184.748 187.085 L
185.298 192.272 L
185.849 192.795 L
186.399 187.871 L
186.95 188.028 L
187.5 191.067 L
188.051 187.347 L
188.601 185.514 L
189.152 188.081 L
189.702 185.409 L
190.253 187.714 L
190.803 191.014 L
191.354 197.877 L
191.904 199.815 L
192.455 200.077 L
193.005 196.567 L
193.556 195.729 L
194.106 193.738 L
194.657 187.819 L
195.207 185.933 L
195.757 184.099 L
196.308 180.275 L
196.858 170.741 L
197.409 167.755 L
197.959 167.755 L
198.51 174.774 L
199.06 174.355 L
199.611 176.87 L
200.161 181.794 L
200.712 179.856 L
201.262 176.137 L
201.813 178.965 L
202.363 184.518 L
202.914 180.066 L
203.464 177.97 L
204.015 174.617 L
204.565 172.993 L
205.116 168.331 L
205.666 175.979 L
206.217 179.018 L
206.767 180.694 L
207.318 178.127 L
207.868 174.198 L
208.419 166.917 L
208.969 162.883 L
209.52 160.997 L
210.07 163.721 L
210.62 167.755 L
211.171 167.755 L
211.721 171.003 L
212.272 173.255 L
212.822 174.984 L
213.373 176.556 L
213.923 181.637 L
214.474 182.318 L
215.024 180.432 L
215.575 178.022 L
216.125 179.018 L
216.676 180.589 L
217.226 179.699 L
217.777 177.603 L
218.327 174.303 L
218.878 171.631 L
219.428 166.812 L
219.979 170.898 L
220.529 170.112 L
221.08 180.17 L
221.63 181.951 L
222.181 182.632 L
222.731 179.28 L
223.282 182.632 L
223.832 176.294 L
224.383 177.97 L
224.933 183.261 L
225.484 182.318 L
226.034 184.099 L
226.584 185.671 L
227.135 184.676 L
227.685 179.332 L
228.236 179.227 L
228.786 178.022 L
229.337 180.904 L
229.887 183.471 L
230.438 184.728 L
230.988 182.947 L
231.539 183.628 L
232.089 177.08 L
232.64 171.474 L
233.19 172.417 L
233.741 172.784 L
234.291 173.936 L
234.842 178.337 L
235.392 178.337 L
235.943 175.979 L
236.493 176.451 L
237.044 175.456 L
237.594 174.513 L
238.145 181.27 L
238.695 183.209 L
239.246 185.042 L
239.796 184.099 L
240.347 181.847 L
240.897 179.542 L
241.447 178.913 L
241.998 180.694 L
242.548 185.461 L
243.099 188.919 L
243.649 184.361 L
244.2 184.414 L
244.75 181.48 L
245.301 174.827 L
245.851 175.036 L
246.402 176.87 L
246.952 173.465 L
247.503 173.57 L
248.053 177.446 L
248.604 170.007 L
249.154 169.903 L
249.705 171.16 L
250.255 169.955 L
250.806 165.397 L
251.356 170.374 L
251.907 172.05 L
252.457 171.369 L
253.008 175.141 L
253.558 176.294 L
254.109 172.574 L
254.659 174.932 L
255.21 175.246 L
255.76 171.317 L
256.31 171.998 L
256.861 172.469 L
257.411 172.312 L
257.962 173.832 L
258.512 174.617 L
259.063 173.674 L
259.613 174.565 L
260.164 170.217 L
260.714 168.593 L
261.265 172.26 L
261.815 170.426 L
262.366 171.055 L
262.916 171.369 L
263.467 173.779 L
264.017 170.269 L
264.568 173.57 L
265.118 172.417 L
265.669 168.802 L
266.219 170.426 L
266.77 170.846 L
267.32 167.44 L
267.871 171.107 L
268.421 174.146 L
268.972 169.641 L
269.522 171.055 L
270.073 182.423 L
270.623 185.042 L
271.174 187.504 L
271.724 193.057 L
272.274 195.1 L
272.825 194.996 L
273.375 192.586 L
273.926 192.272 L
274.476 190.333 L
275.027 184.256 L
275.577 176.608 L
276.128 174.251 L
276.678 173.989 L
277.229 173.308 L
277.779 177.918 L
278.33 181.27 L
278.88 185.723 L
279.431 185.252 L
279.981 184.204 L
280.532 182.79 L
281.082 177.865 L
281.633 176.294 L
282.183 176.66 L
282.734 178.965 L
283.284 181.008 L
283.835 184.728 L
284.385 181.637 L
284.936 184.361 L
285.486 183.261 L
286.037 183.942 L
286.587 189.495 L
287.137 189.967 L
287.688 186.561 L
288.238 188.919 L
288.789 188.604 L
289.339 182.161 L
289.89 185.409 L
290.44 183.471 L
290.991 177.97 L
291.541 172.05 L
292.092 171.893 L
292.642 168.174 L
293.193 165.45 L
293.743 165.083 L
294.294 168.331 L
294.844 164.297 L
295.395 163.04 L
295.945 159.635 L
296.496 160.892 L
297.046 162.883 L
297.597 160.944 L
298.147 158.692 L
298.698 162.83 L
299.248 166.34 L
299.799 166.288 L
300.349 166.236 L
300.9 169.641 L
301.45 168.802 L
302.001 170.636 L
302.551 170.793 L
303.101 171.107 L
303.652 166.707 L
304.202 172.679 L
304.753 168.017 L
305.303 169.221 L
305.854 172.784 L
306.404 178.546 L
306.955 175.77 L
307.505 172.627 L
308.056 169.274 L
308.606 169.326 L
309.157 165.764 L
309.707 163.983 L
310.258 169.221 L
310.808 172.155 L
311.359 171.631 L
311.909 175.875 L
312.46 176.608 L
313.01 173.727 L
313.561 167.65 L
314.111 164.035 L
314.662 158.168 L
315.212 160.106 L
315.763 163.616 L
316.313 173.151 L
316.864 175.613 L
317.414 177.237 L
317.964 174.251 L
318.515 166.759 L
319.065 159.897 L
319.616 159.582 L
320.166 158.43 L
320.717 161.468 L
321.267 162.988 L
321.818 165.188 L
322.368 164.14 L
322.919 167.493 L
323.469 168.121 L
324.02 171.841 L
324.57 170.584 L
325.121 173.517 L
325.671 174.198 L
326.222 169.326 L
326.772 170.06 L
327.323 171.422 L
327.873 165.397 L
328.424 160.787 L
328.974 161.049 L
329.525 158.22 L
330.075 151.62 L
330.626 157.435 L
331.176 160.421 L
331.727 161.206 L
332.277 160.735 L
332.827 163.878 L
333.378 160.211 L
333.928 156.911 L
334.479 155.863 L
335.029 152.825 L
335.58 151.148 L
336.13 156.544 L
336.681 167.702 L
337.231 171.631 L
337.782 175.875 L
338.332 177.289 L
338.883 173.36 L
339.433 163.197 L
339.984 165.24 L
340.534 167.859 L
341.085 171.579 L
341.635 175.613 L
342.186 179.07 L
342.736 177.656 L
343.287 178.389 L
343.837 182.109 L
344.388 177.656 L
344.938 178.494 L
345.489 176.713 L
346.039 172.312 L
346.59 163.616 L
347.14 162.673 L
347.691 160.159 L
348.241 157.854 L
348.791 156.544 L
349.342 158.011 L
349.892 158.063 L
350.443 160.054 L
350.993 161.783 L
351.544 166.288 L
352.094 171.788 L
352.645 171.265 L
353.195 168.855 L
353.746 170.007 L
354.296 177.289 L
354.847 171.946 L
355.397 172.731 L
355.948 175.77 L
356.498 173.57 L
357.049 166.602 L
357.599 173.622 L
358.15 179.123 L
358.7 179.175 L
359.251 183.052 L
359.801 183.733 L
360.352 180.432 L
360.902 175.141 L
361.453 172.05 L
362.003 168.698 L
362.554 163.616 L
363.104 161.73 L
363.654 163.878 L
364.205 167.336 L
364.755 162.359 L
365.306 164.402 L
365.856 160.735 L
366.407 158.482 L
366.957 158.325 L
367.508 164.769 L
368.058 170.741 L
368.609 179.594 L
369.159 183.785 L
369.71 181.48 L
370.26 181.794 L
370.811 176.922 L
371.361 170.112 L
371.912 171.107 L
372.462 173.36 L
373.013 172.05 L
373.563 169.221 L
374.114 167.44 L
374.664 160.316 L
375.215 157.33 L
375.765 155.811 L
376.316 155.811 L
376.866 158.797 L
377.417 163.826 L
377.967 165.45 L
378.518 171.474 L
379.068 171.998 L
379.618 171.369 L
380.169 170.898 L
380.719 173.151 L
381.27 168.855 L
381.82 169.012 L
382.371 168.436 L
382.921 167.44 L
383.472 163.669 L
384.022 162.045 L
384.573 166.236 L
385.123 166.707 L
385.674 168.331 L
386.224 169.483 L
386.775 166.707 L
387.325 164.716 L
387.876 167.545 L
388.426 166.183 L
388.977 162.883 L
389.527 165.554 L
390.078 162.726 L
390.628 157.225 L
391.179 155.392 L
391.729 156.073 L
392.28 158.063 L
392.83 155.863 L
393.381 161.573 L
393.931 160.892 L
394.481 166.917 L
395.032 171.474 L
395.582 182.632 L
396.133 182.371 L
396.683 190.228 L
397.234 190.857 L
397.784 192.219 L
398.335 197.72 L
398.885 197.929 L
399.436 198.506 L
399.986 200.077 L
400.537 197.51 L
401.087 181.113 L
401.638 177.97 L
402.188 171.998 L
402.739 169.169 L
403.289 172.312 L
403.84 176.398 L
404.39 178.389 L
404.941 181.637 L
405.491 180.066 L
406.042 178.18 L
406.592 177.394 L
407.143 178.127 L
407.693 176.922 L
408.244 180.17 L
408.794 174.355 L
409.345 175.194 L
409.895 174.879 L
410.445 177.97 L
410.996 176.503 L
411.546 175.979 L
412.097 176.608 L
412.647 175.246 L
413.198 171.946 L
413.748 171.998 L
414.299 175.979 L
414.849 180.118 L
415.4 179.908 L
415.95 187.976 L
416.501 187.766 L
417.051 188.762 L
417.602 183.523 L
418.152 184.885 L
418.703 177.708 L
419.253 174.774 L
419.804 171.631 L
420.354 176.084 L
420.905 175.613 L
421.455 175.613 L
422.006 175.613 L
422.556 179.332 L
423.107 179.856 L
423.657 181.166 L
424.208 180.589 L
424.758 181.323 L
425.308 178.442 L
425.859 170.007 L
426.409 167.702 L
426.96 164.088 L
427.51 167.126 L
428.061 171.474 L
428.611 177.394 L
429.162 179.594 L
429.712 182.161 L
430.263 180.956 L
430.813 178.284 L
431.364 179.699 L
431.914 178.861 L
432.465 180.694 L
433.015 184.518 L
433.566 192.324 L
434.116 194 L
434.667 202.173 L
435.217 202.173 L
435.768 195.258 L
436.318 187.295 L
436.869 184.833 L
437.419 177.237 L
437.97 174.513 L
438.52 175.089 L
439.07 174.408 L
439.621 166.497 L
440.171 162.254 L
440.722 159.792 L
441.272 162.673 L
441.823 163.616 L
442.373 169.012 L
442.924 171.841 L
443.474 176.032 L
444.025 171.422 L
444.575 165.607 L
445.126 164.612 L
445.676 162.045 L
446.227 159.792 L
446.777 160.002 L
447.328 160.159 L
447.878 157.958 L
448.429 158.22 L
448.979 154.344 L
449.53 149.943 L
450.08 149.681 L
450.631 147.062 L
451.181 146.329 L
451.732 149.996 L
452.282 152.196 L
452.833 152.039 L
453.383 156.282 L
453.934 159.163 L
454.484 163.721 L
455.035 167.807 L
455.585 169.379 L
456.135 169.693 L
456.686 167.807 L
457.236 163.878 L
457.787 163.826 L
458.337 165.764 L
458.888 165.293 L
459.438 164.612 L
459.989 163.249 L
460.539 160.683 L
461.09 157.958 L
461.64 156.492 L
462.191 156.282 L
462.741 154.396 L
463.292 151.934 L
463.842 151.358 L
464.393 150.729 L
464.943 149.315 L
465.494 149.891 L
466.044 151.515 L
466.595 151.253 L
467.145 150.939 L
467.696 150.572 L
468.246 149.367 L
468.797 148.634 L
469.347 148.005 L
469.898 147.638 L
470.448 147.586 L
470.998 147.953 L
471.549 147.9 L
472.099 147.219 L
472.65 147.01 L
473.2 146.748 L
473.751 146.172 L
474.301 146.014 L
474.852 146.224 L
475.402 146.172 L
475.953 146.067 L
476.503 146.276 L
477.054 145.857 L
477.604 145.543 L
478.155 145.071 L
478.705 144.652 L
479.256 144.024 L
479.806 143.709 L
480.357 143.238 L
480.907 142.924 L
481.458 142.871 L
482.008 142.819 L
482.559 142.4 L
483.109 141.928 L
483.66 141.719 L
484.21 141.247 L
484.76 140.828 L
485.311 140.933 L
485.862 141.3 L
486.412 141.614 L
486.962 142.138 L
487.513 142.505 L
488.063 142.662 L
488.614 142.4 L
489.164 141.928 L
489.715 141.404 L
490.265 141.09 L
490.816 140.88 L
491.366 140.88 L
491.917 141.142 L
492.467 141.404 L
493.018 141.614 L
493.568 141.666 L
494.119 141.771 L
494.669 141.823 L
495.22 141.771 L
495.77 141.614 L
496.321 141.666 L
496.871 141.142 L
S
GR
GS
[0.75 0 0 0.75 0 0] CT
0.851 0.325 0.098 RC
1 LJ
0.667 LW
N
73.55 348.069 M
74.101 322.225 L
74.651 305.164 L
75.202 292.015 L
75.752 284.838 L
76.303 272.632 L
76.853 272.266 L
77.404 272.423 L
77.954 267.97 L
78.505 266.189 L
79.055 263.15 L
79.606 262.103 L
80.156 263.517 L
80.707 273.366 L
81.257 274.256 L
81.808 286.777 L
82.358 282.219 L
82.909 275.828 L
83.459 267.865 L
84.01 276.352 L
84.56 271.585 L
85.111 273.418 L
85.661 279.285 L
86.212 282.271 L
86.762 278.604 L
87.313 273.628 L
87.863 279.862 L
88.413 278.238 L
88.964 273.104 L
89.514 274.885 L
90.065 281.433 L
90.615 275.933 L
91.166 275.723 L
91.716 295.42 L
92.267 305.06 L
92.817 317.37 L
93.368 330.467 L
93.918 343.406 L
94.469 328.267 L
95.019 321.666 L
95.57 317.423 L
96.12 317.999 L
96.671 313.598 L
97.221 310.927 L
97.772 299.402 L
98.322 291.072 L
98.873 285.834 L
99.423 273.68 L
99.974 269.699 L
100.524 270.956 L
101.075 260.845 L
101.625 248.692 L
102.176 250.473 L
102.726 254.611 L
103.277 259.536 L
103.827 265.665 L
104.377 275.356 L
104.928 279.39 L
105.478 277.138 L
106.029 267.498 L
106.579 261.474 L
107.13 254.978 L
107.68 254.454 L
108.231 253.04 L
108.781 260.269 L
109.332 267.76 L
109.882 270.537 L
110.433 268.232 L
110.983 271.532 L
111.534 271.165 L
112.084 269.07 L
112.635 266.136 L
113.185 263.884 L
113.736 259.431 L
114.286 253.668 L
114.837 250.735 L
115.387 251.259 L
115.938 253.302 L
116.488 261.841 L
117.039 265.874 L
117.589 270.589 L
118.14 272.789 L
118.69 265.298 L
119.24 253.04 L
119.791 247.173 L
120.341 245.81 L
120.892 241.305 L
121.442 242.877 L
121.993 247.644 L
122.543 252.935 L
123.094 255.24 L
123.644 246.387 L
124.195 251.573 L
124.745 255.607 L
125.296 261.998 L
125.846 261.631 L
126.397 267.813 L
126.947 261.474 L
127.498 253.302 L
128.048 243.767 L
128.599 239 L
129.149 236.014 L
129.7 237.01 L
130.25 242.772 L
130.801 240.834 L
131.351 233.762 L
131.902 234.809 L
132.452 238.686 L
133.003 235.49 L
133.553 236.59 L
134.104 236.957 L
134.654 234.757 L
135.204 225.432 L
135.755 218.203 L
136.305 218.098 L
136.856 222.656 L
137.406 222.184 L
137.957 226.428 L
138.507 235.124 L
139.058 236.538 L
139.608 238.895 L
140.159 240.781 L
140.709 243.034 L
141.26 235.7 L
141.81 229.309 L
142.361 223.546 L
142.911 224.594 L
143.462 220.194 L
144.012 219.146 L
144.563 226.794 L
145.113 227.894 L
145.664 222.394 L
146.214 218.936 L
146.765 224.699 L
147.315 219.774 L
147.866 217.941 L
148.416 219.251 L
148.967 221.87 L
149.517 215.793 L
150.067 210.607 L
150.618 210.554 L
151.168 211.026 L
151.719 209.297 L
152.269 209.035 L
152.82 213.488 L
153.37 211.812 L
153.921 208.773 L
154.471 211.183 L
155.022 207.935 L
155.572 202.644 L
156.123 202.068 L
156.673 204.478 L
157.224 200.391 L
157.774 206.154 L
158.325 206.887 L
158.875 205.001 L
159.426 202.435 L
159.976 203.639 L
160.527 203.116 L
161.077 201.858 L
161.628 199.187 L
162.178 199.448 L
162.729 198.925 L
163.279 201.125 L
163.83 207.254 L
164.38 214.641 L
164.93 216.003 L
165.481 219.198 L
166.031 218.308 L
166.582 210.502 L
167.132 206.678 L
167.683 208.668 L
168.233 205.316 L
168.784 202.12 L
169.334 211.55 L
169.885 210.764 L
170.435 208.616 L
170.986 211.969 L
171.536 212.388 L
172.087 208.302 L
172.637 208.249 L
173.188 205.735 L
173.738 204.897 L
174.289 205.316 L
174.839 206.521 L
175.39 207.726 L
175.94 207.935 L
176.491 209.192 L
177.041 213.855 L
177.592 210.45 L
178.142 208.407 L
178.693 210.083 L
179.243 205.054 L
179.794 205.159 L
180.344 207.149 L
180.894 210.869 L
181.445 208.93 L
181.995 210.764 L
182.546 205.84 L
183.096 205.997 L
183.647 205.473 L
184.197 205.997 L
184.748 201.282 L
185.298 203.954 L
185.849 202.958 L
186.399 202.487 L
186.95 200.653 L
187.5 208.826 L
188.051 208.04 L
188.601 202.801 L
189.152 202.382 L
189.702 207.568 L
190.253 204.949 L
190.803 201.544 L
191.354 202.068 L
191.904 199.71 L
192.455 195.991 L
193.005 192.062 L
193.556 190.543 L
194.106 189.024 L
194.657 192.429 L
195.207 189.024 L
195.757 183.418 L
196.308 181.794 L
196.858 185.776 L
197.409 179.175 L
197.959 182.004 L
198.51 190.962 L
199.06 191.486 L
199.611 191.119 L
200.161 190.124 L
200.712 191.695 L
201.262 185.723 L
201.813 183.68 L
202.363 178.18 L
202.914 180.118 L
203.464 176.189 L
204.015 181.428 L
204.565 188.447 L
205.116 195.729 L
205.666 194.786 L
206.217 198.506 L
206.767 197.091 L
207.318 190.595 L
207.868 185.618 L
208.419 187.609 L
208.969 184.937 L
209.52 183.89 L
210.07 187.295 L
210.62 190.805 L
211.171 194.786 L
211.721 193.738 L
212.272 193.267 L
212.822 191.852 L
213.373 190.333 L
213.923 187.923 L
214.474 188.395 L
215.024 186.771 L
215.575 181.323 L
216.125 180.118 L
216.676 179.28 L
217.226 181.375 L
217.777 183.628 L
218.327 189.652 L
218.878 190.648 L
219.428 188.814 L
219.979 187.609 L
220.529 186.981 L
221.08 183.313 L
221.63 183.575 L
222.181 183.104 L
222.731 179.751 L
223.282 175.403 L
223.832 175.246 L
224.383 170.95 L
224.933 171.474 L
225.484 175.77 L
226.034 178.232 L
226.584 182.894 L
227.135 187.714 L
227.685 187.609 L
228.236 186.719 L
228.786 191.119 L
229.337 189.024 L
229.887 193.372 L
230.438 195.939 L
230.988 193.738 L
231.539 191.119 L
232.089 192.9 L
232.64 189.652 L
233.19 188.657 L
233.741 195.572 L
234.291 194.157 L
234.842 191.957 L
235.392 186.352 L
235.943 186.09 L
236.493 179.961 L
237.044 184.309 L
237.594 187.242 L
238.145 187.504 L
238.695 190.124 L
239.246 193.634 L
239.796 192.743 L
240.347 191.329 L
240.897 197.091 L
241.447 194.367 L
241.998 193.372 L
242.548 191.852 L
243.099 191.224 L
243.649 187.766 L
244.2 190.438 L
244.75 186.09 L
245.301 181.008 L
245.851 180.851 L
246.402 178.232 L
246.952 171.527 L
247.503 174.093 L
248.053 178.756 L
248.604 180.066 L
249.154 179.227 L
249.705 179.175 L
250.255 178.808 L
250.806 175.194 L
251.356 170.688 L
251.907 177.237 L
252.457 181.532 L
253.008 186.876 L
253.558 191.695 L
254.109 196.253 L
254.659 191.486 L
255.21 192.272 L
255.76 191.171 L
256.31 191.957 L
256.861 189.967 L
257.411 192.586 L
257.962 196.096 L
258.512 192.272 L
259.063 185.828 L
259.613 182.423 L
260.164 182.423 L
260.714 175.508 L
261.265 177.289 L
261.815 178.913 L
262.366 185.776 L
262.916 180.589 L
263.467 181.637 L
264.017 177.813 L
264.568 178.546 L
265.118 173.517 L
265.669 176.87 L
266.219 177.289 L
266.77 181.166 L
267.32 181.218 L
267.871 186.561 L
268.421 187.609 L
268.972 188.028 L
269.522 191.591 L
270.073 193.948 L
270.623 190.438 L
271.174 194.577 L
271.724 202.592 L
272.274 205.001 L
272.825 208.145 L
273.375 209.14 L
273.926 210.712 L
274.476 204.53 L
275.027 197.091 L
275.577 190.386 L
276.128 185.252 L
276.678 178.651 L
277.229 176.765 L
277.779 178.599 L
278.33 186.876 L
278.88 188.133 L
279.431 191.067 L
279.981 197.458 L
280.532 193.11 L
281.082 189.128 L
281.633 200.077 L
282.183 201.911 L
282.734 197.772 L
283.284 205.944 L
283.835 206.154 L
284.385 203.168 L
284.936 204.53 L
285.486 204.32 L
286.037 204.111 L
286.587 204.949 L
287.137 204.792 L
287.688 201.806 L
288.238 207.464 L
288.789 210.659 L
289.339 216.893 L
289.89 214.85 L
290.44 214.221 L
290.991 208.93 L
291.541 200.968 L
292.092 193.791 L
292.642 200.182 L
293.193 201.334 L
293.743 199.501 L
294.294 202.435 L
294.844 204.53 L
295.395 193.948 L
295.945 187.871 L
296.496 191.276 L
297.046 187.347 L
297.597 179.961 L
298.147 178.651 L
298.698 179.804 L
299.248 170.688 L
299.799 163.04 L
300.349 164.088 L
300.9 166.131 L
301.45 165.502 L
302.001 174.041 L
302.551 182.056 L
303.101 179.804 L
303.652 174.251 L
304.202 175.665 L
304.753 170.531 L
305.303 171.212 L
305.854 172.522 L
306.404 180.275 L
306.955 181.323 L
307.505 180.066 L
308.056 176.818 L
308.606 183.994 L
309.157 185.671 L
309.707 186.928 L
310.258 189.705 L
310.808 188.657 L
311.359 182.632 L
311.909 177.97 L
312.46 178.075 L
313.01 181.69 L
313.561 186.195 L
314.111 187.714 L
314.662 189.914 L
315.212 193.11 L
315.763 190.333 L
316.313 193.581 L
316.864 196.934 L
317.414 196.934 L
317.964 191.329 L
318.515 188.657 L
319.065 186.981 L
319.616 182.318 L
320.166 180.956 L
320.717 188.919 L
321.267 193.005 L
321.818 193.005 L
322.368 196.358 L
322.919 196.934 L
323.469 190.49 L
324.02 194.21 L
324.57 196.305 L
325.121 198.401 L
325.671 205.211 L
326.222 211.34 L
326.772 212.545 L
327.323 211.235 L
327.873 210.974 L
328.424 206.992 L
328.974 201.858 L
329.525 208.983 L
330.075 212.178 L
330.626 214.536 L
331.176 221.556 L
331.727 225.747 L
332.277 219.879 L
332.827 215.269 L
333.378 210.397 L
333.928 196.882 L
334.479 193.529 L
335.029 194.472 L
335.58 204.582 L
336.13 213.802 L
336.681 224.961 L
337.231 227.79 L
337.782 223.703 L
338.332 212.493 L
338.883 202.801 L
339.433 195.153 L
339.984 192.691 L
340.534 191.224 L
341.085 197.353 L
341.635 200.444 L
342.186 204.425 L
342.736 206.416 L
343.287 211.445 L
343.837 209.402 L
344.388 214.483 L
344.938 217.417 L
345.489 221.556 L
346.039 220.036 L
346.59 220.403 L
347.14 216.526 L
347.691 213.645 L
348.241 210.921 L
348.791 208.04 L
349.342 207.621 L
349.892 205.421 L
350.443 206.049 L
350.993 207.516 L
351.544 211.026 L
352.094 209.611 L
352.645 214.483 L
353.195 211.131 L
353.746 211.497 L
354.296 208.04 L
354.847 207.149 L
355.397 204.582 L
355.948 205.473 L
356.498 204.792 L
357.049 208.826 L
357.599 212.597 L
358.15 212.388 L
358.7 208.826 L
359.251 203.063 L
359.801 196.41 L
360.352 194.157 L
360.902 191.957 L
361.453 197.772 L
362.003 205.211 L
362.554 207.673 L
363.104 203.954 L
363.654 206.416 L
364.205 203.063 L
364.755 193.162 L
365.306 188.028 L
365.856 192.324 L
366.407 189.181 L
366.957 190.176 L
367.508 195.467 L
368.058 206.521 L
368.609 203.692 L
369.159 207.568 L
369.71 209.559 L
370.26 211.812 L
370.811 200.915 L
371.361 197.667 L
371.912 195.362 L
372.462 191.433 L
373.013 186.142 L
373.563 189.338 L
374.114 191.957 L
374.664 188.185 L
375.215 194.472 L
375.765 192.638 L
376.316 193.738 L
376.866 196.829 L
377.417 199.92 L
377.967 196.62 L
378.518 203.43 L
379.068 204.582 L
379.618 206.468 L
380.169 208.197 L
380.719 209.926 L
381.27 211.707 L
381.82 212.388 L
382.371 206.364 L
382.921 202.592 L
383.472 197.196 L
384.022 188.29 L
384.573 186.457 L
385.123 185.042 L
385.674 190.228 L
386.224 191.067 L
386.775 196.672 L
387.325 192.638 L
387.876 198.872 L
388.426 195.52 L
388.977 198.034 L
389.527 189.967 L
390.078 190.91 L
390.628 184.571 L
391.179 179.646 L
391.729 176.87 L
392.28 185.042 L
392.83 189.652 L
393.381 203.273 L
393.931 211.602 L
394.481 214.379 L
395.032 217.103 L
395.582 216.317 L
396.133 207.778 L
396.683 211.445 L
397.234 217.522 L
397.784 214.274 L
398.335 213.802 L
398.885 214.274 L
399.436 211.183 L
399.986 208.302 L
400.537 212.388 L
401.087 214.431 L
401.638 215.269 L
402.188 217.05 L
402.739 213.645 L
403.289 209.926 L
403.84 207.359 L
404.39 203.535 L
404.941 197.877 L
405.491 198.191 L
406.042 201.073 L
406.592 202.173 L
407.143 206.049 L
407.693 212.178 L
408.244 214.641 L
408.794 215.793 L
409.345 218.779 L
409.895 221.032 L
410.445 222.394 L
410.996 226.428 L
411.546 224.018 L
412.097 223.756 L
412.647 217.469 L
413.198 209.14 L
413.748 203.063 L
414.299 204.844 L
414.849 206.887 L
415.4 210.974 L
415.95 210.869 L
416.501 210.869 L
417.051 210.135 L
417.602 204.111 L
418.152 202.435 L
418.703 208.145 L
419.253 202.958 L
419.804 197.248 L
420.354 200.182 L
420.905 196.986 L
421.455 190.49 L
422.006 198.191 L
422.556 199.291 L
423.107 197.353 L
423.657 200.025 L
424.208 204.268 L
424.758 199.972 L
425.308 202.487 L
425.859 203.273 L
426.409 211.131 L
426.96 206.154 L
427.51 207.778 L
428.061 212.231 L
428.611 213.278 L
429.162 206.206 L
429.712 211.078 L
430.263 210.345 L
430.813 212.493 L
431.364 214.064 L
431.914 215.479 L
432.465 215.322 L
433.015 218.255 L
433.566 212.545 L
434.116 208.721 L
434.667 208.511 L
435.217 206.364 L
435.768 204.478 L
436.318 199.448 L
436.869 199.71 L
437.419 198.453 L
437.97 195.153 L
438.52 189.652 L
439.07 187.871 L
439.621 181.27 L
440.171 176.975 L
440.722 177.656 L
441.272 180.327 L
441.823 182.632 L
442.373 187.609 L
442.924 188.238 L
443.474 186.823 L
444.025 184.466 L
444.575 182.842 L
445.126 179.699 L
445.676 178.494 L
446.227 179.489 L
446.777 182.318 L
447.328 184.623 L
447.878 189.181 L
448.429 191.957 L
448.979 193.11 L
449.53 192.586 L
450.08 189.547 L
450.631 187.347 L
451.181 184.414 L
451.732 185.252 L
452.282 182.685 L
452.833 185.461 L
453.383 188.866 L
453.934 193.634 L
454.484 196.358 L
455.035 202.173 L
455.585 205.944 L
456.135 207.306 L
456.686 208.878 L
457.236 207.673 L
457.787 205.997 L
458.337 205.159 L
458.888 200.653 L
459.438 196.62 L
459.989 194.105 L
460.539 190.595 L
461.09 185.409 L
461.64 184.256 L
462.191 183.209 L
462.741 182.056 L
463.292 181.48 L
463.842 180.642 L
464.393 179.384 L
464.943 177.761 L
465.494 176.818 L
466.044 177.237 L
466.595 177.603 L
467.145 177.132 L
467.696 177.446 L
468.246 175.875 L
468.797 173.832 L
469.347 172.365 L
469.898 171.631 L
470.448 171.369 L
470.998 173.203 L
471.549 174.722 L
472.099 174.932 L
472.65 174.565 L
473.2 173.412 L
473.751 172.05 L
474.301 170.322 L
474.852 169.85 L
475.402 169.221 L
475.953 168.855 L
476.503 168.96 L
477.054 169.641 L
477.604 169.379 L
478.155 169.064 L
478.705 168.907 L
479.256 168.331 L
479.806 167.44 L
480.357 166.917 L
480.907 166.602 L
481.458 165.764 L
482.008 164.926 L
482.559 164.402 L
483.109 163.459 L
483.66 162.883 L
484.21 162.726 L
484.76 162.883 L
485.311 163.197 L
485.862 163.983 L
486.412 164.192 L
486.962 164.14 L
487.513 163.878 L
488.063 163.826 L
488.614 164.035 L
489.164 164.14 L
489.715 164.507 L
490.265 164.978 L
490.816 165.031 L
491.366 165.135 L
491.917 165.502 L
492.467 165.974 L
493.018 165.921 L
493.568 165.607 L
494.119 165.135 L
494.669 164.716 L
495.22 164.507 L
495.77 164.821 L
496.321 165.24 L
496.871 165.502 L
497.422 165.712 L
497.972 165.712 L
498.523 165.45 L
499.073 165.345 L
499.624 165.293 L
500.174 165.327 L
500.725 165.24 L
S
GR
GS
[0.75 0 0 0.75 0 0] CT
1 GC
N
370 361 M
370 324 L
494 324 L
494 361 L
cp
f
GR
GS
[0.75 0 0 0.75 305.25 250.60275] CT
/Helvetica 12 F
GS
[1 0 0 1 0 0] CT
0 5 moveto 
1 -1 scale
(gloveBaseA) t 
GR
GR
GS
[0.75 0 0 0.75 0 0] CT
0 0.447 0.741 RC
1 LJ
0.667 LW
N
374 334.137 M
404 334.137 L
S
GR
GS
[0.75 0 0 0.75 305.25 263.14725] CT
/Helvetica 12 F
GS
[1 0 0 1 0 0] CT
0 5 moveto 
1 -1 scale
(gloveNoNoiseA) t 
GR
GR
GS
[0.75 0 0 0.75 0 0] CT
0.851 0.325 0.098 RC
1 LJ
0.667 LW
N
374 350.863 M
404 350.863 L
S
GR
GS
[0.75 0 0 0.75 0 0] CT
0.149 GC
10.0 ML
0.667 LW
N
370 361 M
370 324 L
494 324 L
494 361 L
cp
S
GR
%%Trailer
%%Pages: 1
%%EOF
