%!PS-Adobe-3.0 EPSF-3.0
%%Creator: (MATLAB, The Mathworks, Inc. Version 9.0.0.341360 \(R2016a\). Operating System: Windows 8)
%%Title: ../doc/thesis/figures/Number_of_hops.eps
%%CreationDate: 2016-08-23T23:41:45
%%Pages: (atend)
%%BoundingBox:    17     2   387   306
%%LanguageLevel: 3
%%EndComments
%%BeginProlog
%%BeginResource: procset (Apache XML Graphics Std ProcSet) 1.2 0
%%Version: 1.2 0
%%Copyright: (Copyright 2001-2003,2010 The Apache Software Foundation. License terms: http://www.apache.org/licenses/LICENSE-2.0)
/bd{bind def}bind def
/ld{load def}bd
/GR/grestore ld
/M/moveto ld
/LJ/setlinejoin ld
/C/curveto ld
/f/fill ld
/LW/setlinewidth ld
/GC/setgray ld
/t/show ld
/N/newpath ld
/CT/concat ld
/cp/closepath ld
/S/stroke ld
/L/lineto ld
/CC/setcmykcolor ld
/A/ashow ld
/GS/gsave ld
/RC/setrgbcolor ld
/RM/rmoveto ld
/ML/setmiterlimit ld
/re {4 2 roll M
1 index 0 rlineto
0 exch rlineto
neg 0 rlineto
cp } bd
/_ctm matrix def
/_tm matrix def
/BT { _ctm currentmatrix pop matrix _tm copy pop 0 0 moveto } bd
/ET { _ctm setmatrix } bd
/iTm { _ctm setmatrix _tm concat } bd
/Tm { _tm astore pop iTm 0 0 moveto } bd
/ux 0.0 def
/uy 0.0 def
/F {
  /Tp exch def
  /Tf exch def
  Tf findfont Tp scalefont setfont
  /cf Tf def  /cs Tp def
} bd
/ULS {currentpoint /uy exch def /ux exch def} bd
/ULE {
  /Tcx currentpoint pop def
  gsave
  newpath
  cf findfont cs scalefont dup
  /FontMatrix get 0 get /Ts exch def /FontInfo get dup
  /UnderlinePosition get Ts mul /To exch def
  /UnderlineThickness get Ts mul /Tt exch def
  ux uy To add moveto  Tcx uy To add lineto
  Tt setlinewidth stroke
  grestore
} bd
/OLE {
  /Tcx currentpoint pop def
  gsave
  newpath
  cf findfont cs scalefont dup
  /FontMatrix get 0 get /Ts exch def /FontInfo get dup
  /UnderlinePosition get Ts mul /To exch def
  /UnderlineThickness get Ts mul /Tt exch def
  ux uy To add cs add moveto Tcx uy To add cs add lineto
  Tt setlinewidth stroke
  grestore
} bd
/SOE {
  /Tcx currentpoint pop def
  gsave
  newpath
  cf findfont cs scalefont dup
  /FontMatrix get 0 get /Ts exch def /FontInfo get dup
  /UnderlinePosition get Ts mul /To exch def
  /UnderlineThickness get Ts mul /Tt exch def
  ux uy To add cs 10 mul 26 idiv add moveto Tcx uy To add cs 10 mul 26 idiv add lineto
  Tt setlinewidth stroke
  grestore
} bd
/QT {
/Y22 exch store
/X22 exch store
/Y21 exch store
/X21 exch store
currentpoint
/Y21 load 2 mul add 3 div exch
/X21 load 2 mul add 3 div exch
/X21 load 2 mul /X22 load add 3 div
/Y21 load 2 mul /Y22 load add 3 div
/X22 load /Y22 load curveto
} bd
/SSPD {
dup length /d exch dict def
{
/v exch def
/k exch def
currentpagedevice k known {
/cpdv currentpagedevice k get def
v cpdv ne {
/upd false def
/nullv v type /nulltype eq def
/nullcpdv cpdv type /nulltype eq def
nullv nullcpdv or
{
/upd true def
} {
/sametype v type cpdv type eq def
sametype {
v type /arraytype eq {
/vlen v length def
/cpdvlen cpdv length def
vlen cpdvlen eq {
0 1 vlen 1 sub {
/i exch def
/obj v i get def
/cpdobj cpdv i get def
obj cpdobj ne {
/upd true def
exit
} if
} for
} {
/upd true def
} ifelse
} {
v type /dicttype eq {
v {
/dv exch def
/dk exch def
/cpddv cpdv dk get def
dv cpddv ne {
/upd true def
exit
} if
} forall
} {
/upd true def
} ifelse
} ifelse
} if
} ifelse
upd true eq {
d k v put
} if
} if
} if
} forall
d length 0 gt {
d setpagedevice
} if
} bd
%%EndResource
%%BeginResource: procset (Apache XML Graphics EPS ProcSet) 1.0 0
%%Version: 1.0 0
%%Copyright: (Copyright 2002-2003 The Apache Software Foundation. License terms: http://www.apache.org/licenses/LICENSE-2.0)
/BeginEPSF { %def
/b4_Inc_state save def         % Save state for cleanup
/dict_count countdictstack def % Count objects on dict stack
/op_count count 1 sub def      % Count objects on operand stack
userdict begin                 % Push userdict on dict stack
/showpage { } def              % Redefine showpage, { } = null proc
0 setgray 0 setlinecap         % Prepare graphics state
1 setlinewidth 0 setlinejoin
10 setmiterlimit [ ] 0 setdash newpath
/languagelevel where           % If level not equal to 1 then
{pop languagelevel             % set strokeadjust and
1 ne                           % overprint to their defaults.
{false setstrokeadjust false setoverprint
} if
} if
} bd
/EndEPSF { %def
count op_count sub {pop} repeat            % Clean up stacks
countdictstack dict_count sub {end} repeat
b4_Inc_state restore
} bd
%%EndResource
%FOPBeginFontDict
%%IncludeResource: font Courier-Bold
%%IncludeResource: font Helvetica
%%IncludeResource: font Courier-BoldOblique
%%IncludeResource: font Courier-Oblique
%%IncludeResource: font Times-Roman
%%IncludeResource: font Helvetica-BoldOblique
%%IncludeResource: font Helvetica-Bold
%%IncludeResource: font Helvetica-Oblique
%%IncludeResource: font Times-BoldItalic
%%IncludeResource: font Courier
%%IncludeResource: font Times-Italic
%%IncludeResource: font Times-Bold
%%IncludeResource: font Symbol
%%IncludeResource: font ZapfDingbats
%FOPEndFontDict
%%BeginResource: encoding WinAnsiEncoding
/WinAnsiEncoding [
/.notdef /.notdef /.notdef /.notdef /.notdef
/.notdef /.notdef /.notdef /.notdef /.notdef
/.notdef /.notdef /.notdef /.notdef /.notdef
/.notdef /.notdef /.notdef /.notdef /.notdef
/.notdef /.notdef /.notdef /.notdef /.notdef
/.notdef /.notdef /.notdef /.notdef /.notdef
/.notdef /.notdef /space /exclam /quotedbl
/numbersign /dollar /percent /ampersand /quotesingle
/parenleft /parenright /asterisk /plus /comma
/hyphen /period /slash /zero /one
/two /three /four /five /six
/seven /eight /nine /colon /semicolon
/less /equal /greater /question /at
/A /B /C /D /E
/F /G /H /I /J
/K /L /M /N /O
/P /Q /R /S /T
/U /V /W /X /Y
/Z /bracketleft /backslash /bracketright /asciicircum
/underscore /quoteleft /a /b /c
/d /e /f /g /h
/i /j /k /l /m
/n /o /p /q /r
/s /t /u /v /w
/x /y /z /braceleft /bar
/braceright /asciitilde /bullet /Euro /bullet
/quotesinglbase /florin /quotedblbase /ellipsis /dagger
/daggerdbl /circumflex /perthousand /Scaron /guilsinglleft
/OE /bullet /Zcaron /bullet /bullet
/quoteleft /quoteright /quotedblleft /quotedblright /bullet
/endash /emdash /asciitilde /trademark /scaron
/guilsinglright /oe /bullet /zcaron /Ydieresis
/space /exclamdown /cent /sterling /currency
/yen /brokenbar /section /dieresis /copyright
/ordfeminine /guillemotleft /logicalnot /sfthyphen /registered
/macron /degree /plusminus /twosuperior /threesuperior
/acute /mu /paragraph /middot /cedilla
/onesuperior /ordmasculine /guillemotright /onequarter /onehalf
/threequarters /questiondown /Agrave /Aacute /Acircumflex
/Atilde /Adieresis /Aring /AE /Ccedilla
/Egrave /Eacute /Ecircumflex /Edieresis /Igrave
/Iacute /Icircumflex /Idieresis /Eth /Ntilde
/Ograve /Oacute /Ocircumflex /Otilde /Odieresis
/multiply /Oslash /Ugrave /Uacute /Ucircumflex
/Udieresis /Yacute /Thorn /germandbls /agrave
/aacute /acircumflex /atilde /adieresis /aring
/ae /ccedilla /egrave /eacute /ecircumflex
/edieresis /igrave /iacute /icircumflex /idieresis
/eth /ntilde /ograve /oacute /ocircumflex
/otilde /odieresis /divide /oslash /ugrave
/uacute /ucircumflex /udieresis /yacute /thorn
/ydieresis
] def
%%EndResource
%FOPBeginFontReencode
/Courier-Bold findfont
dup length dict begin
  {1 index /FID ne {def} {pop pop} ifelse} forall
  /Encoding WinAnsiEncoding def
  currentdict
end
/Courier-Bold exch definefont pop
/Helvetica findfont
dup length dict begin
  {1 index /FID ne {def} {pop pop} ifelse} forall
  /Encoding WinAnsiEncoding def
  currentdict
end
/Helvetica exch definefont pop
/Courier-BoldOblique findfont
dup length dict begin
  {1 index /FID ne {def} {pop pop} ifelse} forall
  /Encoding WinAnsiEncoding def
  currentdict
end
/Courier-BoldOblique exch definefont pop
/Courier-Oblique findfont
dup length dict begin
  {1 index /FID ne {def} {pop pop} ifelse} forall
  /Encoding WinAnsiEncoding def
  currentdict
end
/Courier-Oblique exch definefont pop
/Times-Roman findfont
dup length dict begin
  {1 index /FID ne {def} {pop pop} ifelse} forall
  /Encoding WinAnsiEncoding def
  currentdict
end
/Times-Roman exch definefont pop
/Helvetica-BoldOblique findfont
dup length dict begin
  {1 index /FID ne {def} {pop pop} ifelse} forall
  /Encoding WinAnsiEncoding def
  currentdict
end
/Helvetica-BoldOblique exch definefont pop
/Helvetica-Bold findfont
dup length dict begin
  {1 index /FID ne {def} {pop pop} ifelse} forall
  /Encoding WinAnsiEncoding def
  currentdict
end
/Helvetica-Bold exch definefont pop
/Helvetica-Oblique findfont
dup length dict begin
  {1 index /FID ne {def} {pop pop} ifelse} forall
  /Encoding WinAnsiEncoding def
  currentdict
end
/Helvetica-Oblique exch definefont pop
/Times-BoldItalic findfont
dup length dict begin
  {1 index /FID ne {def} {pop pop} ifelse} forall
  /Encoding WinAnsiEncoding def
  currentdict
end
/Times-BoldItalic exch definefont pop
/Courier findfont
dup length dict begin
  {1 index /FID ne {def} {pop pop} ifelse} forall
  /Encoding WinAnsiEncoding def
  currentdict
end
/Courier exch definefont pop
/Times-Italic findfont
dup length dict begin
  {1 index /FID ne {def} {pop pop} ifelse} forall
  /Encoding WinAnsiEncoding def
  currentdict
end
/Times-Italic exch definefont pop
/Times-Bold findfont
dup length dict begin
  {1 index /FID ne {def} {pop pop} ifelse} forall
  /Encoding WinAnsiEncoding def
  currentdict
end
/Times-Bold exch definefont pop
%FOPEndFontReencode
%%EndProlog
%%Page: 1 1
%%PageBoundingBox: 0 0 420 315
%%BeginPageSetup
[1 0 0 -1 0 315] CT
%%EndPageSetup
GS
[0.75 0 0 0.75 0 0] CT
1 GC
N
0 0 560 420 re
f
GR
GS
[0.75 0 0 0.75 0 0] CT
1 GC
N
0 0 560 420 re
f
GR
GS
[0.75 0 0 0.75 0 0] CT
1 GC
N
73 374 M
507 374 L
507 31 L
73 31 L
cp
f
GR
GS
[0.75 0 0 0.75 0 0] CT
0.149 GC
2 setlinecap
1 LJ
0.667 LW
N
73 374 M
507 374 L
S
GR
GS
[0.75 0 0 0.75 0 0] CT
0.149 GC
2 setlinecap
1 LJ
0.667 LW
N
73 374 M
73 369.66 L
S
GR
GS
[0.75 0 0 0.75 0 0] CT
0.149 GC
2 setlinecap
1 LJ
0.667 LW
N
145.333 374 M
145.333 369.66 L
S
GR
GS
[0.75 0 0 0.75 0 0] CT
0.149 GC
2 setlinecap
1 LJ
0.667 LW
N
217.667 374 M
217.667 369.66 L
S
GR
GS
[0.75 0 0 0.75 0 0] CT
0.149 GC
2 setlinecap
1 LJ
0.667 LW
N
290 374 M
290 369.66 L
S
GR
GS
[0.75 0 0 0.75 0 0] CT
0.149 GC
2 setlinecap
1 LJ
0.667 LW
N
362.333 374 M
362.333 369.66 L
S
GR
GS
[0.75 0 0 0.75 0 0] CT
0.149 GC
2 setlinecap
1 LJ
0.667 LW
N
434.667 374 M
434.667 369.66 L
S
GR
GS
[0.75 0 0 0.75 0 0] CT
0.149 GC
2 setlinecap
1 LJ
0.667 LW
N
507 374 M
507 369.66 L
S
GR
GS
[0.75 0 0 0.75 54.75 284.49998] CT
0.149 GC
/Helvetica 13.333 F
GS
[1 0 0 1 0 0] CT
-4 14 moveto 
1 -1 scale
(0) t 
GR
GR
GS
[0.75 0 0 0.75 109 284.49998] CT
0.149 GC
/Helvetica 13.333 F
GS
[1 0 0 1 0 0] CT
-9.5 14 moveto 
1 -1 scale
(0.2) t 
GR
GR
GS
[0.75 0 0 0.75 163.25 284.49998] CT
0.149 GC
/Helvetica 13.333 F
GS
[1 0 0 1 0 0] CT
-9.5 14 moveto 
1 -1 scale
(0.4) t 
GR
GR
GS
[0.75 0 0 0.75 217.5 284.49998] CT
0.149 GC
/Helvetica 13.333 F
GS
[1 0 0 1 0 0] CT
-9.5 14 moveto 
1 -1 scale
(0.6) t 
GR
GR
GS
[0.75 0 0 0.75 271.75001 284.49998] CT
0.149 GC
/Helvetica 13.333 F
GS
[1 0 0 1 0 0] CT
-9.5 14 moveto 
1 -1 scale
(0.8) t 
GR
GR
GS
[0.75 0 0 0.75 325.99999 284.49998] CT
0.149 GC
/Helvetica 13.333 F
GS
[1 0 0 1 0 0] CT
-4 14 moveto 
1 -1 scale
(1) t 
GR
GR
GS
[0.75 0 0 0.75 380.25002 284.49998] CT
0.149 GC
/Helvetica 13.333 F
GS
[1 0 0 1 0 0] CT
-9.5 14 moveto 
1 -1 scale
(1.2) t 
GR
GR
GS
[0.75 0 0 0.75 217.50016 298.24995] CT
0.149 GC
/Helvetica 14.667 F
GS
[1 0 0 1 0 0] CT
-29.5 16 moveto 
1 -1 scale
(#Epochs) t 
GR
GR
GS
[0.75 0 0 0.75 0 0] CT
0.149 GC
2 setlinecap
1 LJ
0.667 LW
N
73 374 M
73 31 L
S
GR
GS
[0.75 0 0 0.75 0 0] CT
0.149 GC
2 setlinecap
1 LJ
0.667 LW
N
73 374 M
77.34 374 L
S
GR
GS
[0.75 0 0 0.75 0 0] CT
0.149 GC
2 setlinecap
1 LJ
0.667 LW
N
73 316.833 M
77.34 316.833 L
S
GR
GS
[0.75 0 0 0.75 0 0] CT
0.149 GC
2 setlinecap
1 LJ
0.667 LW
N
73 259.667 M
77.34 259.667 L
S
GR
GS
[0.75 0 0 0.75 0 0] CT
0.149 GC
2 setlinecap
1 LJ
0.667 LW
N
73 202.5 M
77.34 202.5 L
S
GR
GS
[0.75 0 0 0.75 0 0] CT
0.149 GC
2 setlinecap
1 LJ
0.667 LW
N
73 145.333 M
77.34 145.333 L
S
GR
GS
[0.75 0 0 0.75 0 0] CT
0.149 GC
2 setlinecap
1 LJ
0.667 LW
N
73 88.167 M
77.34 88.167 L
S
GR
GS
[0.75 0 0 0.75 0 0] CT
0.149 GC
2 setlinecap
1 LJ
0.667 LW
N
73 31 M
77.34 31 L
S
GR
GS
[0.75 0 0 0.75 50.75 280.49998] CT
0.149 GC
/Helvetica 13.333 F
GS
[1 0 0 1 0 0] CT
-19 5.5 moveto 
1 -1 scale
(0.6) t 
GR
GR
GS
[0.75 0 0 0.75 50.75 237.62503] CT
0.149 GC
/Helvetica 13.333 F
GS
[1 0 0 1 0 0] CT
-26 5.5 moveto 
1 -1 scale
(0.65) t 
GR
GR
GS
[0.75 0 0 0.75 50.75 194.75002] CT
0.149 GC
/Helvetica 13.333 F
GS
[1 0 0 1 0 0] CT
-19 5.5 moveto 
1 -1 scale
(0.7) t 
GR
GR
GS
[0.75 0 0 0.75 50.75 151.875] CT
0.149 GC
/Helvetica 13.333 F
GS
[1 0 0 1 0 0] CT
-26 5.5 moveto 
1 -1 scale
(0.75) t 
GR
GR
GS
[0.75 0 0 0.75 50.75 108.99998] CT
0.149 GC
/Helvetica 13.333 F
GS
[1 0 0 1 0 0] CT
-19 5.5 moveto 
1 -1 scale
(0.8) t 
GR
GR
GS
[0.75 0 0 0.75 50.75 66.12498] CT
0.149 GC
/Helvetica 13.333 F
GS
[1 0 0 1 0 0] CT
-26 5.5 moveto 
1 -1 scale
(0.85) t 
GR
GR
GS
[0.75 0 0 0.75 50.75 23.25002] CT
0.149 GC
/Helvetica 13.333 F
GS
[1 0 0 1 0 0] CT
-19 5.5 moveto 
1 -1 scale
(0.9) t 
GR
GR
GS
[0 -0.75 0.75 0 28.25 151.8749] CT
0.149 GC
/Helvetica 14.667 F
GS
[1 0 0 1 0 0] CT
-58.5 -4 moveto 
1 -1 scale
(f1 score on aidaB) t 
GR
GR
GS
[0.75 0 0 0.75 217.50021 21.18754] CT
/Helvetica-Bold 14.667 F
GS
[1 0 0 1 0 0] CT
-57.5 -4 moveto 
1 -1 scale
(Number of hops) t 
GR
GR
GS
[0.75 0 0 0.75 0 0] CT
0 0.447 0.741 RC
1 LJ
0.667 LW
N
73.55 317.423 M
74.101 291.317 L
74.651 280.49 L
75.202 275.401 L
75.752 270.275 L
76.303 266.084 L
76.853 262.999 L
77.404 262.97 L
77.954 262.97 L
78.505 262.301 L
79.055 263.348 L
79.606 263.668 L
80.156 265.153 L
80.707 264.047 L
81.257 263.61 L
81.808 262.97 L
82.358 265.764 L
82.909 268.994 L
83.459 271.41 L
84.01 267.772 L
84.56 266.783 L
85.111 264.105 L
85.661 266.259 L
86.212 262.912 L
86.762 260.409 L
87.313 257.091 L
87.863 249.961 L
88.413 245.246 L
88.964 246.119 L
89.514 245.944 L
90.065 246.73 L
90.615 249.699 L
91.166 254.472 L
91.716 262.795 L
92.267 269.023 L
92.817 281.131 L
93.368 286.282 L
93.918 295.071 L
94.469 299.67 L
95.019 304.006 L
95.57 303.22 L
96.12 300.688 L
96.671 293.179 L
97.221 288.145 L
97.772 280.432 L
98.322 276.183 L
98.873 270.275 L
99.423 263.494 L
99.974 258.342 L
100.524 257.848 L
101.075 258.459 L
101.625 257.498 L
102.176 254.675 L
102.726 252.085 L
103.277 250.368 L
103.827 250.659 L
104.377 252.318 L
104.928 250.659 L
105.478 245.828 L
106.029 241.491 L
106.579 244.809 L
107.13 244.926 L
107.68 245.537 L
108.231 245.944 L
108.781 241.288 L
109.332 237.388 L
109.882 237.359 L
110.433 235.991 L
110.983 235.292 L
111.534 231.858 L
112.084 232.033 L
112.635 230.432 L
113.185 229.472 L
113.736 230.956 L
114.286 232.528 L
114.837 235.263 L
115.387 236.457 L
115.938 234.448 L
116.488 232.149 L
117.039 230.257 L
117.589 228.802 L
118.14 228.453 L
118.69 223.913 L
119.24 225.543 L
119.791 223.127 L
120.341 219.082 L
120.892 222.254 L
121.442 222.021 L
121.993 219.082 L
122.543 219.693 L
123.094 218.616 L
123.644 221.934 L
124.195 220.566 L
124.745 220.712 L
125.296 221.672 L
125.846 220.712 L
126.397 221.294 L
126.947 222.283 L
127.498 222.05 L
128.048 220.595 L
128.599 216.928 L
129.149 215.182 L
129.7 212.679 L
130.25 215.502 L
130.801 212.824 L
131.351 210.089 L
131.902 212.184 L
132.452 211.719 L
133.003 212.999 L
133.553 213.407 L
134.104 210.031 L
134.654 211.544 L
135.204 207.44 L
135.755 206.102 L
136.305 205.956 L
136.856 201.794 L
137.406 200.164 L
137.957 197.72 L
138.507 196.818 L
139.058 199.408 L
139.608 197.341 L
140.159 196.905 L
140.709 199.553 L
141.26 199.757 L
141.81 203.919 L
142.361 206.713 L
142.911 206.567 L
143.462 207.266 L
144.012 205.956 L
144.563 203.511 L
145.113 204.501 L
145.664 202.987 L
146.214 203.191 L
146.765 198.971 L
147.315 194.024 L
147.866 192.656 L
148.416 190.851 L
148.967 188.814 L
149.517 189.92 L
150.067 187.126 L
150.618 186.864 L
151.168 184.827 L
151.719 187.621 L
152.269 187.359 L
152.82 188.93 L
153.37 188.436 L
153.921 188.698 L
154.471 187.068 L
155.022 187.272 L
155.572 185.525 L
156.123 188.989 L
156.673 186.777 L
157.224 188.465 L
157.774 185.933 L
158.325 184.623 L
158.875 186.864 L
159.426 190.357 L
159.976 192.306 L
160.527 193.762 L
161.077 191.957 L
161.628 191.957 L
162.178 189.745 L
162.729 191.055 L
163.279 193.121 L
163.83 193.209 L
164.38 190.706 L
164.93 192.743 L
165.481 194.577 L
166.031 195.071 L
166.582 193.296 L
167.132 194.868 L
167.683 194.897 L
168.233 195.159 L
168.784 192.219 L
169.334 192.045 L
169.885 189.6 L
170.435 186.166 L
170.986 184.681 L
171.536 184.623 L
172.087 182.877 L
172.637 183.866 L
173.188 182.44 L
173.738 185.846 L
174.289 186.544 L
174.839 187.912 L
175.39 188.028 L
175.94 187.301 L
176.491 191.579 L
177.041 198.011 L
177.592 195.275 L
178.142 195.45 L
178.693 193.005 L
179.243 193.5 L
179.794 191.462 L
180.344 193.878 L
180.894 192.743 L
181.445 188.377 L
181.995 182.237 L
182.546 182.469 L
183.096 182.935 L
183.647 182.178 L
184.197 181.189 L
184.748 182.586 L
185.298 179.384 L
185.849 180.898 L
186.399 180.258 L
186.95 179.792 L
187.5 179.646 L
188.051 177.988 L
188.601 179.879 L
189.152 179.763 L
189.702 178.453 L
190.253 179.152 L
190.803 177.784 L
191.354 182.673 L
191.904 184.798 L
192.455 184.478 L
193.005 183.43 L
193.556 180.636 L
194.106 179.879 L
194.657 178.104 L
195.207 178.54 L
195.757 178.744 L
196.308 173.418 L
196.858 172.371 L
197.409 175.339 L
197.959 176.241 L
198.51 175.543 L
199.06 175.135 L
199.611 178.249 L
200.161 177.114 L
200.712 176.823 L
201.262 176.911 L
201.813 175.717 L
202.363 173.331 L
202.914 173.797 L
203.464 176.765 L
204.015 176.794 L
204.565 174.291 L
205.116 173.273 L
205.666 172.894 L
206.217 173.098 L
206.767 172.545 L
207.318 171.032 L
207.868 169.548 L
208.419 167.743 L
208.969 169.577 L
209.52 170.45 L
210.07 170.159 L
210.62 170.13 L
211.171 170.974 L
211.721 173.185 L
212.272 175.834 L
212.822 177.9 L
213.373 178.191 L
213.923 177.173 L
214.474 176.474 L
215.024 176.503 L
215.575 176.212 L
216.125 175.194 L
216.676 175.543 L
217.226 174.175 L
217.777 173.768 L
218.327 176.649 L
218.878 178.453 L
219.428 181.218 L
219.979 183.488 L
220.529 184.07 L
221.08 186.253 L
221.63 183.808 L
222.181 182.469 L
222.731 181.218 L
223.282 178.919 L
223.832 176.998 L
224.383 175.31 L
224.933 174.408 L
225.484 174.641 L
226.034 172.778 L
226.584 174.059 L
227.135 173.36 L
227.685 172.982 L
228.236 170.333 L
228.786 169.577 L
229.337 169.402 L
229.887 168.965 L
230.438 170.421 L
230.988 170.537 L
231.539 172.953 L
232.089 175.572 L
232.64 176.358 L
233.19 181.771 L
233.741 182.44 L
234.291 183.372 L
234.842 182.149 L
235.392 180.025 L
235.943 179.938 L
236.493 177.784 L
237.044 177.522 L
237.594 177.697 L
238.145 173.913 L
238.695 174.059 L
239.246 171.148 L
239.796 172.545 L
240.347 173.36 L
240.897 173.506 L
241.447 173.564 L
241.998 174.932 L
242.548 174.641 L
243.099 175.048 L
243.649 173.535 L
244.2 175.077 L
244.75 174.35 L
245.301 175.281 L
245.851 173.622 L
246.402 172.021 L
246.952 170.974 L
247.503 171.323 L
248.053 171.003 L
248.604 172.487 L
249.154 171.934 L
249.705 172.458 L
250.255 169.897 L
250.806 174.32 L
251.356 174.844 L
251.907 172.429 L
252.457 171.061 L
253.008 169.722 L
253.558 167.51 L
254.109 168.354 L
254.659 167.074 L
255.21 166.812 L
255.76 164.105 L
256.31 167.045 L
256.861 171.148 L
257.411 173.651 L
257.962 175.834 L
258.512 175.747 L
259.063 176.183 L
259.613 177.289 L
260.164 179.21 L
260.714 178.657 L
261.265 175.281 L
261.815 172.109 L
262.366 169.868 L
262.916 169.78 L
263.467 169.868 L
264.017 165.706 L
264.568 164.833 L
265.118 164.483 L
265.669 165.997 L
266.219 165.619 L
266.77 167.51 L
267.32 168.267 L
267.871 169.722 L
268.421 172.254 L
268.972 176.067 L
269.522 176.416 L
270.073 177.143 L
270.623 176.707 L
271.174 180.52 L
271.724 179.064 L
272.274 179.297 L
272.825 177.9 L
273.375 177.638 L
273.926 176.649 L
274.476 175.834 L
275.027 175.397 L
275.577 173.36 L
276.128 170.712 L
276.678 170.799 L
277.229 171.119 L
277.779 170.537 L
278.33 169.577 L
278.88 169.955 L
279.431 170.566 L
279.981 173.215 L
280.532 176.736 L
281.082 176.62 L
281.633 177.929 L
282.183 177.667 L
282.734 179.384 L
283.284 178.773 L
283.835 178.715 L
284.385 178.133 L
284.936 176.853 L
285.486 175.31 L
286.037 175.048 L
286.587 174.786 L
287.137 176.299 L
287.688 175.019 L
288.238 175.106 L
288.789 174.437 L
289.339 178.832 L
289.89 177.813 L
290.44 177.726 L
290.991 176.241 L
291.541 175.048 L
292.092 174.35 L
292.642 172.778 L
293.193 172.749 L
293.743 173.127 L
294.294 168.412 L
294.844 166.841 L
295.395 166.463 L
295.945 167.51 L
296.496 167.598 L
297.046 166.957 L
297.597 165.357 L
298.147 164.833 L
298.698 162.272 L
299.248 164.425 L
299.799 165.036 L
300.349 162.068 L
300.9 163.698 L
301.45 164.076 L
302.001 164.163 L
302.551 165.182 L
303.101 164.862 L
303.652 166.608 L
304.202 164.222 L
304.753 163.116 L
305.303 165.036 L
305.854 161.893 L
306.404 160.002 L
306.955 156.334 L
307.505 155.723 L
308.056 155.141 L
308.606 154.355 L
309.157 157.906 L
309.707 159.158 L
310.258 159.594 L
310.808 161.631 L
311.359 163.552 L
311.909 166.695 L
312.46 167.976 L
313.01 167.161 L
313.561 167.627 L
314.111 165.997 L
314.662 165.648 L
315.212 166.171 L
315.763 165.502 L
316.313 161.748 L
316.864 160.671 L
317.414 159.972 L
317.964 164.658 L
318.515 164.775 L
319.065 163.261 L
319.616 162.446 L
320.166 160.846 L
320.717 161.602 L
321.267 162.621 L
321.818 164.338 L
322.368 165.473 L
322.919 163.028 L
323.469 163.028 L
324.02 161.544 L
324.57 161.195 L
325.121 160.816 L
325.671 158.692 L
326.222 159.885 L
326.772 159.128 L
327.323 158.401 L
327.873 157.47 L
328.424 160.234 L
328.974 163.057 L
329.525 164.6 L
330.075 165.88 L
330.626 168.733 L
331.176 168.907 L
331.727 170.362 L
332.277 171.527 L
332.827 171.556 L
333.378 171.41 L
333.928 173.215 L
334.479 171.294 L
335.029 172.72 L
335.58 170.828 L
336.13 172.545 L
336.681 171.701 L
337.231 172.982 L
337.782 171.992 L
338.332 171.235 L
338.883 166.986 L
339.433 167.801 L
339.984 166.841 L
340.534 169.606 L
341.085 168.878 L
341.635 168.5 L
342.186 166.637 L
342.736 170.479 L
343.287 170.362 L
343.837 174 L
344.388 176.212 L
344.938 177.318 L
345.489 174.67 L
346.039 174.903 L
346.59 174.088 L
347.14 171.206 L
347.691 170.188 L
348.241 168.587 L
348.791 166.841 L
349.342 166.171 L
349.892 164.891 L
350.443 168.063 L
350.993 168.529 L
351.544 168.5 L
352.094 172.807 L
352.645 173.36 L
353.195 173.768 L
353.746 175.048 L
354.296 174.728 L
354.847 174.291 L
355.397 171.934 L
355.948 170.1 L
356.498 172.4 L
357.049 172.894 L
357.599 172.662 L
358.15 170.45 L
358.7 168.791 L
359.251 169.489 L
359.801 170.508 L
360.352 170.828 L
360.902 172.545 L
361.453 170.77 L
362.003 170.246 L
362.554 171.788 L
363.104 173.855 L
363.654 174.32 L
364.205 173.185 L
364.755 174.117 L
365.306 174.728 L
365.856 173.011 L
366.407 174.408 L
366.957 174.612 L
367.508 173.36 L
368.058 176.299 L
368.609 178.366 L
369.159 178.89 L
369.71 176.678 L
370.26 175.397 L
370.811 175.688 L
371.361 174.524 L
371.912 171.876 L
372.462 172.021 L
373.013 169.751 L
373.563 168.063 L
374.114 170.159 L
374.664 173.68 L
375.215 176.532 L
375.765 177.638 L
376.316 177.609 L
376.866 180.112 L
377.417 181.684 L
377.967 182.528 L
378.518 183.11 L
379.068 180.811 L
379.618 178.773 L
380.169 178.919 L
380.719 181.829 L
381.27 181.422 L
381.82 180.112 L
382.371 178.308 L
382.921 175.834 L
383.472 176.183 L
384.022 174.641 L
384.573 173.622 L
385.123 171.032 L
385.674 166.87 L
386.224 167.277 L
386.775 166.23 L
387.325 167.307 L
387.876 168.005 L
388.426 168.238 L
388.977 169.402 L
389.527 168.762 L
390.078 168.936 L
390.628 168.849 L
391.179 169.286 L
391.729 170.857 L
392.28 166.433 L
392.83 164.338 L
393.381 164.949 L
393.931 165.648 L
394.481 168.471 L
395.032 169.693 L
395.582 171.585 L
396.133 171.119 L
396.683 171.352 L
397.234 174.612 L
397.784 177.202 L
398.335 174.204 L
398.885 172.778 L
399.436 170.159 L
399.986 168.383 L
400.537 170.217 L
401.087 169.926 L
401.638 168.209 L
402.188 168.209 L
402.739 167.103 L
403.289 169.46 L
403.84 171.323 L
404.39 172.167 L
404.941 173.476 L
405.491 171.876 L
406.042 172.487 L
406.592 174.117 L
407.143 173.506 L
407.693 177.522 L
408.244 178.337 L
408.794 178.773 L
409.345 180.141 L
409.895 178.802 L
410.445 178.511 L
410.996 177.958 L
411.546 176.882 L
412.097 174.059 L
412.647 169.809 L
413.198 169.955 L
413.748 168.442 L
414.299 166.259 L
414.849 165.851 L
415.4 164.396 L
415.95 167.015 L
416.501 167.19 L
417.051 172.4 L
417.602 176.62 L
418.152 173.127 L
418.703 171.963 L
419.253 172.283 L
419.804 173.476 L
420.354 174.117 L
420.905 175.194 L
421.455 175.834 L
422.006 172.691 L
422.556 170.508 L
423.107 172.982 L
423.657 172.429 L
424.208 173.476 L
424.758 174.146 L
425.308 172.312 L
425.859 169.402 L
426.409 170.159 L
426.96 171.206 L
427.51 170.159 L
428.061 169.256 L
428.611 172.371 L
429.162 171.876 L
429.712 173.447 L
430.263 176.299 L
430.813 176.125 L
431.364 175.019 L
431.914 176.241 L
432.465 179.588 L
433.015 183.372 L
433.566 188.436 L
434.116 190.327 L
434.667 189.92 L
435.217 192.976 L
435.768 195.421 L
436.318 197.05 L
436.869 197.778 L
437.419 196.41 L
437.97 194.693 L
438.52 190.589 L
439.07 193.354 L
439.621 193.267 L
440.171 190.764 L
440.722 190.939 L
441.272 191.899 L
441.823 191.23 L
442.373 190.968 L
442.924 189.396 L
443.474 188.261 L
444.025 185.438 L
444.575 184.798 L
445.126 184.361 L
445.676 182.528 L
446.227 180.985 L
446.777 180.723 L
447.328 179.617 L
447.878 178.424 L
448.429 177.784 L
448.979 175.601 L
449.53 174.903 L
450.08 174.815 L
450.631 173.768 L
451.181 172.4 L
451.732 171.323 L
452.282 173.011 L
452.833 175.223 L
453.383 176.998 L
453.934 178.075 L
454.484 180.199 L
455.035 180.869 L
455.585 182.353 L
456.135 183.634 L
456.686 184.099 L
457.236 183.197 L
457.787 181.8 L
458.337 180.258 L
458.888 180.345 L
459.438 178.744 L
459.989 177.813 L
460.539 176.794 L
461.09 176.853 L
461.64 175.543 L
462.191 174.786 L
462.741 174.32 L
463.292 173.797 L
463.842 173.011 L
464.393 171.934 L
464.943 170.915 L
465.494 170.071 L
466.044 169.14 L
466.595 169.373 L
467.145 168.82 L
467.696 168.587 L
468.246 168.325 L
468.797 168.005 L
469.347 167.918 L
469.898 168.267 L
470.448 168.412 L
470.998 168.471 L
471.549 168.5 L
472.099 168.412 L
472.65 168.5 L
473.2 168.762 L
473.751 168.82 L
474.301 168.704 L
474.852 168.383 L
475.402 168.238 L
475.953 168.18 L
476.503 167.976 L
477.054 168.063 L
477.604 168.209 L
478.155 168.005 L
478.705 168.005 L
479.256 167.918 L
479.806 167.714 L
480.357 167.656 L
480.907 167.394 L
481.458 167.074 L
482.008 166.783 L
482.559 166.55 L
483.109 166.433 L
483.66 166.23 L
484.21 166.084 L
484.76 166.055 L
485.311 166.113 L
485.862 166.113 L
486.412 166.142 L
486.962 166.142 L
487.513 166.084 L
488.063 166.171 L
488.614 166.259 L
489.164 166.375 L
489.715 166.521 L
490.265 166.608 L
490.816 166.695 L
491.366 166.87 L
491.917 167.103 L
492.467 167.219 L
493.018 167.336 L
493.568 167.336 L
494.119 167.161 L
494.669 166.55 L
S
GR
GS
[0.75 0 0 0.75 0 0] CT
0.851 0.325 0.098 RC
1 LJ
0.667 LW
N
73.55 317.685 M
74.101 285.642 L
74.651 276.771 L
75.202 276.898 L
75.752 277.464 L
76.303 274.931 L
76.853 273.913 L
77.404 274.291 L
77.954 271.817 L
78.505 273.04 L
79.055 271.148 L
79.606 273.069 L
80.156 273.156 L
80.707 270.741 L
81.257 268.383 L
81.808 266.637 L
82.358 268.645 L
82.909 270.333 L
83.459 270.246 L
84.01 265.938 L
84.56 267.917 L
85.111 265.618 L
85.661 263.989 L
86.212 263.698 L
86.762 267.306 L
87.313 265.997 L
87.863 265.036 L
88.413 266.55 L
88.964 276.212 L
89.514 271.497 L
90.065 274.931 L
90.615 280.141 L
91.166 285.38 L
91.716 291.841 L
92.267 296.468 L
92.817 306.887 L
93.368 311.922 L
93.918 317.161 L
94.469 325.426 L
95.019 335.933 L
95.57 336.486 L
96.12 330.665 L
96.671 325.921 L
97.221 319.518 L
97.772 307.76 L
98.322 302.085 L
98.873 292.306 L
99.423 283.633 L
99.974 272.167 L
100.524 265.909 L
101.075 264.28 L
101.625 257.557 L
102.176 258.081 L
102.726 257.266 L
103.277 253.715 L
103.827 249.786 L
104.377 246.003 L
104.928 243.267 L
105.478 240.356 L
106.029 236.66 L
106.579 239.309 L
107.13 236.311 L
107.68 237.592 L
108.231 238.115 L
108.781 237.941 L
109.332 239.978 L
109.882 237.999 L
110.433 238.494 L
110.983 242.306 L
111.534 240.327 L
112.084 240.24 L
112.635 234.448 L
113.185 236.515 L
113.736 237.126 L
114.286 240.502 L
114.837 243.529 L
115.387 245.653 L
115.938 244.169 L
116.488 242.044 L
117.039 242.888 L
117.589 246.672 L
118.14 242.219 L
118.69 238.756 L
119.24 233.313 L
119.791 231.043 L
120.341 228.744 L
120.892 229.355 L
121.442 227.464 L
121.993 224.728 L
122.543 223.826 L
123.094 226.474 L
123.644 228.22 L
124.195 231.538 L
124.745 229.355 L
125.296 230.723 L
125.846 226.765 L
126.397 230.869 L
126.947 229.122 L
127.498 228.831 L
128.048 228.104 L
128.599 225.193 L
129.149 219.46 L
129.7 218.005 L
130.25 215.415 L
130.801 212.912 L
131.351 212.184 L
131.902 213.93 L
132.452 211.428 L
133.003 208.837 L
133.553 210.845 L
134.104 210.38 L
134.654 209.681 L
135.204 210.176 L
135.755 211.98 L
136.305 209.099 L
136.856 205.665 L
137.406 205.549 L
137.957 206.713 L
138.507 205.461 L
139.058 207.848 L
139.608 206.451 L
140.159 204.53 L
140.709 204.268 L
141.26 203.279 L
141.81 206.975 L
142.361 209.274 L
142.911 206.305 L
143.462 206.451 L
144.012 201.765 L
144.563 203.249 L
145.113 203.831 L
145.664 204.705 L
146.214 209.332 L
146.765 207.149 L
147.315 203.54 L
147.866 204.967 L
148.416 201.445 L
148.967 201.823 L
149.517 200.368 L
150.067 197.894 L
150.618 197.167 L
151.168 188.843 L
151.719 186.573 L
152.269 185.904 L
152.82 182.993 L
153.37 185.467 L
153.921 186.573 L
154.471 187.679 L
155.022 187.155 L
155.572 183.401 L
156.123 183.11 L
156.673 181.713 L
157.224 180.199 L
157.774 180.112 L
158.325 177.027 L
158.875 177.289 L
159.426 176.765 L
159.976 176.096 L
160.527 178.279 L
161.077 179.938 L
161.628 181.247 L
162.178 183.605 L
162.729 184.972 L
163.279 185.613 L
163.83 185.904 L
164.38 186.369 L
164.93 189.396 L
165.481 189.076 L
166.031 190.764 L
166.582 191.608 L
167.132 190.24 L
167.683 189.425 L
168.233 191.026 L
168.784 189.716 L
169.334 190.153 L
169.885 187.01 L
170.435 186.253 L
170.986 183.575 L
171.536 182.004 L
172.087 183.255 L
172.637 184.07 L
173.188 181.509 L
173.738 180.694 L
174.289 178.395 L
174.839 177.871 L
175.39 178.802 L
175.94 179.938 L
176.491 180.723 L
177.041 178.832 L
177.592 176.736 L
178.142 180.578 L
178.693 182.237 L
179.243 185.409 L
179.794 187.795 L
180.344 189.571 L
180.894 188.872 L
181.445 188.261 L
181.995 189.425 L
182.546 191.23 L
183.096 187.359 L
183.647 187.039 L
184.197 186.078 L
184.748 184.448 L
185.298 183.488 L
185.849 184.74 L
186.399 185.816 L
186.95 186.457 L
187.5 184.361 L
188.051 184.798 L
188.601 183.139 L
189.152 180.549 L
189.702 179.646 L
190.253 178.162 L
190.803 178.046 L
191.354 174.35 L
191.904 172.05 L
192.455 172.109 L
193.005 173.331 L
193.556 174.233 L
194.106 174.117 L
194.657 174.262 L
195.207 174.088 L
195.757 171.818 L
196.308 172.836 L
196.858 172.341 L
197.409 172.72 L
197.959 171.265 L
198.51 168.733 L
199.06 165.677 L
199.611 166.201 L
200.161 167.307 L
200.712 167.307 L
201.262 171.934 L
201.813 172.371 L
202.363 172.138 L
202.914 169.722 L
203.464 171.963 L
204.015 175.164 L
204.565 175.688 L
205.116 173.04 L
205.666 172.109 L
206.217 168.005 L
206.767 166.579 L
207.318 162.912 L
207.868 165.036 L
208.419 162.126 L
208.969 161.457 L
209.52 160.031 L
210.07 160.613 L
210.62 160.991 L
211.171 160.002 L
211.721 161.777 L
212.272 166.841 L
212.822 167.074 L
213.373 167.481 L
213.923 167.947 L
214.474 169.635 L
215.024 168.791 L
215.575 170.886 L
216.125 173.069 L
216.676 172.4 L
217.226 172.632 L
217.777 173.215 L
218.327 174.961 L
218.878 178.162 L
219.428 178.395 L
219.979 177.755 L
220.529 176.882 L
221.08 176.096 L
221.63 174.844 L
222.181 172.487 L
222.731 170.217 L
223.282 169.489 L
223.832 167.015 L
224.383 165.327 L
224.933 168.005 L
225.484 167.015 L
226.034 165.473 L
226.584 165.007 L
227.135 164.92 L
227.685 165.851 L
228.236 165.473 L
228.786 163.319 L
229.337 162.534 L
229.887 160.671 L
230.438 160.496 L
230.988 161.981 L
231.539 162.388 L
232.089 163.698 L
232.64 165.444 L
233.19 167.336 L
233.741 171.061 L
234.291 173.36 L
234.842 173.622 L
235.392 175.194 L
235.943 176.067 L
236.493 179.763 L
237.044 177.638 L
237.594 178.017 L
238.145 179.821 L
238.695 178.017 L
239.246 180.054 L
239.796 182.062 L
240.347 182.702 L
240.897 182.353 L
241.447 181.043 L
241.998 184.303 L
242.548 184.972 L
243.099 182.644 L
243.649 183.896 L
244.2 180.374 L
244.75 178.657 L
245.301 177.085 L
245.851 176.649 L
246.402 174.379 L
246.952 174.961 L
247.503 172.429 L
248.053 172.4 L
248.604 170.304 L
249.154 169.926 L
249.705 170.741 L
250.255 171.177 L
250.806 169.751 L
251.356 171.148 L
251.907 169.227 L
252.457 170.159 L
253.008 168.965 L
253.558 169.489 L
254.109 171.265 L
254.659 170.915 L
255.21 172.283 L
255.76 171.992 L
256.31 171.41 L
256.861 172.836 L
257.411 174.146 L
257.962 174.67 L
258.512 176.27 L
259.063 175.164 L
259.613 172.865 L
260.164 171.41 L
260.714 172.371 L
261.265 170.13 L
261.815 167.627 L
262.366 164.28 L
262.916 163.348 L
263.467 161.981 L
264.017 164.105 L
264.568 165.88 L
265.118 166.492 L
265.669 166.404 L
266.219 169.315 L
266.77 170.188 L
267.32 170.886 L
267.871 169.373 L
268.421 169.897 L
268.972 168.645 L
269.522 169.809 L
270.073 169.373 L
270.623 170.188 L
271.174 171.148 L
271.724 171.148 L
272.274 172.516 L
272.825 175.048 L
273.375 172.836 L
273.926 171.41 L
274.476 170.944 L
275.027 172.458 L
275.577 173.476 L
276.128 172.574 L
276.678 173.738 L
277.229 172.953 L
277.779 173.36 L
278.33 177.609 L
278.88 180.374 L
279.431 180.52 L
279.981 178.802 L
280.532 178.861 L
281.082 178.249 L
281.633 179.035 L
282.183 181.218 L
282.734 180.898 L
283.284 178.832 L
283.835 175.543 L
284.385 172.953 L
284.936 173.884 L
285.486 173.768 L
286.037 173.04 L
286.587 170.13 L
287.137 169.315 L
287.688 168.733 L
288.238 168.995 L
288.789 171.294 L
289.339 172.225 L
289.89 169.984 L
290.44 167.307 L
290.991 170.246 L
291.541 170.217 L
292.092 168.471 L
292.642 168.965 L
293.193 165.939 L
293.743 161.835 L
294.294 160.613 L
294.844 161.777 L
295.395 161.631 L
295.945 160.176 L
296.496 159.972 L
297.046 157.411 L
297.597 157.382 L
298.147 156.422 L
298.698 157.964 L
299.248 159.914 L
299.799 159.885 L
300.349 161.893 L
300.9 163.261 L
301.45 164.891 L
302.001 166.463 L
302.551 164.92 L
303.101 165.153 L
303.652 165.851 L
304.202 163.872 L
304.753 161.893 L
305.303 160.846 L
305.854 158.139 L
306.404 154.501 L
306.955 152.551 L
307.505 152.522 L
308.056 152.493 L
308.606 150.572 L
309.157 153.832 L
309.707 154.937 L
310.258 155.432 L
310.808 156.509 L
311.359 160.613 L
311.909 163.901 L
312.46 166.055 L
313.01 166.928 L
313.561 169.926 L
314.111 168.587 L
314.662 168.907 L
315.212 169.664 L
315.763 168.704 L
316.313 166.841 L
316.864 167.656 L
317.414 166.812 L
317.964 168.849 L
318.515 166.957 L
319.065 166.928 L
319.616 167.161 L
320.166 163.523 L
320.717 163.057 L
321.267 162.708 L
321.818 160.293 L
322.368 159.652 L
322.919 159.39 L
323.469 162.446 L
324.02 162.301 L
324.57 162.155 L
325.121 164.134 L
325.671 162.737 L
326.222 161.486 L
326.772 163.116 L
327.323 163.174 L
327.873 165.007 L
328.424 164.134 L
328.974 164.163 L
329.525 165.531 L
330.075 167.598 L
330.626 171.556 L
331.176 175.339 L
331.727 177.493 L
332.277 179.093 L
332.827 175.892 L
333.378 173.942 L
333.928 172.545 L
334.479 176.241 L
335.029 176.736 L
335.58 177.114 L
336.13 174.233 L
336.681 170.537 L
337.231 166.55 L
337.782 164.134 L
338.332 164.367 L
338.883 165.735 L
339.433 160.671 L
339.984 160.991 L
340.534 159.216 L
341.085 159.39 L
341.635 160.962 L
342.186 165.648 L
342.736 169.955 L
343.287 170.391 L
343.837 170.828 L
344.388 171.323 L
344.938 168.733 L
345.489 169.606 L
346.039 171.439 L
346.59 174.786 L
347.14 171.963 L
347.691 170.071 L
348.241 169.897 L
348.791 170.013 L
349.342 170.275 L
349.892 168.354 L
350.443 167.19 L
350.993 165.88 L
351.544 162.068 L
352.094 164.105 L
352.645 164.833 L
353.195 166.928 L
353.746 164.105 L
354.296 163.727 L
354.847 165.939 L
355.397 164.571 L
355.948 163.145 L
356.498 164.571 L
357.049 162.795 L
357.599 161.981 L
358.15 160.555 L
358.7 162.737 L
359.251 163.669 L
359.801 162.854 L
360.352 164.513 L
360.902 167.452 L
361.453 164.105 L
362.003 165.211 L
362.554 165.531 L
363.104 165.88 L
363.654 163.465 L
364.205 161.515 L
364.755 163.319 L
365.306 163.145 L
365.856 162.679 L
366.407 167.307 L
366.957 171.556 L
367.508 173.069 L
368.058 171.73 L
368.609 177.056 L
369.159 180.781 L
369.71 179.21 L
370.26 177.929 L
370.811 177.289 L
371.361 171.439 L
371.912 166.433 L
372.462 163.96 L
373.013 163.407 L
373.563 162.301 L
374.114 161.311 L
374.664 164.833 L
375.215 168.529 L
375.765 167.015 L
376.316 170.479 L
376.866 172.953 L
377.417 176.241 L
377.967 176.853 L
378.518 175.572 L
379.068 174.99 L
379.618 172.487 L
380.169 171.352 L
380.719 171.788 L
381.27 170.217 L
381.82 167.074 L
382.371 166.841 L
382.921 166.346 L
383.472 167.015 L
384.022 164.862 L
384.573 164.92 L
385.123 162.01 L
385.674 161.224 L
386.224 161.981 L
386.775 160.962 L
387.325 157.993 L
387.876 158.255 L
388.426 157.964 L
388.977 157.615 L
389.527 156.567 L
390.078 157.382 L
390.628 158.634 L
391.179 157.382 L
391.729 159.216 L
392.28 157.673 L
392.83 156.102 L
393.381 156.16 L
393.931 158.139 L
394.481 158.721 L
395.032 161.049 L
395.582 161.107 L
396.133 165.473 L
396.683 166.957 L
397.234 170.45 L
397.784 174.379 L
398.335 173.68 L
398.885 172.662 L
399.436 171.876 L
399.986 169.053 L
400.537 168.005 L
401.087 167.19 L
401.638 166.492 L
402.188 164.745 L
402.739 162.504 L
403.289 163.785 L
403.84 163.639 L
404.39 162.912 L
404.941 165.589 L
405.491 167.743 L
406.042 168.587 L
406.592 170.45 L
407.143 171.09 L
407.693 172.836 L
408.244 172.894 L
408.794 175.601 L
409.345 180.549 L
409.895 181.829 L
410.445 181.364 L
410.996 179.938 L
411.546 178.191 L
412.097 178.453 L
412.647 177.464 L
413.198 177.085 L
413.748 176.096 L
414.299 173.273 L
414.849 170.217 L
415.4 170.071 L
415.95 171.09 L
416.501 170.217 L
417.051 168.645 L
417.602 168.354 L
418.152 167.743 L
418.703 164.338 L
419.253 166.404 L
419.804 169.053 L
420.354 169.722 L
420.905 170.304 L
421.455 171.003 L
422.006 174.524 L
422.556 177.231 L
423.107 176.969 L
423.657 176.387 L
424.208 178.511 L
424.758 179.501 L
425.308 178.017 L
425.859 174.35 L
426.409 173.709 L
426.96 172.778 L
427.51 169.227 L
428.061 169.431 L
428.611 175.921 L
429.162 169.286 L
429.712 165.531 L
430.263 168.791 L
430.813 173.884 L
431.364 175.572 L
431.914 177.027 L
432.465 179.734 L
433.015 180.636 L
433.566 180.432 L
434.116 184.827 L
434.667 187.126 L
435.217 186.078 L
435.768 185.147 L
436.318 185.7 L
436.869 183.721 L
437.419 182.906 L
437.97 182.731 L
438.52 180.374 L
439.07 178.22 L
439.621 177.58 L
440.171 178.773 L
440.722 178.075 L
441.272 177.493 L
441.823 179.792 L
442.373 180.316 L
442.924 179.268 L
443.474 178.249 L
444.025 179.297 L
444.575 178.424 L
445.126 175.776 L
445.676 173.302 L
446.227 171.992 L
446.777 169.635 L
447.328 168.383 L
447.878 166.579 L
448.429 165.648 L
448.979 163.145 L
449.53 161.078 L
450.08 160.496 L
450.631 159.885 L
451.181 159.449 L
451.732 158.517 L
452.282 159.594 L
452.833 162.534 L
453.383 164.862 L
453.934 167.103 L
454.484 171.294 L
455.035 173.476 L
455.585 175.048 L
456.135 175.252 L
456.686 177.027 L
457.236 176.969 L
457.787 176.62 L
458.337 175.979 L
458.888 175.048 L
459.438 173.156 L
459.989 171.759 L
460.539 171.061 L
461.09 171.294 L
461.64 170.217 L
462.191 168.587 L
462.741 167.452 L
463.292 166.142 L
463.842 165.153 L
464.393 163.669 L
464.943 162.679 L
465.494 161.893 L
466.044 160.613 L
466.595 159.652 L
467.145 158.75 L
467.696 157.702 L
468.246 157.062 L
468.797 156.829 L
469.347 157.033 L
469.898 156.684 L
470.448 156.073 L
470.998 156.102 L
471.549 155.869 L
472.099 155.636 L
472.65 155.52 L
473.2 155.199 L
473.751 154.617 L
474.301 153.773 L
474.852 153.191 L
475.402 152.842 L
475.953 152.406 L
476.503 152.289 L
477.054 152.318 L
477.604 152.318 L
478.155 152.609 L
478.705 152.871 L
479.256 153.25 L
479.806 153.57 L
480.357 153.511 L
480.907 153.57 L
481.458 153.308 L
482.008 153.162 L
482.559 152.958 L
483.109 152.697 L
483.66 152.464 L
484.21 152.144 L
484.76 151.94 L
485.311 152.231 L
485.862 152.289 L
486.412 152.551 L
486.962 152.58 L
487.513 152.609 L
488.063 152.435 L
488.614 152.435 L
489.164 152.376 L
489.715 152.289 L
490.265 152.056 L
490.816 151.969 L
491.366 151.882 L
491.917 151.882 L
492.467 151.853 L
493.018 151.882 L
493.568 151.765 L
494.119 151.707 L
494.669 151.545 L
495.22 151.148 L
495.77 151.009 L
496.321 150.834 L
S
GR
GS
[0.75 0 0 0.75 0 0] CT
0.929 0.694 0.125 RC
1 LJ
0.667 LW
N
73.55 311.136 M
74.101 290.356 L
74.651 291.596 L
75.202 293.362 L
75.752 282.324 L
76.303 276.474 L
76.853 274.146 L
77.404 276.125 L
77.954 271.817 L
78.505 269.838 L
79.055 262.068 L
79.606 263.348 L
80.156 264.716 L
80.707 266.928 L
81.257 266.899 L
81.808 264.454 L
82.358 262.592 L
82.909 265.531 L
83.459 266.55 L
84.01 265.24 L
84.56 263.203 L
85.111 264.658 L
85.661 261.777 L
86.212 262.242 L
86.762 264.047 L
87.313 262.708 L
87.863 260.292 L
88.413 257.702 L
88.964 262.126 L
89.514 266.259 L
90.065 265.997 L
90.615 274.466 L
91.166 281.654 L
91.716 288.465 L
92.267 297.952 L
92.817 308.924 L
93.368 317.539 L
93.918 328.133 L
94.469 327.434 L
95.019 335.642 L
95.57 338.988 L
96.12 333.633 L
96.671 327.376 L
97.221 319.14 L
97.772 309.652 L
98.322 299.786 L
98.873 287.795 L
99.423 285.904 L
99.974 276.037 L
100.524 265.677 L
101.075 262.708 L
101.625 259.332 L
102.176 257.411 L
102.726 258.546 L
103.277 257.76 L
103.827 258.197 L
104.377 254.996 L
104.928 252.929 L
105.478 249.699 L
106.029 246.701 L
106.579 246.876 L
107.13 246.119 L
107.68 242.772 L
108.231 243.82 L
108.781 241.171 L
109.332 238.319 L
109.882 238.406 L
110.433 241.608 L
110.983 242.306 L
111.534 241.521 L
112.084 241.724 L
112.635 239.949 L
113.185 237.301 L
113.736 236.02 L
114.286 237.708 L
114.837 236.573 L
115.387 236.427 L
115.938 238.989 L
116.488 238.348 L
117.039 238.348 L
117.589 237.126 L
118.14 236.195 L
118.69 236.398 L
119.24 236.398 L
119.791 236.282 L
120.341 235.7 L
120.892 232.469 L
121.442 236.107 L
121.993 232.295 L
122.543 230.549 L
123.094 229.414 L
123.644 227.813 L
124.195 228.715 L
124.745 229.763 L
125.296 229.152 L
125.846 228.744 L
126.397 225.048 L
126.947 225.077 L
127.498 226.94 L
128.048 228.133 L
128.599 227.58 L
129.149 225.805 L
129.7 222.487 L
130.25 220.129 L
130.801 220.042 L
131.351 219.547 L
131.902 222.458 L
132.452 221.235 L
133.003 220.944 L
133.553 217.83 L
134.104 214.076 L
134.654 212.01 L
135.204 210.642 L
135.755 207.935 L
136.305 208.634 L
136.856 201.911 L
137.406 202.231 L
137.957 200.455 L
138.507 201.387 L
139.058 200.31 L
139.608 203.279 L
140.159 203.366 L
140.709 205.054 L
141.26 201.852 L
141.81 203.54 L
142.361 201.241 L
142.911 198.855 L
143.462 199.291 L
144.012 198.797 L
144.563 195.974 L
145.113 194.227 L
145.664 194.577 L
146.214 197.225 L
146.765 199 L
147.315 199.32 L
147.866 200.252 L
148.416 197.894 L
148.967 198.651 L
149.517 199.524 L
150.067 201.794 L
150.618 200.077 L
151.168 196.265 L
151.719 194.838 L
152.269 193.063 L
152.82 194.198 L
153.37 195.246 L
153.921 192.51 L
154.471 191.724 L
155.022 192.161 L
155.572 191.142 L
156.123 188.669 L
156.673 188.843 L
157.224 191.841 L
157.774 192.568 L
158.325 192.918 L
158.875 196.235 L
159.426 196.294 L
159.976 192.452 L
160.527 195.246 L
161.077 197.923 L
161.628 194.809 L
162.178 190.182 L
162.729 186.107 L
163.279 184.507 L
163.83 181.567 L
164.38 182.615 L
164.93 183.372 L
165.481 179.443 L
166.031 180.374 L
166.582 183.284 L
167.132 189.367 L
167.683 192.685 L
168.233 193.965 L
168.784 199.466 L
169.334 196.148 L
169.885 197.429 L
170.435 196.905 L
170.986 193.616 L
171.536 195.246 L
172.087 192.277 L
172.637 191.986 L
173.188 192.423 L
173.738 188.261 L
174.289 190.386 L
174.839 189.251 L
175.39 190.211 L
175.94 193.878 L
176.491 191.462 L
177.041 191.724 L
177.592 189.105 L
178.142 191.87 L
178.693 190.764 L
179.243 193.82 L
179.794 192.947 L
180.344 195.624 L
180.894 192.801 L
181.445 190.706 L
181.995 189.483 L
182.546 192.423 L
183.096 190.444 L
183.647 190.327 L
184.197 188.465 L
184.748 189.687 L
185.298 186.34 L
185.849 189.192 L
186.399 190.997 L
186.95 190.182 L
187.5 187.65 L
188.051 186.457 L
188.601 188.261 L
189.152 188.465 L
189.702 189.192 L
190.253 193.209 L
190.803 193.005 L
191.354 193.267 L
191.904 193.587 L
192.455 194.868 L
193.005 196.352 L
193.556 194.344 L
194.106 192.277 L
194.657 189.745 L
195.207 185.089 L
195.757 180.199 L
196.308 176.387 L
196.858 176.27 L
197.409 178.104 L
197.959 174.32 L
198.51 174.117 L
199.06 174.088 L
199.611 173.913 L
200.161 175.805 L
200.712 178.89 L
201.262 183.43 L
201.813 180.927 L
202.363 175.688 L
202.914 175.95 L
203.464 176.736 L
204.015 175.95 L
204.565 178.773 L
205.116 177.289 L
205.666 176.911 L
206.217 173.185 L
206.767 172.691 L
207.318 172.632 L
207.868 170.77 L
208.419 170.246 L
208.969 170.624 L
209.52 168.121 L
210.07 166.375 L
210.62 165.386 L
211.171 167.539 L
211.721 171.061 L
212.272 173.476 L
212.822 176.794 L
213.373 177.231 L
213.923 176.823 L
214.474 176.765 L
215.024 179.734 L
215.575 182.12 L
216.125 180.811 L
216.676 178.279 L
217.226 175.514 L
217.777 174.175 L
218.327 173.506 L
218.878 175.514 L
219.428 173.884 L
219.979 176.154 L
220.529 174.932 L
221.08 175.135 L
221.63 176.445 L
222.181 178.511 L
222.731 178.744 L
223.282 181.131 L
223.832 182.004 L
224.383 183.226 L
224.933 180.694 L
225.484 180.811 L
226.034 182.266 L
226.584 182.033 L
227.135 181.334 L
227.685 181.655 L
228.236 182.44 L
228.786 182.382 L
229.337 183.372 L
229.887 180.694 L
230.438 180.52 L
230.988 178.22 L
231.539 178.017 L
232.089 179.588 L
232.64 177.784 L
233.19 176.649 L
233.741 175.368 L
234.291 174.466 L
234.842 175.717 L
235.392 173.797 L
235.943 175.747 L
236.493 177.056 L
237.044 179.384 L
237.594 181.509 L
238.145 179.967 L
238.695 178.948 L
239.246 179.006 L
239.796 181.364 L
240.347 182.877 L
240.897 182.877 L
241.447 185.031 L
241.998 183.255 L
242.548 182.004 L
243.099 182.528 L
243.649 181.422 L
244.2 181.131 L
244.75 180.752 L
245.301 180.869 L
245.851 178.511 L
246.402 174.815 L
246.952 174.757 L
247.503 172.778 L
248.053 172.807 L
248.604 172.778 L
249.154 172.109 L
249.705 169.402 L
250.255 169.169 L
250.806 172.021 L
251.356 171.556 L
251.907 170.828 L
252.457 172.894 L
253.008 170.653 L
253.558 174.117 L
254.109 174.495 L
254.659 174.117 L
255.21 173.797 L
255.76 170.886 L
256.31 174.641 L
256.861 173.768 L
257.411 173.185 L
257.962 174.408 L
258.512 170.683 L
259.063 171.847 L
259.613 172.254 L
260.164 173.331 L
260.714 173.273 L
261.265 169.984 L
261.815 170.479 L
262.366 171.788 L
262.916 171.439 L
263.467 172.72 L
264.017 171.206 L
264.568 170.595 L
265.118 170.77 L
265.669 171.672 L
266.219 170.712 L
266.77 171.061 L
267.32 170.799 L
267.871 170.421 L
268.421 170.275 L
268.972 176.27 L
269.522 180.083 L
270.073 180.287 L
270.623 182.761 L
271.174 185.642 L
271.724 189.542 L
272.274 190.327 L
272.825 192.859 L
273.375 193.471 L
273.926 186.66 L
274.476 184.856 L
275.027 182.964 L
275.577 182.266 L
276.128 181.364 L
276.678 177.173 L
277.229 178.57 L
277.779 179.326 L
278.33 179.443 L
278.88 181.334 L
279.431 180.607 L
279.981 180.578 L
280.532 180.607 L
281.082 181.305 L
281.633 181.917 L
282.183 180.461 L
282.734 180.025 L
283.284 178.599 L
283.835 181.393 L
284.385 182.178 L
284.936 183.837 L
285.486 187.359 L
286.037 185.991 L
286.587 185.613 L
287.137 186.573 L
287.688 185.991 L
288.238 187.65 L
288.789 186.573 L
289.339 185.729 L
289.89 183.255 L
290.44 176.299 L
290.991 177.609 L
291.541 176.358 L
292.092 172.691 L
292.642 170.188 L
293.193 168.616 L
293.743 165.88 L
294.294 165.007 L
294.844 162.504 L
295.395 163.989 L
295.945 163.61 L
296.496 161.864 L
297.046 161.253 L
297.597 161.253 L
298.147 162.883 L
298.698 164.716 L
299.248 163.639 L
299.799 166.812 L
300.349 165.648 L
300.9 167.19 L
301.45 170.188 L
302.001 170.537 L
302.551 168.965 L
303.101 169.169 L
303.652 168.151 L
304.202 171.847 L
304.753 172.283 L
305.303 174.379 L
305.854 172.021 L
306.404 169.169 L
306.955 170.828 L
307.505 173.738 L
308.056 170.537 L
308.606 169.78 L
309.157 169.169 L
309.707 170.479 L
310.258 169.897 L
310.808 170.595 L
311.359 171.992 L
311.909 171.643 L
312.46 169.548 L
313.01 168.936 L
313.561 167.365 L
314.111 166.928 L
314.662 166.899 L
315.212 170.391 L
315.763 168.791 L
316.313 167.714 L
316.864 167.219 L
317.414 166.404 L
317.964 168.092 L
318.515 169.577 L
319.065 166.783 L
319.616 166.026 L
320.166 160.758 L
320.717 162.301 L
321.267 162.301 L
321.818 163.028 L
322.368 166.783 L
322.919 167.394 L
323.469 168.412 L
324.02 170.683 L
324.57 170.1 L
325.121 170.304 L
325.671 170.1 L
326.222 172.458 L
326.772 169.518 L
327.323 166.026 L
327.873 164.309 L
328.424 163.232 L
328.974 160.293 L
329.525 160.205 L
330.075 161.078 L
330.626 159.39 L
331.176 157.295 L
331.727 159.449 L
332.277 159.885 L
332.827 158.779 L
333.378 158.081 L
333.928 157.964 L
334.479 155.956 L
335.029 157.731 L
335.58 162.388 L
336.13 164.134 L
336.681 164.629 L
337.231 165.444 L
337.782 166.87 L
338.332 166.463 L
338.883 171.032 L
339.433 173.913 L
339.984 173.797 L
340.534 171.265 L
341.085 170.595 L
341.635 172.021 L
342.186 174.524 L
342.736 178.657 L
343.287 179.297 L
343.837 177.958 L
344.388 176.94 L
344.938 174.932 L
345.489 171.992 L
346.039 170.188 L
346.59 168.238 L
347.14 165.531 L
347.691 160.729 L
348.241 161.078 L
348.791 158.837 L
349.342 158.983 L
349.892 159.681 L
350.443 162.213 L
350.993 166.142 L
351.544 165.007 L
352.094 165.095 L
352.645 167.161 L
353.195 172.924 L
353.746 173.855 L
354.296 172.05 L
354.847 172.865 L
355.397 171.206 L
355.948 170.042 L
356.498 175.164 L
357.049 177.755 L
357.599 177.958 L
358.15 174.408 L
358.7 176.591 L
359.251 179.443 L
359.801 177.405 L
360.352 177.114 L
360.902 175.572 L
361.453 171.032 L
362.003 169.78 L
362.554 168.907 L
363.104 168.383 L
363.654 163.698 L
364.205 162.126 L
364.755 161.777 L
365.306 161.369 L
365.856 162.621 L
366.407 164.338 L
366.957 167.132 L
367.508 170.508 L
368.058 170.508 L
368.609 173.244 L
369.159 174 L
369.71 176.125 L
370.26 176.969 L
370.811 177.609 L
371.361 178.017 L
371.912 174.728 L
372.462 170.362 L
373.013 167.889 L
373.563 165.851 L
374.114 164.425 L
374.664 162.999 L
375.215 162.417 L
375.765 161.049 L
376.316 160.555 L
376.866 160.758 L
377.417 164.251 L
377.967 164.949 L
378.518 167.19 L
379.068 168.092 L
379.618 170.391 L
380.169 171.497 L
380.719 170.624 L
381.27 169.751 L
381.82 169.198 L
382.371 166.055 L
382.921 165.968 L
383.472 167.772 L
384.022 167.423 L
384.573 166.521 L
385.123 166.404 L
385.674 164.687 L
386.224 165.706 L
386.775 167.481 L
387.325 167.918 L
387.876 166.87 L
388.426 164.309 L
388.977 163.494 L
389.527 161.311 L
390.078 160.089 L
390.628 160.962 L
391.179 160.613 L
391.729 157.004 L
392.28 158.75 L
392.83 158.983 L
393.381 161.719 L
393.931 165.473 L
394.481 171.119 L
395.032 173.738 L
395.582 177.958 L
396.133 179.938 L
396.683 185.671 L
397.234 191.201 L
397.784 194.315 L
398.335 195.508 L
398.885 195.828 L
399.436 193.936 L
399.986 190.502 L
400.537 187.504 L
401.087 185.031 L
401.638 183.022 L
402.188 179.821 L
402.739 178.54 L
403.289 176.329 L
403.84 174.786 L
404.39 173.331 L
404.941 178.191 L
405.491 178.22 L
406.042 179.734 L
406.592 179.093 L
407.143 177.697 L
407.693 177.056 L
408.244 176.445 L
408.794 175.979 L
409.345 177.929 L
409.895 176.765 L
410.445 176.27 L
410.996 175.601 L
411.546 175.048 L
412.097 173.36 L
412.647 175.456 L
413.198 176.707 L
413.748 178.511 L
414.299 176.125 L
414.849 179.734 L
415.4 182.004 L
415.95 183.459 L
416.501 183.11 L
417.051 183.313 L
417.602 182.906 L
418.152 181.334 L
418.703 178.744 L
419.253 180.985 L
419.804 176.445 L
420.354 176.154 L
420.905 174.029 L
421.455 176.416 L
422.006 178.191 L
422.556 178.366 L
423.107 179.384 L
423.657 179.414 L
424.208 177.726 L
424.758 175.077 L
425.308 173.971 L
425.859 172.982 L
426.409 172.632 L
426.96 173.069 L
427.51 172.982 L
428.061 173.418 L
428.611 173.447 L
429.162 174.029 L
429.712 177.667 L
430.263 179.646 L
430.813 181.625 L
431.364 180.985 L
431.914 181.276 L
432.465 185.962 L
433.015 187.65 L
433.566 192.743 L
434.116 192.772 L
434.667 190.706 L
435.217 190.182 L
435.768 190.968 L
436.318 190.822 L
436.869 187.213 L
437.419 181.131 L
437.97 179.297 L
438.52 171.148 L
439.07 168.645 L
439.621 167.51 L
440.171 167.452 L
440.722 167.51 L
441.272 166.579 L
441.823 167.161 L
442.373 168.034 L
442.924 165.793 L
443.474 167.015 L
444.025 167.889 L
444.575 168.412 L
445.126 166.433 L
445.676 163.785 L
446.227 162.097 L
446.777 160.176 L
447.328 158.517 L
447.878 156.946 L
448.429 155.083 L
448.979 153.802 L
449.53 151.853 L
450.08 151.038 L
450.631 151.387 L
451.181 150.659 L
451.732 150.514 L
452.282 150.776 L
452.833 153.715 L
453.383 159.041 L
453.934 160.729 L
454.484 162.912 L
455.035 163.756 L
455.585 163.61 L
456.135 165.531 L
456.686 167.277 L
457.236 168.18 L
457.787 167.161 L
458.337 164.105 L
458.888 162.999 L
459.438 162.446 L
459.989 161.66 L
460.539 160.875 L
461.09 159.885 L
461.64 157.761 L
462.191 154.763 L
462.741 153.919 L
463.292 153.162 L
463.842 152.144 L
464.393 151.765 L
464.943 151.183 L
465.494 151.009 L
466.044 150.194 L
466.595 150.019 L
467.145 150.339 L
467.696 149.67 L
468.246 149.495 L
468.797 149.262 L
469.347 148.738 L
469.898 148.36 L
470.448 147.807 L
470.998 147.429 L
471.549 147.283 L
472.099 147.283 L
472.65 146.992 L
473.2 146.701 L
473.751 146.643 L
474.301 146.497 L
474.852 146.236 L
475.402 146.09 L
475.953 145.945 L
476.503 145.828 L
477.054 145.566 L
477.604 145.392 L
478.155 144.984 L
478.705 144.548 L
479.256 144.198 L
479.806 143.82 L
480.357 143.5 L
480.907 143.296 L
481.458 142.801 L
482.008 142.452 L
482.559 142.19 L
483.109 141.957 L
483.66 141.695 L
484.21 141.521 L
484.76 141.55 L
485.311 141.492 L
485.862 141.579 L
486.412 141.754 L
486.962 141.928 L
487.513 141.928 L
488.063 141.87 L
488.614 141.899 L
489.164 141.841 L
489.715 141.695 L
490.265 141.521 L
490.816 141.317 L
491.366 141.288 L
491.917 141.259 L
492.467 141.288 L
493.018 141.433 L
493.568 141.55 L
494.119 141.666 L
494.669 141.666 L
495.22 141.741 L
495.77 141.614 L
496.321 141.666 L
496.871 141.142 L
S
GR
GS
[0.75 0 0 0.75 0 0] CT
0.494 0.184 0.557 RC
1 LJ
0.667 LW
N
73.55 349.116 M
74.101 321.963 L
74.651 306.683 L
75.202 304.588 L
75.752 299.844 L
76.303 293.47 L
76.853 292.743 L
77.404 286.98 L
77.954 284.798 L
78.505 284.041 L
79.055 283.779 L
79.606 282.44 L
80.156 283.139 L
80.707 289.716 L
81.257 289.047 L
81.808 284.419 L
82.358 289.6 L
82.909 294.082 L
83.459 296.817 L
84.01 290.938 L
84.56 293.034 L
85.111 291.171 L
85.661 284.594 L
86.212 284.245 L
86.762 287.242 L
87.313 282.615 L
87.863 278.511 L
88.413 276.241 L
88.964 277.143 L
89.514 274.844 L
90.065 276.416 L
90.615 282.091 L
91.166 288.843 L
91.716 295.217 L
92.267 299.961 L
92.817 310.962 L
93.368 317.335 L
93.918 324.582 L
94.469 330.839 L
95.019 339.862 L
95.57 337.038 L
96.12 332.295 L
96.671 328.337 L
97.221 325.892 L
97.772 315.88 L
98.322 307.993 L
98.873 300.601 L
99.423 295.188 L
99.974 287.271 L
100.524 283.313 L
101.075 281.538 L
101.625 277.987 L
102.176 274.175 L
102.726 275.543 L
103.277 275.077 L
103.827 276.707 L
104.377 275.892 L
104.928 270.77 L
105.478 268.034 L
106.029 264.192 L
106.579 267.277 L
107.13 268.412 L
107.68 265.647 L
108.231 265.589 L
108.781 264.833 L
109.332 263.843 L
109.882 265.706 L
110.433 267.248 L
110.983 272.778 L
111.534 269.053 L
112.084 266.986 L
112.635 269.023 L
113.185 268.092 L
113.736 268.441 L
114.286 269.722 L
114.837 270.682 L
115.387 269.576 L
115.938 267.801 L
116.488 267.801 L
117.039 268.383 L
117.589 267.597 L
118.14 265.269 L
118.69 263.93 L
119.24 260.467 L
119.791 260.409 L
120.341 259.623 L
120.892 256.8 L
121.442 255.025 L
121.993 254.355 L
122.543 248.971 L
123.094 248.913 L
123.644 249.349 L
124.195 251.823 L
124.745 250.368 L
125.296 252.027 L
125.846 252.202 L
126.397 253.366 L
126.947 254.501 L
127.498 257.935 L
128.048 255.898 L
128.599 251.008 L
129.149 247.894 L
129.7 243.18 L
130.25 239.338 L
130.801 239.687 L
131.351 238.203 L
131.902 235.234 L
132.452 231.538 L
133.003 233.197 L
133.553 233.11 L
134.104 233.081 L
134.654 230.869 L
135.204 231.102 L
135.755 226.387 L
136.305 223.331 L
136.856 223.826 L
137.406 225.193 L
137.957 222.4 L
138.507 222.691 L
139.058 222.836 L
139.608 224.932 L
140.159 225.397 L
140.709 225.252 L
141.26 225.805 L
141.81 223.273 L
142.361 222.4 L
142.911 220.944 L
143.462 221.09 L
144.012 219.518 L
144.563 217.598 L
145.113 214.774 L
145.664 216.928 L
146.214 217.394 L
146.765 216.259 L
147.315 214.774 L
147.866 214.862 L
148.416 210.38 L
148.967 204.996 L
149.517 203.948 L
150.067 202.027 L
150.618 196.556 L
151.168 193.18 L
151.719 193.878 L
152.269 193.558 L
152.82 192.423 L
153.37 191.113 L
153.921 192.918 L
154.471 192.51 L
155.022 192.365 L
155.572 192.103 L
156.123 193.151 L
156.673 191.783 L
157.224 188.581 L
157.774 187.155 L
158.325 190.095 L
158.875 190.473 L
159.426 191.317 L
159.976 193.412 L
160.527 194.809 L
161.077 198.506 L
161.628 198.535 L
162.178 201.27 L
162.729 204.53 L
163.279 200.717 L
163.83 200.426 L
164.38 201.765 L
164.93 202.464 L
165.481 202.464 L
166.031 200.892 L
166.582 208.925 L
167.132 212.213 L
167.683 214.221 L
168.233 220.421 L
168.784 218.412 L
169.334 216.171 L
169.885 216.928 L
170.435 215.327 L
170.986 211.835 L
171.536 202.056 L
172.087 196.439 L
172.637 193.907 L
173.188 193.18 L
173.738 196.352 L
174.289 198.127 L
174.839 194.489 L
175.39 194.838 L
175.94 193.878 L
176.491 197.225 L
177.041 199.99 L
177.592 200.455 L
178.142 199.262 L
178.693 196.643 L
179.243 194.751 L
179.794 197.603 L
180.344 198.506 L
180.894 199.233 L
181.445 194.344 L
181.995 192.423 L
182.546 189.716 L
183.096 190.968 L
183.647 193.471 L
184.197 193.529 L
184.748 191.201 L
185.298 188.639 L
185.849 186.922 L
186.399 189.338 L
186.95 189.454 L
187.5 189.105 L
188.051 182.993 L
188.601 181.218 L
189.152 183.721 L
189.702 184.507 L
190.253 186.195 L
190.803 187.301 L
191.354 185.554 L
191.904 185.991 L
192.455 186.369 L
193.005 186.835 L
193.556 185.875 L
194.106 181.625 L
194.657 180.345 L
195.207 177.289 L
195.757 176.299 L
196.308 178.628 L
196.858 175.077 L
197.409 174.582 L
197.959 175.019 L
198.51 174.088 L
199.06 173.011 L
199.611 170.974 L
200.161 170.333 L
200.712 168.471 L
201.262 166.666 L
201.813 165.822 L
202.363 165.793 L
202.914 165.88 L
203.464 167.277 L
204.015 168.936 L
204.565 168.151 L
205.116 169.518 L
205.666 172.603 L
206.217 175.252 L
206.767 181.247 L
207.318 184.623 L
207.868 184.419 L
208.419 186.224 L
208.969 186.282 L
209.52 189.047 L
210.07 189.658 L
210.62 188.872 L
211.171 186.573 L
211.721 184.303 L
212.272 181.16 L
212.822 183.284 L
213.373 182.091 L
213.923 183.546 L
214.474 183.692 L
215.024 185.554 L
215.575 185.7 L
216.125 185.904 L
216.676 186.166 L
217.226 185.147 L
217.777 183.605 L
218.327 183.721 L
218.878 183.343 L
219.428 182.702 L
219.979 182.004 L
220.529 183.139 L
221.08 181.567 L
221.63 179.239 L
222.181 179.181 L
222.731 178.861 L
223.282 176.765 L
223.832 176.212 L
224.383 175.776 L
224.933 175.747 L
225.484 174.175 L
226.034 178.395 L
226.584 179.443 L
227.135 179.588 L
227.685 178.948 L
228.236 179.996 L
228.786 177.435 L
229.337 174.961 L
229.887 172.458 L
230.438 172.865 L
230.988 168.936 L
231.539 171.556 L
232.089 176.678 L
232.64 179.588 L
233.19 180.258 L
233.741 185.729 L
234.291 189.425 L
234.842 189.658 L
235.392 187.854 L
235.943 188.93 L
236.493 187.504 L
237.044 184.536 L
237.594 183.983 L
238.145 180.898 L
238.695 176.561 L
239.246 176.067 L
239.796 180.025 L
240.347 181.946 L
240.897 182.673 L
241.447 184.507 L
241.998 184.507 L
242.548 185.584 L
243.099 189.745 L
243.649 191.346 L
244.2 191.492 L
244.75 188.057 L
245.301 185.933 L
245.851 184.827 L
246.402 182.877 L
246.952 183.313 L
247.503 183.168 L
248.053 182.528 L
248.604 181.305 L
249.154 182.761 L
249.705 185.002 L
250.255 187.417 L
250.806 187.737 L
251.356 187.941 L
251.907 185.671 L
252.457 185.031 L
253.008 182.411 L
253.558 179.588 L
254.109 174.553 L
254.659 171.759 L
255.21 168.936 L
255.76 167.947 L
256.31 167.074 L
256.861 167.685 L
257.411 165.095 L
257.962 166.579 L
258.512 170.188 L
259.063 173.127 L
259.613 178.337 L
260.164 179.617 L
260.714 179.006 L
261.265 177.871 L
261.815 175.164 L
262.366 176.853 L
262.916 175.194 L
263.467 174.553 L
264.017 174 L
264.568 169.577 L
265.118 169.897 L
265.669 172.778 L
266.219 176.125 L
266.77 180.811 L
267.32 178.686 L
267.871 178.919 L
268.421 181.538 L
268.972 181.742 L
269.522 183.372 L
270.073 183.896 L
270.623 185.409 L
271.174 183.837 L
271.724 183.575 L
272.274 184.478 L
272.825 185.496 L
273.375 181.218 L
273.926 179.85 L
274.476 180.316 L
275.027 179.355 L
275.577 174.728 L
276.128 175.252 L
276.678 174.641 L
277.229 178.395 L
277.779 179.064 L
278.33 181.713 L
278.88 184.74 L
279.431 183.954 L
279.981 189.367 L
280.532 193.878 L
281.082 196.992 L
281.633 198.709 L
282.183 194.547 L
282.734 193.762 L
283.284 196.235 L
283.835 197.603 L
284.385 196.526 L
284.936 198.098 L
285.486 198.971 L
286.037 196.963 L
286.587 198.011 L
287.137 205.316 L
287.688 210.263 L
288.238 207.528 L
288.789 205.461 L
289.339 207.557 L
289.89 202.027 L
290.44 199.379 L
290.991 199.844 L
291.541 199.379 L
292.092 195.828 L
292.642 190.677 L
293.193 193.151 L
293.743 194.606 L
294.294 192.772 L
294.844 193.296 L
295.395 191.201 L
295.945 190.415 L
296.496 186.573 L
297.046 183.022 L
297.597 183.721 L
298.147 180.607 L
298.698 176.678 L
299.248 176.794 L
299.799 175.31 L
300.349 176.794 L
300.9 176.765 L
301.45 176.387 L
302.001 174.699 L
302.551 171.468 L
303.101 169.548 L
303.652 169.431 L
304.202 166.754 L
304.753 164.396 L
305.303 163.785 L
305.854 159.216 L
306.404 159.856 L
306.955 160.089 L
307.505 161.573 L
308.056 162.679 L
308.606 160.875 L
309.157 162.01 L
309.707 164.28 L
310.258 165.327 L
310.808 168.674 L
311.359 166.521 L
311.909 166.841 L
312.46 165.415 L
313.01 164.222 L
313.561 166.317 L
314.111 167.627 L
314.662 167.859 L
315.212 167.19 L
315.763 166.259 L
316.313 166.375 L
316.864 166.841 L
317.414 168.878 L
317.964 169.315 L
318.515 167.918 L
319.065 166.521 L
319.616 163.465 L
320.166 165.095 L
320.717 164.105 L
321.267 165.036 L
321.818 166.637 L
322.368 167.801 L
322.919 168.936 L
323.469 172.982 L
324.02 174.961 L
324.57 175.31 L
325.121 173.476 L
325.671 172.72 L
326.222 174.757 L
326.772 173.797 L
327.323 171.381 L
327.873 170.217 L
328.424 169.198 L
328.974 169.402 L
329.525 176.62 L
330.075 175.135 L
330.626 178.977 L
331.176 179.85 L
331.727 183.692 L
332.277 185.234 L
332.827 187.854 L
333.378 191.783 L
333.928 195.159 L
334.479 194.664 L
335.029 198.156 L
335.58 199.757 L
336.13 201.794 L
336.681 200.106 L
337.231 203.657 L
337.782 202.638 L
338.332 198.156 L
338.883 199.815 L
339.433 196.352 L
339.984 198.913 L
340.534 197.109 L
341.085 196.061 L
341.635 194.402 L
342.186 193.645 L
342.736 196.294 L
343.287 197.603 L
343.837 194.78 L
344.388 195.566 L
344.938 192.132 L
345.489 191.812 L
346.039 191.23 L
346.59 193.703 L
347.14 191.433 L
347.691 191.724 L
348.241 190.939 L
348.791 189.221 L
349.342 190.589 L
349.892 189.425 L
350.443 190.88 L
350.993 191.171 L
351.544 188.669 L
352.094 188.901 L
352.645 185.002 L
353.195 185.06 L
353.746 184.827 L
354.296 181.596 L
354.847 178.511 L
355.397 176.183 L
355.948 174.379 L
356.498 173.127 L
357.049 176.241 L
357.599 178.511 L
358.15 180.228 L
358.7 178.977 L
359.251 177.9 L
359.801 180.141 L
360.352 180.083 L
360.902 181.829 L
361.453 186.195 L
362.003 183.634 L
362.554 183.896 L
363.104 181.946 L
363.654 180.374 L
364.205 181.829 L
364.755 182.382 L
365.306 186.369 L
365.856 183.692 L
366.407 183.517 L
366.957 185.787 L
367.508 186.66 L
368.058 187.272 L
368.609 189.338 L
369.159 190.88 L
369.71 192.801 L
370.26 189.367 L
370.811 190.531 L
371.361 187.999 L
371.912 185.409 L
372.462 183.401 L
373.013 182.266 L
373.563 183.983 L
374.114 184.594 L
374.664 184.885 L
375.215 183.779 L
375.765 182.906 L
376.316 183.634 L
376.866 183.954 L
377.417 185.409 L
377.967 186.777 L
378.518 185.496 L
379.068 185.962 L
379.618 186.224 L
380.169 190.007 L
380.719 192.336 L
381.27 191.87 L
381.82 190.88 L
382.371 189.658 L
382.921 188.145 L
383.472 189.862 L
384.022 191.986 L
384.573 190.357 L
385.123 186.486 L
385.674 182.44 L
386.224 180.723 L
386.775 181.102 L
387.325 181.305 L
387.876 180.49 L
388.426 177.638 L
388.977 171.497 L
389.527 168.965 L
390.078 168.936 L
390.628 170.159 L
391.179 170.45 L
391.729 169.111 L
392.28 168.558 L
392.83 169.46 L
393.381 169.635 L
393.931 173.302 L
394.481 177.958 L
395.032 177.522 L
395.582 179.996 L
396.133 183.459 L
396.683 188.436 L
397.234 193.994 L
397.784 196.061 L
398.335 198.447 L
398.885 199.379 L
399.436 196.992 L
399.986 196.09 L
400.537 194.955 L
401.087 196.585 L
401.638 195.712 L
402.188 191.783 L
402.739 188.465 L
403.289 186.922 L
403.84 185.642 L
404.39 186.951 L
404.941 193.121 L
405.491 193.703 L
406.042 192.627 L
406.592 193.034 L
407.143 194.635 L
407.693 195.391 L
408.244 195.275 L
408.794 197.691 L
409.345 196.847 L
409.895 194.664 L
410.445 193.325 L
410.996 189.833 L
411.546 187.213 L
412.097 185.467 L
412.647 188.494 L
413.198 189.629 L
413.748 188.29 L
414.299 188.174 L
414.849 185.613 L
415.4 188.232 L
415.95 187.825 L
416.501 186.282 L
417.051 186.981 L
417.602 187.388 L
418.152 184.099 L
418.703 179.093 L
419.253 179.53 L
419.804 181.218 L
420.354 179.763 L
420.905 181.8 L
421.455 181.684 L
422.006 179.093 L
422.556 173.942 L
423.107 175.223 L
423.657 179.617 L
424.208 179.501 L
424.758 179.181 L
425.308 178.279 L
425.859 178.57 L
426.409 179.908 L
426.96 184.332 L
427.51 187.388 L
428.061 191.055 L
428.611 190.357 L
429.162 190.822 L
429.712 190.357 L
430.263 191.579 L
430.813 191.142 L
431.364 192.219 L
431.914 190.56 L
432.465 195.013 L
433.015 194.664 L
433.566 194.693 L
434.116 196.643 L
434.667 198.971 L
435.217 198.651 L
435.768 201.067 L
436.318 200.863 L
436.869 198.593 L
437.419 193.151 L
437.97 190.706 L
438.52 188.669 L
439.07 184.972 L
439.621 182.091 L
440.171 181.102 L
440.722 179.763 L
441.272 180.112 L
441.823 179.908 L
442.373 181.364 L
442.924 181.538 L
443.474 181.043 L
444.025 180.141 L
444.575 180.316 L
445.126 180.316 L
445.676 179.414 L
446.227 177.958 L
446.777 178.017 L
447.328 177.114 L
447.878 175.63 L
448.429 176.096 L
448.979 176.853 L
449.53 175.194 L
450.08 174.728 L
450.631 173.913 L
451.181 173.855 L
451.732 174.437 L
452.282 176.125 L
452.833 179.239 L
453.383 182.004 L
453.934 186.864 L
454.484 192.365 L
455.035 196.265 L
455.585 200.63 L
456.135 205.985 L
456.686 209.74 L
457.236 211.951 L
457.787 214.221 L
458.337 215.415 L
458.888 214.891 L
459.438 213.872 L
459.989 212.766 L
460.539 210.845 L
461.09 207.673 L
461.64 205.432 L
462.191 203.54 L
462.741 201.212 L
463.292 198.855 L
463.842 196.177 L
464.393 193.994 L
464.943 192.452 L
465.494 190.822 L
466.044 188.843 L
466.595 187.213 L
467.145 185.554 L
467.696 183.779 L
468.246 183.022 L
468.797 182.033 L
469.347 180.898 L
469.898 179.763 L
470.448 179.123 L
470.998 178.832 L
471.549 178.017 L
472.099 176.969 L
472.65 176.329 L
473.2 175.426 L
473.751 174.291 L
474.301 173.273 L
474.852 172.429 L
475.402 171.41 L
475.953 170.828 L
476.503 170.624 L
477.054 170.566 L
477.604 170.362 L
478.155 170.479 L
478.705 170.77 L
479.256 171.09 L
479.806 171.352 L
480.357 171.585 L
480.907 171.701 L
481.458 171.235 L
482.008 170.915 L
482.559 170.915 L
483.109 170.77 L
483.66 170.566 L
484.21 170.159 L
484.76 169.984 L
485.311 169.78 L
485.862 169.722 L
486.412 169.897 L
486.962 170.13 L
487.513 170.13 L
488.063 170.159 L
488.614 170.13 L
489.164 170.159 L
489.715 170.159 L
490.265 170.304 L
490.816 170.275 L
491.366 170.421 L
491.917 170.537 L
492.467 170.683 L
493.018 170.653 L
493.568 170.828 L
494.119 171.003 L
494.669 171.148 L
495.22 171.032 L
495.77 171.032 L
496.321 171.032 L
496.871 171.003 L
497.422 170.95 L
497.972 170.653 L
498.523 170.479 L
S
GR
GS
[0.75 0 0 0.75 0 0] CT
1 GC
N
388 361 M
388 291 L
494 291 L
494 361 L
cp
f
GR
GS
[0.75 0 0 0.75 318.75 225.80395] CT
/Helvetica 12 F
GS
[1 0 0 1 0 0] CT
0 5 moveto 
1 -1 scale
(nhop1A) t 
GR
GR
GS
[0.75 0 0 0.75 0 0] CT
0 0.447 0.741 RC
1 LJ
0.667 LW
N
392 301.072 M
422 301.072 L
S
GR
GS
[0.75 0 0 0.75 318.75 238.26798] CT
/Helvetica 12 F
GS
[1 0 0 1 0 0] CT
0 5 moveto 
1 -1 scale
(nhop2A) t 
GR
GR
GS
[0.75 0 0 0.75 0 0] CT
0.851 0.325 0.098 RC
1 LJ
0.667 LW
N
392 317.691 M
422 317.691 L
S
GR
GS
[0.75 0 0 0.75 318.75 250.73202] CT
/Helvetica 12 F
GS
[1 0 0 1 0 0] CT
0 5 moveto 
1 -1 scale
(gloveBaseA) t 
GR
GR
GS
[0.75 0 0 0.75 0 0] CT
0.929 0.694 0.125 RC
1 LJ
0.667 LW
N
392 334.309 M
422 334.309 L
S
GR
GS
[0.75 0 0 0.75 318.75 263.19605] CT
/Helvetica 12 F
GS
[1 0 0 1 0 0] CT
0 5 moveto 
1 -1 scale
(nhop6A) t 
GR
GR
GS
[0.75 0 0 0.75 0 0] CT
0.494 0.184 0.557 RC
1 LJ
0.667 LW
N
392 350.928 M
422 350.928 L
S
GR
GS
[0.75 0 0 0.75 0 0] CT
0.149 GC
10.0 ML
0.667 LW
N
388 361 M
388 291 L
494 291 L
494 361 L
cp
S
GR
%%Trailer
%%Pages: 1
%%EOF
