%!PS-Adobe-3.0 EPSF-3.0
%%Creator: (MATLAB, The Mathworks, Inc. Version 9.0.0.341360 \(R2016a\). Operating System: Windows 8)
%%Title: ../doc/thesis/figures/Unknown_mention_token.eps
%%CreationDate: 2016-08-23T23:41:50
%%Pages: (atend)
%%BoundingBox:    17     2   387   305
%%LanguageLevel: 3
%%EndComments
%%BeginProlog
%%BeginResource: procset (Apache XML Graphics Std ProcSet) 1.2 0
%%Version: 1.2 0
%%Copyright: (Copyright 2001-2003,2010 The Apache Software Foundation. License terms: http://www.apache.org/licenses/LICENSE-2.0)
/bd{bind def}bind def
/ld{load def}bd
/GR/grestore ld
/M/moveto ld
/LJ/setlinejoin ld
/C/curveto ld
/f/fill ld
/LW/setlinewidth ld
/GC/setgray ld
/t/show ld
/N/newpath ld
/CT/concat ld
/cp/closepath ld
/S/stroke ld
/L/lineto ld
/CC/setcmykcolor ld
/A/ashow ld
/GS/gsave ld
/RC/setrgbcolor ld
/RM/rmoveto ld
/ML/setmiterlimit ld
/re {4 2 roll M
1 index 0 rlineto
0 exch rlineto
neg 0 rlineto
cp } bd
/_ctm matrix def
/_tm matrix def
/BT { _ctm currentmatrix pop matrix _tm copy pop 0 0 moveto } bd
/ET { _ctm setmatrix } bd
/iTm { _ctm setmatrix _tm concat } bd
/Tm { _tm astore pop iTm 0 0 moveto } bd
/ux 0.0 def
/uy 0.0 def
/F {
  /Tp exch def
  /Tf exch def
  Tf findfont Tp scalefont setfont
  /cf Tf def  /cs Tp def
} bd
/ULS {currentpoint /uy exch def /ux exch def} bd
/ULE {
  /Tcx currentpoint pop def
  gsave
  newpath
  cf findfont cs scalefont dup
  /FontMatrix get 0 get /Ts exch def /FontInfo get dup
  /UnderlinePosition get Ts mul /To exch def
  /UnderlineThickness get Ts mul /Tt exch def
  ux uy To add moveto  Tcx uy To add lineto
  Tt setlinewidth stroke
  grestore
} bd
/OLE {
  /Tcx currentpoint pop def
  gsave
  newpath
  cf findfont cs scalefont dup
  /FontMatrix get 0 get /Ts exch def /FontInfo get dup
  /UnderlinePosition get Ts mul /To exch def
  /UnderlineThickness get Ts mul /Tt exch def
  ux uy To add cs add moveto Tcx uy To add cs add lineto
  Tt setlinewidth stroke
  grestore
} bd
/SOE {
  /Tcx currentpoint pop def
  gsave
  newpath
  cf findfont cs scalefont dup
  /FontMatrix get 0 get /Ts exch def /FontInfo get dup
  /UnderlinePosition get Ts mul /To exch def
  /UnderlineThickness get Ts mul /Tt exch def
  ux uy To add cs 10 mul 26 idiv add moveto Tcx uy To add cs 10 mul 26 idiv add lineto
  Tt setlinewidth stroke
  grestore
} bd
/QT {
/Y22 exch store
/X22 exch store
/Y21 exch store
/X21 exch store
currentpoint
/Y21 load 2 mul add 3 div exch
/X21 load 2 mul add 3 div exch
/X21 load 2 mul /X22 load add 3 div
/Y21 load 2 mul /Y22 load add 3 div
/X22 load /Y22 load curveto
} bd
/SSPD {
dup length /d exch dict def
{
/v exch def
/k exch def
currentpagedevice k known {
/cpdv currentpagedevice k get def
v cpdv ne {
/upd false def
/nullv v type /nulltype eq def
/nullcpdv cpdv type /nulltype eq def
nullv nullcpdv or
{
/upd true def
} {
/sametype v type cpdv type eq def
sametype {
v type /arraytype eq {
/vlen v length def
/cpdvlen cpdv length def
vlen cpdvlen eq {
0 1 vlen 1 sub {
/i exch def
/obj v i get def
/cpdobj cpdv i get def
obj cpdobj ne {
/upd true def
exit
} if
} for
} {
/upd true def
} ifelse
} {
v type /dicttype eq {
v {
/dv exch def
/dk exch def
/cpddv cpdv dk get def
dv cpddv ne {
/upd true def
exit
} if
} forall
} {
/upd true def
} ifelse
} ifelse
} if
} ifelse
upd true eq {
d k v put
} if
} if
} if
} forall
d length 0 gt {
d setpagedevice
} if
} bd
%%EndResource
%%BeginResource: procset (Apache XML Graphics EPS ProcSet) 1.0 0
%%Version: 1.0 0
%%Copyright: (Copyright 2002-2003 The Apache Software Foundation. License terms: http://www.apache.org/licenses/LICENSE-2.0)
/BeginEPSF { %def
/b4_Inc_state save def         % Save state for cleanup
/dict_count countdictstack def % Count objects on dict stack
/op_count count 1 sub def      % Count objects on operand stack
userdict begin                 % Push userdict on dict stack
/showpage { } def              % Redefine showpage, { } = null proc
0 setgray 0 setlinecap         % Prepare graphics state
1 setlinewidth 0 setlinejoin
10 setmiterlimit [ ] 0 setdash newpath
/languagelevel where           % If level not equal to 1 then
{pop languagelevel             % set strokeadjust and
1 ne                           % overprint to their defaults.
{false setstrokeadjust false setoverprint
} if
} if
} bd
/EndEPSF { %def
count op_count sub {pop} repeat            % Clean up stacks
countdictstack dict_count sub {end} repeat
b4_Inc_state restore
} bd
%%EndResource
%FOPBeginFontDict
%%IncludeResource: font Courier-Bold
%%IncludeResource: font Helvetica
%%IncludeResource: font Courier-BoldOblique
%%IncludeResource: font Courier-Oblique
%%IncludeResource: font Times-Roman
%%IncludeResource: font Helvetica-BoldOblique
%%IncludeResource: font Helvetica-Bold
%%IncludeResource: font Helvetica-Oblique
%%IncludeResource: font Times-BoldItalic
%%IncludeResource: font Courier
%%IncludeResource: font Times-Italic
%%IncludeResource: font Times-Bold
%%IncludeResource: font Symbol
%%IncludeResource: font ZapfDingbats
%FOPEndFontDict
%%BeginResource: encoding WinAnsiEncoding
/WinAnsiEncoding [
/.notdef /.notdef /.notdef /.notdef /.notdef
/.notdef /.notdef /.notdef /.notdef /.notdef
/.notdef /.notdef /.notdef /.notdef /.notdef
/.notdef /.notdef /.notdef /.notdef /.notdef
/.notdef /.notdef /.notdef /.notdef /.notdef
/.notdef /.notdef /.notdef /.notdef /.notdef
/.notdef /.notdef /space /exclam /quotedbl
/numbersign /dollar /percent /ampersand /quotesingle
/parenleft /parenright /asterisk /plus /comma
/hyphen /period /slash /zero /one
/two /three /four /five /six
/seven /eight /nine /colon /semicolon
/less /equal /greater /question /at
/A /B /C /D /E
/F /G /H /I /J
/K /L /M /N /O
/P /Q /R /S /T
/U /V /W /X /Y
/Z /bracketleft /backslash /bracketright /asciicircum
/underscore /quoteleft /a /b /c
/d /e /f /g /h
/i /j /k /l /m
/n /o /p /q /r
/s /t /u /v /w
/x /y /z /braceleft /bar
/braceright /asciitilde /bullet /Euro /bullet
/quotesinglbase /florin /quotedblbase /ellipsis /dagger
/daggerdbl /circumflex /perthousand /Scaron /guilsinglleft
/OE /bullet /Zcaron /bullet /bullet
/quoteleft /quoteright /quotedblleft /quotedblright /bullet
/endash /emdash /asciitilde /trademark /scaron
/guilsinglright /oe /bullet /zcaron /Ydieresis
/space /exclamdown /cent /sterling /currency
/yen /brokenbar /section /dieresis /copyright
/ordfeminine /guillemotleft /logicalnot /sfthyphen /registered
/macron /degree /plusminus /twosuperior /threesuperior
/acute /mu /paragraph /middot /cedilla
/onesuperior /ordmasculine /guillemotright /onequarter /onehalf
/threequarters /questiondown /Agrave /Aacute /Acircumflex
/Atilde /Adieresis /Aring /AE /Ccedilla
/Egrave /Eacute /Ecircumflex /Edieresis /Igrave
/Iacute /Icircumflex /Idieresis /Eth /Ntilde
/Ograve /Oacute /Ocircumflex /Otilde /Odieresis
/multiply /Oslash /Ugrave /Uacute /Ucircumflex
/Udieresis /Yacute /Thorn /germandbls /agrave
/aacute /acircumflex /atilde /adieresis /aring
/ae /ccedilla /egrave /eacute /ecircumflex
/edieresis /igrave /iacute /icircumflex /idieresis
/eth /ntilde /ograve /oacute /ocircumflex
/otilde /odieresis /divide /oslash /ugrave
/uacute /ucircumflex /udieresis /yacute /thorn
/ydieresis
] def
%%EndResource
%FOPBeginFontReencode
/Courier-Bold findfont
dup length dict begin
  {1 index /FID ne {def} {pop pop} ifelse} forall
  /Encoding WinAnsiEncoding def
  currentdict
end
/Courier-Bold exch definefont pop
/Helvetica findfont
dup length dict begin
  {1 index /FID ne {def} {pop pop} ifelse} forall
  /Encoding WinAnsiEncoding def
  currentdict
end
/Helvetica exch definefont pop
/Courier-BoldOblique findfont
dup length dict begin
  {1 index /FID ne {def} {pop pop} ifelse} forall
  /Encoding WinAnsiEncoding def
  currentdict
end
/Courier-BoldOblique exch definefont pop
/Courier-Oblique findfont
dup length dict begin
  {1 index /FID ne {def} {pop pop} ifelse} forall
  /Encoding WinAnsiEncoding def
  currentdict
end
/Courier-Oblique exch definefont pop
/Times-Roman findfont
dup length dict begin
  {1 index /FID ne {def} {pop pop} ifelse} forall
  /Encoding WinAnsiEncoding def
  currentdict
end
/Times-Roman exch definefont pop
/Helvetica-BoldOblique findfont
dup length dict begin
  {1 index /FID ne {def} {pop pop} ifelse} forall
  /Encoding WinAnsiEncoding def
  currentdict
end
/Helvetica-BoldOblique exch definefont pop
/Helvetica-Bold findfont
dup length dict begin
  {1 index /FID ne {def} {pop pop} ifelse} forall
  /Encoding WinAnsiEncoding def
  currentdict
end
/Helvetica-Bold exch definefont pop
/Helvetica-Oblique findfont
dup length dict begin
  {1 index /FID ne {def} {pop pop} ifelse} forall
  /Encoding WinAnsiEncoding def
  currentdict
end
/Helvetica-Oblique exch definefont pop
/Times-BoldItalic findfont
dup length dict begin
  {1 index /FID ne {def} {pop pop} ifelse} forall
  /Encoding WinAnsiEncoding def
  currentdict
end
/Times-BoldItalic exch definefont pop
/Courier findfont
dup length dict begin
  {1 index /FID ne {def} {pop pop} ifelse} forall
  /Encoding WinAnsiEncoding def
  currentdict
end
/Courier exch definefont pop
/Times-Italic findfont
dup length dict begin
  {1 index /FID ne {def} {pop pop} ifelse} forall
  /Encoding WinAnsiEncoding def
  currentdict
end
/Times-Italic exch definefont pop
/Times-Bold findfont
dup length dict begin
  {1 index /FID ne {def} {pop pop} ifelse} forall
  /Encoding WinAnsiEncoding def
  currentdict
end
/Times-Bold exch definefont pop
%FOPEndFontReencode
%%EndProlog
%%Page: 1 1
%%PageBoundingBox: 0 0 420 315
%%BeginPageSetup
[1 0 0 -1 0 315] CT
%%EndPageSetup
GS
[0.75 0 0 0.75 0 0] CT
1 GC
N
0 0 560 420 re
f
GR
GS
[0.75 0 0 0.75 0 0] CT
1 GC
N
0 0 560 420 re
f
GR
GS
[0.75 0 0 0.75 0 0] CT
1 GC
N
73 374 M
507 374 L
507 31 L
73 31 L
cp
f
GR
GS
[0.75 0 0 0.75 0 0] CT
0.149 GC
2 setlinecap
1 LJ
0.667 LW
N
73 374 M
507 374 L
S
GR
GS
[0.75 0 0 0.75 0 0] CT
0.149 GC
2 setlinecap
1 LJ
0.667 LW
N
73 374 M
73 369.66 L
S
GR
GS
[0.75 0 0 0.75 0 0] CT
0.149 GC
2 setlinecap
1 LJ
0.667 LW
N
145.333 374 M
145.333 369.66 L
S
GR
GS
[0.75 0 0 0.75 0 0] CT
0.149 GC
2 setlinecap
1 LJ
0.667 LW
N
217.667 374 M
217.667 369.66 L
S
GR
GS
[0.75 0 0 0.75 0 0] CT
0.149 GC
2 setlinecap
1 LJ
0.667 LW
N
290 374 M
290 369.66 L
S
GR
GS
[0.75 0 0 0.75 0 0] CT
0.149 GC
2 setlinecap
1 LJ
0.667 LW
N
362.333 374 M
362.333 369.66 L
S
GR
GS
[0.75 0 0 0.75 0 0] CT
0.149 GC
2 setlinecap
1 LJ
0.667 LW
N
434.667 374 M
434.667 369.66 L
S
GR
GS
[0.75 0 0 0.75 0 0] CT
0.149 GC
2 setlinecap
1 LJ
0.667 LW
N
507 374 M
507 369.66 L
S
GR
GS
[0.75 0 0 0.75 54.75 284.49998] CT
0.149 GC
/Helvetica 13.333 F
GS
[1 0 0 1 0 0] CT
-4 14 moveto 
1 -1 scale
(0) t 
GR
GR
GS
[0.75 0 0 0.75 109 284.49998] CT
0.149 GC
/Helvetica 13.333 F
GS
[1 0 0 1 0 0] CT
-9.5 14 moveto 
1 -1 scale
(0.2) t 
GR
GR
GS
[0.75 0 0 0.75 163.25 284.49998] CT
0.149 GC
/Helvetica 13.333 F
GS
[1 0 0 1 0 0] CT
-9.5 14 moveto 
1 -1 scale
(0.4) t 
GR
GR
GS
[0.75 0 0 0.75 217.5 284.49998] CT
0.149 GC
/Helvetica 13.333 F
GS
[1 0 0 1 0 0] CT
-9.5 14 moveto 
1 -1 scale
(0.6) t 
GR
GR
GS
[0.75 0 0 0.75 271.75001 284.49998] CT
0.149 GC
/Helvetica 13.333 F
GS
[1 0 0 1 0 0] CT
-9.5 14 moveto 
1 -1 scale
(0.8) t 
GR
GR
GS
[0.75 0 0 0.75 325.99999 284.49998] CT
0.149 GC
/Helvetica 13.333 F
GS
[1 0 0 1 0 0] CT
-4 14 moveto 
1 -1 scale
(1) t 
GR
GR
GS
[0.75 0 0 0.75 380.25002 284.49998] CT
0.149 GC
/Helvetica 13.333 F
GS
[1 0 0 1 0 0] CT
-9.5 14 moveto 
1 -1 scale
(1.2) t 
GR
GR
GS
[0.75 0 0 0.75 217.50016 298.24995] CT
0.149 GC
/Helvetica 14.667 F
GS
[1 0 0 1 0 0] CT
-29.5 16 moveto 
1 -1 scale
(#Epochs) t 
GR
GR
GS
[0.75 0 0 0.75 0 0] CT
0.149 GC
2 setlinecap
1 LJ
0.667 LW
N
73 374 M
73 31 L
S
GR
GS
[0.75 0 0 0.75 0 0] CT
0.149 GC
2 setlinecap
1 LJ
0.667 LW
N
73 374 M
77.34 374 L
S
GR
GS
[0.75 0 0 0.75 0 0] CT
0.149 GC
2 setlinecap
1 LJ
0.667 LW
N
73 316.833 M
77.34 316.833 L
S
GR
GS
[0.75 0 0 0.75 0 0] CT
0.149 GC
2 setlinecap
1 LJ
0.667 LW
N
73 259.667 M
77.34 259.667 L
S
GR
GS
[0.75 0 0 0.75 0 0] CT
0.149 GC
2 setlinecap
1 LJ
0.667 LW
N
73 202.5 M
77.34 202.5 L
S
GR
GS
[0.75 0 0 0.75 0 0] CT
0.149 GC
2 setlinecap
1 LJ
0.667 LW
N
73 145.333 M
77.34 145.333 L
S
GR
GS
[0.75 0 0 0.75 0 0] CT
0.149 GC
2 setlinecap
1 LJ
0.667 LW
N
73 88.167 M
77.34 88.167 L
S
GR
GS
[0.75 0 0 0.75 0 0] CT
0.149 GC
2 setlinecap
1 LJ
0.667 LW
N
73 31 M
77.34 31 L
S
GR
GS
[0.75 0 0 0.75 50.75 280.49998] CT
0.149 GC
/Helvetica 13.333 F
GS
[1 0 0 1 0 0] CT
-19 5.5 moveto 
1 -1 scale
(0.6) t 
GR
GR
GS
[0.75 0 0 0.75 50.75 237.62503] CT
0.149 GC
/Helvetica 13.333 F
GS
[1 0 0 1 0 0] CT
-26 5.5 moveto 
1 -1 scale
(0.65) t 
GR
GR
GS
[0.75 0 0 0.75 50.75 194.75002] CT
0.149 GC
/Helvetica 13.333 F
GS
[1 0 0 1 0 0] CT
-19 5.5 moveto 
1 -1 scale
(0.7) t 
GR
GR
GS
[0.75 0 0 0.75 50.75 151.875] CT
0.149 GC
/Helvetica 13.333 F
GS
[1 0 0 1 0 0] CT
-26 5.5 moveto 
1 -1 scale
(0.75) t 
GR
GR
GS
[0.75 0 0 0.75 50.75 108.99998] CT
0.149 GC
/Helvetica 13.333 F
GS
[1 0 0 1 0 0] CT
-19 5.5 moveto 
1 -1 scale
(0.8) t 
GR
GR
GS
[0.75 0 0 0.75 50.75 66.12498] CT
0.149 GC
/Helvetica 13.333 F
GS
[1 0 0 1 0 0] CT
-26 5.5 moveto 
1 -1 scale
(0.85) t 
GR
GR
GS
[0.75 0 0 0.75 50.75 23.25002] CT
0.149 GC
/Helvetica 13.333 F
GS
[1 0 0 1 0 0] CT
-19 5.5 moveto 
1 -1 scale
(0.9) t 
GR
GR
GS
[0 -0.75 0.75 0 28.25 151.8749] CT
0.149 GC
/Helvetica 14.667 F
GS
[1 0 0 1 0 0] CT
-58.5 -4 moveto 
1 -1 scale
(f1 score on aidaB) t 
GR
GR
GS
[0.75 0 0 0.75 217.50021 21.18754] CT
/Helvetica-Bold 14.667 F
GS
[1 0 0 1 0 0] CT
-87.5 -4 moveto 
1 -1 scale
(Unknown mention token) t 
GR
GR
GS
[0.75 0 0 0.75 0 0] CT
0 0.447 0.741 RC
1 LJ
0.667 LW
N
73.55 311.136 M
74.101 290.356 L
74.651 291.596 L
75.202 293.639 L
75.752 290.496 L
76.303 285.624 L
76.853 275.933 L
77.404 268.284 L
77.954 257.807 L
78.505 260.531 L
79.055 261.684 L
79.606 269.122 L
80.156 267.708 L
80.707 271.061 L
81.257 265.089 L
81.808 267.132 L
82.358 262.993 L
82.909 262.103 L
83.459 259.169 L
84.01 263.15 L
84.56 268.441 L
85.111 264.722 L
85.661 268.808 L
86.212 268.808 L
86.762 260.374 L
87.313 255.24 L
87.863 259.955 L
88.413 258.278 L
88.964 255.292 L
89.514 261.107 L
90.065 264.512 L
90.615 272.789 L
91.166 274.728 L
91.716 285.886 L
92.267 298.354 L
92.817 307.364 L
93.368 315.327 L
93.918 332.562 L
94.469 338.639 L
95.019 348.174 L
95.57 342.935 L
96.12 342.568 L
96.671 340.001 L
97.221 327.324 L
97.772 306.002 L
98.322 300.397 L
98.873 285.781 L
99.423 268.075 L
99.974 265.665 L
100.524 268.284 L
101.075 264.984 L
101.625 260.845 L
102.176 260.583 L
102.726 254.769 L
103.277 249.111 L
103.827 254.297 L
104.377 253.826 L
104.928 257.545 L
105.478 260.479 L
106.029 256.916 L
106.579 244.92 L
107.13 240.677 L
107.68 234.39 L
108.231 233.133 L
108.781 236.014 L
109.332 243.243 L
109.882 247.592 L
110.433 245.077 L
110.983 243.034 L
111.534 242.824 L
112.084 237.952 L
112.635 235.019 L
113.185 239.262 L
113.736 238.791 L
114.286 235.49 L
114.837 236.276 L
115.387 238.214 L
115.938 233.762 L
116.488 236.486 L
117.039 240.991 L
117.589 239.21 L
118.14 240.415 L
118.69 239.786 L
119.24 235.071 L
119.791 231.614 L
120.341 234.705 L
120.892 230.042 L
121.442 233.919 L
121.993 234.285 L
122.543 238.686 L
123.094 233.028 L
123.644 229.466 L
124.195 223.756 L
124.745 223.232 L
125.296 221.398 L
125.846 225.485 L
126.397 231.404 L
126.947 233.081 L
127.498 233.709 L
128.048 226.48 L
128.599 224.384 L
129.149 221.922 L
129.7 221.136 L
130.25 222.76 L
130.801 220.822 L
131.351 219.146 L
131.902 218.517 L
132.452 219.251 L
133.003 220.455 L
133.553 222.132 L
134.104 223.389 L
134.654 217.155 L
135.204 212.912 L
135.755 202.015 L
136.305 200.077 L
136.856 195.1 L
137.406 202.696 L
137.957 198.558 L
138.507 204.53 L
139.058 205.054 L
139.608 205.368 L
140.159 197.929 L
140.709 204.478 L
141.26 202.12 L
141.81 203.377 L
142.361 203.535 L
142.911 204.373 L
143.462 200.863 L
144.012 196.934 L
144.563 194.996 L
145.113 192.429 L
145.664 190.857 L
146.214 189.495 L
146.765 195.677 L
147.315 199.815 L
147.866 204.74 L
148.416 206.887 L
148.967 207.778 L
149.517 200.968 L
150.067 194.996 L
150.618 191.8 L
151.168 193.948 L
151.719 195.362 L
152.269 196.882 L
152.82 197.877 L
153.37 195.258 L
153.921 194.105 L
154.471 192.272 L
155.022 188.238 L
155.572 186.195 L
156.123 192.324 L
156.673 189.862 L
157.224 185.042 L
157.774 191.276 L
158.325 195.467 L
158.875 194.838 L
159.426 195.467 L
159.976 201.858 L
160.527 199.606 L
161.077 193.424 L
161.628 194.681 L
162.178 194.053 L
162.729 188.709 L
163.279 184.466 L
163.83 183.418 L
164.38 176.137 L
164.93 172.417 L
165.481 177.656 L
166.031 181.166 L
166.582 182.685 L
167.132 186.614 L
167.683 191.8 L
168.233 196.62 L
168.784 200.182 L
169.334 202.277 L
169.885 206.783 L
170.435 200.811 L
170.986 195.677 L
171.536 190.281 L
172.087 185.985 L
172.637 184.204 L
173.188 189.652 L
173.738 190.386 L
174.289 194.21 L
174.839 197.143 L
175.39 192.062 L
175.94 190.228 L
176.491 187.085 L
177.041 188.604 L
177.592 189.967 L
178.142 192.062 L
178.693 190.124 L
179.243 197.196 L
179.794 191.538 L
180.344 196.305 L
180.894 192.429 L
181.445 198.82 L
181.995 190.281 L
182.546 189.862 L
183.096 184.256 L
183.647 189.181 L
184.197 187.871 L
184.748 187.085 L
185.298 192.272 L
185.849 192.795 L
186.399 187.871 L
186.95 188.028 L
187.5 191.067 L
188.051 187.347 L
188.601 185.514 L
189.152 188.081 L
189.702 185.409 L
190.253 187.714 L
190.803 191.014 L
191.354 197.877 L
191.904 199.815 L
192.455 200.077 L
193.005 196.567 L
193.556 195.729 L
194.106 193.738 L
194.657 187.819 L
195.207 185.933 L
195.757 184.099 L
196.308 180.275 L
196.858 170.741 L
197.409 167.755 L
197.959 167.755 L
198.51 174.774 L
199.06 174.355 L
199.611 176.87 L
200.161 181.794 L
200.712 179.856 L
201.262 176.137 L
201.813 178.965 L
202.363 184.518 L
202.914 180.066 L
203.464 177.97 L
204.015 174.617 L
204.565 172.993 L
205.116 168.331 L
205.666 175.979 L
206.217 179.018 L
206.767 180.694 L
207.318 178.127 L
207.868 174.198 L
208.419 166.917 L
208.969 162.883 L
209.52 160.997 L
210.07 163.721 L
210.62 167.755 L
211.171 167.755 L
211.721 171.003 L
212.272 173.255 L
212.822 174.984 L
213.373 176.556 L
213.923 181.637 L
214.474 182.318 L
215.024 180.432 L
215.575 178.022 L
216.125 179.018 L
216.676 180.589 L
217.226 179.699 L
217.777 177.603 L
218.327 174.303 L
218.878 171.631 L
219.428 166.812 L
219.979 170.898 L
220.529 170.112 L
221.08 180.17 L
221.63 181.951 L
222.181 182.632 L
222.731 179.28 L
223.282 182.632 L
223.832 176.294 L
224.383 177.97 L
224.933 183.261 L
225.484 182.318 L
226.034 184.099 L
226.584 185.671 L
227.135 184.676 L
227.685 179.332 L
228.236 179.227 L
228.786 178.022 L
229.337 180.904 L
229.887 183.471 L
230.438 184.728 L
230.988 182.947 L
231.539 183.628 L
232.089 177.08 L
232.64 171.474 L
233.19 172.417 L
233.741 172.784 L
234.291 173.936 L
234.842 178.337 L
235.392 178.337 L
235.943 175.979 L
236.493 176.451 L
237.044 175.456 L
237.594 174.513 L
238.145 181.27 L
238.695 183.209 L
239.246 185.042 L
239.796 184.099 L
240.347 181.847 L
240.897 179.542 L
241.447 178.913 L
241.998 180.694 L
242.548 185.461 L
243.099 188.919 L
243.649 184.361 L
244.2 184.414 L
244.75 181.48 L
245.301 174.827 L
245.851 175.036 L
246.402 176.87 L
246.952 173.465 L
247.503 173.57 L
248.053 177.446 L
248.604 170.007 L
249.154 169.903 L
249.705 171.16 L
250.255 169.955 L
250.806 165.397 L
251.356 170.374 L
251.907 172.05 L
252.457 171.369 L
253.008 175.141 L
253.558 176.294 L
254.109 172.574 L
254.659 174.932 L
255.21 175.246 L
255.76 171.317 L
256.31 171.998 L
256.861 172.469 L
257.411 172.312 L
257.962 173.832 L
258.512 174.617 L
259.063 173.674 L
259.613 174.565 L
260.164 170.217 L
260.714 168.593 L
261.265 172.26 L
261.815 170.426 L
262.366 171.055 L
262.916 171.369 L
263.467 173.779 L
264.017 170.269 L
264.568 173.57 L
265.118 172.417 L
265.669 168.802 L
266.219 170.426 L
266.77 170.846 L
267.32 167.44 L
267.871 171.107 L
268.421 174.146 L
268.972 169.641 L
269.522 171.055 L
270.073 182.423 L
270.623 185.042 L
271.174 187.504 L
271.724 193.057 L
272.274 195.1 L
272.825 194.996 L
273.375 192.586 L
273.926 192.272 L
274.476 190.333 L
275.027 184.256 L
275.577 176.608 L
276.128 174.251 L
276.678 173.989 L
277.229 173.308 L
277.779 177.918 L
278.33 181.27 L
278.88 185.723 L
279.431 185.252 L
279.981 184.204 L
280.532 182.79 L
281.082 177.865 L
281.633 176.294 L
282.183 176.66 L
282.734 178.965 L
283.284 181.008 L
283.835 184.728 L
284.385 181.637 L
284.936 184.361 L
285.486 183.261 L
286.037 183.942 L
286.587 189.495 L
287.137 189.967 L
287.688 186.561 L
288.238 188.919 L
288.789 188.604 L
289.339 182.161 L
289.89 185.409 L
290.44 183.471 L
290.991 177.97 L
291.541 172.05 L
292.092 171.893 L
292.642 168.174 L
293.193 165.45 L
293.743 165.083 L
294.294 168.331 L
294.844 164.297 L
295.395 163.04 L
295.945 159.635 L
296.496 160.892 L
297.046 162.883 L
297.597 160.944 L
298.147 158.692 L
298.698 162.83 L
299.248 166.34 L
299.799 166.288 L
300.349 166.236 L
300.9 169.641 L
301.45 168.802 L
302.001 170.636 L
302.551 170.793 L
303.101 171.107 L
303.652 166.707 L
304.202 172.679 L
304.753 168.017 L
305.303 169.221 L
305.854 172.784 L
306.404 178.546 L
306.955 175.77 L
307.505 172.627 L
308.056 169.274 L
308.606 169.326 L
309.157 165.764 L
309.707 163.983 L
310.258 169.221 L
310.808 172.155 L
311.359 171.631 L
311.909 175.875 L
312.46 176.608 L
313.01 173.727 L
313.561 167.65 L
314.111 164.035 L
314.662 158.168 L
315.212 160.106 L
315.763 163.616 L
316.313 173.151 L
316.864 175.613 L
317.414 177.237 L
317.964 174.251 L
318.515 166.759 L
319.065 159.897 L
319.616 159.582 L
320.166 158.43 L
320.717 161.468 L
321.267 162.988 L
321.818 165.188 L
322.368 164.14 L
322.919 167.493 L
323.469 168.121 L
324.02 171.841 L
324.57 170.584 L
325.121 173.517 L
325.671 174.198 L
326.222 169.326 L
326.772 170.06 L
327.323 171.422 L
327.873 165.397 L
328.424 160.787 L
328.974 161.049 L
329.525 158.22 L
330.075 151.62 L
330.626 157.435 L
331.176 160.421 L
331.727 161.206 L
332.277 160.735 L
332.827 163.878 L
333.378 160.211 L
333.928 156.911 L
334.479 155.863 L
335.029 152.825 L
335.58 151.148 L
336.13 156.544 L
336.681 167.702 L
337.231 171.631 L
337.782 175.875 L
338.332 177.289 L
338.883 173.36 L
339.433 163.197 L
339.984 165.24 L
340.534 167.859 L
341.085 171.579 L
341.635 175.613 L
342.186 179.07 L
342.736 177.656 L
343.287 178.389 L
343.837 182.109 L
344.388 177.656 L
344.938 178.494 L
345.489 176.713 L
346.039 172.312 L
346.59 163.616 L
347.14 162.673 L
347.691 160.159 L
348.241 157.854 L
348.791 156.544 L
349.342 158.011 L
349.892 158.063 L
350.443 160.054 L
350.993 161.783 L
351.544 166.288 L
352.094 171.788 L
352.645 171.265 L
353.195 168.855 L
353.746 170.007 L
354.296 177.289 L
354.847 171.946 L
355.397 172.731 L
355.948 175.77 L
356.498 173.57 L
357.049 166.602 L
357.599 173.622 L
358.15 179.123 L
358.7 179.175 L
359.251 183.052 L
359.801 183.733 L
360.352 180.432 L
360.902 175.141 L
361.453 172.05 L
362.003 168.698 L
362.554 163.616 L
363.104 161.73 L
363.654 163.878 L
364.205 167.336 L
364.755 162.359 L
365.306 164.402 L
365.856 160.735 L
366.407 158.482 L
366.957 158.325 L
367.508 164.769 L
368.058 170.741 L
368.609 179.594 L
369.159 183.785 L
369.71 181.48 L
370.26 181.794 L
370.811 176.922 L
371.361 170.112 L
371.912 171.107 L
372.462 173.36 L
373.013 172.05 L
373.563 169.221 L
374.114 167.44 L
374.664 160.316 L
375.215 157.33 L
375.765 155.811 L
376.316 155.811 L
376.866 158.797 L
377.417 163.826 L
377.967 165.45 L
378.518 171.474 L
379.068 171.998 L
379.618 171.369 L
380.169 170.898 L
380.719 173.151 L
381.27 168.855 L
381.82 169.012 L
382.371 168.436 L
382.921 167.44 L
383.472 163.669 L
384.022 162.045 L
384.573 166.236 L
385.123 166.707 L
385.674 168.331 L
386.224 169.483 L
386.775 166.707 L
387.325 164.716 L
387.876 167.545 L
388.426 166.183 L
388.977 162.883 L
389.527 165.554 L
390.078 162.726 L
390.628 157.225 L
391.179 155.392 L
391.729 156.073 L
392.28 158.063 L
392.83 155.863 L
393.381 161.573 L
393.931 160.892 L
394.481 166.917 L
395.032 171.474 L
395.582 182.632 L
396.133 182.371 L
396.683 190.228 L
397.234 190.857 L
397.784 192.219 L
398.335 197.72 L
398.885 197.929 L
399.436 198.506 L
399.986 200.077 L
400.537 197.51 L
401.087 181.113 L
401.638 177.97 L
402.188 171.998 L
402.739 169.169 L
403.289 172.312 L
403.84 176.398 L
404.39 178.389 L
404.941 181.637 L
405.491 180.066 L
406.042 178.18 L
406.592 177.394 L
407.143 178.127 L
407.693 176.922 L
408.244 180.17 L
408.794 174.355 L
409.345 175.194 L
409.895 174.879 L
410.445 177.97 L
410.996 176.503 L
411.546 175.979 L
412.097 176.608 L
412.647 175.246 L
413.198 171.946 L
413.748 171.998 L
414.299 175.979 L
414.849 180.118 L
415.4 179.908 L
415.95 187.976 L
416.501 187.766 L
417.051 188.762 L
417.602 183.523 L
418.152 184.885 L
418.703 177.708 L
419.253 174.774 L
419.804 171.631 L
420.354 176.084 L
420.905 175.613 L
421.455 175.613 L
422.006 175.613 L
422.556 179.332 L
423.107 179.856 L
423.657 181.166 L
424.208 180.589 L
424.758 181.323 L
425.308 178.442 L
425.859 170.007 L
426.409 167.702 L
426.96 164.088 L
427.51 167.126 L
428.061 171.474 L
428.611 177.394 L
429.162 179.594 L
429.712 182.161 L
430.263 180.956 L
430.813 178.284 L
431.364 179.699 L
431.914 178.861 L
432.465 180.694 L
433.015 184.518 L
433.566 192.324 L
434.116 194 L
434.667 202.173 L
435.217 202.173 L
435.768 195.258 L
436.318 187.295 L
436.869 184.833 L
437.419 177.237 L
437.97 174.513 L
438.52 175.089 L
439.07 174.408 L
439.621 166.497 L
440.171 162.254 L
440.722 159.792 L
441.272 162.673 L
441.823 163.616 L
442.373 169.012 L
442.924 171.841 L
443.474 176.032 L
444.025 171.422 L
444.575 165.607 L
445.126 164.612 L
445.676 162.045 L
446.227 159.792 L
446.777 160.002 L
447.328 160.159 L
447.878 157.958 L
448.429 158.22 L
448.979 154.344 L
449.53 149.943 L
450.08 149.681 L
450.631 147.062 L
451.181 146.329 L
451.732 149.996 L
452.282 152.196 L
452.833 152.039 L
453.383 156.282 L
453.934 159.163 L
454.484 163.721 L
455.035 167.807 L
455.585 169.379 L
456.135 169.693 L
456.686 167.807 L
457.236 163.878 L
457.787 163.826 L
458.337 165.764 L
458.888 165.293 L
459.438 164.612 L
459.989 163.249 L
460.539 160.683 L
461.09 157.958 L
461.64 156.492 L
462.191 156.282 L
462.741 154.396 L
463.292 151.934 L
463.842 151.358 L
464.393 150.729 L
464.943 149.315 L
465.494 149.891 L
466.044 151.515 L
466.595 151.253 L
467.145 150.939 L
467.696 150.572 L
468.246 149.367 L
468.797 148.634 L
469.347 148.005 L
469.898 147.638 L
470.448 147.586 L
470.998 147.953 L
471.549 147.9 L
472.099 147.219 L
472.65 147.01 L
473.2 146.748 L
473.751 146.172 L
474.301 146.014 L
474.852 146.224 L
475.402 146.172 L
475.953 146.067 L
476.503 146.276 L
477.054 145.857 L
477.604 145.543 L
478.155 145.071 L
478.705 144.652 L
479.256 144.024 L
479.806 143.709 L
480.357 143.238 L
480.907 142.924 L
481.458 142.871 L
482.008 142.819 L
482.559 142.4 L
483.109 141.928 L
483.66 141.719 L
484.21 141.247 L
484.76 140.828 L
485.311 140.933 L
485.862 141.3 L
486.412 141.614 L
486.962 142.138 L
487.513 142.505 L
488.063 142.662 L
488.614 142.4 L
489.164 141.928 L
489.715 141.404 L
490.265 141.09 L
490.816 140.88 L
491.366 140.88 L
491.917 141.142 L
492.467 141.404 L
493.018 141.614 L
493.568 141.666 L
494.119 141.771 L
494.669 141.823 L
495.22 141.771 L
495.77 141.614 L
496.321 141.666 L
496.871 141.142 L
S
GR
GS
[0.75 0 0 0.75 0 0] CT
0.851 0.325 0.098 RC
1 LJ
0.667 LW
N
73.55 315.851 M
74.101 304.588 L
74.651 301.235 L
75.202 300.449 L
75.752 294.373 L
76.303 296.206 L
76.853 290.653 L
77.404 296.206 L
77.954 290.706 L
78.505 290.444 L
79.055 282.848 L
79.606 288.872 L
80.156 277.085 L
80.707 267.917 L
81.257 263.779 L
81.808 267.289 L
82.358 264.722 L
82.909 254.873 L
83.459 261.212 L
84.01 268.232 L
84.56 267.917 L
85.111 264.198 L
85.661 277.609 L
86.212 275.042 L
86.762 269.489 L
87.313 258.174 L
87.863 258.488 L
88.413 248.011 L
88.964 246.806 L
89.514 260.269 L
90.065 268.756 L
90.615 278.971 L
91.166 286.986 L
91.716 306.998 L
92.267 318.89 L
92.817 334.763 L
93.368 338.063 L
93.918 343.04 L
94.469 328.529 L
95.019 317.161 L
95.57 315.694 L
96.12 316.637 L
96.671 318.051 L
97.221 313.441 L
97.772 299.454 L
98.322 297.516 L
98.873 296.678 L
99.423 285.31 L
99.974 295.106 L
100.524 292.12 L
101.075 276.404 L
101.625 260.269 L
102.176 258.75 L
102.726 246.753 L
103.277 245.706 L
103.827 241.043 L
104.377 243.243 L
104.928 239 L
105.478 237.271 L
106.029 233.028 L
106.579 234.966 L
107.13 227.79 L
107.68 234.705 L
108.231 233.762 L
108.781 243.243 L
109.332 251.573 L
109.882 253.145 L
110.433 243.505 L
110.983 243.139 L
111.534 239.21 L
112.084 227.79 L
112.635 224.28 L
113.185 218.046 L
113.736 214.064 L
114.286 210.24 L
114.837 207.254 L
115.387 211.759 L
115.938 224.384 L
116.488 232.242 L
117.039 233.866 L
117.589 230.042 L
118.14 227.999 L
118.69 224.856 L
119.24 219.355 L
119.791 221.818 L
120.341 232.295 L
120.892 237.9 L
121.442 237.952 L
121.993 236.224 L
122.543 225.851 L
123.094 219.932 L
123.644 211.235 L
124.195 211.602 L
124.745 212.283 L
125.296 218.203 L
125.846 218.779 L
126.397 220.141 L
126.947 211.393 L
127.498 210.554 L
128.048 207.306 L
128.599 206.049 L
129.149 203.116 L
129.7 212.388 L
130.25 215.793 L
130.801 209.507 L
131.351 209.611 L
131.902 214.798 L
132.452 209.14 L
133.003 209.245 L
133.553 213.54 L
134.104 211.707 L
134.654 207.673 L
135.204 206.887 L
135.755 199.972 L
136.305 214.221 L
136.856 216.265 L
137.406 213.488 L
137.957 215.688 L
138.507 215.793 L
139.058 202.539 L
139.608 206.835 L
140.159 212.597 L
140.709 205.787 L
141.26 207.097 L
141.81 210.031 L
142.361 199.082 L
142.911 198.82 L
143.462 199.606 L
144.012 203.43 L
144.563 198.086 L
145.113 198.767 L
145.664 199.187 L
146.214 195.153 L
146.765 188.447 L
147.315 188.762 L
147.866 190.386 L
148.416 187.819 L
148.967 192.743 L
149.517 191.486 L
150.067 187.662 L
150.618 185.199 L
151.168 184.571 L
151.719 182.999 L
152.269 181.061 L
152.82 195.153 L
153.37 199.187 L
153.921 196.096 L
154.471 196.934 L
155.022 198.663 L
155.572 186.457 L
156.123 192.01 L
156.673 193.214 L
157.224 192.01 L
157.774 196.305 L
158.325 198.925 L
158.875 190.124 L
159.426 187.819 L
159.976 188.814 L
160.527 186.404 L
161.077 182.58 L
161.628 182.947 L
162.178 184.309 L
162.729 183.366 L
163.279 178.703 L
163.83 177.708 L
164.38 176.608 L
164.93 175.089 L
165.481 173.36 L
166.031 177.394 L
166.582 181.166 L
167.132 183.785 L
167.683 183.837 L
168.233 192.743 L
168.784 191.276 L
169.334 190.805 L
169.885 188.657 L
170.435 186.404 L
170.986 180.747 L
171.536 177.08 L
172.087 178.599 L
172.637 180.275 L
173.188 182.109 L
173.738 182.632 L
174.289 182.894 L
174.839 175.508 L
175.39 171.946 L
175.94 171.265 L
176.491 170.793 L
177.041 172.574 L
177.592 175.456 L
178.142 177.289 L
178.693 174.984 L
179.243 177.499 L
179.794 180.589 L
180.344 180.327 L
180.894 178.965 L
181.445 178.703 L
181.995 169.536 L
182.546 173.255 L
183.096 172.103 L
183.647 176.765 L
184.197 175.979 L
184.748 175.508 L
185.298 164.402 L
185.849 162.516 L
186.399 156.858 L
186.95 156.806 L
187.5 159.163 L
188.051 162.045 L
188.601 159.844 L
189.152 157.539 L
189.702 157.225 L
190.253 161.835 L
190.803 164.926 L
191.354 167.859 L
191.904 171.055 L
192.455 174.879 L
193.005 167.65 L
193.556 161.783 L
194.106 162.935 L
194.657 160.473 L
195.207 156.439 L
195.757 155.653 L
196.308 157.906 L
196.858 159.059 L
197.409 155.025 L
197.959 154.449 L
198.51 153.348 L
199.06 150.834 L
199.611 149.629 L
200.161 151.934 L
200.712 155.758 L
201.262 159.425 L
201.813 158.797 L
202.363 156.282 L
202.914 157.225 L
203.464 153.715 L
204.015 151.41 L
204.565 153.506 L
205.116 155.549 L
205.666 155.392 L
206.217 156.596 L
206.767 159.74 L
207.318 161.468 L
207.868 160.63 L
208.419 160.159 L
208.969 157.749 L
209.52 158.692 L
210.07 157.854 L
210.62 156.334 L
211.171 156.649 L
211.721 158.325 L
212.272 154.972 L
212.822 157.487 L
213.373 159.635 L
213.923 159.32 L
214.474 159.111 L
215.024 156.544 L
215.575 153.244 L
216.125 150.362 L
216.676 150.153 L
217.226 148.319 L
217.777 149.472 L
218.327 148.424 L
218.878 148.948 L
219.428 149.053 L
219.979 153.663 L
220.529 156.073 L
221.08 155.339 L
221.63 154.92 L
222.181 155.182 L
222.731 152.144 L
223.282 146.224 L
223.832 146.853 L
224.383 146.381 L
224.933 147.586 L
225.484 148.738 L
226.034 154.763 L
226.584 151.201 L
227.135 152.196 L
227.685 152.353 L
228.236 150.1 L
228.786 145.595 L
229.337 147.796 L
229.887 150.624 L
230.438 147.115 L
230.988 147.062 L
231.539 155.234 L
232.089 156.125 L
232.64 154.553 L
233.19 154.396 L
233.741 157.33 L
234.291 152.877 L
234.842 152.982 L
235.392 151.043 L
235.943 154.815 L
236.493 155.496 L
237.044 153.61 L
237.594 154.92 L
238.145 157.958 L
238.695 156.911 L
239.246 154.344 L
239.796 152.982 L
240.347 151.515 L
240.897 147.062 L
241.447 144.967 L
241.998 153.139 L
242.548 155.287 L
243.099 156.754 L
243.649 159.687 L
244.2 158.273 L
244.75 144.233 L
245.301 141.3 L
245.851 140.776 L
246.402 138.471 L
246.952 138.156 L
247.503 140.985 L
248.053 142.662 L
248.604 139.152 L
249.154 138.523 L
249.705 141.195 L
250.255 144.652 L
250.806 141.562 L
251.356 140.985 L
251.907 139.361 L
252.457 138.68 L
253.008 134.804 L
253.558 135.799 L
254.109 137.842 L
254.659 137.266 L
255.21 134.489 L
255.76 134.804 L
256.31 132.813 L
256.861 130.351 L
257.411 132.184 L
257.962 136.48 L
258.512 138.837 L
259.063 141.247 L
259.613 141.195 L
260.164 149 L
260.714 146.486 L
261.265 148.162 L
261.815 146.957 L
262.366 146.329 L
262.916 141.771 L
263.467 142.766 L
264.017 139.78 L
264.568 141.247 L
265.118 143.447 L
265.669 139.047 L
266.219 139.78 L
266.77 137.633 L
267.32 138.314 L
267.871 138.156 L
268.421 138.89 L
268.972 135.432 L
269.522 138.733 L
270.073 138.052 L
270.623 136.532 L
271.174 137.999 L
271.724 138.366 L
272.274 136.061 L
272.825 137.213 L
273.375 139.099 L
273.926 141.195 L
274.476 140.566 L
275.027 140.933 L
275.577 139.361 L
276.128 138.209 L
276.678 130.979 L
277.229 132.708 L
277.779 133.704 L
278.33 134.123 L
278.88 137.109 L
279.431 140.776 L
279.981 140.252 L
280.532 139.571 L
281.082 139.257 L
281.633 139.099 L
282.183 142.19 L
282.734 144.181 L
283.284 144.652 L
283.835 146.172 L
284.385 144.024 L
284.936 142.19 L
285.486 139.204 L
286.037 139.099 L
286.587 140.461 L
287.137 142.452 L
287.688 144.076 L
288.238 150.939 L
288.789 151.882 L
289.339 153.768 L
289.89 154.134 L
290.44 152.144 L
290.991 150.415 L
291.541 151.777 L
292.092 145.595 L
292.642 145.176 L
293.193 146.014 L
293.743 140.88 L
294.294 140.304 L
294.844 144.705 L
295.395 149.524 L
295.945 151.62 L
296.496 155.287 L
297.046 154.553 L
297.597 151.253 L
298.147 146.748 L
298.698 144.6 L
299.248 142.505 L
299.799 143.762 L
300.349 150.939 L
300.9 148.686 L
301.45 147.115 L
302.001 146.643 L
302.551 143.081 L
303.101 140.461 L
303.652 139.414 L
304.202 139.571 L
304.753 140.88 L
305.303 139.99 L
305.854 133.861 L
306.404 133.494 L
306.955 133.808 L
307.505 128.936 L
308.056 134.437 L
308.606 135.432 L
309.157 137.528 L
309.707 138.733 L
310.258 142.243 L
310.808 138.785 L
311.359 137.423 L
311.909 135.275 L
312.46 134.961 L
313.01 136.899 L
313.561 137.109 L
314.111 138.942 L
314.662 140.095 L
315.212 141.614 L
315.763 146.643 L
316.313 148.215 L
316.864 152.039 L
317.414 151.567 L
317.964 149.734 L
318.515 145.386 L
319.065 145.386 L
319.616 141.823 L
320.166 140.147 L
320.717 140.514 L
321.267 135.694 L
321.818 135.485 L
322.368 135.328 L
322.919 138.942 L
323.469 143.028 L
324.02 149.367 L
324.57 149.472 L
325.121 153.558 L
325.671 153.034 L
326.222 149.734 L
326.772 144.6 L
327.323 141.09 L
327.873 137.109 L
328.424 135.537 L
328.974 132.289 L
329.525 132.394 L
330.075 133.965 L
330.626 133.861 L
331.176 132.08 L
331.727 133.127 L
332.277 134.385 L
332.827 136.166 L
333.378 136.952 L
333.928 139.047 L
334.479 141.142 L
335.029 142.819 L
335.58 141.928 L
336.13 143.552 L
336.681 144.705 L
337.231 145.648 L
337.782 143.657 L
338.332 143.605 L
338.883 143.186 L
339.433 141.038 L
339.984 139.257 L
340.534 137.056 L
341.085 138.733 L
341.635 137.475 L
342.186 144.233 L
342.736 142.924 L
343.287 146.748 L
343.837 147.638 L
344.388 149.629 L
344.938 145.91 L
345.489 146.433 L
346.039 144.443 L
346.59 140.619 L
347.14 140.514 L
347.691 137.109 L
348.241 137.475 L
348.791 137.633 L
349.342 140.095 L
349.892 135.956 L
350.443 137.423 L
350.993 138.942 L
351.544 140.933 L
352.094 139.257 L
352.645 144.495 L
353.195 151.777 L
353.746 150.729 L
354.296 149.681 L
354.847 153.925 L
355.397 152.353 L
355.948 147.429 L
356.498 144.705 L
357.049 153.244 L
357.599 149.996 L
358.15 146.172 L
358.7 145.071 L
359.251 147.953 L
359.801 138.68 L
360.352 136.847 L
360.902 142.347 L
361.453 140.933 L
362.003 138.942 L
362.554 140.828 L
363.104 141.142 L
363.654 135.694 L
364.205 131.451 L
364.755 128.989 L
365.306 124.955 L
365.856 127.26 L
366.407 125.688 L
366.957 130.036 L
367.508 129.67 L
368.058 133.861 L
368.609 131.608 L
369.159 135.485 L
369.71 132.656 L
370.26 135.956 L
370.811 129.932 L
371.361 128.936 L
371.912 126.474 L
372.462 127.417 L
373.013 128.936 L
373.563 132.97 L
374.114 134.646 L
374.664 143.186 L
375.215 149.577 L
375.765 147.062 L
376.316 149 L
376.866 147.638 L
377.417 141.981 L
377.967 142.871 L
378.518 145.857 L
379.068 145.333 L
379.618 149.734 L
380.169 148.162 L
380.719 140.566 L
381.27 137.999 L
381.82 137.109 L
382.371 132.865 L
382.921 130.875 L
383.472 131.713 L
384.022 136.375 L
384.573 136.48 L
385.123 139.099 L
385.674 141.3 L
386.224 143.29 L
386.775 138.785 L
387.325 137.371 L
387.876 133.913 L
388.426 132.289 L
388.977 131.241 L
389.527 131.713 L
390.078 133.127 L
390.628 136.847 L
391.179 137.999 L
391.729 139.204 L
392.28 139.204 L
392.83 137.318 L
393.381 133.965 L
393.931 136.009 L
394.481 138.837 L
395.032 141.038 L
395.582 147.481 L
396.133 151.882 L
396.683 151.41 L
397.234 149.262 L
397.784 148.581 L
398.335 148.319 L
398.885 145.962 L
399.436 145.857 L
399.986 146.643 L
400.537 145.648 L
401.087 144.495 L
401.638 147.953 L
402.188 147.638 L
402.739 148.477 L
403.289 154.239 L
403.84 151.463 L
404.39 147.691 L
404.941 149 L
405.491 147.167 L
406.042 147.638 L
406.592 152.301 L
407.143 154.815 L
407.693 151.672 L
408.244 152.772 L
408.794 143.5 L
409.345 138.471 L
409.895 136.113 L
410.445 138.68 L
410.996 137.371 L
411.546 138.209 L
412.097 139.414 L
412.647 138.576 L
413.198 139.78 L
413.748 141.3 L
414.299 148.791 L
414.849 155.758 L
415.4 157.277 L
415.95 155.287 L
416.501 153.296 L
417.051 148.372 L
417.602 139.78 L
418.152 138.471 L
418.703 136.061 L
419.253 135.694 L
419.804 138.104 L
420.354 141.823 L
420.905 138.89 L
421.455 141.876 L
422.006 140.933 L
422.556 137.213 L
423.107 131.922 L
423.657 135.066 L
424.208 136.637 L
424.758 138.314 L
425.308 141.876 L
425.859 146.8 L
426.409 146.8 L
426.96 147.953 L
427.51 146.486 L
428.061 145.176 L
428.611 149.577 L
429.162 152.196 L
429.712 148.005 L
430.263 150.886 L
430.813 163.407 L
431.364 159.74 L
431.914 158.325 L
432.465 158.168 L
433.015 155.863 L
433.566 146.853 L
434.116 145.438 L
434.667 146.748 L
435.217 150.415 L
435.768 154.501 L
436.318 155.653 L
436.869 154.396 L
437.419 149.996 L
437.97 145.386 L
438.52 143.081 L
439.07 144.652 L
439.621 141.038 L
440.171 142.924 L
440.722 145.176 L
441.272 143.919 L
441.823 136.69 L
442.373 139.257 L
442.924 140.985 L
443.474 146.014 L
444.025 151.62 L
444.575 154.082 L
445.126 155.601 L
445.676 155.706 L
446.227 149.315 L
446.777 141.876 L
447.328 143.395 L
447.878 140.985 L
448.429 137.318 L
448.979 138.261 L
449.53 141.142 L
450.08 135.485 L
450.631 136.166 L
451.181 138.156 L
451.732 138.418 L
452.282 136.847 L
452.833 135.904 L
453.383 138.052 L
453.934 138.314 L
454.484 140.252 L
455.035 140.723 L
455.585 143.5 L
456.135 142.085 L
456.686 140.933 L
457.236 138.837 L
457.787 139.728 L
458.337 139.623 L
458.888 135.851 L
459.438 134.385 L
459.989 131.87 L
460.539 129.984 L
461.09 127.627 L
461.64 130.089 L
462.191 130.665 L
462.741 130.77 L
463.292 129.775 L
463.842 129.67 L
464.393 128.779 L
464.943 128.674 L
465.494 128.936 L
466.044 129.355 L
466.595 128.989 L
467.145 129.303 L
467.696 128.622 L
468.246 128.255 L
468.797 126.789 L
469.347 126.789 L
469.898 126.422 L
470.448 126.369 L
470.998 126.789 L
471.549 127.941 L
472.099 126.946 L
472.65 125.793 L
473.2 124.745 L
473.751 123.698 L
474.301 122.074 L
474.852 121.288 L
475.402 120.397 L
475.953 119.612 L
476.503 118.931 L
477.054 118.983 L
477.604 118.773 L
478.155 118.459 L
478.705 118.197 L
479.256 117.83 L
479.806 116.992 L
480.357 116.468 L
480.907 116.049 L
481.458 116.102 L
482.008 116.049 L
482.559 115.683 L
483.109 115.787 L
483.66 116.049 L
484.21 116.259 L
484.76 116.416 L
485.311 117.307 L
485.862 117.516 L
486.412 117.464 L
486.962 117.149 L
487.513 117.097 L
488.063 116.783 L
488.614 116.521 L
489.164 116.311 L
489.715 116.206 L
490.265 116.154 L
490.816 116.259 L
491.366 116.626 L
491.917 117.097 L
492.467 117.307 L
493.018 117.359 L
493.568 117.673 L
494.119 117.778 L
494.669 117.726 L
495.22 117.726 L
495.77 117.83 L
496.321 117.83 L
496.871 117.935 L
497.422 118.04 L
497.972 118.529 L
498.523 118.354 L
S
GR
GS
[0.75 0 0 0.75 0 0] CT
0.929 0.694 0.125 RC
1 LJ
0.667 LW
N
73.55 339.949 M
74.101 305.025 L
74.651 303.907 L
75.202 300.292 L
75.752 296.154 L
76.303 294.477 L
76.853 282.848 L
77.404 292.015 L
77.954 280.385 L
78.505 282.481 L
79.055 284.21 L
79.606 282.219 L
80.156 276.614 L
80.707 283.843 L
81.257 282.481 L
81.808 281.276 L
82.358 283.633 L
82.909 274.78 L
83.459 267.656 L
84.01 270.642 L
84.56 269.699 L
85.111 267.917 L
85.661 268.599 L
86.212 268.651 L
86.762 263.255 L
87.313 262.888 L
87.863 261.788 L
88.413 262.05 L
88.964 261.264 L
89.514 261.526 L
90.065 261.212 L
90.615 261.684 L
91.166 266.136 L
91.716 277.295 L
92.267 292.591 L
92.817 314.961 L
93.368 324.233 L
93.918 337.12 L
94.469 337.801 L
95.019 337.068 L
95.57 328.162 L
96.12 335.653 L
96.671 329.419 L
97.221 320.042 L
97.772 307.574 L
98.322 292.382 L
98.873 273.942 L
99.423 265.508 L
99.974 262.05 L
100.524 254.035 L
101.075 255.135 L
101.625 251.311 L
102.176 244.815 L
102.726 243.139 L
103.277 251.783 L
103.827 253.249 L
104.377 255.554 L
104.928 267.656 L
105.478 266.66 L
106.029 262.312 L
106.579 258.698 L
107.13 255.083 L
107.68 247.696 L
108.231 254.611 L
108.781 252.83 L
109.332 248.796 L
109.882 253.302 L
110.433 248.639 L
110.983 243.505 L
111.534 243.139 L
112.084 243.453 L
112.635 235.49 L
113.185 234.39 L
113.736 226.323 L
114.286 221.713 L
114.837 216.841 L
115.387 218.831 L
115.938 219.827 L
116.488 221.608 L
117.039 220.298 L
117.589 217.784 L
118.14 217.993 L
118.69 209.978 L
119.24 209.664 L
119.791 211.026 L
120.341 211.655 L
120.892 211.602 L
121.442 214.955 L
121.993 214.536 L
122.543 217.469 L
123.094 218.255 L
123.644 215.112 L
124.195 217.522 L
124.745 221.189 L
125.296 217.993 L
125.846 220.875 L
126.397 219.355 L
126.947 222.918 L
127.498 217.417 L
128.048 215.898 L
128.599 210.188 L
129.149 211.759 L
129.7 204.373 L
130.25 205.787 L
130.801 201.754 L
131.351 202.487 L
131.902 202.435 L
132.452 200.234 L
133.003 193.843 L
133.553 195.1 L
134.104 194.053 L
134.654 192.533 L
135.204 195.729 L
135.755 199.606 L
136.305 196.096 L
136.856 193.738 L
137.406 194.105 L
137.957 189.914 L
138.507 190.7 L
139.058 197.039 L
139.608 198.139 L
140.159 196.305 L
140.709 200.549 L
141.26 198.977 L
141.81 195.886 L
142.361 201.23 L
142.911 202.854 L
143.462 202.644 L
144.012 201.387 L
144.563 202.644 L
145.113 195.52 L
145.664 194 L
146.214 189.233 L
146.765 193.476 L
147.315 195.415 L
147.866 195.52 L
148.416 195.415 L
148.967 200.968 L
149.517 194.472 L
150.067 193.581 L
150.618 194.577 L
151.168 192.272 L
151.719 189.705 L
152.269 189.338 L
152.82 185.933 L
153.37 184.676 L
153.921 184.676 L
154.471 181.69 L
155.022 183.68 L
155.572 182.056 L
156.123 180.38 L
156.673 180.642 L
157.224 181.48 L
157.774 178.18 L
158.325 181.375 L
158.875 183.471 L
159.426 183.261 L
159.976 182.999 L
160.527 189.914 L
161.077 195.205 L
161.628 195.677 L
162.178 191.748 L
162.729 190.019 L
163.279 184.152 L
163.83 175.089 L
164.38 170.112 L
164.93 173.098 L
165.481 172.417 L
166.031 175.665 L
166.582 175.927 L
167.132 178.18 L
167.683 179.594 L
168.233 181.951 L
168.784 176.765 L
169.334 179.175 L
169.885 180.013 L
170.435 175.665 L
170.986 174.879 L
171.536 177.708 L
172.087 176.451 L
172.637 177.97 L
173.188 183.575 L
173.738 183.052 L
174.289 182.999 L
174.839 186.457 L
175.39 185.461 L
175.94 182.266 L
176.491 183.733 L
177.041 187.138 L
177.592 187.871 L
178.142 186.981 L
178.693 187.871 L
179.243 183.942 L
179.794 181.742 L
180.344 182.318 L
180.894 180.432 L
181.445 178.546 L
181.995 178.494 L
182.546 170.164 L
183.096 162.254 L
183.647 162.411 L
184.197 162.778 L
184.748 166.288 L
185.298 173.098 L
185.849 174.984 L
186.399 176.66 L
186.95 178.389 L
187.5 178.965 L
188.051 175.036 L
188.601 171.998 L
189.152 168.279 L
189.702 166.183 L
190.253 162.307 L
190.803 167.598 L
191.354 171.684 L
191.904 172.941 L
192.455 173.727 L
193.005 177.394 L
193.556 173.465 L
194.106 173.779 L
194.657 176.346 L
195.207 174.722 L
195.757 171.684 L
196.308 173.098 L
196.858 170.898 L
197.409 165.869 L
197.959 167.545 L
198.51 171.631 L
199.06 167.074 L
199.611 164.978 L
200.161 166.393 L
200.712 164.507 L
201.262 159.32 L
201.813 164.507 L
202.363 162.621 L
202.914 167.126 L
203.464 167.598 L
204.015 165.502 L
204.565 165.659 L
205.116 166.288 L
205.666 167.755 L
206.217 167.231 L
206.767 173.936 L
207.318 173.517 L
207.868 177.341 L
208.419 172.784 L
208.969 171.946 L
209.52 173.098 L
210.07 173.884 L
210.62 174.46 L
211.171 177.708 L
211.721 179.856 L
212.272 175.717 L
212.822 174.774 L
213.373 170.531 L
213.923 167.021 L
214.474 165.135 L
215.024 166.759 L
215.575 165.659 L
216.125 168.96 L
216.676 170.479 L
217.226 169.274 L
217.777 165.083 L
218.327 164.14 L
218.878 163.354 L
219.428 166.969 L
219.979 170.688 L
220.529 175.665 L
221.08 177.813 L
221.63 178.861 L
222.181 177.499 L
222.731 177.499 L
223.282 173.465 L
223.832 169.641 L
224.383 167.912 L
224.933 164.664 L
225.484 166.812 L
226.034 167.388 L
226.584 169.064 L
227.135 170.741 L
227.685 170.269 L
228.236 166.236 L
228.786 165.974 L
229.337 163.983 L
229.887 161.521 L
230.438 160.997 L
230.988 159.687 L
231.539 155.13 L
232.089 157.644 L
232.64 157.487 L
233.19 156.701 L
233.741 158.901 L
234.291 162.726 L
234.842 162.464 L
235.392 164.35 L
235.943 166.34 L
236.493 163.773 L
237.044 162.568 L
237.594 164.402 L
238.145 161.887 L
238.695 160.263 L
239.246 161.049 L
239.796 164.769 L
240.347 166.655 L
240.897 174.198 L
241.447 180.747 L
241.998 189.914 L
242.548 188.971 L
243.099 187.138 L
243.649 180.485 L
244.2 174.041 L
244.75 166.707 L
245.301 163.407 L
245.851 158.744 L
246.402 158.325 L
246.952 162.988 L
247.503 162.988 L
248.053 165.083 L
248.604 168.593 L
249.154 167.859 L
249.705 164.926 L
250.255 164.245 L
250.806 165.659 L
251.356 167.388 L
251.907 169.693 L
252.457 167.126 L
253.008 164.821 L
253.558 161.468 L
254.109 158.849 L
254.659 153.925 L
255.21 153.61 L
255.76 152.72 L
256.31 152.51 L
256.861 153.663 L
257.411 156.544 L
257.962 159.32 L
258.512 157.644 L
259.063 159.74 L
259.613 158.378 L
260.164 158.273 L
260.714 158.168 L
261.265 158.325 L
261.815 154.134 L
262.366 153.61 L
262.916 156.492 L
263.467 158.482 L
264.017 161.626 L
264.568 162.411 L
265.118 161.154 L
265.669 155.863 L
266.219 150.52 L
266.77 150.729 L
267.32 153.61 L
267.871 155.13 L
268.421 158.43 L
268.972 159.53 L
269.522 164.245 L
270.073 164.402 L
270.623 166.183 L
271.174 165.764 L
271.724 167.598 L
272.274 164.821 L
272.825 164.769 L
273.375 162.883 L
273.926 159.844 L
274.476 159.111 L
275.027 156.963 L
275.577 155.496 L
276.128 154.92 L
276.678 155.601 L
277.229 153.453 L
277.779 157.749 L
278.33 160.63 L
278.88 160.263 L
279.431 165.135 L
279.981 166.34 L
280.532 160.735 L
281.082 160.159 L
281.633 165.188 L
282.183 163.564 L
282.734 166.655 L
283.284 169.536 L
283.835 171.107 L
284.385 165.083 L
284.936 167.44 L
285.486 165.345 L
286.037 165.083 L
286.587 161.521 L
287.137 162.935 L
287.688 162.883 L
288.238 162.935 L
288.789 162.045 L
289.339 166.078 L
289.89 164.769 L
290.44 161.573 L
290.991 156.963 L
291.541 154.449 L
292.092 146.433 L
292.642 149.053 L
293.193 149.419 L
293.743 155.653 L
294.294 158.692 L
294.844 161.678 L
295.395 159.373 L
295.945 158.482 L
296.496 161.73 L
297.046 160.473 L
297.597 163.354 L
298.147 164.402 L
298.698 164.612 L
299.248 156.439 L
299.799 156.177 L
300.349 151.148 L
300.9 146.8 L
301.45 145.071 L
302.001 148.11 L
302.551 145.281 L
303.101 147.272 L
303.652 148.267 L
304.202 149.105 L
304.753 148.11 L
305.303 151.41 L
305.854 152.091 L
306.404 154.029 L
306.955 151.201 L
307.505 148.424 L
308.056 145.543 L
308.606 144.181 L
309.157 140.304 L
309.707 138.314 L
310.258 141.719 L
310.808 140.095 L
311.359 139.728 L
311.909 142.452 L
312.46 146.067 L
313.01 146.172 L
313.561 150.205 L
314.111 150.729 L
314.662 156.073 L
315.212 159.53 L
315.763 160.263 L
316.313 162.307 L
316.864 166.236 L
317.414 160.84 L
317.964 159.32 L
318.515 157.12 L
319.065 155.496 L
319.616 155.025 L
320.166 157.277 L
320.717 155.968 L
321.267 155.549 L
321.818 160.473 L
322.368 163.302 L
322.919 162.411 L
323.469 159.32 L
324.02 160.054 L
324.57 157.644 L
325.121 156.073 L
325.671 158.639 L
326.222 163.249 L
326.772 166.183 L
327.323 167.598 L
327.873 162.568 L
328.424 157.12 L
328.974 161.364 L
329.525 161.835 L
330.075 161.416 L
330.626 165.869 L
331.176 171.212 L
331.727 165.45 L
332.277 162.359 L
332.827 156.23 L
333.378 152.615 L
333.928 150.782 L
334.479 156.439 L
335.029 166.655 L
335.58 172.993 L
336.13 174.984 L
336.681 175.456 L
337.231 169.903 L
337.782 159.373 L
338.332 154.029 L
338.883 150.467 L
339.433 148.686 L
339.984 146.748 L
340.534 147.743 L
341.085 147.272 L
341.635 148.529 L
342.186 153.925 L
342.736 152.877 L
343.287 154.606 L
343.837 151.148 L
344.388 154.606 L
344.938 155.496 L
345.489 159.792 L
346.039 162.883 L
346.59 178.284 L
347.14 184.256 L
347.691 185.252 L
348.241 187.819 L
348.791 183.942 L
349.342 177.132 L
349.892 167.755 L
350.443 161.259 L
350.993 159.163 L
351.544 159.582 L
352.094 155.392 L
352.645 157.539 L
353.195 159.792 L
353.746 159.53 L
354.296 162.254 L
354.847 163.721 L
355.397 162.988 L
355.948 162.097 L
356.498 162.307 L
357.049 162.83 L
357.599 164.192 L
358.15 164.192 L
358.7 171.369 L
359.251 171.579 L
359.801 171.788 L
360.352 172.889 L
360.902 174.303 L
361.453 165.816 L
362.003 165.188 L
362.554 158.116 L
363.104 156.806 L
363.654 157.12 L
364.205 154.972 L
364.755 157.068 L
365.306 159.792 L
365.856 161.416 L
366.407 159.897 L
366.957 160.316 L
367.508 164.664 L
368.058 164.192 L
368.609 163.459 L
369.159 169.326 L
369.71 172.941 L
370.26 170.374 L
370.811 173.989 L
371.361 172.417 L
371.912 170.217 L
372.462 165.869 L
373.013 155.863 L
373.563 152.667 L
374.114 151.724 L
374.664 150.834 L
375.215 152.458 L
375.765 155.653 L
376.316 155.653 L
376.866 157.016 L
377.417 157.173 L
377.967 165.031 L
378.518 168.593 L
379.068 167.807 L
379.618 163.721 L
380.169 159.844 L
380.719 154.763 L
381.27 159.53 L
381.82 164.612 L
382.371 171.841 L
382.921 172.889 L
383.472 169.955 L
384.022 162.726 L
384.573 158.43 L
385.123 154.71 L
385.674 156.963 L
386.224 157.592 L
386.775 156.073 L
387.325 156.177 L
387.876 155.601 L
388.426 150.572 L
388.977 149.158 L
389.527 151.201 L
390.078 152.772 L
390.628 152.039 L
391.179 149.21 L
391.729 151.358 L
392.28 149.158 L
392.83 147.796 L
393.381 146.224 L
393.931 151.672 L
394.481 154.029 L
395.032 155.339 L
395.582 157.854 L
396.133 159.74 L
396.683 163.302 L
397.234 161.678 L
397.784 164.821 L
398.335 165.974 L
398.885 169.326 L
399.436 165.974 L
399.986 165.083 L
400.537 164.612 L
401.087 161.364 L
401.638 162.726 L
402.188 163.564 L
402.739 168.75 L
403.289 170.112 L
403.84 173.255 L
404.39 172.26 L
404.941 170.636 L
405.491 165.607 L
406.042 162.359 L
406.592 155.811 L
407.143 159.949 L
407.693 158.378 L
408.244 158.43 L
408.794 162.516 L
409.345 163.04 L
409.895 152.982 L
410.445 157.592 L
410.996 158.587 L
411.546 153.82 L
412.097 153.768 L
412.647 152.51 L
413.198 149.21 L
413.748 149.996 L
414.299 155.13 L
414.849 158.587 L
415.4 166.917 L
415.95 167.964 L
416.501 164.664 L
417.051 158.011 L
417.602 150.729 L
418.152 147.638 L
418.703 144.914 L
419.253 143.867 L
419.804 148.686 L
420.354 160.316 L
420.905 161.154 L
421.455 163.826 L
422.006 167.65 L
422.556 162.726 L
423.107 158.011 L
423.657 154.972 L
424.208 156.334 L
424.758 153.244 L
425.308 153.034 L
425.859 156.334 L
426.409 157.487 L
426.96 160.578 L
427.51 163.249 L
428.061 172.731 L
428.611 172.312 L
429.162 165.659 L
429.712 157.749 L
430.263 155.287 L
430.813 152.196 L
431.364 148.372 L
431.914 152.091 L
432.465 154.396 L
433.015 154.71 L
433.566 153.977 L
434.116 156.125 L
434.667 165.083 L
435.217 168.802 L
435.768 175.036 L
436.318 173.098 L
436.869 173.203 L
437.419 170.479 L
437.97 168.017 L
438.52 164.402 L
439.07 167.074 L
439.621 165.031 L
440.171 161.887 L
440.722 160.787 L
441.272 160.421 L
441.823 159.268 L
442.373 162.988 L
442.924 167.702 L
443.474 174.146 L
444.025 173.884 L
444.575 174.251 L
445.126 174.827 L
445.676 171.369 L
446.227 167.702 L
446.777 168.698 L
447.328 166.812 L
447.878 163.983 L
448.429 166.131 L
448.979 166.812 L
449.53 165.921 L
450.08 167.702 L
450.631 168.54 L
451.181 168.488 L
451.732 169.903 L
452.282 172.784 L
452.833 174.041 L
453.383 180.327 L
453.934 182.266 L
454.484 185.618 L
455.035 187.871 L
455.585 192.114 L
456.135 187.766 L
456.686 185.357 L
457.236 180.799 L
457.787 179.175 L
458.337 175.927 L
458.888 173.884 L
459.438 170.06 L
459.989 167.598 L
460.539 163.249 L
461.09 159.268 L
461.64 155.968 L
462.191 155.444 L
462.741 154.868 L
463.292 154.501 L
463.842 154.606 L
464.393 154.972 L
464.943 155.915 L
465.494 155.758 L
466.044 156.492 L
466.595 155.968 L
467.145 155.234 L
467.696 153.61 L
468.246 151.829 L
468.797 149.943 L
469.347 149.629 L
469.898 151.043 L
470.448 152.825 L
470.998 155.077 L
471.549 156.282 L
472.099 155.915 L
472.65 153.82 L
473.2 151.934 L
473.751 150.258 L
474.301 148.634 L
474.852 147.429 L
475.402 147.115 L
475.953 146.8 L
476.503 146.538 L
477.054 146.905 L
477.604 147.115 L
478.155 147.219 L
478.705 147.272 L
479.256 147.219 L
479.806 147.324 L
480.357 147.272 L
480.907 146.905 L
481.458 146.748 L
482.008 146.433 L
482.559 145.543 L
483.109 144.548 L
483.66 143.343 L
484.21 142.4 L
484.76 141.509 L
485.311 140.985 L
485.862 140.933 L
486.412 141.142 L
486.962 141.352 L
487.513 141.352 L
488.063 141.719 L
488.614 141.457 L
489.164 141.142 L
489.715 140.723 L
490.265 140.357 L
490.816 139.518 L
491.366 139.623 L
491.917 139.571 L
492.467 139.78 L
493.018 140.199 L
493.568 140.828 L
494.119 141.038 L
494.669 141.352 L
495.22 141.3 L
495.77 141.352 L
496.321 140.985 L
496.871 140.723 L
497.422 140.828 L
497.972 140.88 L
498.523 140.776 L
499.073 140.723 L
499.624 140.566 L
500.174 140.461 L
500.725 140.357 L
501.275 140.409 L
501.825 140.531 L
502.376 140.88 L
S
GR
GS
[0.75 0 0 0.75 0 0] CT
1 GC
N
388 361 M
388 308 L
494 308 L
494 361 L
cp
f
GR
GS
[0.75 0 0 0.75 318.75 238.5] CT
/Helvetica 12 F
GS
[1 0 0 1 0 0] CT
0 5 moveto 
1 -1 scale
(gloveBaseA) t 
GR
GR
GS
[0.75 0 0 0.75 0 0] CT
0 0.447 0.741 RC
1 LJ
0.667 LW
N
392 318 M
422 318 L
S
GR
GS
[0.75 0 0 0.75 318.75 250.875] CT
/Helvetica 12 F
GS
[1 0 0 1 0 0] CT
0 5 moveto 
1 -1 scale
(unkmenA) t 
GR
GR
GS
[0.75 0 0 0.75 0 0] CT
0.851 0.325 0.098 RC
1 LJ
0.667 LW
N
392 334.5 M
422 334.5 L
S
GR
GS
[0.75 0 0 0.75 318.75 263.25] CT
/Helvetica 12 F
GS
[1 0 0 1 0 0] CT
0 5 moveto 
1 -1 scale
(unkmen01A) t 
GR
GR
GS
[0.75 0 0 0.75 0 0] CT
0.929 0.694 0.125 RC
1 LJ
0.667 LW
N
392 351 M
422 351 L
S
GR
GS
[0.75 0 0 0.75 0 0] CT
0.149 GC
10.0 ML
0.667 LW
N
388 361 M
388 308 L
494 308 L
494 361 L
cp
S
GR
%%Trailer
%%Pages: 1
%%EOF
