%!PS-Adobe-3.0 EPSF-3.0
%%Creator: (MATLAB, The Mathworks, Inc. Version 9.0.0.341360 \(R2016a\). Operating System: Windows 8)
%%Title: ../doc/thesis/figures/word_weights_group_lim.eps
%%CreationDate: 2016-08-25T15:02:22
%%Pages: (atend)
%%BoundingBox:    26    19   387   305
%%LanguageLevel: 3
%%EndComments
%%BeginProlog
%%BeginResource: procset (Apache XML Graphics Std ProcSet) 1.2 0
%%Version: 1.2 0
%%Copyright: (Copyright 2001-2003,2010 The Apache Software Foundation. License terms: http://www.apache.org/licenses/LICENSE-2.0)
/bd{bind def}bind def
/ld{load def}bd
/GR/grestore ld
/M/moveto ld
/LJ/setlinejoin ld
/C/curveto ld
/f/fill ld
/LW/setlinewidth ld
/GC/setgray ld
/t/show ld
/N/newpath ld
/CT/concat ld
/cp/closepath ld
/S/stroke ld
/L/lineto ld
/CC/setcmykcolor ld
/A/ashow ld
/GS/gsave ld
/RC/setrgbcolor ld
/RM/rmoveto ld
/ML/setmiterlimit ld
/re {4 2 roll M
1 index 0 rlineto
0 exch rlineto
neg 0 rlineto
cp } bd
/_ctm matrix def
/_tm matrix def
/BT { _ctm currentmatrix pop matrix _tm copy pop 0 0 moveto } bd
/ET { _ctm setmatrix } bd
/iTm { _ctm setmatrix _tm concat } bd
/Tm { _tm astore pop iTm 0 0 moveto } bd
/ux 0.0 def
/uy 0.0 def
/F {
  /Tp exch def
  /Tf exch def
  Tf findfont Tp scalefont setfont
  /cf Tf def  /cs Tp def
} bd
/ULS {currentpoint /uy exch def /ux exch def} bd
/ULE {
  /Tcx currentpoint pop def
  gsave
  newpath
  cf findfont cs scalefont dup
  /FontMatrix get 0 get /Ts exch def /FontInfo get dup
  /UnderlinePosition get Ts mul /To exch def
  /UnderlineThickness get Ts mul /Tt exch def
  ux uy To add moveto  Tcx uy To add lineto
  Tt setlinewidth stroke
  grestore
} bd
/OLE {
  /Tcx currentpoint pop def
  gsave
  newpath
  cf findfont cs scalefont dup
  /FontMatrix get 0 get /Ts exch def /FontInfo get dup
  /UnderlinePosition get Ts mul /To exch def
  /UnderlineThickness get Ts mul /Tt exch def
  ux uy To add cs add moveto Tcx uy To add cs add lineto
  Tt setlinewidth stroke
  grestore
} bd
/SOE {
  /Tcx currentpoint pop def
  gsave
  newpath
  cf findfont cs scalefont dup
  /FontMatrix get 0 get /Ts exch def /FontInfo get dup
  /UnderlinePosition get Ts mul /To exch def
  /UnderlineThickness get Ts mul /Tt exch def
  ux uy To add cs 10 mul 26 idiv add moveto Tcx uy To add cs 10 mul 26 idiv add lineto
  Tt setlinewidth stroke
  grestore
} bd
/QT {
/Y22 exch store
/X22 exch store
/Y21 exch store
/X21 exch store
currentpoint
/Y21 load 2 mul add 3 div exch
/X21 load 2 mul add 3 div exch
/X21 load 2 mul /X22 load add 3 div
/Y21 load 2 mul /Y22 load add 3 div
/X22 load /Y22 load curveto
} bd
/SSPD {
dup length /d exch dict def
{
/v exch def
/k exch def
currentpagedevice k known {
/cpdv currentpagedevice k get def
v cpdv ne {
/upd false def
/nullv v type /nulltype eq def
/nullcpdv cpdv type /nulltype eq def
nullv nullcpdv or
{
/upd true def
} {
/sametype v type cpdv type eq def
sametype {
v type /arraytype eq {
/vlen v length def
/cpdvlen cpdv length def
vlen cpdvlen eq {
0 1 vlen 1 sub {
/i exch def
/obj v i get def
/cpdobj cpdv i get def
obj cpdobj ne {
/upd true def
exit
} if
} for
} {
/upd true def
} ifelse
} {
v type /dicttype eq {
v {
/dv exch def
/dk exch def
/cpddv cpdv dk get def
dv cpddv ne {
/upd true def
exit
} if
} forall
} {
/upd true def
} ifelse
} ifelse
} if
} ifelse
upd true eq {
d k v put
} if
} if
} if
} forall
d length 0 gt {
d setpagedevice
} if
} bd
%%EndResource
%%BeginResource: procset (Apache XML Graphics EPS ProcSet) 1.0 0
%%Version: 1.0 0
%%Copyright: (Copyright 2002-2003 The Apache Software Foundation. License terms: http://www.apache.org/licenses/LICENSE-2.0)
/BeginEPSF { %def
/b4_Inc_state save def         % Save state for cleanup
/dict_count countdictstack def % Count objects on dict stack
/op_count count 1 sub def      % Count objects on operand stack
userdict begin                 % Push userdict on dict stack
/showpage { } def              % Redefine showpage, { } = null proc
0 setgray 0 setlinecap         % Prepare graphics state
1 setlinewidth 0 setlinejoin
10 setmiterlimit [ ] 0 setdash newpath
/languagelevel where           % If level not equal to 1 then
{pop languagelevel             % set strokeadjust and
1 ne                           % overprint to their defaults.
{false setstrokeadjust false setoverprint
} if
} if
} bd
/EndEPSF { %def
count op_count sub {pop} repeat            % Clean up stacks
countdictstack dict_count sub {end} repeat
b4_Inc_state restore
} bd
%%EndResource
%FOPBeginFontDict
%%IncludeResource: font Courier-Bold
%%IncludeResource: font Helvetica
%%IncludeResource: font Courier-BoldOblique
%%IncludeResource: font Courier-Oblique
%%IncludeResource: font Times-Roman
%%IncludeResource: font Helvetica-BoldOblique
%%IncludeResource: font Helvetica-Bold
%%IncludeResource: font Helvetica-Oblique
%%IncludeResource: font Times-BoldItalic
%%IncludeResource: font Courier
%%IncludeResource: font Times-Italic
%%IncludeResource: font Times-Bold
%%IncludeResource: font Symbol
%%IncludeResource: font ZapfDingbats
%FOPEndFontDict
%%BeginResource: encoding WinAnsiEncoding
/WinAnsiEncoding [
/.notdef /.notdef /.notdef /.notdef /.notdef
/.notdef /.notdef /.notdef /.notdef /.notdef
/.notdef /.notdef /.notdef /.notdef /.notdef
/.notdef /.notdef /.notdef /.notdef /.notdef
/.notdef /.notdef /.notdef /.notdef /.notdef
/.notdef /.notdef /.notdef /.notdef /.notdef
/.notdef /.notdef /space /exclam /quotedbl
/numbersign /dollar /percent /ampersand /quotesingle
/parenleft /parenright /asterisk /plus /comma
/hyphen /period /slash /zero /one
/two /three /four /five /six
/seven /eight /nine /colon /semicolon
/less /equal /greater /question /at
/A /B /C /D /E
/F /G /H /I /J
/K /L /M /N /O
/P /Q /R /S /T
/U /V /W /X /Y
/Z /bracketleft /backslash /bracketright /asciicircum
/underscore /quoteleft /a /b /c
/d /e /f /g /h
/i /j /k /l /m
/n /o /p /q /r
/s /t /u /v /w
/x /y /z /braceleft /bar
/braceright /asciitilde /bullet /Euro /bullet
/quotesinglbase /florin /quotedblbase /ellipsis /dagger
/daggerdbl /circumflex /perthousand /Scaron /guilsinglleft
/OE /bullet /Zcaron /bullet /bullet
/quoteleft /quoteright /quotedblleft /quotedblright /bullet
/endash /emdash /asciitilde /trademark /scaron
/guilsinglright /oe /bullet /zcaron /Ydieresis
/space /exclamdown /cent /sterling /currency
/yen /brokenbar /section /dieresis /copyright
/ordfeminine /guillemotleft /logicalnot /sfthyphen /registered
/macron /degree /plusminus /twosuperior /threesuperior
/acute /mu /paragraph /middot /cedilla
/onesuperior /ordmasculine /guillemotright /onequarter /onehalf
/threequarters /questiondown /Agrave /Aacute /Acircumflex
/Atilde /Adieresis /Aring /AE /Ccedilla
/Egrave /Eacute /Ecircumflex /Edieresis /Igrave
/Iacute /Icircumflex /Idieresis /Eth /Ntilde
/Ograve /Oacute /Ocircumflex /Otilde /Odieresis
/multiply /Oslash /Ugrave /Uacute /Ucircumflex
/Udieresis /Yacute /Thorn /germandbls /agrave
/aacute /acircumflex /atilde /adieresis /aring
/ae /ccedilla /egrave /eacute /ecircumflex
/edieresis /igrave /iacute /icircumflex /idieresis
/eth /ntilde /ograve /oacute /ocircumflex
/otilde /odieresis /divide /oslash /ugrave
/uacute /ucircumflex /udieresis /yacute /thorn
/ydieresis
] def
%%EndResource
%FOPBeginFontReencode
/Courier-Bold findfont
dup length dict begin
  {1 index /FID ne {def} {pop pop} ifelse} forall
  /Encoding WinAnsiEncoding def
  currentdict
end
/Courier-Bold exch definefont pop
/Helvetica findfont
dup length dict begin
  {1 index /FID ne {def} {pop pop} ifelse} forall
  /Encoding WinAnsiEncoding def
  currentdict
end
/Helvetica exch definefont pop
/Courier-BoldOblique findfont
dup length dict begin
  {1 index /FID ne {def} {pop pop} ifelse} forall
  /Encoding WinAnsiEncoding def
  currentdict
end
/Courier-BoldOblique exch definefont pop
/Courier-Oblique findfont
dup length dict begin
  {1 index /FID ne {def} {pop pop} ifelse} forall
  /Encoding WinAnsiEncoding def
  currentdict
end
/Courier-Oblique exch definefont pop
/Times-Roman findfont
dup length dict begin
  {1 index /FID ne {def} {pop pop} ifelse} forall
  /Encoding WinAnsiEncoding def
  currentdict
end
/Times-Roman exch definefont pop
/Helvetica-BoldOblique findfont
dup length dict begin
  {1 index /FID ne {def} {pop pop} ifelse} forall
  /Encoding WinAnsiEncoding def
  currentdict
end
/Helvetica-BoldOblique exch definefont pop
/Helvetica-Bold findfont
dup length dict begin
  {1 index /FID ne {def} {pop pop} ifelse} forall
  /Encoding WinAnsiEncoding def
  currentdict
end
/Helvetica-Bold exch definefont pop
/Helvetica-Oblique findfont
dup length dict begin
  {1 index /FID ne {def} {pop pop} ifelse} forall
  /Encoding WinAnsiEncoding def
  currentdict
end
/Helvetica-Oblique exch definefont pop
/Times-BoldItalic findfont
dup length dict begin
  {1 index /FID ne {def} {pop pop} ifelse} forall
  /Encoding WinAnsiEncoding def
  currentdict
end
/Times-BoldItalic exch definefont pop
/Courier findfont
dup length dict begin
  {1 index /FID ne {def} {pop pop} ifelse} forall
  /Encoding WinAnsiEncoding def
  currentdict
end
/Courier exch definefont pop
/Times-Italic findfont
dup length dict begin
  {1 index /FID ne {def} {pop pop} ifelse} forall
  /Encoding WinAnsiEncoding def
  currentdict
end
/Times-Italic exch definefont pop
/Times-Bold findfont
dup length dict begin
  {1 index /FID ne {def} {pop pop} ifelse} forall
  /Encoding WinAnsiEncoding def
  currentdict
end
/Times-Bold exch definefont pop
%FOPEndFontReencode
%%EndProlog
%%Page: 1 1
%%PageBoundingBox: 0 0 420 315
%%BeginPageSetup
[1 0 0 -1 0 315] CT
%%EndPageSetup
GS
[0.75 0 0 0.75 0 0] CT
1 GC
N
0 0 560 420 re
f
GR
GS
[0.75 0 0 0.75 0 0] CT
1 GC
N
0 0 560 420 re
f
GR
GS
[0.75 0 0 0.75 0 0] CT
1 GC
N
73 374 M
507 374 L
507 31 L
73 31 L
cp
f
GR
GS
[0.75 0 0 0.75 0 0] CT
0.149 GC
2 setlinecap
1 LJ
0.667 LW
N
73 374 M
507 374 L
S
GR
GS
[0.75 0 0 0.75 0 0] CT
0.149 GC
2 setlinecap
1 LJ
0.667 LW
N
73 31 M
507 31 L
S
GR
GS
[0.75 0 0 0.75 0 0] CT
0.149 GC
2 setlinecap
1 LJ
0.667 LW
N
113.603 374 M
113.603 369.66 L
S
GR
GS
[0.75 0 0 0.75 0 0] CT
0.149 GC
2 setlinecap
1 LJ
0.667 LW
N
157.158 374 M
157.158 369.66 L
S
GR
GS
[0.75 0 0 0.75 0 0] CT
0.149 GC
2 setlinecap
1 LJ
0.667 LW
N
200.713 374 M
200.713 369.66 L
S
GR
GS
[0.75 0 0 0.75 0 0] CT
0.149 GC
2 setlinecap
1 LJ
0.667 LW
N
244.267 374 M
244.267 369.66 L
S
GR
GS
[0.75 0 0 0.75 0 0] CT
0.149 GC
2 setlinecap
1 LJ
0.667 LW
N
287.822 374 M
287.822 369.66 L
S
GR
GS
[0.75 0 0 0.75 0 0] CT
0.149 GC
2 setlinecap
1 LJ
0.667 LW
N
331.377 374 M
331.377 369.66 L
S
GR
GS
[0.75 0 0 0.75 0 0] CT
0.149 GC
2 setlinecap
1 LJ
0.667 LW
N
374.932 374 M
374.932 369.66 L
S
GR
GS
[0.75 0 0 0.75 0 0] CT
0.149 GC
2 setlinecap
1 LJ
0.667 LW
N
418.487 374 M
418.487 369.66 L
S
GR
GS
[0.75 0 0 0.75 0 0] CT
0.149 GC
2 setlinecap
1 LJ
0.667 LW
N
462.042 374 M
462.042 369.66 L
S
GR
GS
[0.75 0 0 0.75 0 0] CT
0.149 GC
2 setlinecap
1 LJ
0.667 LW
N
505.597 374 M
505.597 369.66 L
S
GR
GS
[0.75 0 0 0.75 0 0] CT
0.149 GC
2 setlinecap
1 LJ
0.667 LW
N
113.603 31 M
113.603 35.34 L
S
GR
GS
[0.75 0 0 0.75 0 0] CT
0.149 GC
2 setlinecap
1 LJ
0.667 LW
N
157.158 31 M
157.158 35.34 L
S
GR
GS
[0.75 0 0 0.75 0 0] CT
0.149 GC
2 setlinecap
1 LJ
0.667 LW
N
200.713 31 M
200.713 35.34 L
S
GR
GS
[0.75 0 0 0.75 0 0] CT
0.149 GC
2 setlinecap
1 LJ
0.667 LW
N
244.267 31 M
244.267 35.34 L
S
GR
GS
[0.75 0 0 0.75 0 0] CT
0.149 GC
2 setlinecap
1 LJ
0.667 LW
N
287.822 31 M
287.822 35.34 L
S
GR
GS
[0.75 0 0 0.75 0 0] CT
0.149 GC
2 setlinecap
1 LJ
0.667 LW
N
331.377 31 M
331.377 35.34 L
S
GR
GS
[0.75 0 0 0.75 0 0] CT
0.149 GC
2 setlinecap
1 LJ
0.667 LW
N
374.932 31 M
374.932 35.34 L
S
GR
GS
[0.75 0 0 0.75 0 0] CT
0.149 GC
2 setlinecap
1 LJ
0.667 LW
N
418.487 31 M
418.487 35.34 L
S
GR
GS
[0.75 0 0 0.75 0 0] CT
0.149 GC
2 setlinecap
1 LJ
0.667 LW
N
462.042 31 M
462.042 35.34 L
S
GR
GS
[0.75 0 0 0.75 0 0] CT
0.149 GC
2 setlinecap
1 LJ
0.667 LW
N
505.597 31 M
505.597 35.34 L
S
GR
GS
[0.75 0 0 0.75 85.20211 284.50001] CT
0.149 GC
/Helvetica 13.333 F
GS
[1 0 0 1 0 0] CT
-7.5 14 moveto 
1 -1 scale
(10) t 
GR
GR
GS
[0.75 0 0 0.75 117.86825 284.50001] CT
0.149 GC
/Helvetica 13.333 F
GS
[1 0 0 1 0 0] CT
-7.5 14 moveto 
1 -1 scale
(20) t 
GR
GR
GS
[0.75 0 0 0.75 150.5344 284.50001] CT
0.149 GC
/Helvetica 13.333 F
GS
[1 0 0 1 0 0] CT
-7.5 14 moveto 
1 -1 scale
(30) t 
GR
GR
GS
[0.75 0 0 0.75 183.20055 284.50001] CT
0.149 GC
/Helvetica 13.333 F
GS
[1 0 0 1 0 0] CT
-7.5 14 moveto 
1 -1 scale
(40) t 
GR
GR
GS
[0.75 0 0 0.75 215.8667 284.50001] CT
0.149 GC
/Helvetica 13.333 F
GS
[1 0 0 1 0 0] CT
-7.5 14 moveto 
1 -1 scale
(50) t 
GR
GR
GS
[0.75 0 0 0.75 248.53283 284.50001] CT
0.149 GC
/Helvetica 13.333 F
GS
[1 0 0 1 0 0] CT
-7.5 14 moveto 
1 -1 scale
(60) t 
GR
GR
GS
[0.75 0 0 0.75 281.19898 284.50001] CT
0.149 GC
/Helvetica 13.333 F
GS
[1 0 0 1 0 0] CT
-7.5 14 moveto 
1 -1 scale
(70) t 
GR
GR
GS
[0.75 0 0 0.75 313.86514 284.50001] CT
0.149 GC
/Helvetica 13.333 F
GS
[1 0 0 1 0 0] CT
-7.5 14 moveto 
1 -1 scale
(80) t 
GR
GR
GS
[0.75 0 0 0.75 346.53129 284.50001] CT
0.149 GC
/Helvetica 13.333 F
GS
[1 0 0 1 0 0] CT
-7.5 14 moveto 
1 -1 scale
(90) t 
GR
GR
GS
[0.75 0 0 0.75 379.19742 284.50001] CT
0.149 GC
/Helvetica 13.333 F
GS
[1 0 0 1 0 0] CT
-11 14 moveto 
1 -1 scale
(100) t 
GR
GR
GS
[0.75 0 0 0.75 0 0] CT
0.149 GC
2 setlinecap
1 LJ
0.667 LW
N
73 374 M
73 31 L
S
GR
GS
[0.75 0 0 0.75 0 0] CT
0.149 GC
2 setlinecap
1 LJ
0.667 LW
N
507 374 M
507 31 L
S
GR
GS
[0.75 0 0 0.75 0 0] CT
0.149 GC
2 setlinecap
1 LJ
0.667 LW
N
73 374 M
77.34 374 L
S
GR
GS
[0.75 0 0 0.75 0 0] CT
0.149 GC
2 setlinecap
1 LJ
0.667 LW
N
73 339.7 M
77.34 339.7 L
S
GR
GS
[0.75 0 0 0.75 0 0] CT
0.149 GC
2 setlinecap
1 LJ
0.667 LW
N
73 305.4 M
77.34 305.4 L
S
GR
GS
[0.75 0 0 0.75 0 0] CT
0.149 GC
2 setlinecap
1 LJ
0.667 LW
N
73 271.1 M
77.34 271.1 L
S
GR
GS
[0.75 0 0 0.75 0 0] CT
0.149 GC
2 setlinecap
1 LJ
0.667 LW
N
73 236.8 M
77.34 236.8 L
S
GR
GS
[0.75 0 0 0.75 0 0] CT
0.149 GC
2 setlinecap
1 LJ
0.667 LW
N
73 202.5 M
77.34 202.5 L
S
GR
GS
[0.75 0 0 0.75 0 0] CT
0.149 GC
2 setlinecap
1 LJ
0.667 LW
N
73 168.2 M
77.34 168.2 L
S
GR
GS
[0.75 0 0 0.75 0 0] CT
0.149 GC
2 setlinecap
1 LJ
0.667 LW
N
73 133.9 M
77.34 133.9 L
S
GR
GS
[0.75 0 0 0.75 0 0] CT
0.149 GC
2 setlinecap
1 LJ
0.667 LW
N
73 99.6 M
77.34 99.6 L
S
GR
GS
[0.75 0 0 0.75 0 0] CT
0.149 GC
2 setlinecap
1 LJ
0.667 LW
N
73 65.3 M
77.34 65.3 L
S
GR
GS
[0.75 0 0 0.75 0 0] CT
0.149 GC
2 setlinecap
1 LJ
0.667 LW
N
73 31 M
77.34 31 L
S
GR
GS
[0.75 0 0 0.75 0 0] CT
0.149 GC
2 setlinecap
1 LJ
0.667 LW
N
507 374 M
502.66 374 L
S
GR
GS
[0.75 0 0 0.75 0 0] CT
0.149 GC
2 setlinecap
1 LJ
0.667 LW
N
507 339.7 M
502.66 339.7 L
S
GR
GS
[0.75 0 0 0.75 0 0] CT
0.149 GC
2 setlinecap
1 LJ
0.667 LW
N
507 305.4 M
502.66 305.4 L
S
GR
GS
[0.75 0 0 0.75 0 0] CT
0.149 GC
2 setlinecap
1 LJ
0.667 LW
N
507 271.1 M
502.66 271.1 L
S
GR
GS
[0.75 0 0 0.75 0 0] CT
0.149 GC
2 setlinecap
1 LJ
0.667 LW
N
507 236.8 M
502.66 236.8 L
S
GR
GS
[0.75 0 0 0.75 0 0] CT
0.149 GC
2 setlinecap
1 LJ
0.667 LW
N
507 202.5 M
502.66 202.5 L
S
GR
GS
[0.75 0 0 0.75 0 0] CT
0.149 GC
2 setlinecap
1 LJ
0.667 LW
N
507 168.2 M
502.66 168.2 L
S
GR
GS
[0.75 0 0 0.75 0 0] CT
0.149 GC
2 setlinecap
1 LJ
0.667 LW
N
507 133.9 M
502.66 133.9 L
S
GR
GS
[0.75 0 0 0.75 0 0] CT
0.149 GC
2 setlinecap
1 LJ
0.667 LW
N
507 99.6 M
502.66 99.6 L
S
GR
GS
[0.75 0 0 0.75 0 0] CT
0.149 GC
2 setlinecap
1 LJ
0.667 LW
N
507 65.3 M
502.66 65.3 L
S
GR
GS
[0.75 0 0 0.75 0 0] CT
0.149 GC
2 setlinecap
1 LJ
0.667 LW
N
507 31 M
502.66 31 L
S
GR
GS
[0.75 0 0 0.75 50.75 280.5] CT
0.149 GC
/Helvetica 13.333 F
GS
[1 0 0 1 0 0] CT
-8 5.5 moveto 
1 -1 scale
(0) t 
GR
GR
GS
[0.75 0 0 0.75 50.75 254.77501] CT
0.149 GC
/Helvetica 13.333 F
GS
[1 0 0 1 0 0] CT
-33 5.5 moveto 
1 -1 scale
(0.005) t 
GR
GR
GS
[0.75 0 0 0.75 50.75 229.05] CT
0.149 GC
/Helvetica 13.333 F
GS
[1 0 0 1 0 0] CT
-26 5.5 moveto 
1 -1 scale
(0.01) t 
GR
GR
GS
[0.75 0 0 0.75 50.75 203.325] CT
0.149 GC
/Helvetica 13.333 F
GS
[1 0 0 1 0 0] CT
-33 5.5 moveto 
1 -1 scale
(0.015) t 
GR
GR
GS
[0.75 0 0 0.75 50.75 177.6] CT
0.149 GC
/Helvetica 13.333 F
GS
[1 0 0 1 0 0] CT
-26 5.5 moveto 
1 -1 scale
(0.02) t 
GR
GR
GS
[0.75 0 0 0.75 50.75 151.875] CT
0.149 GC
/Helvetica 13.333 F
GS
[1 0 0 1 0 0] CT
-33 5.5 moveto 
1 -1 scale
(0.025) t 
GR
GR
GS
[0.75 0 0 0.75 50.75 126.15001] CT
0.149 GC
/Helvetica 13.333 F
GS
[1 0 0 1 0 0] CT
-26 5.5 moveto 
1 -1 scale
(0.03) t 
GR
GR
GS
[0.75 0 0 0.75 50.75 100.425] CT
0.149 GC
/Helvetica 13.333 F
GS
[1 0 0 1 0 0] CT
-33 5.5 moveto 
1 -1 scale
(0.035) t 
GR
GR
GS
[0.75 0 0 0.75 50.75 74.7] CT
0.149 GC
/Helvetica 13.333 F
GS
[1 0 0 1 0 0] CT
-26 5.5 moveto 
1 -1 scale
(0.04) t 
GR
GR
GS
[0.75 0 0 0.75 50.75 48.97499] CT
0.149 GC
/Helvetica 13.333 F
GS
[1 0 0 1 0 0] CT
-33 5.5 moveto 
1 -1 scale
(0.045) t 
GR
GR
GS
[0.75 0 0 0.75 50.75 23.25] CT
0.149 GC
/Helvetica 13.333 F
GS
[1 0 0 1 0 0] CT
-26 5.5 moveto 
1 -1 scale
(0.05) t 
GR
GR
GS
[0.75 0 0 0.75 217.50021 21.1875] CT
/Helvetica-Bold 14.667 F
GS
[1 0 0 1 0 0] CT
-95 -4 moveto 
1 -1 scale
(Importance weighting ylim) t 
GR
GR
GS
[0.75 0 0 0.75 0 0] CT
0.149 GC
1 LJ
0.667 LW
N
73 374 M
507 374 L
S
GR
GS
[0.75 0 0 0.75 0 0] CT
0 0 0.8 RC
N
73 374 M
73.871 374 L
73.871 340.137 L
73 340.137 L
cp
f
GR
GS
[0.75 0 0 0.75 0 0] CT
0 0 0.8 RC
N
77.355 374 M
78.227 374 L
78.227 358.937 L
77.355 358.937 L
cp
f
GR
GS
[0.75 0 0 0.75 0 0] CT
0 0 0.8 RC
N
81.711 374 M
82.582 374 L
82.582 272.297 L
81.711 272.297 L
cp
f
GR
GS
[0.75 0 0 0.75 0 0] CT
0 0 0.8 RC
N
86.066 374 M
86.938 374 L
86.938 354.739 L
86.066 354.739 L
cp
f
GR
GS
[0.75 0 0 0.75 0 0] CT
0 0 0.8 RC
N
90.422 374 M
91.293 374 L
91.293 341.277 L
90.422 341.277 L
cp
f
GR
GS
[0.75 0 0 0.75 0 0] CT
0 0 0.8 RC
N
94.777 374 M
95.649 374 L
95.649 356.713 L
94.777 356.713 L
cp
f
GR
GS
[0.75 0 0 0.75 0 0] CT
0 0 0.8 RC
N
99.133 374 M
100.004 374 L
100.004 224.2 L
99.133 224.2 L
cp
f
GR
GS
[0.75 0 0 0.75 0 0] CT
0 0 0.8 RC
N
103.488 374 M
104.359 374 L
104.359 312.604 L
103.488 312.604 L
cp
f
GR
GS
[0.75 0 0 0.75 0 0] CT
0 0 0.8 RC
N
107.844 374 M
108.715 374 L
108.715 239.223 L
107.844 239.223 L
cp
f
GR
GS
[0.75 0 0 0.75 0 0] CT
0 0 0.8 RC
N
112.199 374 M
113.07 374 L
113.07 353.896 L
112.199 353.896 L
cp
f
GR
GS
[0.75 0 0 0.75 0 0] CT
0 0 0.8 RC
N
116.555 374 M
117.426 374 L
117.426 370.637 L
116.555 370.637 L
cp
f
GR
GS
[0.75 0 0 0.75 0 0] CT
0 0 0.8 RC
N
120.91 374 M
121.781 374 L
121.781 302.181 L
120.91 302.181 L
cp
f
GR
GS
[0.75 0 0 0.75 0 0] CT
0 0 0.8 RC
N
125.266 374 M
126.137 374 L
126.137 291.04 L
125.266 291.04 L
cp
f
GR
GS
[0.75 0 0 0.75 0 0] CT
0 0 0.8 RC
N
129.621 374 M
130.492 374 L
130.492 370.49 L
129.621 370.49 L
cp
f
GR
GS
[0.75 0 0 0.75 0 0] CT
0 0 0.8 RC
N
133.977 374 M
134.848 374 L
134.848 180.026 L
133.977 180.026 L
cp
f
GR
GS
[0.75 0 0 0.75 0 0] CT
0 0 0.8 RC
N
138.332 374 M
139.203 374 L
139.203 256.322 L
138.332 256.322 L
cp
f
GR
GS
[0.75 0 0 0.75 0 0] CT
0 0 0.8 RC
N
142.688 374 M
143.559 374 L
143.559 351.13 L
142.688 351.13 L
cp
f
GR
GS
[0.75 0 0 0.75 0 0] CT
0 0 0.8 RC
N
147.043 374 M
147.914 374 L
147.914 172.608 L
147.043 172.608 L
cp
f
GR
GS
[0.75 0 0 0.75 0 0] CT
0 0 0.8 RC
N
151.399 374 M
152.27 374 L
152.27 264.433 L
151.399 264.433 L
cp
f
GR
GS
[0.75 0 0 0.75 0 0] CT
0 0 0.8 RC
N
155.754 374 M
156.625 374 L
156.625 364.65 L
155.754 364.65 L
cp
f
GR
GS
[0.75 0 0 0.75 0 0] CT
0 0 0.8 RC
N
160.11 374 M
160.981 374 L
160.981 357.97 L
160.11 357.97 L
cp
f
GR
GS
[0.75 0 0 0.75 0 0] CT
0 0 0.8 RC
N
164.465 374 M
165.336 374 L
165.336 313.344 L
164.465 313.344 L
cp
f
GR
GS
[0.75 0 0 0.75 0 0] CT
0 0 0.8 RC
N
168.821 374 M
169.692 374 L
169.692 254.1 L
168.821 254.1 L
cp
f
GR
GS
[0.75 0 0 0.75 0 0] CT
0 0 0.8 RC
N
173.176 374 M
174.047 374 L
174.047 342.681 L
173.176 342.681 L
cp
f
GR
GS
[0.75 0 0 0.75 0 0] CT
0 0 0.8 RC
N
177.532 374 M
178.403 374 L
178.403 356.786 L
177.532 356.786 L
cp
f
GR
GS
[0.75 0 0 0.75 0 0] CT
0 0 0.8 RC
N
181.887 374 M
182.758 374 L
182.758 270.674 L
181.887 270.674 L
cp
f
GR
GS
[0.75 0 0 0.75 0 0] CT
0 0 0.8 RC
N
186.243 374 M
187.114 374 L
187.114 221.393 L
186.243 221.393 L
cp
f
GR
GS
[0.75 0 0 0.75 0 0] CT
0 0 0.8 RC
N
190.598 374 M
191.469 374 L
191.469 252.161 L
190.598 252.161 L
cp
f
GR
GS
[0.75 0 0 0.75 0 0] CT
0 0 0.8 RC
N
194.954 374 M
195.825 374 L
195.825 319.27 L
194.954 319.27 L
cp
f
GR
GS
[0.75 0 0 0.75 0 0] CT
0 0 0.8 RC
N
199.309 374 M
200.18 374 L
200.18 229.157 L
199.309 229.157 L
cp
f
GR
GS
[0.75 0 0 0.75 0 0] CT
0 0 0.8 RC
N
203.665 374 M
204.536 374 L
204.536 361.423 L
203.665 361.423 L
cp
f
GR
GS
[0.75 0 0 0.75 0 0] CT
0 0 0.8 RC
N
208.02 374 M
208.891 374 L
208.891 227.713 L
208.02 227.713 L
cp
f
GR
GS
[0.75 0 0 0.75 0 0] CT
0 0 0.8 RC
N
212.376 374 M
213.247 374 L
213.247 366.308 L
212.376 366.308 L
cp
f
GR
GS
[0.75 0 0 0.75 0 0] CT
0 0 0.8 RC
N
216.731 374 M
217.602 374 L
217.602 330.779 L
216.731 330.779 L
cp
f
GR
GS
[0.75 0 0 0.75 0 0] CT
0 0 0.8 RC
N
221.087 374 M
221.958 374 L
221.958 308.457 L
221.087 308.457 L
cp
f
GR
GS
[0.75 0 0 0.75 0 0] CT
0 0 0.8 RC
N
225.442 374 M
226.313 374 L
226.313 251.234 L
225.442 251.234 L
cp
f
GR
GS
[0.75 0 0 0.75 0 0] CT
0 0 0.8 RC
N
229.798 374 M
230.669 374 L
230.669 219.949 L
229.798 219.949 L
cp
f
GR
GS
[0.75 0 0 0.75 0 0] CT
0 0 0.8 RC
N
234.153 374 M
235.024 374 L
235.024 363.853 L
234.153 363.853 L
cp
f
GR
GS
[0.75 0 0 0.75 0 0] CT
0 0 0.8 RC
N
238.508 374 M
239.38 374 L
239.38 359.977 L
238.508 359.977 L
cp
f
GR
GS
[0.75 0 0 0.75 0 0] CT
0 0 0.8 RC
N
242.864 374 M
243.735 374 L
243.735 177.275 L
242.864 177.275 L
cp
f
GR
GS
[0.75 0 0 0.75 0 0] CT
0 0 0.8 RC
N
247.219 374 M
248.091 374 L
248.091 225.327 L
247.219 225.327 L
cp
f
GR
GS
[0.75 0 0 0.75 0 0] CT
0 0 0.8 RC
N
251.575 374 M
252.446 374 L
252.446 269.438 L
251.575 269.438 L
cp
f
GR
GS
[0.75 0 0 0.75 0 0] CT
0 0 0.8 RC
N
255.93 374 M
256.802 374 L
256.802 272.089 L
255.93 272.089 L
cp
f
GR
GS
[0.75 0 0 0.75 0 0] CT
0 0 0.8 RC
N
260.286 374 M
261.157 374 L
261.157 348.076 L
260.286 348.076 L
cp
f
GR
GS
[0.75 0 0 0.75 0 0] CT
0 0 0.8 RC
N
264.641 374 M
265.512 374 L
265.512 350.236 L
264.641 350.236 L
cp
f
GR
GS
[0.75 0 0 0.75 0 0] CT
0 0 0.8 RC
N
268.997 374 M
269.868 374 L
269.868 297.553 L
268.997 297.553 L
cp
f
GR
GS
[0.75 0 0 0.75 0 0] CT
0 0 0.8 RC
N
273.352 374 M
274.223 374 L
274.223 303.832 L
273.352 303.832 L
cp
f
GR
GS
[0.75 0 0 0.75 0 0] CT
0 0 0.8 RC
N
277.708 374 M
278.579 374 L
278.579 239.063 L
277.708 239.063 L
cp
f
GR
GS
[0.75 0 0 0.75 0 0] CT
0 0 0.8 RC
N
282.063 374 M
282.934 374 L
282.934 353.722 L
282.063 353.722 L
cp
f
GR
GS
[0.75 0 0 0.75 0 0] CT
0 0 0.8 RC
N
286.419 374 M
287.29 374 L
287.29 370.1 L
286.419 370.1 L
cp
f
GR
GS
[0.75 0 0 0.75 0 0] CT
0 0 0.8 RC
N
290.774 374 M
291.645 374 L
291.645 365.713 L
290.774 365.713 L
cp
f
GR
GS
[0.75 0 0 0.75 0 0] CT
0 0 0.8 RC
N
295.13 374 M
296.001 374 L
296.001 320.603 L
295.13 320.603 L
cp
f
GR
GS
[0.75 0 0 0.75 0 0] CT
0 0 0.8 RC
N
299.485 374 M
300.356 374 L
300.356 321.322 L
299.485 321.322 L
cp
f
GR
GS
[0.75 0 0 0.75 0 0] CT
0 0 0.8 RC
N
303.841 374 M
304.712 374 L
304.712 225.15 L
303.841 225.15 L
cp
f
GR
GS
[0.75 0 0 0.75 0 0] CT
0 0 0.8 RC
N
308.196 374 M
309.067 374 L
309.067 365.415 L
308.196 365.415 L
cp
f
GR
GS
[0.75 0 0 0.75 0 0] CT
0 0 0.8 RC
N
312.552 374 M
313.423 374 L
313.423 302.255 L
312.552 302.255 L
cp
f
GR
GS
[0.75 0 0 0.75 0 0] CT
0 0 0.8 RC
N
316.907 374 M
317.778 374 L
317.778 276.036 L
316.907 276.036 L
cp
f
GR
GS
[0.75 0 0 0.75 0 0] CT
0 0 0.8 RC
N
321.263 374 M
322.134 374 L
322.134 355.986 L
321.263 355.986 L
cp
f
GR
GS
[0.75 0 0 0.75 0 0] CT
0 0 0.8 RC
N
325.618 374 M
326.489 374 L
326.489 368.449 L
325.618 368.449 L
cp
f
GR
GS
[0.75 0 0 0.75 0 0] CT
0 0 0.8 RC
N
329.974 374 M
330.845 374 L
330.845 266.216 L
329.974 266.216 L
cp
f
GR
GS
[0.75 0 0 0.75 0 0] CT
0 0 0.8 RC
N
334.329 374 M
335.2 374 L
335.2 320.721 L
334.329 320.721 L
cp
f
GR
GS
[0.75 0 0 0.75 0 0] CT
0 0 0.8 RC
N
338.685 374 M
339.556 374 L
339.556 332.63 L
338.685 332.63 L
cp
f
GR
GS
[0.75 0 0 0.75 0 0] CT
0 0 0.8 RC
N
343.04 374 M
343.911 374 L
343.911 356.947 L
343.04 356.947 L
cp
f
GR
GS
[0.75 0 0 0.75 0 0] CT
0 0 0.8 RC
N
347.396 374 M
348.267 374 L
348.267 290.284 L
347.396 290.284 L
cp
f
GR
GS
[0.75 0 0 0.75 0 0] CT
0 0 0.8 RC
N
351.751 374 M
352.622 374 L
352.622 305.215 L
351.751 305.215 L
cp
f
GR
GS
[0.75 0 0 0.75 0 0] CT
0 0 0.8 RC
N
356.107 374 M
356.978 374 L
356.978 212.804 L
356.107 212.804 L
cp
f
GR
GS
[0.75 0 0 0.75 0 0] CT
0 0 0.8 RC
N
360.462 374 M
361.333 374 L
361.333 347.269 L
360.462 347.269 L
cp
f
GR
GS
[0.75 0 0 0.75 0 0] CT
0 0 0.8 RC
N
364.818 374 M
365.689 374 L
365.689 347.524 L
364.818 347.524 L
cp
f
GR
GS
[0.75 0 0 0.75 0 0] CT
0 0 0.8 RC
N
369.173 374 M
370.044 374 L
370.044 220.751 L
369.173 220.751 L
cp
f
GR
GS
[0.75 0 0 0.75 0 0] CT
0 0 0.8 RC
N
373.529 374 M
374.4 374 L
374.4 353.3 L
373.529 353.3 L
cp
f
GR
GS
[0.75 0 0 0.75 0 0] CT
0 0 0.8 RC
N
377.884 374 M
378.755 374 L
378.755 357.728 L
377.884 357.728 L
cp
f
GR
GS
[0.75 0 0 0.75 0 0] CT
0 0 0.8 RC
N
382.24 374 M
383.111 374 L
383.111 278.976 L
382.24 278.976 L
cp
f
GR
GS
[0.75 0 0 0.75 0 0] CT
0 0 0.8 RC
N
386.595 374 M
387.466 374 L
387.466 302.386 L
386.595 302.386 L
cp
f
GR
GS
[0.75 0 0 0.75 0 0] CT
0 0 0.8 RC
N
390.951 374 M
391.822 374 L
391.822 224.118 L
390.951 224.118 L
cp
f
GR
GS
[0.75 0 0 0.75 0 0] CT
0 0 0.8 RC
N
395.306 374 M
396.177 374 L
396.177 346.375 L
395.306 346.375 L
cp
f
GR
GS
[0.75 0 0 0.75 0 0] CT
0 0 0.8 RC
N
399.661 374 M
400.533 374 L
400.533 236.747 L
399.661 236.747 L
cp
f
GR
GS
[0.75 0 0 0.75 0 0] CT
0 0 0.8 RC
N
404.017 374 M
404.888 374 L
404.888 360.569 L
404.017 360.569 L
cp
f
GR
GS
[0.75 0 0 0.75 0 0] CT
0 0 0.8 RC
N
408.372 374 M
409.244 374 L
409.244 210.614 L
408.372 210.614 L
cp
f
GR
GS
[0.75 0 0 0.75 0 0] CT
0 0 0.8 RC
N
412.728 374 M
413.599 374 L
413.599 364.651 L
412.728 364.651 L
cp
f
GR
GS
[0.75 0 0 0.75 0 0] CT
0 0 0.8 RC
N
417.083 374 M
417.954 374 L
417.954 301.693 L
417.083 301.693 L
cp
f
GR
GS
[0.75 0 0 0.75 0 0] CT
0 0 0.8 RC
N
421.439 374 M
422.31 374 L
422.31 358.391 L
421.439 358.391 L
cp
f
GR
GS
[0.75 0 0 0.75 0 0] CT
0 0 0.8 RC
N
425.794 374 M
426.665 374 L
426.665 269.58 L
425.794 269.58 L
cp
f
GR
GS
[0.75 0 0 0.75 0 0] CT
0 0 0.8 RC
N
430.15 374 M
431.021 374 L
431.021 272.134 L
430.15 272.134 L
cp
f
GR
GS
[0.75 0 0 0.75 0 0] CT
0 0 0.8 RC
N
434.505 374 M
435.376 374 L
435.376 354.438 L
434.505 354.438 L
cp
f
GR
GS
[0.75 0 0 0.75 0 0] CT
0 0 0.8 RC
N
438.861 374 M
439.732 374 L
439.732 355.723 L
438.861 355.723 L
cp
f
GR
GS
[0.75 0 0 0.75 0 0] CT
0 0 0.8 RC
N
443.216 374 M
444.087 374 L
444.087 346.886 L
443.216 346.886 L
cp
f
GR
GS
[0.75 0 0 0.75 0 0] CT
0 0 0.8 RC
N
447.572 374 M
448.443 374 L
448.443 268.885 L
447.572 268.885 L
cp
f
GR
GS
[0.75 0 0 0.75 0 0] CT
0 0 0.8 RC
N
451.927 374 M
452.798 374 L
452.798 274.926 L
451.927 274.926 L
cp
f
GR
GS
[0.75 0 0 0.75 0 0] CT
0 0 0.8 RC
N
456.283 374 M
457.154 374 L
457.154 360.133 L
456.283 360.133 L
cp
f
GR
GS
[0.75 0 0 0.75 0 0] CT
0 0 0.8 RC
N
460.638 374 M
461.509 374 L
461.509 225.285 L
460.638 225.285 L
cp
f
GR
GS
[0.75 0 0 0.75 0 0] CT
0 0 0.8 RC
N
464.994 374 M
465.865 374 L
465.865 257.627 L
464.994 257.627 L
cp
f
GR
GS
[0.75 0 0 0.75 0 0] CT
0 0 0.8 RC
N
469.349 374 M
470.22 374 L
470.22 349.175 L
469.349 349.175 L
cp
f
GR
GS
[0.75 0 0 0.75 0 0] CT
0 0 0.8 RC
N
473.705 374 M
474.576 374 L
474.576 235.148 L
473.705 235.148 L
cp
f
GR
GS
[0.75 0 0 0.75 0 0] CT
0 0 0.8 RC
N
478.06 374 M
478.931 374 L
478.931 361.424 L
478.06 361.424 L
cp
f
GR
GS
[0.75 0 0 0.75 0 0] CT
0 0 0.8 RC
N
482.416 374 M
483.287 374 L
483.287 365.883 L
482.416 365.883 L
cp
f
GR
GS
[0.75 0 0 0.75 0 0] CT
0 0 0.8 RC
N
486.771 374 M
487.642 374 L
487.642 306.503 L
486.771 306.503 L
cp
f
GR
GS
[0.75 0 0 0.75 0 0] CT
0 0 0.8 RC
N
491.127 374 M
491.998 374 L
491.998 252.423 L
491.127 252.423 L
cp
f
GR
GS
[0.75 0 0 0.75 0 0] CT
0 0 0.8 RC
N
495.482 374 M
496.353 374 L
496.353 356.657 L
495.482 356.657 L
cp
f
GR
GS
[0.75 0 0 0.75 0 0] CT
0 0 0.8 RC
N
499.838 374 M
500.709 374 L
500.709 371.29 L
499.838 371.29 L
cp
f
GR
GS
[0.75 0 0 0.75 0 0] CT
0 0 0.8 RC
N
504.193 374 M
505.064 374 L
505.064 367.568 L
504.193 367.568 L
cp
f
GR
GS
[0.75 0 0 0.75 0 0] CT
0.8 0 0 RC
N
73.968 374 M
74.839 374 L
74.839 293.412 L
73.968 293.412 L
cp
f
GR
GS
[0.75 0 0 0.75 0 0] CT
0.8 0 0 RC
N
78.323 374 M
79.194 374 L
79.194 286.521 L
78.323 286.521 L
cp
f
GR
GS
[0.75 0 0 0.75 0 0] CT
0.8 0 0 RC
N
82.679 374 M
83.55 374 L
83.55 349.037 L
82.679 349.037 L
cp
f
GR
GS
[0.75 0 0 0.75 0 0] CT
0.8 0 0 RC
N
87.034 374 M
87.905 374 L
87.905 367.301 L
87.034 367.301 L
cp
f
GR
GS
[0.75 0 0 0.75 0 0] CT
0.8 0 0 RC
N
91.39 374 M
92.261 374 L
92.261 281.103 L
91.39 281.103 L
cp
f
GR
GS
[0.75 0 0 0.75 0 0] CT
0.8 0 0 RC
N
95.745 374 M
96.616 374 L
96.616 318.351 L
95.745 318.351 L
cp
f
GR
GS
[0.75 0 0 0.75 0 0] CT
0.8 0 0 RC
N
100.101 374 M
100.972 374 L
100.972 352.209 L
100.101 352.209 L
cp
f
GR
GS
[0.75 0 0 0.75 0 0] CT
0.8 0 0 RC
N
104.456 374 M
105.327 374 L
105.327 313.878 L
104.456 313.878 L
cp
f
GR
GS
[0.75 0 0 0.75 0 0] CT
0.8 0 0 RC
N
108.812 374 M
109.683 374 L
109.683 350.524 L
108.812 350.524 L
cp
f
GR
GS
[0.75 0 0 0.75 0 0] CT
0.8 0 0 RC
N
113.167 374 M
114.038 374 L
114.038 329.733 L
113.167 329.733 L
cp
f
GR
GS
[0.75 0 0 0.75 0 0] CT
0.8 0 0 RC
N
117.523 374 M
118.394 374 L
118.394 344.671 L
117.523 344.671 L
cp
f
GR
GS
[0.75 0 0 0.75 0 0] CT
0.8 0 0 RC
N
121.878 374 M
122.749 374 L
122.749 332.815 L
121.878 332.815 L
cp
f
GR
GS
[0.75 0 0 0.75 0 0] CT
0.8 0 0 RC
N
126.234 374 M
127.105 374 L
127.105 303.68 L
126.234 303.68 L
cp
f
GR
GS
[0.75 0 0 0.75 0 0] CT
0.8 0 0 RC
N
130.589 374 M
131.46 374 L
131.46 331.024 L
130.589 331.024 L
cp
f
GR
GS
[0.75 0 0 0.75 0 0] CT
0.8 0 0 RC
N
134.945 374 M
135.816 374 L
135.816 344.324 L
134.945 344.324 L
cp
f
GR
GS
[0.75 0 0 0.75 0 0] CT
0.8 0 0 RC
N
139.3 374 M
140.171 374 L
140.171 333.489 L
139.3 333.489 L
cp
f
GR
GS
[0.75 0 0 0.75 0 0] CT
0.8 0 0 RC
N
143.656 374 M
144.527 374 L
144.527 286.862 L
143.656 286.862 L
cp
f
GR
GS
[0.75 0 0 0.75 0 0] CT
0.8 0 0 RC
N
148.011 374 M
148.882 374 L
148.882 344.712 L
148.011 344.712 L
cp
f
GR
GS
[0.75 0 0 0.75 0 0] CT
0.8 0 0 RC
N
152.367 374 M
153.238 374 L
153.238 345.504 L
152.367 345.504 L
cp
f
GR
GS
[0.75 0 0 0.75 0 0] CT
0.8 0 0 RC
N
156.722 374 M
157.593 374 L
157.593 266.598 L
156.722 266.598 L
cp
f
GR
GS
[0.75 0 0 0.75 0 0] CT
0.8 0 0 RC
N
161.078 374 M
161.949 374 L
161.949 297.769 L
161.078 297.769 L
cp
f
GR
GS
[0.75 0 0 0.75 0 0] CT
0.8 0 0 RC
N
165.433 374 M
166.304 374 L
166.304 335.959 L
165.433 335.959 L
cp
f
GR
GS
[0.75 0 0 0.75 0 0] CT
0.8 0 0 RC
N
169.789 374 M
170.66 374 L
170.66 345.118 L
169.789 345.118 L
cp
f
GR
GS
[0.75 0 0 0.75 0 0] CT
0.8 0 0 RC
N
174.144 374 M
175.015 374 L
175.015 353.502 L
174.144 353.502 L
cp
f
GR
GS
[0.75 0 0 0.75 0 0] CT
0.8 0 0 RC
N
178.5 374 M
179.371 374 L
179.371 315.399 L
178.5 315.399 L
cp
f
GR
GS
[0.75 0 0 0.75 0 0] CT
0.8 0 0 RC
N
182.855 374 M
183.726 374 L
183.726 346.936 L
182.855 346.936 L
cp
f
GR
GS
[0.75 0 0 0.75 0 0] CT
0.8 0 0 RC
N
187.211 374 M
188.082 374 L
188.082 335.531 L
187.211 335.531 L
cp
f
GR
GS
[0.75 0 0 0.75 0 0] CT
0.8 0 0 RC
N
191.566 374 M
192.437 374 L
192.437 350.362 L
191.566 350.362 L
cp
f
GR
GS
[0.75 0 0 0.75 0 0] CT
0.8 0 0 RC
N
195.921 374 M
196.793 374 L
196.793 256.859 L
195.921 256.859 L
cp
f
GR
GS
[0.75 0 0 0.75 0 0] CT
0.8 0 0 RC
N
200.277 374 M
201.148 374 L
201.148 350.233 L
200.277 350.233 L
cp
f
GR
GS
[0.75 0 0 0.75 0 0] CT
0.8 0 0 RC
N
204.632 374 M
205.504 374 L
205.504 322.676 L
204.632 322.676 L
cp
f
GR
GS
[0.75 0 0 0.75 0 0] CT
0.8 0 0 RC
N
208.988 374 M
209.859 374 L
209.859 347.757 L
208.988 347.757 L
cp
f
GR
GS
[0.75 0 0 0.75 0 0] CT
0.8 0 0 RC
N
213.343 374 M
214.215 374 L
214.215 231.98 L
213.343 231.98 L
cp
f
GR
GS
[0.75 0 0 0.75 0 0] CT
0.8 0 0 RC
N
217.699 374 M
218.57 374 L
218.57 233.078 L
217.699 233.078 L
cp
f
GR
GS
[0.75 0 0 0.75 0 0] CT
0.8 0 0 RC
N
222.054 374 M
222.926 374 L
222.926 332.801 L
222.054 332.801 L
cp
f
GR
GS
[0.75 0 0 0.75 0 0] CT
0.8 0 0 RC
N
226.41 374 M
227.281 374 L
227.281 339.666 L
226.41 339.666 L
cp
f
GR
GS
[0.75 0 0 0.75 0 0] CT
0.8 0 0 RC
N
230.765 374 M
231.636 374 L
231.636 331.141 L
230.765 331.141 L
cp
f
GR
GS
[0.75 0 0 0.75 0 0] CT
0.8 0 0 RC
N
235.121 374 M
235.992 374 L
235.992 324.23 L
235.121 324.23 L
cp
f
GR
GS
[0.75 0 0 0.75 0 0] CT
0.8 0 0 RC
N
239.476 374 M
240.347 374 L
240.347 225.693 L
239.476 225.693 L
cp
f
GR
GS
[0.75 0 0 0.75 0 0] CT
0.8 0 0 RC
N
243.832 374 M
244.703 374 L
244.703 337.025 L
243.832 337.025 L
cp
f
GR
GS
[0.75 0 0 0.75 0 0] CT
0.8 0 0 RC
N
248.187 374 M
249.058 374 L
249.058 343.378 L
248.187 343.378 L
cp
f
GR
GS
[0.75 0 0 0.75 0 0] CT
0.8 0 0 RC
N
252.543 374 M
253.414 374 L
253.414 329.529 L
252.543 329.529 L
cp
f
GR
GS
[0.75 0 0 0.75 0 0] CT
0.8 0 0 RC
N
256.898 374 M
257.769 374 L
257.769 258.209 L
256.898 258.209 L
cp
f
GR
GS
[0.75 0 0 0.75 0 0] CT
0.8 0 0 RC
N
261.254 374 M
262.125 374 L
262.125 189.485 L
261.254 189.485 L
cp
f
GR
GS
[0.75 0 0 0.75 0 0] CT
0.8 0 0 RC
N
265.609 374 M
266.48 374 L
266.48 236.184 L
265.609 236.184 L
cp
f
GR
GS
[0.75 0 0 0.75 0 0] CT
0.8 0 0 RC
N
269.965 374 M
270.836 374 L
270.836 269.415 L
269.965 269.415 L
cp
f
GR
GS
[0.75 0 0 0.75 0 0] CT
0.8 0 0 RC
N
274.32 374 M
275.191 374 L
275.191 251.415 L
274.32 251.415 L
cp
f
GR
GS
[0.75 0 0 0.75 0 0] CT
0.8 0 0 RC
N
278.676 374 M
279.547 374 L
279.547 330.222 L
278.676 330.222 L
cp
f
GR
GS
[0.75 0 0 0.75 0 0] CT
0.8 0 0 RC
N
283.031 374 M
283.902 374 L
283.902 294.6 L
283.031 294.6 L
cp
f
GR
GS
[0.75 0 0 0.75 0 0] CT
0.8 0 0 RC
N
287.387 374 M
288.258 374 L
288.258 299.067 L
287.387 299.067 L
cp
f
GR
GS
[0.75 0 0 0.75 0 0] CT
0.8 0 0 RC
N
291.742 374 M
291.742 30.966 L
291.95 30.966 L
292.613 374 L
cp
f
GR
GS
[0.75 0 0 0.75 0 0] CT
0.8 0 0 RC
N
291.95 30.966 M
292.613 374 L
292.613 30.966 L
cp
f
GR
GS
[0.75 0 0 0.75 0 0] CT
0.8 0 0 RC
N
296.098 374 M
296.969 374 L
296.969 162.391 L
296.098 162.391 L
cp
f
GR
GS
[0.75 0 0 0.75 0 0] CT
0.8 0 0 RC
N
300.453 374 M
301.324 374 L
301.324 211.78 L
300.453 211.78 L
cp
f
GR
GS
[0.75 0 0 0.75 0 0] CT
0.8 0 0 RC
N
304.809 374 M
305.68 374 L
305.68 303.413 L
304.809 303.413 L
cp
f
GR
GS
[0.75 0 0 0.75 0 0] CT
0.8 0 0 RC
N
309.164 374 M
310.035 374 L
310.035 168.029 L
309.164 168.029 L
cp
f
GR
GS
[0.75 0 0 0.75 0 0] CT
0.8 0 0 RC
N
313.52 374 M
314.391 374 L
314.391 256.821 L
313.52 256.821 L
cp
f
GR
GS
[0.75 0 0 0.75 0 0] CT
0.8 0 0 RC
N
317.875 374 M
318.746 374 L
318.746 319.43 L
317.875 319.43 L
cp
f
GR
GS
[0.75 0 0 0.75 0 0] CT
0.8 0 0 RC
N
322.231 374 M
323.102 374 L
323.102 292.437 L
322.231 292.437 L
cp
f
GR
GS
[0.75 0 0 0.75 0 0] CT
0.8 0 0 RC
N
326.586 374 M
327.457 374 L
327.457 272.737 L
326.586 272.737 L
cp
f
GR
GS
[0.75 0 0 0.75 0 0] CT
0.8 0 0 RC
N
330.942 374 M
331.813 374 L
331.813 317.086 L
330.942 317.086 L
cp
f
GR
GS
[0.75 0 0 0.75 0 0] CT
0.8 0 0 RC
N
335.297 374 M
336.168 374 L
336.168 302.03 L
335.297 302.03 L
cp
f
GR
GS
[0.75 0 0 0.75 0 0] CT
0.8 0 0 RC
N
339.653 374 M
340.524 374 L
340.524 307.046 L
339.653 307.046 L
cp
f
GR
GS
[0.75 0 0 0.75 0 0] CT
0.8 0 0 RC
N
344.008 374 M
344.879 374 L
344.879 304.509 L
344.008 304.509 L
cp
f
GR
GS
[0.75 0 0 0.75 0 0] CT
0.8 0 0 RC
N
348.364 374 M
349.235 374 L
349.235 313.162 L
348.364 313.162 L
cp
f
GR
GS
[0.75 0 0 0.75 0 0] CT
0.8 0 0 RC
N
352.719 374 M
353.59 374 L
353.59 302.308 L
352.719 302.308 L
cp
f
GR
GS
[0.75 0 0 0.75 0 0] CT
0.8 0 0 RC
N
357.074 374 M
357.946 374 L
357.946 345.707 L
357.074 345.707 L
cp
f
GR
GS
[0.75 0 0 0.75 0 0] CT
0.8 0 0 RC
N
361.43 374 M
362.301 374 L
362.301 294.415 L
361.43 294.415 L
cp
f
GR
GS
[0.75 0 0 0.75 0 0] CT
0.8 0 0 RC
N
365.785 374 M
366.657 374 L
366.657 368.39 L
365.785 368.39 L
cp
f
GR
GS
[0.75 0 0 0.75 0 0] CT
0.8 0 0 RC
N
370.141 374 M
371.012 374 L
371.012 348.514 L
370.141 348.514 L
cp
f
GR
GS
[0.75 0 0 0.75 0 0] CT
0.8 0 0 RC
N
374.496 374 M
375.368 374 L
375.368 233.273 L
374.496 233.273 L
cp
f
GR
GS
[0.75 0 0 0.75 0 0] CT
0.8 0 0 RC
N
378.852 374 M
379.723 374 L
379.723 313.694 L
378.852 313.694 L
cp
f
GR
GS
[0.75 0 0 0.75 0 0] CT
0.8 0 0 RC
N
383.207 374 M
384.078 374 L
384.078 290.269 L
383.207 290.269 L
cp
f
GR
GS
[0.75 0 0 0.75 0 0] CT
0.8 0 0 RC
N
387.563 374 M
388.434 374 L
388.434 334.713 L
387.563 334.713 L
cp
f
GR
GS
[0.75 0 0 0.75 0 0] CT
0.8 0 0 RC
N
391.918 374 M
392.789 374 L
392.789 335.853 L
391.918 335.853 L
cp
f
GR
GS
[0.75 0 0 0.75 0 0] CT
0.8 0 0 RC
N
396.274 374 M
397.145 374 L
397.145 340.112 L
396.274 340.112 L
cp
f
GR
GS
[0.75 0 0 0.75 0 0] CT
0.8 0 0 RC
N
400.629 374 M
401.5 374 L
401.5 348.837 L
400.629 348.837 L
cp
f
GR
GS
[0.75 0 0 0.75 0 0] CT
0.8 0 0 RC
N
404.985 374 M
405.856 374 L
405.856 186.782 L
404.985 186.782 L
cp
f
GR
GS
[0.75 0 0 0.75 0 0] CT
0.8 0 0 RC
N
409.34 374 M
410.211 374 L
410.211 349.54 L
409.34 349.54 L
cp
f
GR
GS
[0.75 0 0 0.75 0 0] CT
0.8 0 0 RC
N
413.696 374 M
414.567 374 L
414.567 288.932 L
413.696 288.932 L
cp
f
GR
GS
[0.75 0 0 0.75 0 0] CT
0.8 0 0 RC
N
418.051 374 M
418.922 374 L
418.922 312.377 L
418.051 312.377 L
cp
f
GR
GS
[0.75 0 0 0.75 0 0] CT
0.8 0 0 RC
N
422.407 374 M
423.278 374 L
423.278 261.588 L
422.407 261.588 L
cp
f
GR
GS
[0.75 0 0 0.75 0 0] CT
0.8 0 0 RC
N
426.762 374 M
427.633 374 L
427.633 350.979 L
426.762 350.979 L
cp
f
GR
GS
[0.75 0 0 0.75 0 0] CT
0.8 0 0 RC
N
431.118 374 M
431.989 374 L
431.989 323.137 L
431.118 323.137 L
cp
f
GR
GS
[0.75 0 0 0.75 0 0] CT
0.8 0 0 RC
N
435.473 374 M
436.344 374 L
436.344 334.971 L
435.473 334.971 L
cp
f
GR
GS
[0.75 0 0 0.75 0 0] CT
0.8 0 0 RC
N
439.829 374 M
440.7 374 L
440.7 310.65 L
439.829 310.65 L
cp
f
GR
GS
[0.75 0 0 0.75 0 0] CT
0.8 0 0 RC
N
444.184 374 M
445.055 374 L
445.055 369.312 L
444.184 369.312 L
cp
f
GR
GS
[0.75 0 0 0.75 0 0] CT
0.8 0 0 RC
N
448.54 374 M
449.411 374 L
449.411 343.138 L
448.54 343.138 L
cp
f
GR
GS
[0.75 0 0 0.75 0 0] CT
0.8 0 0 RC
N
452.895 374 M
453.766 374 L
453.766 299.114 L
452.895 299.114 L
cp
f
GR
GS
[0.75 0 0 0.75 0 0] CT
0.8 0 0 RC
N
457.251 374 M
458.122 374 L
458.122 292.556 L
457.251 292.556 L
cp
f
GR
GS
[0.75 0 0 0.75 0 0] CT
0.8 0 0 RC
N
461.606 374 M
462.477 374 L
462.477 339.724 L
461.606 339.724 L
cp
f
GR
GS
[0.75 0 0 0.75 0 0] CT
0.8 0 0 RC
N
465.962 374 M
466.833 374 L
466.833 353.818 L
465.962 353.818 L
cp
f
GR
GS
[0.75 0 0 0.75 0 0] CT
0.8 0 0 RC
N
470.317 374 M
471.188 374 L
471.188 251.065 L
470.317 251.065 L
cp
f
GR
GS
[0.75 0 0 0.75 0 0] CT
0.8 0 0 RC
N
474.673 374 M
475.544 374 L
475.544 348.038 L
474.673 348.038 L
cp
f
GR
GS
[0.75 0 0 0.75 0 0] CT
0.8 0 0 RC
N
479.028 374 M
479.899 374 L
479.899 324.295 L
479.028 324.295 L
cp
f
GR
GS
[0.75 0 0 0.75 0 0] CT
0.8 0 0 RC
N
483.384 374 M
484.255 374 L
484.255 307.912 L
483.384 307.912 L
cp
f
GR
GS
[0.75 0 0 0.75 0 0] CT
0.8 0 0 RC
N
487.739 374 M
488.61 374 L
488.61 300.147 L
487.739 300.147 L
cp
f
GR
GS
[0.75 0 0 0.75 0 0] CT
0.8 0 0 RC
N
492.095 374 M
492.966 374 L
492.966 347.229 L
492.095 347.229 L
cp
f
GR
GS
[0.75 0 0 0.75 0 0] CT
0.8 0 0 RC
N
496.45 374 M
497.321 374 L
497.321 367.119 L
496.45 367.119 L
cp
f
GR
GS
[0.75 0 0 0.75 0 0] CT
0.8 0 0 RC
N
500.806 374 M
501.677 374 L
501.677 342.465 L
500.806 342.465 L
cp
f
GR
GS
[0.75 0 0 0.75 0 0] CT
0.8 0 0 RC
N
505.161 374 M
506.032 374 L
506.032 333.592 L
505.161 333.592 L
cp
f
GR
GS
[0.75 0 0 0.75 0 0] CT
0 0.8 0 RC
N
74.936 374 M
75.807 374 L
75.807 367.678 L
74.936 367.678 L
cp
f
GR
GS
[0.75 0 0 0.75 0 0] CT
0 0.8 0 RC
N
79.291 374 M
80.162 374 L
80.162 257.861 L
79.291 257.861 L
cp
f
GR
GS
[0.75 0 0 0.75 0 0] CT
0 0.8 0 RC
N
83.647 374 M
84.518 374 L
84.518 372.662 L
83.647 372.662 L
cp
f
GR
GS
[0.75 0 0 0.75 0 0] CT
0 0.8 0 RC
N
88.002 374 M
88.873 374 L
88.873 373.842 L
88.002 373.842 L
cp
f
GR
GS
[0.75 0 0 0.75 0 0] CT
0 0.8 0 RC
N
92.358 374 M
93.229 374 L
93.229 359.336 L
92.358 359.336 L
cp
f
GR
GS
[0.75 0 0 0.75 0 0] CT
0 0.8 0 RC
N
96.713 374 M
97.584 374 L
97.584 343.082 L
96.713 343.082 L
cp
f
GR
GS
[0.75 0 0 0.75 0 0] CT
0 0.8 0 RC
N
101.069 374 M
101.94 374 L
101.94 373.641 L
101.069 373.641 L
cp
f
GR
GS
[0.75 0 0 0.75 0 0] CT
0 0.8 0 RC
N
105.424 374 M
106.295 374 L
106.295 370.362 L
105.424 370.362 L
cp
f
GR
GS
[0.75 0 0 0.75 0 0] CT
0 0.8 0 RC
N
109.78 374 M
110.651 374 L
110.651 373.516 L
109.78 373.516 L
cp
f
GR
GS
[0.75 0 0 0.75 0 0] CT
0 0.8 0 RC
N
114.135 374 M
115.006 374 L
115.006 361.131 L
114.135 361.131 L
cp
f
GR
GS
[0.75 0 0 0.75 0 0] CT
0 0.8 0 RC
N
118.491 374 M
119.362 374 L
119.362 224.582 L
118.491 224.582 L
cp
f
GR
GS
[0.75 0 0 0.75 0 0] CT
0 0.8 0 RC
N
122.846 374 M
123.717 374 L
123.717 363.448 L
122.846 363.448 L
cp
f
GR
GS
[0.75 0 0 0.75 0 0] CT
0 0.8 0 RC
N
127.202 374 M
128.073 374 L
128.073 366.073 L
127.202 366.073 L
cp
f
GR
GS
[0.75 0 0 0.75 0 0] CT
0 0.8 0 RC
N
131.557 374 M
131.557 30.966 L
131.755 30.966 L
132.428 374 L
cp
f
GR
GS
[0.75 0 0 0.75 0 0] CT
0 0.8 0 RC
N
131.755 30.966 M
132.428 374 L
132.428 30.966 L
cp
f
GR
GS
[0.75 0 0 0.75 0 0] CT
0 0.8 0 RC
N
135.913 374 M
136.784 374 L
136.784 373.651 L
135.913 373.651 L
cp
f
GR
GS
[0.75 0 0 0.75 0 0] CT
0 0.8 0 RC
N
140.268 374 M
141.139 374 L
141.139 372.459 L
140.268 372.459 L
cp
f
GR
GS
[0.75 0 0 0.75 0 0] CT
0 0.8 0 RC
N
144.624 374 M
145.495 374 L
145.495 319.997 L
144.624 319.997 L
cp
f
GR
GS
[0.75 0 0 0.75 0 0] CT
0 0.8 0 RC
N
148.979 374 M
149.85 374 L
149.85 373.378 L
148.979 373.378 L
cp
f
GR
GS
[0.75 0 0 0.75 0 0] CT
0 0.8 0 RC
N
153.335 374 M
154.206 374 L
154.206 373.208 L
153.335 373.208 L
cp
f
GR
GS
[0.75 0 0 0.75 0 0] CT
0 0.8 0 RC
N
157.69 374 M
158.561 374 L
158.561 79.254 L
157.69 79.254 L
cp
f
GR
GS
[0.75 0 0 0.75 0 0] CT
0 0.8 0 RC
N
162.046 374 M
162.917 374 L
162.917 270.702 L
162.046 270.702 L
cp
f
GR
GS
[0.75 0 0 0.75 0 0] CT
0 0.8 0 RC
N
166.401 374 M
167.272 374 L
167.272 371.811 L
166.401 371.811 L
cp
f
GR
GS
[0.75 0 0 0.75 0 0] CT
0 0.8 0 RC
N
170.756 374 M
171.628 374 L
171.628 373.401 L
170.756 373.401 L
cp
f
GR
GS
[0.75 0 0 0.75 0 0] CT
0 0.8 0 RC
N
175.112 374 M
175.983 374 L
175.983 343.583 L
175.112 343.583 L
cp
f
GR
GS
[0.75 0 0 0.75 0 0] CT
0 0.8 0 RC
N
179.467 374 M
180.339 374 L
180.339 339.452 L
179.467 339.452 L
cp
f
GR
GS
[0.75 0 0 0.75 0 0] CT
0 0.8 0 RC
N
183.823 374 M
184.694 374 L
184.694 372.651 L
183.823 372.651 L
cp
f
GR
GS
[0.75 0 0 0.75 0 0] CT
0 0.8 0 RC
N
188.178 374 M
189.05 374 L
189.05 372.906 L
188.178 372.906 L
cp
f
GR
GS
[0.75 0 0 0.75 0 0] CT
0 0.8 0 RC
N
192.534 374 M
193.405 374 L
193.405 373.514 L
192.534 373.514 L
cp
f
GR
GS
[0.75 0 0 0.75 0 0] CT
0 0.8 0 RC
N
196.889 374 M
197.76 374 L
197.76 359.053 L
196.889 359.053 L
cp
f
GR
GS
[0.75 0 0 0.75 0 0] CT
0 0.8 0 RC
N
201.245 374 M
202.116 374 L
202.116 373.578 L
201.245 373.578 L
cp
f
GR
GS
[0.75 0 0 0.75 0 0] CT
0 0.8 0 RC
N
205.6 374 M
206.471 374 L
206.471 358.515 L
205.6 358.515 L
cp
f
GR
GS
[0.75 0 0 0.75 0 0] CT
0 0.8 0 RC
N
209.956 374 M
210.827 374 L
210.827 373.268 L
209.956 373.268 L
cp
f
GR
GS
[0.75 0 0 0.75 0 0] CT
0 0.8 0 RC
N
214.311 374 M
215.182 374 L
215.182 258.754 L
214.311 258.754 L
cp
f
GR
GS
[0.75 0 0 0.75 0 0] CT
0 0.8 0 RC
N
218.667 374 M
219.538 374 L
219.538 338.67 L
218.667 338.67 L
cp
f
GR
GS
[0.75 0 0 0.75 0 0] CT
0 0.8 0 RC
N
223.022 374 M
223.893 374 L
223.893 371.727 L
223.022 371.727 L
cp
f
GR
GS
[0.75 0 0 0.75 0 0] CT
0 0.8 0 RC
N
227.378 374 M
228.249 374 L
228.249 373.292 L
227.378 373.292 L
cp
f
GR
GS
[0.75 0 0 0.75 0 0] CT
0 0.8 0 RC
N
231.733 374 M
232.604 374 L
232.604 373.174 L
231.733 373.174 L
cp
f
GR
GS
[0.75 0 0 0.75 0 0] CT
0 0.8 0 RC
N
236.089 374 M
236.089 30.966 L
236.176 30.966 L
236.96 374 L
cp
f
GR
GS
[0.75 0 0 0.75 0 0] CT
0 0.8 0 RC
N
236.176 30.966 M
236.96 374 L
236.96 30.966 L
cp
f
GR
GS
[0.75 0 0 0.75 0 0] CT
0 0.8 0 RC
N
240.444 374 M
240.444 30.966 L
240.509 30.966 L
241.315 374 L
cp
f
GR
GS
[0.75 0 0 0.75 0 0] CT
0 0.8 0 RC
N
240.509 30.966 M
241.315 374 L
241.315 30.966 L
cp
f
GR
GS
[0.75 0 0 0.75 0 0] CT
0 0.8 0 RC
N
244.8 374 M
245.671 374 L
245.671 373.563 L
244.8 373.563 L
cp
f
GR
GS
[0.75 0 0 0.75 0 0] CT
0 0.8 0 RC
N
249.155 374 M
250.026 374 L
250.026 373.113 L
249.155 373.113 L
cp
f
GR
GS
[0.75 0 0 0.75 0 0] CT
0 0.8 0 RC
N
253.511 374 M
254.382 374 L
254.382 371.81 L
253.511 371.81 L
cp
f
GR
GS
[0.75 0 0 0.75 0 0] CT
0 0.8 0 RC
N
257.866 374 M
258.737 374 L
258.737 373.265 L
257.866 373.265 L
cp
f
GR
GS
[0.75 0 0 0.75 0 0] CT
0 0.8 0 RC
N
262.222 374 M
263.093 374 L
263.093 350.198 L
262.222 350.198 L
cp
f
GR
GS
[0.75 0 0 0.75 0 0] CT
0 0.8 0 RC
N
266.577 374 M
267.448 374 L
267.448 355.074 L
266.577 355.074 L
cp
f
GR
GS
[0.75 0 0 0.75 0 0] CT
0 0.8 0 RC
N
270.933 374 M
271.804 374 L
271.804 363.683 L
270.933 363.683 L
cp
f
GR
GS
[0.75 0 0 0.75 0 0] CT
0 0.8 0 RC
N
275.288 374 M
276.159 374 L
276.159 368.908 L
275.288 368.908 L
cp
f
GR
GS
[0.75 0 0 0.75 0 0] CT
0 0.8 0 RC
N
279.644 374 M
280.515 374 L
280.515 373.162 L
279.644 373.162 L
cp
f
GR
GS
[0.75 0 0 0.75 0 0] CT
0 0.8 0 RC
N
283.999 374 M
284.87 374 L
284.87 354.251 L
283.999 354.251 L
cp
f
GR
GS
[0.75 0 0 0.75 0 0] CT
0 0.8 0 RC
N
288.355 374 M
289.226 374 L
289.226 118.099 L
288.355 118.099 L
cp
f
GR
GS
[0.75 0 0 0.75 0 0] CT
0 0.8 0 RC
N
292.71 374 M
292.71 30.966 L
293.378 30.966 L
293.581 374 L
cp
f
GR
GS
[0.75 0 0 0.75 0 0] CT
0 0.8 0 RC
N
293.378 30.966 M
293.581 374 L
293.581 30.966 L
cp
f
GR
GS
[0.75 0 0 0.75 0 0] CT
0 0.8 0 RC
N
297.066 374 M
297.937 374 L
297.937 351.781 L
297.066 351.781 L
cp
f
GR
GS
[0.75 0 0 0.75 0 0] CT
0 0.8 0 RC
N
301.421 374 M
302.292 374 L
302.292 355.593 L
301.421 355.593 L
cp
f
GR
GS
[0.75 0 0 0.75 0 0] CT
0 0.8 0 RC
N
305.777 374 M
306.648 374 L
306.648 372.689 L
305.777 372.689 L
cp
f
GR
GS
[0.75 0 0 0.75 0 0] CT
0 0.8 0 RC
N
310.132 374 M
310.132 30.966 L
310.523 30.966 L
311.003 374 L
cp
f
GR
GS
[0.75 0 0 0.75 0 0] CT
0 0.8 0 RC
N
310.523 30.966 M
311.003 374 L
311.003 30.966 L
cp
f
GR
GS
[0.75 0 0 0.75 0 0] CT
0 0.8 0 RC
N
314.488 374 M
315.359 374 L
315.359 358.866 L
314.488 358.866 L
cp
f
GR
GS
[0.75 0 0 0.75 0 0] CT
0 0.8 0 RC
N
318.843 374 M
319.714 374 L
319.714 372.517 L
318.843 372.517 L
cp
f
GR
GS
[0.75 0 0 0.75 0 0] CT
0 0.8 0 RC
N
323.198 374 M
324.07 374 L
324.07 341.314 L
323.198 341.314 L
cp
f
GR
GS
[0.75 0 0 0.75 0 0] CT
0 0.8 0 RC
N
327.554 374 M
327.554 30.966 L
327.689 30.966 L
328.425 374 L
cp
f
GR
GS
[0.75 0 0 0.75 0 0] CT
0 0.8 0 RC
N
327.689 30.966 M
328.425 374 L
328.425 30.966 L
cp
f
GR
GS
[0.75 0 0 0.75 0 0] CT
0 0.8 0 RC
N
331.909 374 M
332.781 374 L
332.781 372.279 L
331.909 372.279 L
cp
f
GR
GS
[0.75 0 0 0.75 0 0] CT
0 0.8 0 RC
N
336.265 374 M
337.136 374 L
337.136 367.188 L
336.265 367.188 L
cp
f
GR
GS
[0.75 0 0 0.75 0 0] CT
0 0.8 0 RC
N
340.62 374 M
341.492 374 L
341.492 350.209 L
340.62 350.209 L
cp
f
GR
GS
[0.75 0 0 0.75 0 0] CT
0 0.8 0 RC
N
344.976 374 M
345.847 374 L
345.847 330.76 L
344.976 330.76 L
cp
f
GR
GS
[0.75 0 0 0.75 0 0] CT
0 0.8 0 RC
N
349.331 374 M
350.202 374 L
350.202 368.212 L
349.331 368.212 L
cp
f
GR
GS
[0.75 0 0 0.75 0 0] CT
0 0.8 0 RC
N
353.687 374 M
354.558 374 L
354.558 367.473 L
353.687 367.473 L
cp
f
GR
GS
[0.75 0 0 0.75 0 0] CT
0 0.8 0 RC
N
358.042 374 M
358.913 374 L
358.913 373.342 L
358.042 373.342 L
cp
f
GR
GS
[0.75 0 0 0.75 0 0] CT
0 0.8 0 RC
N
362.398 374 M
363.269 374 L
363.269 345.623 L
362.398 345.623 L
cp
f
GR
GS
[0.75 0 0 0.75 0 0] CT
0 0.8 0 RC
N
366.753 374 M
367.624 374 L
367.624 372.957 L
366.753 372.957 L
cp
f
GR
GS
[0.75 0 0 0.75 0 0] CT
0 0.8 0 RC
N
371.109 374 M
371.98 374 L
371.98 373.165 L
371.109 373.165 L
cp
f
GR
GS
[0.75 0 0 0.75 0 0] CT
0 0.8 0 RC
N
375.464 374 M
376.335 374 L
376.335 366.121 L
375.464 366.121 L
cp
f
GR
GS
[0.75 0 0 0.75 0 0] CT
0 0.8 0 RC
N
379.82 374 M
380.691 374 L
380.691 331.936 L
379.82 331.936 L
cp
f
GR
GS
[0.75 0 0 0.75 0 0] CT
0 0.8 0 RC
N
384.175 374 M
385.046 374 L
385.046 369.875 L
384.175 369.875 L
cp
f
GR
GS
[0.75 0 0 0.75 0 0] CT
0 0.8 0 RC
N
388.531 374 M
389.402 374 L
389.402 372.29 L
388.531 372.29 L
cp
f
GR
GS
[0.75 0 0 0.75 0 0] CT
0 0.8 0 RC
N
392.886 374 M
393.757 374 L
393.757 372.681 L
392.886 372.681 L
cp
f
GR
GS
[0.75 0 0 0.75 0 0] CT
0 0.8 0 RC
N
397.242 374 M
398.113 374 L
398.113 366.344 L
397.242 366.344 L
cp
f
GR
GS
[0.75 0 0 0.75 0 0] CT
0 0.8 0 RC
N
401.597 374 M
402.468 374 L
402.468 373.44 L
401.597 373.44 L
cp
f
GR
GS
[0.75 0 0 0.75 0 0] CT
0 0.8 0 RC
N
405.953 374 M
406.824 374 L
406.824 256.716 L
405.953 256.716 L
cp
f
GR
GS
[0.75 0 0 0.75 0 0] CT
0 0.8 0 RC
N
410.308 374 M
411.179 374 L
411.179 373.43 L
410.308 373.43 L
cp
f
GR
GS
[0.75 0 0 0.75 0 0] CT
0 0.8 0 RC
N
414.664 374 M
415.535 374 L
415.535 288.451 L
414.664 288.451 L
cp
f
GR
GS
[0.75 0 0 0.75 0 0] CT
0 0.8 0 RC
N
419.019 374 M
419.89 374 L
419.89 366.554 L
419.019 366.554 L
cp
f
GR
GS
[0.75 0 0 0.75 0 0] CT
0 0.8 0 RC
N
423.375 374 M
424.246 374 L
424.246 335.511 L
423.375 335.511 L
cp
f
GR
GS
[0.75 0 0 0.75 0 0] CT
0 0.8 0 RC
N
427.73 374 M
428.601 374 L
428.601 373.191 L
427.73 373.191 L
cp
f
GR
GS
[0.75 0 0 0.75 0 0] CT
0 0.8 0 RC
N
432.086 374 M
432.957 374 L
432.957 372.037 L
432.086 372.037 L
cp
f
GR
GS
[0.75 0 0 0.75 0 0] CT
0 0.8 0 RC
N
436.441 374 M
437.312 374 L
437.312 345.255 L
436.441 345.255 L
cp
f
GR
GS
[0.75 0 0 0.75 0 0] CT
0 0.8 0 RC
N
440.797 374 M
441.668 374 L
441.668 344.809 L
440.797 344.809 L
cp
f
GR
GS
[0.75 0 0 0.75 0 0] CT
0 0.8 0 RC
N
445.152 374 M
446.023 374 L
446.023 373.185 L
445.152 373.185 L
cp
f
GR
GS
[0.75 0 0 0.75 0 0] CT
0 0.8 0 RC
N
449.508 374 M
450.379 374 L
450.379 372.336 L
449.508 372.336 L
cp
f
GR
GS
[0.75 0 0 0.75 0 0] CT
0 0.8 0 RC
N
453.863 374 M
454.734 374 L
454.734 373.407 L
453.863 373.407 L
cp
f
GR
GS
[0.75 0 0 0.75 0 0] CT
0 0.8 0 RC
N
458.219 374 M
459.09 374 L
459.09 247.394 L
458.219 247.394 L
cp
f
GR
GS
[0.75 0 0 0.75 0 0] CT
0 0.8 0 RC
N
462.574 374 M
463.445 374 L
463.445 372.835 L
462.574 372.835 L
cp
f
GR
GS
[0.75 0 0 0.75 0 0] CT
0 0.8 0 RC
N
466.93 374 M
467.801 374 L
467.801 373.558 L
466.93 373.558 L
cp
f
GR
GS
[0.75 0 0 0.75 0 0] CT
0 0.8 0 RC
N
471.285 374 M
472.156 374 L
472.156 337.014 L
471.285 337.014 L
cp
f
GR
GS
[0.75 0 0 0.75 0 0] CT
0 0.8 0 RC
N
475.641 374 M
476.512 374 L
476.512 373.235 L
475.641 373.235 L
cp
f
GR
GS
[0.75 0 0 0.75 0 0] CT
0 0.8 0 RC
N
479.996 374 M
480.867 374 L
480.867 344.772 L
479.996 344.772 L
cp
f
GR
GS
[0.75 0 0 0.75 0 0] CT
0 0.8 0 RC
N
484.351 374 M
485.223 374 L
485.223 287.368 L
484.351 287.368 L
cp
f
GR
GS
[0.75 0 0 0.75 0 0] CT
0 0.8 0 RC
N
488.707 374 M
489.578 374 L
489.578 368.544 L
488.707 368.544 L
cp
f
GR
GS
[0.75 0 0 0.75 0 0] CT
0 0.8 0 RC
N
493.062 374 M
493.934 374 L
493.934 373.445 L
493.062 373.445 L
cp
f
GR
GS
[0.75 0 0 0.75 0 0] CT
0 0.8 0 RC
N
497.418 374 M
498.289 374 L
498.289 373.808 L
497.418 373.808 L
cp
f
GR
GS
[0.75 0 0 0.75 0 0] CT
0 0.8 0 RC
N
501.773 374 M
501.773 30.966 L
502.219 30.966 L
502.645 374 L
cp
f
GR
GS
[0.75 0 0 0.75 0 0] CT
0 0.8 0 RC
N
502.219 30.966 M
502.645 374 L
502.645 30.966 L
cp
f
GR
GS
[0.75 0 0 0.75 0 0] CT
0 0.8 0 RC
N
506.129 374 M
507 374 L
507 189.94 L
506.129 189.94 L
cp
f
GR
%%Trailer
%%Pages: 1
%%EOF
