%!PS-Adobe-3.0 EPSF-3.0
%%Creator: (MATLAB, The Mathworks, Inc. Version 9.0.0.341360 \(R2016a\). Operating System: Windows 8)
%%Title: ../doc/thesis/figures/word_weights.eps
%%CreationDate: 2016-08-25T15:02:22
%%Pages: (atend)
%%BoundingBox:    31    19   387   297
%%LanguageLevel: 3
%%EndComments
%%BeginProlog
%%BeginResource: procset (Apache XML Graphics Std ProcSet) 1.2 0
%%Version: 1.2 0
%%Copyright: (Copyright 2001-2003,2010 The Apache Software Foundation. License terms: http://www.apache.org/licenses/LICENSE-2.0)
/bd{bind def}bind def
/ld{load def}bd
/GR/grestore ld
/M/moveto ld
/LJ/setlinejoin ld
/C/curveto ld
/f/fill ld
/LW/setlinewidth ld
/GC/setgray ld
/t/show ld
/N/newpath ld
/CT/concat ld
/cp/closepath ld
/S/stroke ld
/L/lineto ld
/CC/setcmykcolor ld
/A/ashow ld
/GS/gsave ld
/RC/setrgbcolor ld
/RM/rmoveto ld
/ML/setmiterlimit ld
/re {4 2 roll M
1 index 0 rlineto
0 exch rlineto
neg 0 rlineto
cp } bd
/_ctm matrix def
/_tm matrix def
/BT { _ctm currentmatrix pop matrix _tm copy pop 0 0 moveto } bd
/ET { _ctm setmatrix } bd
/iTm { _ctm setmatrix _tm concat } bd
/Tm { _tm astore pop iTm 0 0 moveto } bd
/ux 0.0 def
/uy 0.0 def
/F {
  /Tp exch def
  /Tf exch def
  Tf findfont Tp scalefont setfont
  /cf Tf def  /cs Tp def
} bd
/ULS {currentpoint /uy exch def /ux exch def} bd
/ULE {
  /Tcx currentpoint pop def
  gsave
  newpath
  cf findfont cs scalefont dup
  /FontMatrix get 0 get /Ts exch def /FontInfo get dup
  /UnderlinePosition get Ts mul /To exch def
  /UnderlineThickness get Ts mul /Tt exch def
  ux uy To add moveto  Tcx uy To add lineto
  Tt setlinewidth stroke
  grestore
} bd
/OLE {
  /Tcx currentpoint pop def
  gsave
  newpath
  cf findfont cs scalefont dup
  /FontMatrix get 0 get /Ts exch def /FontInfo get dup
  /UnderlinePosition get Ts mul /To exch def
  /UnderlineThickness get Ts mul /Tt exch def
  ux uy To add cs add moveto Tcx uy To add cs add lineto
  Tt setlinewidth stroke
  grestore
} bd
/SOE {
  /Tcx currentpoint pop def
  gsave
  newpath
  cf findfont cs scalefont dup
  /FontMatrix get 0 get /Ts exch def /FontInfo get dup
  /UnderlinePosition get Ts mul /To exch def
  /UnderlineThickness get Ts mul /Tt exch def
  ux uy To add cs 10 mul 26 idiv add moveto Tcx uy To add cs 10 mul 26 idiv add lineto
  Tt setlinewidth stroke
  grestore
} bd
/QT {
/Y22 exch store
/X22 exch store
/Y21 exch store
/X21 exch store
currentpoint
/Y21 load 2 mul add 3 div exch
/X21 load 2 mul add 3 div exch
/X21 load 2 mul /X22 load add 3 div
/Y21 load 2 mul /Y22 load add 3 div
/X22 load /Y22 load curveto
} bd
/SSPD {
dup length /d exch dict def
{
/v exch def
/k exch def
currentpagedevice k known {
/cpdv currentpagedevice k get def
v cpdv ne {
/upd false def
/nullv v type /nulltype eq def
/nullcpdv cpdv type /nulltype eq def
nullv nullcpdv or
{
/upd true def
} {
/sametype v type cpdv type eq def
sametype {
v type /arraytype eq {
/vlen v length def
/cpdvlen cpdv length def
vlen cpdvlen eq {
0 1 vlen 1 sub {
/i exch def
/obj v i get def
/cpdobj cpdv i get def
obj cpdobj ne {
/upd true def
exit
} if
} for
} {
/upd true def
} ifelse
} {
v type /dicttype eq {
v {
/dv exch def
/dk exch def
/cpddv cpdv dk get def
dv cpddv ne {
/upd true def
exit
} if
} forall
} {
/upd true def
} ifelse
} ifelse
} if
} ifelse
upd true eq {
d k v put
} if
} if
} if
} forall
d length 0 gt {
d setpagedevice
} if
} bd
%%EndResource
%%BeginResource: procset (Apache XML Graphics EPS ProcSet) 1.0 0
%%Version: 1.0 0
%%Copyright: (Copyright 2002-2003 The Apache Software Foundation. License terms: http://www.apache.org/licenses/LICENSE-2.0)
/BeginEPSF { %def
/b4_Inc_state save def         % Save state for cleanup
/dict_count countdictstack def % Count objects on dict stack
/op_count count 1 sub def      % Count objects on operand stack
userdict begin                 % Push userdict on dict stack
/showpage { } def              % Redefine showpage, { } = null proc
0 setgray 0 setlinecap         % Prepare graphics state
1 setlinewidth 0 setlinejoin
10 setmiterlimit [ ] 0 setdash newpath
/languagelevel where           % If level not equal to 1 then
{pop languagelevel             % set strokeadjust and
1 ne                           % overprint to their defaults.
{false setstrokeadjust false setoverprint
} if
} if
} bd
/EndEPSF { %def
count op_count sub {pop} repeat            % Clean up stacks
countdictstack dict_count sub {end} repeat
b4_Inc_state restore
} bd
%%EndResource
%FOPBeginFontDict
%%IncludeResource: font Courier-Bold
%%IncludeResource: font Helvetica
%%IncludeResource: font Courier-BoldOblique
%%IncludeResource: font Courier-Oblique
%%IncludeResource: font Times-Roman
%%IncludeResource: font Helvetica-BoldOblique
%%IncludeResource: font Helvetica-Bold
%%IncludeResource: font Helvetica-Oblique
%%IncludeResource: font Times-BoldItalic
%%IncludeResource: font Courier
%%IncludeResource: font Times-Italic
%%IncludeResource: font Times-Bold
%%IncludeResource: font Symbol
%%IncludeResource: font ZapfDingbats
%FOPEndFontDict
%%BeginResource: encoding WinAnsiEncoding
/WinAnsiEncoding [
/.notdef /.notdef /.notdef /.notdef /.notdef
/.notdef /.notdef /.notdef /.notdef /.notdef
/.notdef /.notdef /.notdef /.notdef /.notdef
/.notdef /.notdef /.notdef /.notdef /.notdef
/.notdef /.notdef /.notdef /.notdef /.notdef
/.notdef /.notdef /.notdef /.notdef /.notdef
/.notdef /.notdef /space /exclam /quotedbl
/numbersign /dollar /percent /ampersand /quotesingle
/parenleft /parenright /asterisk /plus /comma
/hyphen /period /slash /zero /one
/two /three /four /five /six
/seven /eight /nine /colon /semicolon
/less /equal /greater /question /at
/A /B /C /D /E
/F /G /H /I /J
/K /L /M /N /O
/P /Q /R /S /T
/U /V /W /X /Y
/Z /bracketleft /backslash /bracketright /asciicircum
/underscore /quoteleft /a /b /c
/d /e /f /g /h
/i /j /k /l /m
/n /o /p /q /r
/s /t /u /v /w
/x /y /z /braceleft /bar
/braceright /asciitilde /bullet /Euro /bullet
/quotesinglbase /florin /quotedblbase /ellipsis /dagger
/daggerdbl /circumflex /perthousand /Scaron /guilsinglleft
/OE /bullet /Zcaron /bullet /bullet
/quoteleft /quoteright /quotedblleft /quotedblright /bullet
/endash /emdash /asciitilde /trademark /scaron
/guilsinglright /oe /bullet /zcaron /Ydieresis
/space /exclamdown /cent /sterling /currency
/yen /brokenbar /section /dieresis /copyright
/ordfeminine /guillemotleft /logicalnot /sfthyphen /registered
/macron /degree /plusminus /twosuperior /threesuperior
/acute /mu /paragraph /middot /cedilla
/onesuperior /ordmasculine /guillemotright /onequarter /onehalf
/threequarters /questiondown /Agrave /Aacute /Acircumflex
/Atilde /Adieresis /Aring /AE /Ccedilla
/Egrave /Eacute /Ecircumflex /Edieresis /Igrave
/Iacute /Icircumflex /Idieresis /Eth /Ntilde
/Ograve /Oacute /Ocircumflex /Otilde /Odieresis
/multiply /Oslash /Ugrave /Uacute /Ucircumflex
/Udieresis /Yacute /Thorn /germandbls /agrave
/aacute /acircumflex /atilde /adieresis /aring
/ae /ccedilla /egrave /eacute /ecircumflex
/edieresis /igrave /iacute /icircumflex /idieresis
/eth /ntilde /ograve /oacute /ocircumflex
/otilde /odieresis /divide /oslash /ugrave
/uacute /ucircumflex /udieresis /yacute /thorn
/ydieresis
] def
%%EndResource
%FOPBeginFontReencode
/Courier-Bold findfont
dup length dict begin
  {1 index /FID ne {def} {pop pop} ifelse} forall
  /Encoding WinAnsiEncoding def
  currentdict
end
/Courier-Bold exch definefont pop
/Helvetica findfont
dup length dict begin
  {1 index /FID ne {def} {pop pop} ifelse} forall
  /Encoding WinAnsiEncoding def
  currentdict
end
/Helvetica exch definefont pop
/Courier-BoldOblique findfont
dup length dict begin
  {1 index /FID ne {def} {pop pop} ifelse} forall
  /Encoding WinAnsiEncoding def
  currentdict
end
/Courier-BoldOblique exch definefont pop
/Courier-Oblique findfont
dup length dict begin
  {1 index /FID ne {def} {pop pop} ifelse} forall
  /Encoding WinAnsiEncoding def
  currentdict
end
/Courier-Oblique exch definefont pop
/Times-Roman findfont
dup length dict begin
  {1 index /FID ne {def} {pop pop} ifelse} forall
  /Encoding WinAnsiEncoding def
  currentdict
end
/Times-Roman exch definefont pop
/Helvetica-BoldOblique findfont
dup length dict begin
  {1 index /FID ne {def} {pop pop} ifelse} forall
  /Encoding WinAnsiEncoding def
  currentdict
end
/Helvetica-BoldOblique exch definefont pop
/Helvetica-Bold findfont
dup length dict begin
  {1 index /FID ne {def} {pop pop} ifelse} forall
  /Encoding WinAnsiEncoding def
  currentdict
end
/Helvetica-Bold exch definefont pop
/Helvetica-Oblique findfont
dup length dict begin
  {1 index /FID ne {def} {pop pop} ifelse} forall
  /Encoding WinAnsiEncoding def
  currentdict
end
/Helvetica-Oblique exch definefont pop
/Times-BoldItalic findfont
dup length dict begin
  {1 index /FID ne {def} {pop pop} ifelse} forall
  /Encoding WinAnsiEncoding def
  currentdict
end
/Times-BoldItalic exch definefont pop
/Courier findfont
dup length dict begin
  {1 index /FID ne {def} {pop pop} ifelse} forall
  /Encoding WinAnsiEncoding def
  currentdict
end
/Courier exch definefont pop
/Times-Italic findfont
dup length dict begin
  {1 index /FID ne {def} {pop pop} ifelse} forall
  /Encoding WinAnsiEncoding def
  currentdict
end
/Times-Italic exch definefont pop
/Times-Bold findfont
dup length dict begin
  {1 index /FID ne {def} {pop pop} ifelse} forall
  /Encoding WinAnsiEncoding def
  currentdict
end
/Times-Bold exch definefont pop
%FOPEndFontReencode
%%EndProlog
%%Page: 1 1
%%PageBoundingBox: 0 0 420 315
%%BeginPageSetup
[1 0 0 -1 0 315] CT
%%EndPageSetup
GS
[0.75 0 0 0.75 0 0] CT
1 GC
N
0 0 560 420 re
f
GR
GS
[0.75 0 0 0.75 0 0] CT
1 GC
N
0 0 560 420 re
f
GR
GS
[0.75 0 0 0.75 0 0] CT
1 GC
N
73 122 M
507 122 L
507 43 L
73 43 L
cp
f
GR
GS
[0.75 0 0 0.75 0 0] CT
0.149 GC
2 setlinecap
1 LJ
0.667 LW
N
73 122 M
507 122 L
S
GR
GS
[0.75 0 0 0.75 0 0] CT
0.149 GC
2 setlinecap
1 LJ
0.667 LW
N
73 43 M
507 43 L
S
GR
GS
[0.75 0 0 0.75 0 0] CT
0.149 GC
2 setlinecap
1 LJ
0.667 LW
N
113.878 122 M
113.878 117.66 L
S
GR
GS
[0.75 0 0 0.75 0 0] CT
0.149 GC
2 setlinecap
1 LJ
0.667 LW
N
157.365 122 M
157.365 117.66 L
S
GR
GS
[0.75 0 0 0.75 0 0] CT
0.149 GC
2 setlinecap
1 LJ
0.667 LW
N
200.852 122 M
200.852 117.66 L
S
GR
GS
[0.75 0 0 0.75 0 0] CT
0.149 GC
2 setlinecap
1 LJ
0.667 LW
N
244.339 122 M
244.339 117.66 L
S
GR
GS
[0.75 0 0 0.75 0 0] CT
0.149 GC
2 setlinecap
1 LJ
0.667 LW
N
287.826 122 M
287.826 117.66 L
S
GR
GS
[0.75 0 0 0.75 0 0] CT
0.149 GC
2 setlinecap
1 LJ
0.667 LW
N
331.313 122 M
331.313 117.66 L
S
GR
GS
[0.75 0 0 0.75 0 0] CT
0.149 GC
2 setlinecap
1 LJ
0.667 LW
N
374.8 122 M
374.8 117.66 L
S
GR
GS
[0.75 0 0 0.75 0 0] CT
0.149 GC
2 setlinecap
1 LJ
0.667 LW
N
418.287 122 M
418.287 117.66 L
S
GR
GS
[0.75 0 0 0.75 0 0] CT
0.149 GC
2 setlinecap
1 LJ
0.667 LW
N
461.774 122 M
461.774 117.66 L
S
GR
GS
[0.75 0 0 0.75 0 0] CT
0.149 GC
2 setlinecap
1 LJ
0.667 LW
N
505.261 122 M
505.261 117.66 L
S
GR
GS
[0.75 0 0 0.75 0 0] CT
0.149 GC
2 setlinecap
1 LJ
0.667 LW
N
113.878 43 M
113.878 47.34 L
S
GR
GS
[0.75 0 0 0.75 0 0] CT
0.149 GC
2 setlinecap
1 LJ
0.667 LW
N
157.365 43 M
157.365 47.34 L
S
GR
GS
[0.75 0 0 0.75 0 0] CT
0.149 GC
2 setlinecap
1 LJ
0.667 LW
N
200.852 43 M
200.852 47.34 L
S
GR
GS
[0.75 0 0 0.75 0 0] CT
0.149 GC
2 setlinecap
1 LJ
0.667 LW
N
244.339 43 M
244.339 47.34 L
S
GR
GS
[0.75 0 0 0.75 0 0] CT
0.149 GC
2 setlinecap
1 LJ
0.667 LW
N
287.826 43 M
287.826 47.34 L
S
GR
GS
[0.75 0 0 0.75 0 0] CT
0.149 GC
2 setlinecap
1 LJ
0.667 LW
N
331.313 43 M
331.313 47.34 L
S
GR
GS
[0.75 0 0 0.75 0 0] CT
0.149 GC
2 setlinecap
1 LJ
0.667 LW
N
374.8 43 M
374.8 47.34 L
S
GR
GS
[0.75 0 0 0.75 0 0] CT
0.149 GC
2 setlinecap
1 LJ
0.667 LW
N
418.287 43 M
418.287 47.34 L
S
GR
GS
[0.75 0 0 0.75 0 0] CT
0.149 GC
2 setlinecap
1 LJ
0.667 LW
N
461.774 43 M
461.774 47.34 L
S
GR
GS
[0.75 0 0 0.75 0 0] CT
0.149 GC
2 setlinecap
1 LJ
0.667 LW
N
505.261 43 M
505.261 47.34 L
S
GR
GS
[0.75 0 0 0.75 85.40832 95.5] CT
0.149 GC
/Helvetica 13.333 F
GS
[1 0 0 1 0 0] CT
-7.5 14 moveto 
1 -1 scale
(10) t 
GR
GR
GS
[0.75 0 0 0.75 118.02355 95.5] CT
0.149 GC
/Helvetica 13.333 F
GS
[1 0 0 1 0 0] CT
-7.5 14 moveto 
1 -1 scale
(20) t 
GR
GR
GS
[0.75 0 0 0.75 150.63877 95.5] CT
0.149 GC
/Helvetica 13.333 F
GS
[1 0 0 1 0 0] CT
-7.5 14 moveto 
1 -1 scale
(30) t 
GR
GR
GS
[0.75 0 0 0.75 183.25401 95.5] CT
0.149 GC
/Helvetica 13.333 F
GS
[1 0 0 1 0 0] CT
-7.5 14 moveto 
1 -1 scale
(40) t 
GR
GR
GS
[0.75 0 0 0.75 215.86924 95.5] CT
0.149 GC
/Helvetica 13.333 F
GS
[1 0 0 1 0 0] CT
-7.5 14 moveto 
1 -1 scale
(50) t 
GR
GR
GS
[0.75 0 0 0.75 248.48447 95.5] CT
0.149 GC
/Helvetica 13.333 F
GS
[1 0 0 1 0 0] CT
-7.5 14 moveto 
1 -1 scale
(60) t 
GR
GR
GS
[0.75 0 0 0.75 281.09969 95.5] CT
0.149 GC
/Helvetica 13.333 F
GS
[1 0 0 1 0 0] CT
-7.5 14 moveto 
1 -1 scale
(70) t 
GR
GR
GS
[0.75 0 0 0.75 313.71492 95.5] CT
0.149 GC
/Helvetica 13.333 F
GS
[1 0 0 1 0 0] CT
-7.5 14 moveto 
1 -1 scale
(80) t 
GR
GR
GS
[0.75 0 0 0.75 346.33017 95.5] CT
0.149 GC
/Helvetica 13.333 F
GS
[1 0 0 1 0 0] CT
-7.5 14 moveto 
1 -1 scale
(90) t 
GR
GR
GS
[0.75 0 0 0.75 378.9454 95.5] CT
0.149 GC
/Helvetica 13.333 F
GS
[1 0 0 1 0 0] CT
-11 14 moveto 
1 -1 scale
(100) t 
GR
GR
GS
[0.75 0 0 0.75 0 0] CT
0.149 GC
2 setlinecap
1 LJ
0.667 LW
N
73 122 M
73 43 L
S
GR
GS
[0.75 0 0 0.75 0 0] CT
0.149 GC
2 setlinecap
1 LJ
0.667 LW
N
507 122 M
507 43 L
S
GR
GS
[0.75 0 0 0.75 0 0] CT
0.149 GC
2 setlinecap
1 LJ
0.667 LW
N
73 122 M
77.34 122 L
S
GR
GS
[0.75 0 0 0.75 0 0] CT
0.149 GC
2 setlinecap
1 LJ
0.667 LW
N
73 82.5 M
77.34 82.5 L
S
GR
GS
[0.75 0 0 0.75 0 0] CT
0.149 GC
2 setlinecap
1 LJ
0.667 LW
N
73 43 M
77.34 43 L
S
GR
GS
[0.75 0 0 0.75 0 0] CT
0.149 GC
2 setlinecap
1 LJ
0.667 LW
N
507 122 M
502.66 122 L
S
GR
GS
[0.75 0 0 0.75 0 0] CT
0.149 GC
2 setlinecap
1 LJ
0.667 LW
N
507 82.5 M
502.66 82.5 L
S
GR
GS
[0.75 0 0 0.75 0 0] CT
0.149 GC
2 setlinecap
1 LJ
0.667 LW
N
507 43 M
502.66 43 L
S
GR
GS
[0.75 0 0 0.75 50.75 91.5] CT
0.149 GC
/Helvetica 13.333 F
GS
[1 0 0 1 0 0] CT
-8 5.5 moveto 
1 -1 scale
(0) t 
GR
GR
GS
[0.75 0 0 0.75 50.75 61.875] CT
0.149 GC
/Helvetica 13.333 F
GS
[1 0 0 1 0 0] CT
-26 5.5 moveto 
1 -1 scale
(0.02) t 
GR
GR
GS
[0.75 0 0 0.75 50.75 32.25] CT
0.149 GC
/Helvetica 13.333 F
GS
[1 0 0 1 0 0] CT
-26 5.5 moveto 
1 -1 scale
(0.04) t 
GR
GR
GS
[0.75 0 0 0.75 217.50021 30.1875] CT
/Helvetica-Bold 14.667 F
GS
[1 0 0 1 0 0] CT
-110 -4 moveto 
1 -1 scale
(Importance weighting first hop) t 
GR
GR
GS
[0.75 0 0 0.75 0 0] CT
0.149 GC
1 LJ
0.667 LW
N
73 122 M
507 122 L
S
GR
GS
[0.75 0 0 0.75 0 0] CT
0.208 0.165 0.525 RC
N
73 122 M
76.479 122 L
76.479 112.251 L
73 112.251 L
cp
f
GR
GS
[0.75 0 0 0.75 0 0] CT
0.208 0.165 0.525 RC
N
77.349 122 M
80.828 122 L
80.828 117.663 L
77.349 117.663 L
cp
f
GR
GS
[0.75 0 0 0.75 0 0] CT
0.208 0.165 0.525 RC
N
81.697 122 M
85.176 122 L
85.176 92.72 L
81.697 92.72 L
cp
f
GR
GS
[0.75 0 0 0.75 0 0] CT
0.208 0.165 0.525 RC
N
86.046 122 M
89.525 122 L
89.525 116.455 L
86.046 116.455 L
cp
f
GR
GS
[0.75 0 0 0.75 0 0] CT
0.208 0.165 0.525 RC
N
90.395 122 M
93.874 122 L
93.874 112.579 L
90.395 112.579 L
cp
f
GR
GS
[0.75 0 0 0.75 0 0] CT
0.208 0.165 0.525 RC
N
94.743 122 M
98.222 122 L
98.222 117.023 L
94.743 117.023 L
cp
f
GR
GS
[0.75 0 0 0.75 0 0] CT
0.208 0.165 0.525 RC
N
99.092 122 M
102.571 122 L
102.571 78.872 L
99.092 78.872 L
cp
f
GR
GS
[0.75 0 0 0.75 0 0] CT
0.208 0.165 0.525 RC
N
103.441 122 M
106.92 122 L
106.92 104.324 L
103.441 104.324 L
cp
f
GR
GS
[0.75 0 0 0.75 0 0] CT
0.208 0.165 0.525 RC
N
107.79 122 M
111.269 122 L
111.269 83.197 L
107.79 83.197 L
cp
f
GR
GS
[0.75 0 0 0.75 0 0] CT
0.208 0.165 0.525 RC
N
112.138 122 M
115.617 122 L
115.617 116.212 L
112.138 116.212 L
cp
f
GR
GS
[0.75 0 0 0.75 0 0] CT
0.208 0.165 0.525 RC
N
116.487 122 M
119.966 122 L
119.966 121.032 L
116.487 121.032 L
cp
f
GR
GS
[0.75 0 0 0.75 0 0] CT
0.208 0.165 0.525 RC
N
120.836 122 M
124.315 122 L
124.315 101.323 L
120.836 101.323 L
cp
f
GR
GS
[0.75 0 0 0.75 0 0] CT
0.208 0.165 0.525 RC
N
125.184 122 M
128.663 122 L
128.663 98.116 L
125.184 98.116 L
cp
f
GR
GS
[0.75 0 0 0.75 0 0] CT
0.208 0.165 0.525 RC
N
129.533 122 M
133.012 122 L
133.012 120.989 L
129.533 120.989 L
cp
f
GR
GS
[0.75 0 0 0.75 0 0] CT
0.208 0.165 0.525 RC
N
133.882 122 M
137.361 122 L
137.361 66.155 L
133.882 66.155 L
cp
f
GR
GS
[0.75 0 0 0.75 0 0] CT
0.208 0.165 0.525 RC
N
138.23 122 M
141.709 122 L
141.709 88.121 L
138.23 88.121 L
cp
f
GR
GS
[0.75 0 0 0.75 0 0] CT
0.208 0.165 0.525 RC
N
142.579 122 M
146.058 122 L
146.058 115.416 L
142.579 115.416 L
cp
f
GR
GS
[0.75 0 0 0.75 0 0] CT
0.208 0.165 0.525 RC
N
146.928 122 M
150.407 122 L
150.407 64.019 L
146.928 64.019 L
cp
f
GR
GS
[0.75 0 0 0.75 0 0] CT
0.208 0.165 0.525 RC
N
151.277 122 M
154.756 122 L
154.756 90.456 L
151.277 90.456 L
cp
f
GR
GS
[0.75 0 0 0.75 0 0] CT
0.208 0.165 0.525 RC
N
155.625 122 M
159.104 122 L
159.104 119.308 L
155.625 119.308 L
cp
f
GR
GS
[0.75 0 0 0.75 0 0] CT
0.208 0.165 0.525 RC
N
159.974 122 M
163.453 122 L
163.453 117.385 L
159.974 117.385 L
cp
f
GR
GS
[0.75 0 0 0.75 0 0] CT
0.208 0.165 0.525 RC
N
164.323 122 M
167.802 122 L
167.802 104.537 L
164.323 104.537 L
cp
f
GR
GS
[0.75 0 0 0.75 0 0] CT
0.208 0.165 0.525 RC
N
168.671 122 M
172.15 122 L
172.15 87.481 L
168.671 87.481 L
cp
f
GR
GS
[0.75 0 0 0.75 0 0] CT
0.208 0.165 0.525 RC
N
173.02 122 M
176.499 122 L
176.499 112.983 L
173.02 112.983 L
cp
f
GR
GS
[0.75 0 0 0.75 0 0] CT
0.208 0.165 0.525 RC
N
177.369 122 M
180.848 122 L
180.848 117.044 L
177.369 117.044 L
cp
f
GR
GS
[0.75 0 0 0.75 0 0] CT
0.208 0.165 0.525 RC
N
181.717 122 M
185.196 122 L
185.196 92.252 L
181.717 92.252 L
cp
f
GR
GS
[0.75 0 0 0.75 0 0] CT
0.208 0.165 0.525 RC
N
186.066 122 M
189.545 122 L
189.545 78.064 L
186.066 78.064 L
cp
f
GR
GS
[0.75 0 0 0.75 0 0] CT
0.208 0.165 0.525 RC
N
190.415 122 M
193.894 122 L
193.894 86.922 L
190.415 86.922 L
cp
f
GR
GS
[0.75 0 0 0.75 0 0] CT
0.208 0.165 0.525 RC
N
194.764 122 M
198.242 122 L
198.242 106.243 L
194.764 106.243 L
cp
f
GR
GS
[0.75 0 0 0.75 0 0] CT
0.208 0.165 0.525 RC
N
199.112 122 M
202.591 122 L
202.591 80.3 L
199.112 80.3 L
cp
f
GR
GS
[0.75 0 0 0.75 0 0] CT
0.208 0.165 0.525 RC
N
203.461 122 M
206.94 122 L
206.94 118.379 L
203.461 118.379 L
cp
f
GR
GS
[0.75 0 0 0.75 0 0] CT
0.208 0.165 0.525 RC
N
207.81 122 M
211.289 122 L
211.289 79.884 L
207.81 79.884 L
cp
f
GR
GS
[0.75 0 0 0.75 0 0] CT
0.208 0.165 0.525 RC
N
212.158 122 M
215.637 122 L
215.637 119.785 L
212.158 119.785 L
cp
f
GR
GS
[0.75 0 0 0.75 0 0] CT
0.208 0.165 0.525 RC
N
216.507 122 M
219.986 122 L
219.986 109.557 L
216.507 109.557 L
cp
f
GR
GS
[0.75 0 0 0.75 0 0] CT
0.208 0.165 0.525 RC
N
220.856 122 M
224.335 122 L
224.335 103.13 L
220.856 103.13 L
cp
f
GR
GS
[0.75 0 0 0.75 0 0] CT
0.208 0.165 0.525 RC
N
225.204 122 M
228.683 122 L
228.683 86.655 L
225.204 86.655 L
cp
f
GR
GS
[0.75 0 0 0.75 0 0] CT
0.208 0.165 0.525 RC
N
229.553 122 M
233.032 122 L
233.032 77.649 L
229.553 77.649 L
cp
f
GR
GS
[0.75 0 0 0.75 0 0] CT
0.208 0.165 0.525 RC
N
233.902 122 M
237.381 122 L
237.381 119.079 L
233.902 119.079 L
cp
f
GR
GS
[0.75 0 0 0.75 0 0] CT
0.208 0.165 0.525 RC
N
238.25 122 M
241.729 122 L
241.729 117.963 L
238.25 117.963 L
cp
f
GR
GS
[0.75 0 0 0.75 0 0] CT
0.208 0.165 0.525 RC
N
242.599 122 M
246.078 122 L
246.078 65.363 L
242.599 65.363 L
cp
f
GR
GS
[0.75 0 0 0.75 0 0] CT
0.208 0.165 0.525 RC
N
246.948 122 M
250.427 122 L
250.427 79.197 L
246.948 79.197 L
cp
f
GR
GS
[0.75 0 0 0.75 0 0] CT
0.208 0.165 0.525 RC
N
251.297 122 M
254.776 122 L
254.776 91.897 L
251.297 91.897 L
cp
f
GR
GS
[0.75 0 0 0.75 0 0] CT
0.208 0.165 0.525 RC
N
255.645 122 M
259.124 122 L
259.124 92.66 L
255.645 92.66 L
cp
f
GR
GS
[0.75 0 0 0.75 0 0] CT
0.208 0.165 0.525 RC
N
259.994 122 M
263.473 122 L
263.473 114.536 L
259.994 114.536 L
cp
f
GR
GS
[0.75 0 0 0.75 0 0] CT
0.208 0.165 0.525 RC
N
264.343 122 M
267.822 122 L
267.822 115.158 L
264.343 115.158 L
cp
f
GR
GS
[0.75 0 0 0.75 0 0] CT
0.208 0.165 0.525 RC
N
268.691 122 M
272.17 122 L
272.17 99.991 L
268.691 99.991 L
cp
f
GR
GS
[0.75 0 0 0.75 0 0] CT
0.208 0.165 0.525 RC
N
273.04 122 M
276.519 122 L
276.519 101.799 L
273.04 101.799 L
cp
f
GR
GS
[0.75 0 0 0.75 0 0] CT
0.208 0.165 0.525 RC
N
277.389 122 M
280.868 122 L
280.868 83.151 L
277.389 83.151 L
cp
f
GR
GS
[0.75 0 0 0.75 0 0] CT
0.208 0.165 0.525 RC
N
281.737 122 M
285.216 122 L
285.216 116.162 L
281.737 116.162 L
cp
f
GR
GS
[0.75 0 0 0.75 0 0] CT
0.208 0.165 0.525 RC
N
286.086 122 M
289.565 122 L
289.565 120.877 L
286.086 120.877 L
cp
f
GR
GS
[0.75 0 0 0.75 0 0] CT
0.208 0.165 0.525 RC
N
290.435 122 M
293.914 122 L
293.914 119.614 L
290.435 119.614 L
cp
f
GR
GS
[0.75 0 0 0.75 0 0] CT
0.208 0.165 0.525 RC
N
294.784 122 M
298.263 122 L
298.263 106.627 L
294.784 106.627 L
cp
f
GR
GS
[0.75 0 0 0.75 0 0] CT
0.208 0.165 0.525 RC
N
299.132 122 M
302.611 122 L
302.611 106.834 L
299.132 106.834 L
cp
f
GR
GS
[0.75 0 0 0.75 0 0] CT
0.208 0.165 0.525 RC
N
303.481 122 M
306.96 122 L
306.96 79.146 L
303.481 79.146 L
cp
f
GR
GS
[0.75 0 0 0.75 0 0] CT
0.208 0.165 0.525 RC
N
307.83 122 M
311.309 122 L
311.309 119.528 L
307.83 119.528 L
cp
f
GR
GS
[0.75 0 0 0.75 0 0] CT
0.208 0.165 0.525 RC
N
312.178 122 M
315.657 122 L
315.657 101.344 L
312.178 101.344 L
cp
f
GR
GS
[0.75 0 0 0.75 0 0] CT
0.208 0.165 0.525 RC
N
316.527 122 M
320.006 122 L
320.006 93.796 L
316.527 93.796 L
cp
f
GR
GS
[0.75 0 0 0.75 0 0] CT
0.208 0.165 0.525 RC
N
320.876 122 M
324.355 122 L
324.355 116.814 L
320.876 116.814 L
cp
f
GR
GS
[0.75 0 0 0.75 0 0] CT
0.208 0.165 0.525 RC
N
325.224 122 M
328.703 122 L
328.703 120.402 L
325.224 120.402 L
cp
f
GR
GS
[0.75 0 0 0.75 0 0] CT
0.208 0.165 0.525 RC
N
329.573 122 M
333.052 122 L
333.052 90.969 L
329.573 90.969 L
cp
f
GR
GS
[0.75 0 0 0.75 0 0] CT
0.208 0.165 0.525 RC
N
333.922 122 M
337.401 122 L
337.401 106.661 L
333.922 106.661 L
cp
f
GR
GS
[0.75 0 0 0.75 0 0] CT
0.208 0.165 0.525 RC
N
338.271 122 M
341.75 122 L
341.75 110.089 L
338.271 110.089 L
cp
f
GR
GS
[0.75 0 0 0.75 0 0] CT
0.208 0.165 0.525 RC
N
342.619 122 M
346.098 122 L
346.098 117.09 L
342.619 117.09 L
cp
f
GR
GS
[0.75 0 0 0.75 0 0] CT
0.208 0.165 0.525 RC
N
346.968 122 M
350.447 122 L
350.447 97.898 L
346.968 97.898 L
cp
f
GR
GS
[0.75 0 0 0.75 0 0] CT
0.208 0.165 0.525 RC
N
351.317 122 M
354.796 122 L
354.796 102.197 L
351.317 102.197 L
cp
f
GR
GS
[0.75 0 0 0.75 0 0] CT
0.208 0.165 0.525 RC
N
355.665 122 M
359.144 122 L
359.144 75.592 L
355.665 75.592 L
cp
f
GR
GS
[0.75 0 0 0.75 0 0] CT
0.208 0.165 0.525 RC
N
360.014 122 M
363.493 122 L
363.493 114.304 L
360.014 114.304 L
cp
f
GR
GS
[0.75 0 0 0.75 0 0] CT
0.208 0.165 0.525 RC
N
364.363 122 M
367.842 122 L
367.842 114.377 L
364.363 114.377 L
cp
f
GR
GS
[0.75 0 0 0.75 0 0] CT
0.208 0.165 0.525 RC
N
368.711 122 M
372.19 122 L
372.19 77.88 L
368.711 77.88 L
cp
f
GR
GS
[0.75 0 0 0.75 0 0] CT
0.208 0.165 0.525 RC
N
373.06 122 M
376.539 122 L
376.539 116.04 L
373.06 116.04 L
cp
f
GR
GS
[0.75 0 0 0.75 0 0] CT
0.208 0.165 0.525 RC
N
377.409 122 M
380.888 122 L
380.888 117.315 L
377.409 117.315 L
cp
f
GR
GS
[0.75 0 0 0.75 0 0] CT
0.208 0.165 0.525 RC
N
381.758 122 M
385.236 122 L
385.236 94.643 L
381.758 94.643 L
cp
f
GR
GS
[0.75 0 0 0.75 0 0] CT
0.208 0.165 0.525 RC
N
386.106 122 M
389.585 122 L
389.585 101.382 L
386.106 101.382 L
cp
f
GR
GS
[0.75 0 0 0.75 0 0] CT
0.208 0.165 0.525 RC
N
390.455 122 M
393.934 122 L
393.934 78.849 L
390.455 78.849 L
cp
f
GR
GS
[0.75 0 0 0.75 0 0] CT
0.208 0.165 0.525 RC
N
394.804 122 M
398.283 122 L
398.283 114.047 L
394.804 114.047 L
cp
f
GR
GS
[0.75 0 0 0.75 0 0] CT
0.208 0.165 0.525 RC
N
399.152 122 M
402.631 122 L
402.631 82.485 L
399.152 82.485 L
cp
f
GR
GS
[0.75 0 0 0.75 0 0] CT
0.208 0.165 0.525 RC
N
403.501 122 M
406.98 122 L
406.98 118.133 L
403.501 118.133 L
cp
f
GR
GS
[0.75 0 0 0.75 0 0] CT
0.208 0.165 0.525 RC
N
407.85 122 M
411.329 122 L
411.329 74.961 L
407.85 74.961 L
cp
f
GR
GS
[0.75 0 0 0.75 0 0] CT
0.208 0.165 0.525 RC
N
412.198 122 M
415.677 122 L
415.677 119.309 L
412.198 119.309 L
cp
f
GR
GS
[0.75 0 0 0.75 0 0] CT
0.208 0.165 0.525 RC
N
416.547 122 M
420.026 122 L
420.026 101.183 L
416.547 101.183 L
cp
f
GR
GS
[0.75 0 0 0.75 0 0] CT
0.208 0.165 0.525 RC
N
420.896 122 M
424.375 122 L
424.375 117.506 L
420.896 117.506 L
cp
f
GR
GS
[0.75 0 0 0.75 0 0] CT
0.208 0.165 0.525 RC
N
425.244 122 M
428.723 122 L
428.723 91.937 L
425.244 91.937 L
cp
f
GR
GS
[0.75 0 0 0.75 0 0] CT
0.208 0.165 0.525 RC
N
429.593 122 M
433.072 122 L
433.072 92.673 L
429.593 92.673 L
cp
f
GR
GS
[0.75 0 0 0.75 0 0] CT
0.208 0.165 0.525 RC
N
433.942 122 M
437.421 122 L
437.421 116.368 L
433.942 116.368 L
cp
f
GR
GS
[0.75 0 0 0.75 0 0] CT
0.208 0.165 0.525 RC
N
438.291 122 M
441.77 122 L
441.77 116.738 L
438.291 116.738 L
cp
f
GR
GS
[0.75 0 0 0.75 0 0] CT
0.208 0.165 0.525 RC
N
442.639 122 M
446.118 122 L
446.118 114.194 L
442.639 114.194 L
cp
f
GR
GS
[0.75 0 0 0.75 0 0] CT
0.208 0.165 0.525 RC
N
446.988 122 M
450.467 122 L
450.467 91.737 L
446.988 91.737 L
cp
f
GR
GS
[0.75 0 0 0.75 0 0] CT
0.208 0.165 0.525 RC
N
451.337 122 M
454.816 122 L
454.816 93.477 L
451.337 93.477 L
cp
f
GR
GS
[0.75 0 0 0.75 0 0] CT
0.208 0.165 0.525 RC
N
455.685 122 M
459.164 122 L
459.164 118.008 L
455.685 118.008 L
cp
f
GR
GS
[0.75 0 0 0.75 0 0] CT
0.208 0.165 0.525 RC
N
460.034 122 M
463.513 122 L
463.513 79.185 L
460.034 79.185 L
cp
f
GR
GS
[0.75 0 0 0.75 0 0] CT
0.208 0.165 0.525 RC
N
464.383 122 M
467.862 122 L
467.862 88.496 L
464.383 88.496 L
cp
f
GR
GS
[0.75 0 0 0.75 0 0] CT
0.208 0.165 0.525 RC
N
468.731 122 M
472.21 122 L
472.21 114.853 L
468.731 114.853 L
cp
f
GR
GS
[0.75 0 0 0.75 0 0] CT
0.208 0.165 0.525 RC
N
473.08 122 M
476.559 122 L
476.559 82.024 L
473.08 82.024 L
cp
f
GR
GS
[0.75 0 0 0.75 0 0] CT
0.208 0.165 0.525 RC
N
477.429 122 M
480.908 122 L
480.908 118.379 L
477.429 118.379 L
cp
f
GR
GS
[0.75 0 0 0.75 0 0] CT
0.208 0.165 0.525 RC
N
481.778 122 M
485.257 122 L
485.257 119.663 L
481.778 119.663 L
cp
f
GR
GS
[0.75 0 0 0.75 0 0] CT
0.208 0.165 0.525 RC
N
486.126 122 M
489.605 122 L
489.605 102.568 L
486.126 102.568 L
cp
f
GR
GS
[0.75 0 0 0.75 0 0] CT
0.208 0.165 0.525 RC
N
490.475 122 M
493.954 122 L
493.954 86.998 L
490.475 86.998 L
cp
f
GR
GS
[0.75 0 0 0.75 0 0] CT
0.208 0.165 0.525 RC
N
494.824 122 M
498.303 122 L
498.303 117.007 L
494.824 117.007 L
cp
f
GR
GS
[0.75 0 0 0.75 0 0] CT
0.208 0.165 0.525 RC
N
499.172 122 M
502.651 122 L
502.651 121.22 L
499.172 121.22 L
cp
f
GR
GS
[0.75 0 0 0.75 0 0] CT
0.208 0.165 0.525 RC
N
503.521 122 M
507 122 L
507 120.148 L
503.521 120.148 L
cp
f
GR
GS
[0.75 0 0 0.75 0 0] CT
10.0 ML
0.667 LW
N
73 122 M
73 112.251 L
76.479 112.251 L
76.479 122 L
cp
S
GR
GS
[0.75 0 0 0.75 0 0] CT
10.0 ML
0.667 LW
N
77.349 122 M
77.349 117.663 L
80.828 117.663 L
80.828 122 L
cp
S
GR
GS
[0.75 0 0 0.75 0 0] CT
10.0 ML
0.667 LW
N
81.697 122 M
81.697 92.72 L
85.176 92.72 L
85.176 122 L
cp
S
GR
GS
[0.75 0 0 0.75 0 0] CT
10.0 ML
0.667 LW
N
86.046 122 M
86.046 116.455 L
89.525 116.455 L
89.525 122 L
cp
S
GR
GS
[0.75 0 0 0.75 0 0] CT
10.0 ML
0.667 LW
N
90.395 122 M
90.395 112.579 L
93.874 112.579 L
93.874 122 L
cp
S
GR
GS
[0.75 0 0 0.75 0 0] CT
10.0 ML
0.667 LW
N
94.743 122 M
94.743 117.023 L
98.222 117.023 L
98.222 122 L
cp
S
GR
GS
[0.75 0 0 0.75 0 0] CT
10.0 ML
0.667 LW
N
99.092 122 M
99.092 78.872 L
102.571 78.872 L
102.571 122 L
cp
S
GR
GS
[0.75 0 0 0.75 0 0] CT
10.0 ML
0.667 LW
N
103.441 122 M
103.441 104.324 L
106.92 104.324 L
106.92 122 L
cp
S
GR
GS
[0.75 0 0 0.75 0 0] CT
10.0 ML
0.667 LW
N
107.79 122 M
107.79 83.197 L
111.269 83.197 L
111.269 122 L
cp
S
GR
GS
[0.75 0 0 0.75 0 0] CT
10.0 ML
0.667 LW
N
112.138 122 M
112.138 116.212 L
115.617 116.212 L
115.617 122 L
cp
S
GR
GS
[0.75 0 0 0.75 0 0] CT
10.0 ML
0.667 LW
N
116.487 122 M
116.487 121.032 L
119.966 121.032 L
119.966 122 L
cp
S
GR
GS
[0.75 0 0 0.75 0 0] CT
10.0 ML
0.667 LW
N
120.836 122 M
120.836 101.323 L
124.315 101.323 L
124.315 122 L
cp
S
GR
GS
[0.75 0 0 0.75 0 0] CT
10.0 ML
0.667 LW
N
125.184 122 M
125.184 98.116 L
128.663 98.116 L
128.663 122 L
cp
S
GR
GS
[0.75 0 0 0.75 0 0] CT
10.0 ML
0.667 LW
N
129.533 122 M
129.533 120.989 L
133.012 120.989 L
133.012 122 L
cp
S
GR
GS
[0.75 0 0 0.75 0 0] CT
10.0 ML
0.667 LW
N
133.882 122 M
133.882 66.155 L
137.361 66.155 L
137.361 122 L
cp
S
GR
GS
[0.75 0 0 0.75 0 0] CT
10.0 ML
0.667 LW
N
138.23 122 M
138.23 88.121 L
141.709 88.121 L
141.709 122 L
cp
S
GR
GS
[0.75 0 0 0.75 0 0] CT
10.0 ML
0.667 LW
N
142.579 122 M
142.579 115.416 L
146.058 115.416 L
146.058 122 L
cp
S
GR
GS
[0.75 0 0 0.75 0 0] CT
10.0 ML
0.667 LW
N
146.928 122 M
146.928 64.019 L
150.407 64.019 L
150.407 122 L
cp
S
GR
GS
[0.75 0 0 0.75 0 0] CT
10.0 ML
0.667 LW
N
151.277 122 M
151.277 90.456 L
154.756 90.456 L
154.756 122 L
cp
S
GR
GS
[0.75 0 0 0.75 0 0] CT
10.0 ML
0.667 LW
N
155.625 122 M
155.625 119.308 L
159.104 119.308 L
159.104 122 L
cp
S
GR
GS
[0.75 0 0 0.75 0 0] CT
10.0 ML
0.667 LW
N
159.974 122 M
159.974 117.385 L
163.453 117.385 L
163.453 122 L
cp
S
GR
GS
[0.75 0 0 0.75 0 0] CT
10.0 ML
0.667 LW
N
164.323 122 M
164.323 104.537 L
167.802 104.537 L
167.802 122 L
cp
S
GR
GS
[0.75 0 0 0.75 0 0] CT
10.0 ML
0.667 LW
N
168.671 122 M
168.671 87.481 L
172.15 87.481 L
172.15 122 L
cp
S
GR
GS
[0.75 0 0 0.75 0 0] CT
10.0 ML
0.667 LW
N
173.02 122 M
173.02 112.983 L
176.499 112.983 L
176.499 122 L
cp
S
GR
GS
[0.75 0 0 0.75 0 0] CT
10.0 ML
0.667 LW
N
177.369 122 M
177.369 117.044 L
180.848 117.044 L
180.848 122 L
cp
S
GR
GS
[0.75 0 0 0.75 0 0] CT
10.0 ML
0.667 LW
N
181.717 122 M
181.717 92.252 L
185.196 92.252 L
185.196 122 L
cp
S
GR
GS
[0.75 0 0 0.75 0 0] CT
10.0 ML
0.667 LW
N
186.066 122 M
186.066 78.064 L
189.545 78.064 L
189.545 122 L
cp
S
GR
GS
[0.75 0 0 0.75 0 0] CT
10.0 ML
0.667 LW
N
190.415 122 M
190.415 86.922 L
193.894 86.922 L
193.894 122 L
cp
S
GR
GS
[0.75 0 0 0.75 0 0] CT
10.0 ML
0.667 LW
N
194.764 122 M
194.764 106.243 L
198.242 106.243 L
198.242 122 L
cp
S
GR
GS
[0.75 0 0 0.75 0 0] CT
10.0 ML
0.667 LW
N
199.112 122 M
199.112 80.3 L
202.591 80.3 L
202.591 122 L
cp
S
GR
GS
[0.75 0 0 0.75 0 0] CT
10.0 ML
0.667 LW
N
203.461 122 M
203.461 118.379 L
206.94 118.379 L
206.94 122 L
cp
S
GR
GS
[0.75 0 0 0.75 0 0] CT
10.0 ML
0.667 LW
N
207.81 122 M
207.81 79.884 L
211.289 79.884 L
211.289 122 L
cp
S
GR
GS
[0.75 0 0 0.75 0 0] CT
10.0 ML
0.667 LW
N
212.158 122 M
212.158 119.785 L
215.637 119.785 L
215.637 122 L
cp
S
GR
GS
[0.75 0 0 0.75 0 0] CT
10.0 ML
0.667 LW
N
216.507 122 M
216.507 109.557 L
219.986 109.557 L
219.986 122 L
cp
S
GR
GS
[0.75 0 0 0.75 0 0] CT
10.0 ML
0.667 LW
N
220.856 122 M
220.856 103.13 L
224.335 103.13 L
224.335 122 L
cp
S
GR
GS
[0.75 0 0 0.75 0 0] CT
10.0 ML
0.667 LW
N
225.204 122 M
225.204 86.655 L
228.683 86.655 L
228.683 122 L
cp
S
GR
GS
[0.75 0 0 0.75 0 0] CT
10.0 ML
0.667 LW
N
229.553 122 M
229.553 77.649 L
233.032 77.649 L
233.032 122 L
cp
S
GR
GS
[0.75 0 0 0.75 0 0] CT
10.0 ML
0.667 LW
N
233.902 122 M
233.902 119.079 L
237.381 119.079 L
237.381 122 L
cp
S
GR
GS
[0.75 0 0 0.75 0 0] CT
10.0 ML
0.667 LW
N
238.25 122 M
238.25 117.963 L
241.729 117.963 L
241.729 122 L
cp
S
GR
GS
[0.75 0 0 0.75 0 0] CT
10.0 ML
0.667 LW
N
242.599 122 M
242.599 65.363 L
246.078 65.363 L
246.078 122 L
cp
S
GR
GS
[0.75 0 0 0.75 0 0] CT
10.0 ML
0.667 LW
N
246.948 122 M
246.948 79.197 L
250.427 79.197 L
250.427 122 L
cp
S
GR
GS
[0.75 0 0 0.75 0 0] CT
10.0 ML
0.667 LW
N
251.297 122 M
251.297 91.897 L
254.776 91.897 L
254.776 122 L
cp
S
GR
GS
[0.75 0 0 0.75 0 0] CT
10.0 ML
0.667 LW
N
255.645 122 M
255.645 92.66 L
259.124 92.66 L
259.124 122 L
cp
S
GR
GS
[0.75 0 0 0.75 0 0] CT
10.0 ML
0.667 LW
N
259.994 122 M
259.994 114.536 L
263.473 114.536 L
263.473 122 L
cp
S
GR
GS
[0.75 0 0 0.75 0 0] CT
10.0 ML
0.667 LW
N
264.343 122 M
264.343 115.158 L
267.822 115.158 L
267.822 122 L
cp
S
GR
GS
[0.75 0 0 0.75 0 0] CT
10.0 ML
0.667 LW
N
268.691 122 M
268.691 99.991 L
272.17 99.991 L
272.17 122 L
cp
S
GR
GS
[0.75 0 0 0.75 0 0] CT
10.0 ML
0.667 LW
N
273.04 122 M
273.04 101.799 L
276.519 101.799 L
276.519 122 L
cp
S
GR
GS
[0.75 0 0 0.75 0 0] CT
10.0 ML
0.667 LW
N
277.389 122 M
277.389 83.151 L
280.868 83.151 L
280.868 122 L
cp
S
GR
GS
[0.75 0 0 0.75 0 0] CT
10.0 ML
0.667 LW
N
281.737 122 M
281.737 116.162 L
285.216 116.162 L
285.216 122 L
cp
S
GR
GS
[0.75 0 0 0.75 0 0] CT
10.0 ML
0.667 LW
N
286.086 122 M
286.086 120.877 L
289.565 120.877 L
289.565 122 L
cp
S
GR
GS
[0.75 0 0 0.75 0 0] CT
10.0 ML
0.667 LW
N
290.435 122 M
290.435 119.614 L
293.914 119.614 L
293.914 122 L
cp
S
GR
GS
[0.75 0 0 0.75 0 0] CT
10.0 ML
0.667 LW
N
294.784 122 M
294.784 106.627 L
298.263 106.627 L
298.263 122 L
cp
S
GR
GS
[0.75 0 0 0.75 0 0] CT
10.0 ML
0.667 LW
N
299.132 122 M
299.132 106.834 L
302.611 106.834 L
302.611 122 L
cp
S
GR
GS
[0.75 0 0 0.75 0 0] CT
10.0 ML
0.667 LW
N
303.481 122 M
303.481 79.146 L
306.96 79.146 L
306.96 122 L
cp
S
GR
GS
[0.75 0 0 0.75 0 0] CT
10.0 ML
0.667 LW
N
307.83 122 M
307.83 119.528 L
311.309 119.528 L
311.309 122 L
cp
S
GR
GS
[0.75 0 0 0.75 0 0] CT
10.0 ML
0.667 LW
N
312.178 122 M
312.178 101.344 L
315.657 101.344 L
315.657 122 L
cp
S
GR
GS
[0.75 0 0 0.75 0 0] CT
10.0 ML
0.667 LW
N
316.527 122 M
316.527 93.796 L
320.006 93.796 L
320.006 122 L
cp
S
GR
GS
[0.75 0 0 0.75 0 0] CT
10.0 ML
0.667 LW
N
320.876 122 M
320.876 116.814 L
324.355 116.814 L
324.355 122 L
cp
S
GR
GS
[0.75 0 0 0.75 0 0] CT
10.0 ML
0.667 LW
N
325.224 122 M
325.224 120.402 L
328.703 120.402 L
328.703 122 L
cp
S
GR
GS
[0.75 0 0 0.75 0 0] CT
10.0 ML
0.667 LW
N
329.573 122 M
329.573 90.969 L
333.052 90.969 L
333.052 122 L
cp
S
GR
GS
[0.75 0 0 0.75 0 0] CT
10.0 ML
0.667 LW
N
333.922 122 M
333.922 106.661 L
337.401 106.661 L
337.401 122 L
cp
S
GR
GS
[0.75 0 0 0.75 0 0] CT
10.0 ML
0.667 LW
N
338.271 122 M
338.271 110.089 L
341.75 110.089 L
341.75 122 L
cp
S
GR
GS
[0.75 0 0 0.75 0 0] CT
10.0 ML
0.667 LW
N
342.619 122 M
342.619 117.09 L
346.098 117.09 L
346.098 122 L
cp
S
GR
GS
[0.75 0 0 0.75 0 0] CT
10.0 ML
0.667 LW
N
346.968 122 M
346.968 97.898 L
350.447 97.898 L
350.447 122 L
cp
S
GR
GS
[0.75 0 0 0.75 0 0] CT
10.0 ML
0.667 LW
N
351.317 122 M
351.317 102.197 L
354.796 102.197 L
354.796 122 L
cp
S
GR
GS
[0.75 0 0 0.75 0 0] CT
10.0 ML
0.667 LW
N
355.665 122 M
355.665 75.592 L
359.144 75.592 L
359.144 122 L
cp
S
GR
GS
[0.75 0 0 0.75 0 0] CT
10.0 ML
0.667 LW
N
360.014 122 M
360.014 114.304 L
363.493 114.304 L
363.493 122 L
cp
S
GR
GS
[0.75 0 0 0.75 0 0] CT
10.0 ML
0.667 LW
N
364.363 122 M
364.363 114.377 L
367.842 114.377 L
367.842 122 L
cp
S
GR
GS
[0.75 0 0 0.75 0 0] CT
10.0 ML
0.667 LW
N
368.711 122 M
368.711 77.88 L
372.19 77.88 L
372.19 122 L
cp
S
GR
GS
[0.75 0 0 0.75 0 0] CT
10.0 ML
0.667 LW
N
373.06 122 M
373.06 116.04 L
376.539 116.04 L
376.539 122 L
cp
S
GR
GS
[0.75 0 0 0.75 0 0] CT
10.0 ML
0.667 LW
N
377.409 122 M
377.409 117.315 L
380.888 117.315 L
380.888 122 L
cp
S
GR
GS
[0.75 0 0 0.75 0 0] CT
10.0 ML
0.667 LW
N
381.758 122 M
381.758 94.643 L
385.236 94.643 L
385.236 122 L
cp
S
GR
GS
[0.75 0 0 0.75 0 0] CT
10.0 ML
0.667 LW
N
386.106 122 M
386.106 101.382 L
389.585 101.382 L
389.585 122 L
cp
S
GR
GS
[0.75 0 0 0.75 0 0] CT
10.0 ML
0.667 LW
N
390.455 122 M
390.455 78.849 L
393.934 78.849 L
393.934 122 L
cp
S
GR
GS
[0.75 0 0 0.75 0 0] CT
10.0 ML
0.667 LW
N
394.804 122 M
394.804 114.047 L
398.283 114.047 L
398.283 122 L
cp
S
GR
GS
[0.75 0 0 0.75 0 0] CT
10.0 ML
0.667 LW
N
399.152 122 M
399.152 82.485 L
402.631 82.485 L
402.631 122 L
cp
S
GR
GS
[0.75 0 0 0.75 0 0] CT
10.0 ML
0.667 LW
N
403.501 122 M
403.501 118.133 L
406.98 118.133 L
406.98 122 L
cp
S
GR
GS
[0.75 0 0 0.75 0 0] CT
10.0 ML
0.667 LW
N
407.85 122 M
407.85 74.961 L
411.329 74.961 L
411.329 122 L
cp
S
GR
GS
[0.75 0 0 0.75 0 0] CT
10.0 ML
0.667 LW
N
412.198 122 M
412.198 119.309 L
415.677 119.309 L
415.677 122 L
cp
S
GR
GS
[0.75 0 0 0.75 0 0] CT
10.0 ML
0.667 LW
N
416.547 122 M
416.547 101.183 L
420.026 101.183 L
420.026 122 L
cp
S
GR
GS
[0.75 0 0 0.75 0 0] CT
10.0 ML
0.667 LW
N
420.896 122 M
420.896 117.506 L
424.375 117.506 L
424.375 122 L
cp
S
GR
GS
[0.75 0 0 0.75 0 0] CT
10.0 ML
0.667 LW
N
425.244 122 M
425.244 91.937 L
428.723 91.937 L
428.723 122 L
cp
S
GR
GS
[0.75 0 0 0.75 0 0] CT
10.0 ML
0.667 LW
N
429.593 122 M
429.593 92.673 L
433.072 92.673 L
433.072 122 L
cp
S
GR
GS
[0.75 0 0 0.75 0 0] CT
10.0 ML
0.667 LW
N
433.942 122 M
433.942 116.368 L
437.421 116.368 L
437.421 122 L
cp
S
GR
GS
[0.75 0 0 0.75 0 0] CT
10.0 ML
0.667 LW
N
438.291 122 M
438.291 116.738 L
441.77 116.738 L
441.77 122 L
cp
S
GR
GS
[0.75 0 0 0.75 0 0] CT
10.0 ML
0.667 LW
N
442.639 122 M
442.639 114.194 L
446.118 114.194 L
446.118 122 L
cp
S
GR
GS
[0.75 0 0 0.75 0 0] CT
10.0 ML
0.667 LW
N
446.988 122 M
446.988 91.737 L
450.467 91.737 L
450.467 122 L
cp
S
GR
GS
[0.75 0 0 0.75 0 0] CT
10.0 ML
0.667 LW
N
451.337 122 M
451.337 93.477 L
454.816 93.477 L
454.816 122 L
cp
S
GR
GS
[0.75 0 0 0.75 0 0] CT
10.0 ML
0.667 LW
N
455.685 122 M
455.685 118.008 L
459.164 118.008 L
459.164 122 L
cp
S
GR
GS
[0.75 0 0 0.75 0 0] CT
10.0 ML
0.667 LW
N
460.034 122 M
460.034 79.185 L
463.513 79.185 L
463.513 122 L
cp
S
GR
GS
[0.75 0 0 0.75 0 0] CT
10.0 ML
0.667 LW
N
464.383 122 M
464.383 88.496 L
467.862 88.496 L
467.862 122 L
cp
S
GR
GS
[0.75 0 0 0.75 0 0] CT
10.0 ML
0.667 LW
N
468.731 122 M
468.731 114.853 L
472.21 114.853 L
472.21 122 L
cp
S
GR
GS
[0.75 0 0 0.75 0 0] CT
10.0 ML
0.667 LW
N
473.08 122 M
473.08 82.024 L
476.559 82.024 L
476.559 122 L
cp
S
GR
GS
[0.75 0 0 0.75 0 0] CT
10.0 ML
0.667 LW
N
477.429 122 M
477.429 118.379 L
480.908 118.379 L
480.908 122 L
cp
S
GR
GS
[0.75 0 0 0.75 0 0] CT
10.0 ML
0.667 LW
N
481.778 122 M
481.778 119.663 L
485.257 119.663 L
485.257 122 L
cp
S
GR
GS
[0.75 0 0 0.75 0 0] CT
10.0 ML
0.667 LW
N
486.126 122 M
486.126 102.568 L
489.605 102.568 L
489.605 122 L
cp
S
GR
GS
[0.75 0 0 0.75 0 0] CT
10.0 ML
0.667 LW
N
490.475 122 M
490.475 86.998 L
493.954 86.998 L
493.954 122 L
cp
S
GR
GS
[0.75 0 0 0.75 0 0] CT
10.0 ML
0.667 LW
N
494.824 122 M
494.824 117.007 L
498.303 117.007 L
498.303 122 L
cp
S
GR
GS
[0.75 0 0 0.75 0 0] CT
10.0 ML
0.667 LW
N
499.172 122 M
499.172 121.22 L
502.651 121.22 L
502.651 122 L
cp
S
GR
GS
[0.75 0 0 0.75 0 0] CT
10.0 ML
0.667 LW
N
503.521 122 M
503.521 120.148 L
507 120.148 L
507 122 L
cp
S
GR
GS
[0.75 0 0 0.75 0 0] CT
1 GC
N
73 248 M
507 248 L
507 168 L
73 168 L
cp
f
GR
GS
[0.75 0 0 0.75 0 0] CT
0.149 GC
2 setlinecap
1 LJ
0.667 LW
N
73 248 M
507 248 L
S
GR
GS
[0.75 0 0 0.75 0 0] CT
0.149 GC
2 setlinecap
1 LJ
0.667 LW
N
73 168 M
507 168 L
S
GR
GS
[0.75 0 0 0.75 0 0] CT
0.149 GC
2 setlinecap
1 LJ
0.667 LW
N
113.878 248 M
113.878 243.66 L
S
GR
GS
[0.75 0 0 0.75 0 0] CT
0.149 GC
2 setlinecap
1 LJ
0.667 LW
N
157.365 248 M
157.365 243.66 L
S
GR
GS
[0.75 0 0 0.75 0 0] CT
0.149 GC
2 setlinecap
1 LJ
0.667 LW
N
200.852 248 M
200.852 243.66 L
S
GR
GS
[0.75 0 0 0.75 0 0] CT
0.149 GC
2 setlinecap
1 LJ
0.667 LW
N
244.339 248 M
244.339 243.66 L
S
GR
GS
[0.75 0 0 0.75 0 0] CT
0.149 GC
2 setlinecap
1 LJ
0.667 LW
N
287.826 248 M
287.826 243.66 L
S
GR
GS
[0.75 0 0 0.75 0 0] CT
0.149 GC
2 setlinecap
1 LJ
0.667 LW
N
331.313 248 M
331.313 243.66 L
S
GR
GS
[0.75 0 0 0.75 0 0] CT
0.149 GC
2 setlinecap
1 LJ
0.667 LW
N
374.8 248 M
374.8 243.66 L
S
GR
GS
[0.75 0 0 0.75 0 0] CT
0.149 GC
2 setlinecap
1 LJ
0.667 LW
N
418.287 248 M
418.287 243.66 L
S
GR
GS
[0.75 0 0 0.75 0 0] CT
0.149 GC
2 setlinecap
1 LJ
0.667 LW
N
461.774 248 M
461.774 243.66 L
S
GR
GS
[0.75 0 0 0.75 0 0] CT
0.149 GC
2 setlinecap
1 LJ
0.667 LW
N
505.261 248 M
505.261 243.66 L
S
GR
GS
[0.75 0 0 0.75 0 0] CT
0.149 GC
2 setlinecap
1 LJ
0.667 LW
N
113.878 168 M
113.878 172.34 L
S
GR
GS
[0.75 0 0 0.75 0 0] CT
0.149 GC
2 setlinecap
1 LJ
0.667 LW
N
157.365 168 M
157.365 172.34 L
S
GR
GS
[0.75 0 0 0.75 0 0] CT
0.149 GC
2 setlinecap
1 LJ
0.667 LW
N
200.852 168 M
200.852 172.34 L
S
GR
GS
[0.75 0 0 0.75 0 0] CT
0.149 GC
2 setlinecap
1 LJ
0.667 LW
N
244.339 168 M
244.339 172.34 L
S
GR
GS
[0.75 0 0 0.75 0 0] CT
0.149 GC
2 setlinecap
1 LJ
0.667 LW
N
287.826 168 M
287.826 172.34 L
S
GR
GS
[0.75 0 0 0.75 0 0] CT
0.149 GC
2 setlinecap
1 LJ
0.667 LW
N
331.313 168 M
331.313 172.34 L
S
GR
GS
[0.75 0 0 0.75 0 0] CT
0.149 GC
2 setlinecap
1 LJ
0.667 LW
N
374.8 168 M
374.8 172.34 L
S
GR
GS
[0.75 0 0 0.75 0 0] CT
0.149 GC
2 setlinecap
1 LJ
0.667 LW
N
418.287 168 M
418.287 172.34 L
S
GR
GS
[0.75 0 0 0.75 0 0] CT
0.149 GC
2 setlinecap
1 LJ
0.667 LW
N
461.774 168 M
461.774 172.34 L
S
GR
GS
[0.75 0 0 0.75 0 0] CT
0.149 GC
2 setlinecap
1 LJ
0.667 LW
N
505.261 168 M
505.261 172.34 L
S
GR
GS
[0.75 0 0 0.75 85.40832 190] CT
0.149 GC
/Helvetica 13.333 F
GS
[1 0 0 1 0 0] CT
-7.5 14 moveto 
1 -1 scale
(10) t 
GR
GR
GS
[0.75 0 0 0.75 118.02355 190] CT
0.149 GC
/Helvetica 13.333 F
GS
[1 0 0 1 0 0] CT
-7.5 14 moveto 
1 -1 scale
(20) t 
GR
GR
GS
[0.75 0 0 0.75 150.63877 190] CT
0.149 GC
/Helvetica 13.333 F
GS
[1 0 0 1 0 0] CT
-7.5 14 moveto 
1 -1 scale
(30) t 
GR
GR
GS
[0.75 0 0 0.75 183.25401 190] CT
0.149 GC
/Helvetica 13.333 F
GS
[1 0 0 1 0 0] CT
-7.5 14 moveto 
1 -1 scale
(40) t 
GR
GR
GS
[0.75 0 0 0.75 215.86924 190] CT
0.149 GC
/Helvetica 13.333 F
GS
[1 0 0 1 0 0] CT
-7.5 14 moveto 
1 -1 scale
(50) t 
GR
GR
GS
[0.75 0 0 0.75 248.48447 190] CT
0.149 GC
/Helvetica 13.333 F
GS
[1 0 0 1 0 0] CT
-7.5 14 moveto 
1 -1 scale
(60) t 
GR
GR
GS
[0.75 0 0 0.75 281.09969 190] CT
0.149 GC
/Helvetica 13.333 F
GS
[1 0 0 1 0 0] CT
-7.5 14 moveto 
1 -1 scale
(70) t 
GR
GR
GS
[0.75 0 0 0.75 313.71492 190] CT
0.149 GC
/Helvetica 13.333 F
GS
[1 0 0 1 0 0] CT
-7.5 14 moveto 
1 -1 scale
(80) t 
GR
GR
GS
[0.75 0 0 0.75 346.33017 190] CT
0.149 GC
/Helvetica 13.333 F
GS
[1 0 0 1 0 0] CT
-7.5 14 moveto 
1 -1 scale
(90) t 
GR
GR
GS
[0.75 0 0 0.75 378.9454 190] CT
0.149 GC
/Helvetica 13.333 F
GS
[1 0 0 1 0 0] CT
-11 14 moveto 
1 -1 scale
(100) t 
GR
GR
GS
[0.75 0 0 0.75 0 0] CT
0.149 GC
2 setlinecap
1 LJ
0.667 LW
N
73 248 M
73 168 L
S
GR
GS
[0.75 0 0 0.75 0 0] CT
0.149 GC
2 setlinecap
1 LJ
0.667 LW
N
507 248 M
507 168 L
S
GR
GS
[0.75 0 0 0.75 0 0] CT
0.149 GC
2 setlinecap
1 LJ
0.667 LW
N
73 248 M
77.34 248 L
S
GR
GS
[0.75 0 0 0.75 0 0] CT
0.149 GC
2 setlinecap
1 LJ
0.667 LW
N
73 208 M
77.34 208 L
S
GR
GS
[0.75 0 0 0.75 0 0] CT
0.149 GC
2 setlinecap
1 LJ
0.667 LW
N
73 168 M
77.34 168 L
S
GR
GS
[0.75 0 0 0.75 0 0] CT
0.149 GC
2 setlinecap
1 LJ
0.667 LW
N
507 248 M
502.66 248 L
S
GR
GS
[0.75 0 0 0.75 0 0] CT
0.149 GC
2 setlinecap
1 LJ
0.667 LW
N
507 208 M
502.66 208 L
S
GR
GS
[0.75 0 0 0.75 0 0] CT
0.149 GC
2 setlinecap
1 LJ
0.667 LW
N
507 168 M
502.66 168 L
S
GR
GS
[0.75 0 0 0.75 50.75 186] CT
0.149 GC
/Helvetica 13.333 F
GS
[1 0 0 1 0 0] CT
-8 5.5 moveto 
1 -1 scale
(0) t 
GR
GR
GS
[0.75 0 0 0.75 50.75 156] CT
0.149 GC
/Helvetica 13.333 F
GS
[1 0 0 1 0 0] CT
-26 5.5 moveto 
1 -1 scale
(0.05) t 
GR
GR
GS
[0.75 0 0 0.75 50.75 126] CT
0.149 GC
/Helvetica 13.333 F
GS
[1 0 0 1 0 0] CT
-19 5.5 moveto 
1 -1 scale
(0.1) t 
GR
GR
GS
[0.75 0 0 0.75 217.50021 123.9375] CT
/Helvetica-Bold 14.667 F
GS
[1 0 0 1 0 0] CT
-122 -4 moveto 
1 -1 scale
(Importance weighting second hop) t 
GR
GR
GS
[0.75 0 0 0.75 0 0] CT
0.149 GC
1 LJ
0.667 LW
N
73 248 M
507 248 L
S
GR
GS
[0.75 0 0 0.75 0 0] CT
0.208 0.165 0.525 RC
N
73 248 M
76.479 248 L
76.479 238.602 L
73 238.602 L
cp
f
GR
GS
[0.75 0 0 0.75 0 0] CT
0.208 0.165 0.525 RC
N
77.349 248 M
80.828 248 L
80.828 237.798 L
77.349 237.798 L
cp
f
GR
GS
[0.75 0 0 0.75 0 0] CT
0.208 0.165 0.525 RC
N
81.697 248 M
85.176 248 L
85.176 245.089 L
81.697 245.089 L
cp
f
GR
GS
[0.75 0 0 0.75 0 0] CT
0.208 0.165 0.525 RC
N
86.046 248 M
89.525 248 L
89.525 247.219 L
86.046 247.219 L
cp
f
GR
GS
[0.75 0 0 0.75 0 0] CT
0.208 0.165 0.525 RC
N
90.395 248 M
93.874 248 L
93.874 237.167 L
90.395 237.167 L
cp
f
GR
GS
[0.75 0 0 0.75 0 0] CT
0.208 0.165 0.525 RC
N
94.743 248 M
98.222 248 L
98.222 241.51 L
94.743 241.51 L
cp
f
GR
GS
[0.75 0 0 0.75 0 0] CT
0.208 0.165 0.525 RC
N
99.092 248 M
102.571 248 L
102.571 245.459 L
99.092 245.459 L
cp
f
GR
GS
[0.75 0 0 0.75 0 0] CT
0.208 0.165 0.525 RC
N
103.441 248 M
106.92 248 L
106.92 240.989 L
103.441 240.989 L
cp
f
GR
GS
[0.75 0 0 0.75 0 0] CT
0.208 0.165 0.525 RC
N
107.79 248 M
111.269 248 L
111.269 245.262 L
107.79 245.262 L
cp
f
GR
GS
[0.75 0 0 0.75 0 0] CT
0.208 0.165 0.525 RC
N
112.138 248 M
115.617 248 L
115.617 242.838 L
112.138 242.838 L
cp
f
GR
GS
[0.75 0 0 0.75 0 0] CT
0.208 0.165 0.525 RC
N
116.487 248 M
119.966 248 L
119.966 244.58 L
116.487 244.58 L
cp
f
GR
GS
[0.75 0 0 0.75 0 0] CT
0.208 0.165 0.525 RC
N
120.836 248 M
124.315 248 L
124.315 243.197 L
120.836 243.197 L
cp
f
GR
GS
[0.75 0 0 0.75 0 0] CT
0.208 0.165 0.525 RC
N
125.184 248 M
128.663 248 L
128.663 239.799 L
125.184 239.799 L
cp
f
GR
GS
[0.75 0 0 0.75 0 0] CT
0.208 0.165 0.525 RC
N
129.533 248 M
133.012 248 L
133.012 242.988 L
129.533 242.988 L
cp
f
GR
GS
[0.75 0 0 0.75 0 0] CT
0.208 0.165 0.525 RC
N
133.882 248 M
137.361 248 L
137.361 244.539 L
133.882 244.539 L
cp
f
GR
GS
[0.75 0 0 0.75 0 0] CT
0.208 0.165 0.525 RC
N
138.23 248 M
141.709 248 L
141.709 243.276 L
138.23 243.276 L
cp
f
GR
GS
[0.75 0 0 0.75 0 0] CT
0.208 0.165 0.525 RC
N
142.579 248 M
146.058 248 L
146.058 237.838 L
142.579 237.838 L
cp
f
GR
GS
[0.75 0 0 0.75 0 0] CT
0.208 0.165 0.525 RC
N
146.928 248 M
150.407 248 L
150.407 244.585 L
146.928 244.585 L
cp
f
GR
GS
[0.75 0 0 0.75 0 0] CT
0.208 0.165 0.525 RC
N
151.277 248 M
154.756 248 L
154.756 244.677 L
151.277 244.677 L
cp
f
GR
GS
[0.75 0 0 0.75 0 0] CT
0.208 0.165 0.525 RC
N
155.625 248 M
159.104 248 L
159.104 235.475 L
155.625 235.475 L
cp
f
GR
GS
[0.75 0 0 0.75 0 0] CT
0.208 0.165 0.525 RC
N
159.974 248 M
163.453 248 L
163.453 239.11 L
159.974 239.11 L
cp
f
GR
GS
[0.75 0 0 0.75 0 0] CT
0.208 0.165 0.525 RC
N
164.323 248 M
167.802 248 L
167.802 243.564 L
164.323 243.564 L
cp
f
GR
GS
[0.75 0 0 0.75 0 0] CT
0.208 0.165 0.525 RC
N
168.671 248 M
172.15 248 L
172.15 244.632 L
168.671 244.632 L
cp
f
GR
GS
[0.75 0 0 0.75 0 0] CT
0.208 0.165 0.525 RC
N
173.02 248 M
176.499 248 L
176.499 245.61 L
173.02 245.61 L
cp
f
GR
GS
[0.75 0 0 0.75 0 0] CT
0.208 0.165 0.525 RC
N
177.369 248 M
180.848 248 L
180.848 241.166 L
177.369 241.166 L
cp
f
GR
GS
[0.75 0 0 0.75 0 0] CT
0.208 0.165 0.525 RC
N
181.717 248 M
185.196 248 L
185.196 244.844 L
181.717 244.844 L
cp
f
GR
GS
[0.75 0 0 0.75 0 0] CT
0.208 0.165 0.525 RC
N
186.066 248 M
189.545 248 L
189.545 243.514 L
186.066 243.514 L
cp
f
GR
GS
[0.75 0 0 0.75 0 0] CT
0.208 0.165 0.525 RC
N
190.415 248 M
193.894 248 L
193.894 245.243 L
190.415 245.243 L
cp
f
GR
GS
[0.75 0 0 0.75 0 0] CT
0.208 0.165 0.525 RC
N
194.764 248 M
198.242 248 L
198.242 234.339 L
194.764 234.339 L
cp
f
GR
GS
[0.75 0 0 0.75 0 0] CT
0.208 0.165 0.525 RC
N
199.112 248 M
202.591 248 L
202.591 245.228 L
199.112 245.228 L
cp
f
GR
GS
[0.75 0 0 0.75 0 0] CT
0.208 0.165 0.525 RC
N
203.461 248 M
206.94 248 L
206.94 242.015 L
203.461 242.015 L
cp
f
GR
GS
[0.75 0 0 0.75 0 0] CT
0.208 0.165 0.525 RC
N
207.81 248 M
211.289 248 L
211.289 244.94 L
207.81 244.94 L
cp
f
GR
GS
[0.75 0 0 0.75 0 0] CT
0.208 0.165 0.525 RC
N
212.158 248 M
215.637 248 L
215.637 231.438 L
212.158 231.438 L
cp
f
GR
GS
[0.75 0 0 0.75 0 0] CT
0.208 0.165 0.525 RC
N
216.507 248 M
219.986 248 L
219.986 231.566 L
216.507 231.566 L
cp
f
GR
GS
[0.75 0 0 0.75 0 0] CT
0.208 0.165 0.525 RC
N
220.856 248 M
224.335 248 L
224.335 243.195 L
220.856 243.195 L
cp
f
GR
GS
[0.75 0 0 0.75 0 0] CT
0.208 0.165 0.525 RC
N
225.204 248 M
228.683 248 L
228.683 243.996 L
225.204 243.996 L
cp
f
GR
GS
[0.75 0 0 0.75 0 0] CT
0.208 0.165 0.525 RC
N
229.553 248 M
233.032 248 L
233.032 243.002 L
229.553 243.002 L
cp
f
GR
GS
[0.75 0 0 0.75 0 0] CT
0.208 0.165 0.525 RC
N
233.902 248 M
237.381 248 L
237.381 242.196 L
233.902 242.196 L
cp
f
GR
GS
[0.75 0 0 0.75 0 0] CT
0.208 0.165 0.525 RC
N
238.25 248 M
241.729 248 L
241.729 230.705 L
238.25 230.705 L
cp
f
GR
GS
[0.75 0 0 0.75 0 0] CT
0.208 0.165 0.525 RC
N
242.599 248 M
246.078 248 L
246.078 243.688 L
242.599 243.688 L
cp
f
GR
GS
[0.75 0 0 0.75 0 0] CT
0.208 0.165 0.525 RC
N
246.948 248 M
250.427 248 L
250.427 244.429 L
246.948 244.429 L
cp
f
GR
GS
[0.75 0 0 0.75 0 0] CT
0.208 0.165 0.525 RC
N
251.297 248 M
254.776 248 L
254.776 242.814 L
251.297 242.814 L
cp
f
GR
GS
[0.75 0 0 0.75 0 0] CT
0.208 0.165 0.525 RC
N
255.645 248 M
259.124 248 L
259.124 234.497 L
255.645 234.497 L
cp
f
GR
GS
[0.75 0 0 0.75 0 0] CT
0.208 0.165 0.525 RC
N
259.994 248 M
263.473 248 L
263.473 226.482 L
259.994 226.482 L
cp
f
GR
GS
[0.75 0 0 0.75 0 0] CT
0.208 0.165 0.525 RC
N
264.343 248 M
267.822 248 L
267.822 231.928 L
264.343 231.928 L
cp
f
GR
GS
[0.75 0 0 0.75 0 0] CT
0.208 0.165 0.525 RC
N
268.691 248 M
272.17 248 L
272.17 235.803 L
268.691 235.803 L
cp
f
GR
GS
[0.75 0 0 0.75 0 0] CT
0.208 0.165 0.525 RC
N
273.04 248 M
276.519 248 L
276.519 233.704 L
273.04 233.704 L
cp
f
GR
GS
[0.75 0 0 0.75 0 0] CT
0.208 0.165 0.525 RC
N
277.389 248 M
280.868 248 L
280.868 242.895 L
277.389 242.895 L
cp
f
GR
GS
[0.75 0 0 0.75 0 0] CT
0.208 0.165 0.525 RC
N
281.737 248 M
285.216 248 L
285.216 238.741 L
281.737 238.741 L
cp
f
GR
GS
[0.75 0 0 0.75 0 0] CT
0.208 0.165 0.525 RC
N
286.086 248 M
289.565 248 L
289.565 239.261 L
286.086 239.261 L
cp
f
GR
GS
[0.75 0 0 0.75 0 0] CT
0.208 0.165 0.525 RC
N
290.435 248 M
293.914 248 L
293.914 195.475 L
290.435 195.475 L
cp
f
GR
GS
[0.75 0 0 0.75 0 0] CT
0.208 0.165 0.525 RC
N
294.784 248 M
298.263 248 L
298.263 223.323 L
294.784 223.323 L
cp
f
GR
GS
[0.75 0 0 0.75 0 0] CT
0.208 0.165 0.525 RC
N
299.132 248 M
302.611 248 L
302.611 229.082 L
299.132 229.082 L
cp
f
GR
GS
[0.75 0 0 0.75 0 0] CT
0.208 0.165 0.525 RC
N
303.481 248 M
306.96 248 L
306.96 239.768 L
303.481 239.768 L
cp
f
GR
GS
[0.75 0 0 0.75 0 0] CT
0.208 0.165 0.525 RC
N
307.83 248 M
311.309 248 L
311.309 223.98 L
307.83 223.98 L
cp
f
GR
GS
[0.75 0 0 0.75 0 0] CT
0.208 0.165 0.525 RC
N
312.178 248 M
315.657 248 L
315.657 234.335 L
312.178 234.335 L
cp
f
GR
GS
[0.75 0 0 0.75 0 0] CT
0.208 0.165 0.525 RC
N
316.527 248 M
320.006 248 L
320.006 241.636 L
316.527 241.636 L
cp
f
GR
GS
[0.75 0 0 0.75 0 0] CT
0.208 0.165 0.525 RC
N
320.876 248 M
324.355 248 L
324.355 238.488 L
320.876 238.488 L
cp
f
GR
GS
[0.75 0 0 0.75 0 0] CT
0.208 0.165 0.525 RC
N
325.224 248 M
328.703 248 L
328.703 236.191 L
325.224 236.191 L
cp
f
GR
GS
[0.75 0 0 0.75 0 0] CT
0.208 0.165 0.525 RC
N
329.573 248 M
333.052 248 L
333.052 241.363 L
329.573 241.363 L
cp
f
GR
GS
[0.75 0 0 0.75 0 0] CT
0.208 0.165 0.525 RC
N
333.922 248 M
337.401 248 L
337.401 239.607 L
333.922 239.607 L
cp
f
GR
GS
[0.75 0 0 0.75 0 0] CT
0.208 0.165 0.525 RC
N
338.271 248 M
341.75 248 L
341.75 240.192 L
338.271 240.192 L
cp
f
GR
GS
[0.75 0 0 0.75 0 0] CT
0.208 0.165 0.525 RC
N
342.619 248 M
346.098 248 L
346.098 239.896 L
342.619 239.896 L
cp
f
GR
GS
[0.75 0 0 0.75 0 0] CT
0.208 0.165 0.525 RC
N
346.968 248 M
350.447 248 L
350.447 240.905 L
346.968 240.905 L
cp
f
GR
GS
[0.75 0 0 0.75 0 0] CT
0.208 0.165 0.525 RC
N
351.317 248 M
354.796 248 L
354.796 239.639 L
351.317 239.639 L
cp
f
GR
GS
[0.75 0 0 0.75 0 0] CT
0.208 0.165 0.525 RC
N
355.665 248 M
359.144 248 L
359.144 244.701 L
355.665 244.701 L
cp
f
GR
GS
[0.75 0 0 0.75 0 0] CT
0.208 0.165 0.525 RC
N
360.014 248 M
363.493 248 L
363.493 238.719 L
360.014 238.719 L
cp
f
GR
GS
[0.75 0 0 0.75 0 0] CT
0.208 0.165 0.525 RC
N
364.363 248 M
367.842 248 L
367.842 247.346 L
364.363 247.346 L
cp
f
GR
GS
[0.75 0 0 0.75 0 0] CT
0.208 0.165 0.525 RC
N
368.711 248 M
372.19 248 L
372.19 245.028 L
368.711 245.028 L
cp
f
GR
GS
[0.75 0 0 0.75 0 0] CT
0.208 0.165 0.525 RC
N
373.06 248 M
376.539 248 L
376.539 231.589 L
373.06 231.589 L
cp
f
GR
GS
[0.75 0 0 0.75 0 0] CT
0.208 0.165 0.525 RC
N
377.409 248 M
380.888 248 L
380.888 240.967 L
377.409 240.967 L
cp
f
GR
GS
[0.75 0 0 0.75 0 0] CT
0.208 0.165 0.525 RC
N
381.758 248 M
385.236 248 L
385.236 238.235 L
381.758 238.235 L
cp
f
GR
GS
[0.75 0 0 0.75 0 0] CT
0.208 0.165 0.525 RC
N
386.106 248 M
389.585 248 L
389.585 243.418 L
386.106 243.418 L
cp
f
GR
GS
[0.75 0 0 0.75 0 0] CT
0.208 0.165 0.525 RC
N
390.455 248 M
393.934 248 L
393.934 243.551 L
390.455 243.551 L
cp
f
GR
GS
[0.75 0 0 0.75 0 0] CT
0.208 0.165 0.525 RC
N
394.804 248 M
398.283 248 L
398.283 244.048 L
394.804 244.048 L
cp
f
GR
GS
[0.75 0 0 0.75 0 0] CT
0.208 0.165 0.525 RC
N
399.152 248 M
402.631 248 L
402.631 245.066 L
399.152 245.066 L
cp
f
GR
GS
[0.75 0 0 0.75 0 0] CT
0.208 0.165 0.525 RC
N
403.501 248 M
406.98 248 L
406.98 226.167 L
403.501 226.167 L
cp
f
GR
GS
[0.75 0 0 0.75 0 0] CT
0.208 0.165 0.525 RC
N
407.85 248 M
411.329 248 L
411.329 245.148 L
407.85 245.148 L
cp
f
GR
GS
[0.75 0 0 0.75 0 0] CT
0.208 0.165 0.525 RC
N
412.198 248 M
415.677 248 L
415.677 238.08 L
412.198 238.08 L
cp
f
GR
GS
[0.75 0 0 0.75 0 0] CT
0.208 0.165 0.525 RC
N
416.547 248 M
420.026 248 L
420.026 240.814 L
416.547 240.814 L
cp
f
GR
GS
[0.75 0 0 0.75 0 0] CT
0.208 0.165 0.525 RC
N
420.896 248 M
424.375 248 L
424.375 234.891 L
420.896 234.891 L
cp
f
GR
GS
[0.75 0 0 0.75 0 0] CT
0.208 0.165 0.525 RC
N
425.244 248 M
428.723 248 L
428.723 245.315 L
425.244 245.315 L
cp
f
GR
GS
[0.75 0 0 0.75 0 0] CT
0.208 0.165 0.525 RC
N
429.593 248 M
433.072 248 L
433.072 242.069 L
429.593 242.069 L
cp
f
GR
GS
[0.75 0 0 0.75 0 0] CT
0.208 0.165 0.525 RC
N
433.942 248 M
437.421 248 L
437.421 243.448 L
433.942 243.448 L
cp
f
GR
GS
[0.75 0 0 0.75 0 0] CT
0.208 0.165 0.525 RC
N
438.291 248 M
441.77 248 L
441.77 240.612 L
438.291 240.612 L
cp
f
GR
GS
[0.75 0 0 0.75 0 0] CT
0.208 0.165 0.525 RC
N
442.639 248 M
446.118 248 L
446.118 247.453 L
442.639 247.453 L
cp
f
GR
GS
[0.75 0 0 0.75 0 0] CT
0.208 0.165 0.525 RC
N
446.988 248 M
450.467 248 L
450.467 244.401 L
446.988 244.401 L
cp
f
GR
GS
[0.75 0 0 0.75 0 0] CT
0.208 0.165 0.525 RC
N
451.337 248 M
454.816 248 L
454.816 239.267 L
451.337 239.267 L
cp
f
GR
GS
[0.75 0 0 0.75 0 0] CT
0.208 0.165 0.525 RC
N
455.685 248 M
459.164 248 L
459.164 238.502 L
455.685 238.502 L
cp
f
GR
GS
[0.75 0 0 0.75 0 0] CT
0.208 0.165 0.525 RC
N
460.034 248 M
463.513 248 L
463.513 244.003 L
460.034 244.003 L
cp
f
GR
GS
[0.75 0 0 0.75 0 0] CT
0.208 0.165 0.525 RC
N
464.383 248 M
467.862 248 L
467.862 245.646 L
464.383 245.646 L
cp
f
GR
GS
[0.75 0 0 0.75 0 0] CT
0.208 0.165 0.525 RC
N
468.731 248 M
472.21 248 L
472.21 233.664 L
468.731 233.664 L
cp
f
GR
GS
[0.75 0 0 0.75 0 0] CT
0.208 0.165 0.525 RC
N
473.08 248 M
476.559 248 L
476.559 244.972 L
473.08 244.972 L
cp
f
GR
GS
[0.75 0 0 0.75 0 0] CT
0.208 0.165 0.525 RC
N
477.429 248 M
480.908 248 L
480.908 242.203 L
477.429 242.203 L
cp
f
GR
GS
[0.75 0 0 0.75 0 0] CT
0.208 0.165 0.525 RC
N
481.778 248 M
485.257 248 L
485.257 240.293 L
481.778 240.293 L
cp
f
GR
GS
[0.75 0 0 0.75 0 0] CT
0.208 0.165 0.525 RC
N
486.126 248 M
489.605 248 L
489.605 239.387 L
486.126 239.387 L
cp
f
GR
GS
[0.75 0 0 0.75 0 0] CT
0.208 0.165 0.525 RC
N
490.475 248 M
493.954 248 L
493.954 244.878 L
490.475 244.878 L
cp
f
GR
GS
[0.75 0 0 0.75 0 0] CT
0.208 0.165 0.525 RC
N
494.824 248 M
498.303 248 L
498.303 247.198 L
494.824 247.198 L
cp
f
GR
GS
[0.75 0 0 0.75 0 0] CT
0.208 0.165 0.525 RC
N
499.172 248 M
502.651 248 L
502.651 244.322 L
499.172 244.322 L
cp
f
GR
GS
[0.75 0 0 0.75 0 0] CT
0.208 0.165 0.525 RC
N
503.521 248 M
507 248 L
507 243.288 L
503.521 243.288 L
cp
f
GR
GS
[0.75 0 0 0.75 0 0] CT
10.0 ML
0.667 LW
N
73 248 M
73 238.602 L
76.479 238.602 L
76.479 248 L
cp
S
GR
GS
[0.75 0 0 0.75 0 0] CT
10.0 ML
0.667 LW
N
77.349 248 M
77.349 237.798 L
80.828 237.798 L
80.828 248 L
cp
S
GR
GS
[0.75 0 0 0.75 0 0] CT
10.0 ML
0.667 LW
N
81.697 248 M
81.697 245.089 L
85.176 245.089 L
85.176 248 L
cp
S
GR
GS
[0.75 0 0 0.75 0 0] CT
10.0 ML
0.667 LW
N
86.046 248 M
86.046 247.219 L
89.525 247.219 L
89.525 248 L
cp
S
GR
GS
[0.75 0 0 0.75 0 0] CT
10.0 ML
0.667 LW
N
90.395 248 M
90.395 237.167 L
93.874 237.167 L
93.874 248 L
cp
S
GR
GS
[0.75 0 0 0.75 0 0] CT
10.0 ML
0.667 LW
N
94.743 248 M
94.743 241.51 L
98.222 241.51 L
98.222 248 L
cp
S
GR
GS
[0.75 0 0 0.75 0 0] CT
10.0 ML
0.667 LW
N
99.092 248 M
99.092 245.459 L
102.571 245.459 L
102.571 248 L
cp
S
GR
GS
[0.75 0 0 0.75 0 0] CT
10.0 ML
0.667 LW
N
103.441 248 M
103.441 240.989 L
106.92 240.989 L
106.92 248 L
cp
S
GR
GS
[0.75 0 0 0.75 0 0] CT
10.0 ML
0.667 LW
N
107.79 248 M
107.79 245.262 L
111.269 245.262 L
111.269 248 L
cp
S
GR
GS
[0.75 0 0 0.75 0 0] CT
10.0 ML
0.667 LW
N
112.138 248 M
112.138 242.838 L
115.617 242.838 L
115.617 248 L
cp
S
GR
GS
[0.75 0 0 0.75 0 0] CT
10.0 ML
0.667 LW
N
116.487 248 M
116.487 244.58 L
119.966 244.58 L
119.966 248 L
cp
S
GR
GS
[0.75 0 0 0.75 0 0] CT
10.0 ML
0.667 LW
N
120.836 248 M
120.836 243.197 L
124.315 243.197 L
124.315 248 L
cp
S
GR
GS
[0.75 0 0 0.75 0 0] CT
10.0 ML
0.667 LW
N
125.184 248 M
125.184 239.799 L
128.663 239.799 L
128.663 248 L
cp
S
GR
GS
[0.75 0 0 0.75 0 0] CT
10.0 ML
0.667 LW
N
129.533 248 M
129.533 242.988 L
133.012 242.988 L
133.012 248 L
cp
S
GR
GS
[0.75 0 0 0.75 0 0] CT
10.0 ML
0.667 LW
N
133.882 248 M
133.882 244.539 L
137.361 244.539 L
137.361 248 L
cp
S
GR
GS
[0.75 0 0 0.75 0 0] CT
10.0 ML
0.667 LW
N
138.23 248 M
138.23 243.276 L
141.709 243.276 L
141.709 248 L
cp
S
GR
GS
[0.75 0 0 0.75 0 0] CT
10.0 ML
0.667 LW
N
142.579 248 M
142.579 237.838 L
146.058 237.838 L
146.058 248 L
cp
S
GR
GS
[0.75 0 0 0.75 0 0] CT
10.0 ML
0.667 LW
N
146.928 248 M
146.928 244.585 L
150.407 244.585 L
150.407 248 L
cp
S
GR
GS
[0.75 0 0 0.75 0 0] CT
10.0 ML
0.667 LW
N
151.277 248 M
151.277 244.677 L
154.756 244.677 L
154.756 248 L
cp
S
GR
GS
[0.75 0 0 0.75 0 0] CT
10.0 ML
0.667 LW
N
155.625 248 M
155.625 235.475 L
159.104 235.475 L
159.104 248 L
cp
S
GR
GS
[0.75 0 0 0.75 0 0] CT
10.0 ML
0.667 LW
N
159.974 248 M
159.974 239.11 L
163.453 239.11 L
163.453 248 L
cp
S
GR
GS
[0.75 0 0 0.75 0 0] CT
10.0 ML
0.667 LW
N
164.323 248 M
164.323 243.564 L
167.802 243.564 L
167.802 248 L
cp
S
GR
GS
[0.75 0 0 0.75 0 0] CT
10.0 ML
0.667 LW
N
168.671 248 M
168.671 244.632 L
172.15 244.632 L
172.15 248 L
cp
S
GR
GS
[0.75 0 0 0.75 0 0] CT
10.0 ML
0.667 LW
N
173.02 248 M
173.02 245.61 L
176.499 245.61 L
176.499 248 L
cp
S
GR
GS
[0.75 0 0 0.75 0 0] CT
10.0 ML
0.667 LW
N
177.369 248 M
177.369 241.166 L
180.848 241.166 L
180.848 248 L
cp
S
GR
GS
[0.75 0 0 0.75 0 0] CT
10.0 ML
0.667 LW
N
181.717 248 M
181.717 244.844 L
185.196 244.844 L
185.196 248 L
cp
S
GR
GS
[0.75 0 0 0.75 0 0] CT
10.0 ML
0.667 LW
N
186.066 248 M
186.066 243.514 L
189.545 243.514 L
189.545 248 L
cp
S
GR
GS
[0.75 0 0 0.75 0 0] CT
10.0 ML
0.667 LW
N
190.415 248 M
190.415 245.243 L
193.894 245.243 L
193.894 248 L
cp
S
GR
GS
[0.75 0 0 0.75 0 0] CT
10.0 ML
0.667 LW
N
194.764 248 M
194.764 234.339 L
198.242 234.339 L
198.242 248 L
cp
S
GR
GS
[0.75 0 0 0.75 0 0] CT
10.0 ML
0.667 LW
N
199.112 248 M
199.112 245.228 L
202.591 245.228 L
202.591 248 L
cp
S
GR
GS
[0.75 0 0 0.75 0 0] CT
10.0 ML
0.667 LW
N
203.461 248 M
203.461 242.015 L
206.94 242.015 L
206.94 248 L
cp
S
GR
GS
[0.75 0 0 0.75 0 0] CT
10.0 ML
0.667 LW
N
207.81 248 M
207.81 244.94 L
211.289 244.94 L
211.289 248 L
cp
S
GR
GS
[0.75 0 0 0.75 0 0] CT
10.0 ML
0.667 LW
N
212.158 248 M
212.158 231.438 L
215.637 231.438 L
215.637 248 L
cp
S
GR
GS
[0.75 0 0 0.75 0 0] CT
10.0 ML
0.667 LW
N
216.507 248 M
216.507 231.566 L
219.986 231.566 L
219.986 248 L
cp
S
GR
GS
[0.75 0 0 0.75 0 0] CT
10.0 ML
0.667 LW
N
220.856 248 M
220.856 243.195 L
224.335 243.195 L
224.335 248 L
cp
S
GR
GS
[0.75 0 0 0.75 0 0] CT
10.0 ML
0.667 LW
N
225.204 248 M
225.204 243.996 L
228.683 243.996 L
228.683 248 L
cp
S
GR
GS
[0.75 0 0 0.75 0 0] CT
10.0 ML
0.667 LW
N
229.553 248 M
229.553 243.002 L
233.032 243.002 L
233.032 248 L
cp
S
GR
GS
[0.75 0 0 0.75 0 0] CT
10.0 ML
0.667 LW
N
233.902 248 M
233.902 242.196 L
237.381 242.196 L
237.381 248 L
cp
S
GR
GS
[0.75 0 0 0.75 0 0] CT
10.0 ML
0.667 LW
N
238.25 248 M
238.25 230.705 L
241.729 230.705 L
241.729 248 L
cp
S
GR
GS
[0.75 0 0 0.75 0 0] CT
10.0 ML
0.667 LW
N
242.599 248 M
242.599 243.688 L
246.078 243.688 L
246.078 248 L
cp
S
GR
GS
[0.75 0 0 0.75 0 0] CT
10.0 ML
0.667 LW
N
246.948 248 M
246.948 244.429 L
250.427 244.429 L
250.427 248 L
cp
S
GR
GS
[0.75 0 0 0.75 0 0] CT
10.0 ML
0.667 LW
N
251.297 248 M
251.297 242.814 L
254.776 242.814 L
254.776 248 L
cp
S
GR
GS
[0.75 0 0 0.75 0 0] CT
10.0 ML
0.667 LW
N
255.645 248 M
255.645 234.497 L
259.124 234.497 L
259.124 248 L
cp
S
GR
GS
[0.75 0 0 0.75 0 0] CT
10.0 ML
0.667 LW
N
259.994 248 M
259.994 226.482 L
263.473 226.482 L
263.473 248 L
cp
S
GR
GS
[0.75 0 0 0.75 0 0] CT
10.0 ML
0.667 LW
N
264.343 248 M
264.343 231.928 L
267.822 231.928 L
267.822 248 L
cp
S
GR
GS
[0.75 0 0 0.75 0 0] CT
10.0 ML
0.667 LW
N
268.691 248 M
268.691 235.803 L
272.17 235.803 L
272.17 248 L
cp
S
GR
GS
[0.75 0 0 0.75 0 0] CT
10.0 ML
0.667 LW
N
273.04 248 M
273.04 233.704 L
276.519 233.704 L
276.519 248 L
cp
S
GR
GS
[0.75 0 0 0.75 0 0] CT
10.0 ML
0.667 LW
N
277.389 248 M
277.389 242.895 L
280.868 242.895 L
280.868 248 L
cp
S
GR
GS
[0.75 0 0 0.75 0 0] CT
10.0 ML
0.667 LW
N
281.737 248 M
281.737 238.741 L
285.216 238.741 L
285.216 248 L
cp
S
GR
GS
[0.75 0 0 0.75 0 0] CT
10.0 ML
0.667 LW
N
286.086 248 M
286.086 239.261 L
289.565 239.261 L
289.565 248 L
cp
S
GR
GS
[0.75 0 0 0.75 0 0] CT
10.0 ML
0.667 LW
N
290.435 248 M
290.435 195.475 L
293.914 195.475 L
293.914 248 L
cp
S
GR
GS
[0.75 0 0 0.75 0 0] CT
10.0 ML
0.667 LW
N
294.784 248 M
294.784 223.323 L
298.263 223.323 L
298.263 248 L
cp
S
GR
GS
[0.75 0 0 0.75 0 0] CT
10.0 ML
0.667 LW
N
299.132 248 M
299.132 229.082 L
302.611 229.082 L
302.611 248 L
cp
S
GR
GS
[0.75 0 0 0.75 0 0] CT
10.0 ML
0.667 LW
N
303.481 248 M
303.481 239.768 L
306.96 239.768 L
306.96 248 L
cp
S
GR
GS
[0.75 0 0 0.75 0 0] CT
10.0 ML
0.667 LW
N
307.83 248 M
307.83 223.98 L
311.309 223.98 L
311.309 248 L
cp
S
GR
GS
[0.75 0 0 0.75 0 0] CT
10.0 ML
0.667 LW
N
312.178 248 M
312.178 234.335 L
315.657 234.335 L
315.657 248 L
cp
S
GR
GS
[0.75 0 0 0.75 0 0] CT
10.0 ML
0.667 LW
N
316.527 248 M
316.527 241.636 L
320.006 241.636 L
320.006 248 L
cp
S
GR
GS
[0.75 0 0 0.75 0 0] CT
10.0 ML
0.667 LW
N
320.876 248 M
320.876 238.488 L
324.355 238.488 L
324.355 248 L
cp
S
GR
GS
[0.75 0 0 0.75 0 0] CT
10.0 ML
0.667 LW
N
325.224 248 M
325.224 236.191 L
328.703 236.191 L
328.703 248 L
cp
S
GR
GS
[0.75 0 0 0.75 0 0] CT
10.0 ML
0.667 LW
N
329.573 248 M
329.573 241.363 L
333.052 241.363 L
333.052 248 L
cp
S
GR
GS
[0.75 0 0 0.75 0 0] CT
10.0 ML
0.667 LW
N
333.922 248 M
333.922 239.607 L
337.401 239.607 L
337.401 248 L
cp
S
GR
GS
[0.75 0 0 0.75 0 0] CT
10.0 ML
0.667 LW
N
338.271 248 M
338.271 240.192 L
341.75 240.192 L
341.75 248 L
cp
S
GR
GS
[0.75 0 0 0.75 0 0] CT
10.0 ML
0.667 LW
N
342.619 248 M
342.619 239.896 L
346.098 239.896 L
346.098 248 L
cp
S
GR
GS
[0.75 0 0 0.75 0 0] CT
10.0 ML
0.667 LW
N
346.968 248 M
346.968 240.905 L
350.447 240.905 L
350.447 248 L
cp
S
GR
GS
[0.75 0 0 0.75 0 0] CT
10.0 ML
0.667 LW
N
351.317 248 M
351.317 239.639 L
354.796 239.639 L
354.796 248 L
cp
S
GR
GS
[0.75 0 0 0.75 0 0] CT
10.0 ML
0.667 LW
N
355.665 248 M
355.665 244.701 L
359.144 244.701 L
359.144 248 L
cp
S
GR
GS
[0.75 0 0 0.75 0 0] CT
10.0 ML
0.667 LW
N
360.014 248 M
360.014 238.719 L
363.493 238.719 L
363.493 248 L
cp
S
GR
GS
[0.75 0 0 0.75 0 0] CT
10.0 ML
0.667 LW
N
364.363 248 M
364.363 247.346 L
367.842 247.346 L
367.842 248 L
cp
S
GR
GS
[0.75 0 0 0.75 0 0] CT
10.0 ML
0.667 LW
N
368.711 248 M
368.711 245.028 L
372.19 245.028 L
372.19 248 L
cp
S
GR
GS
[0.75 0 0 0.75 0 0] CT
10.0 ML
0.667 LW
N
373.06 248 M
373.06 231.589 L
376.539 231.589 L
376.539 248 L
cp
S
GR
GS
[0.75 0 0 0.75 0 0] CT
10.0 ML
0.667 LW
N
377.409 248 M
377.409 240.967 L
380.888 240.967 L
380.888 248 L
cp
S
GR
GS
[0.75 0 0 0.75 0 0] CT
10.0 ML
0.667 LW
N
381.758 248 M
381.758 238.235 L
385.236 238.235 L
385.236 248 L
cp
S
GR
GS
[0.75 0 0 0.75 0 0] CT
10.0 ML
0.667 LW
N
386.106 248 M
386.106 243.418 L
389.585 243.418 L
389.585 248 L
cp
S
GR
GS
[0.75 0 0 0.75 0 0] CT
10.0 ML
0.667 LW
N
390.455 248 M
390.455 243.551 L
393.934 243.551 L
393.934 248 L
cp
S
GR
GS
[0.75 0 0 0.75 0 0] CT
10.0 ML
0.667 LW
N
394.804 248 M
394.804 244.048 L
398.283 244.048 L
398.283 248 L
cp
S
GR
GS
[0.75 0 0 0.75 0 0] CT
10.0 ML
0.667 LW
N
399.152 248 M
399.152 245.066 L
402.631 245.066 L
402.631 248 L
cp
S
GR
GS
[0.75 0 0 0.75 0 0] CT
10.0 ML
0.667 LW
N
403.501 248 M
403.501 226.167 L
406.98 226.167 L
406.98 248 L
cp
S
GR
GS
[0.75 0 0 0.75 0 0] CT
10.0 ML
0.667 LW
N
407.85 248 M
407.85 245.148 L
411.329 245.148 L
411.329 248 L
cp
S
GR
GS
[0.75 0 0 0.75 0 0] CT
10.0 ML
0.667 LW
N
412.198 248 M
412.198 238.08 L
415.677 238.08 L
415.677 248 L
cp
S
GR
GS
[0.75 0 0 0.75 0 0] CT
10.0 ML
0.667 LW
N
416.547 248 M
416.547 240.814 L
420.026 240.814 L
420.026 248 L
cp
S
GR
GS
[0.75 0 0 0.75 0 0] CT
10.0 ML
0.667 LW
N
420.896 248 M
420.896 234.891 L
424.375 234.891 L
424.375 248 L
cp
S
GR
GS
[0.75 0 0 0.75 0 0] CT
10.0 ML
0.667 LW
N
425.244 248 M
425.244 245.315 L
428.723 245.315 L
428.723 248 L
cp
S
GR
GS
[0.75 0 0 0.75 0 0] CT
10.0 ML
0.667 LW
N
429.593 248 M
429.593 242.069 L
433.072 242.069 L
433.072 248 L
cp
S
GR
GS
[0.75 0 0 0.75 0 0] CT
10.0 ML
0.667 LW
N
433.942 248 M
433.942 243.448 L
437.421 243.448 L
437.421 248 L
cp
S
GR
GS
[0.75 0 0 0.75 0 0] CT
10.0 ML
0.667 LW
N
438.291 248 M
438.291 240.612 L
441.77 240.612 L
441.77 248 L
cp
S
GR
GS
[0.75 0 0 0.75 0 0] CT
10.0 ML
0.667 LW
N
442.639 248 M
442.639 247.453 L
446.118 247.453 L
446.118 248 L
cp
S
GR
GS
[0.75 0 0 0.75 0 0] CT
10.0 ML
0.667 LW
N
446.988 248 M
446.988 244.401 L
450.467 244.401 L
450.467 248 L
cp
S
GR
GS
[0.75 0 0 0.75 0 0] CT
10.0 ML
0.667 LW
N
451.337 248 M
451.337 239.267 L
454.816 239.267 L
454.816 248 L
cp
S
GR
GS
[0.75 0 0 0.75 0 0] CT
10.0 ML
0.667 LW
N
455.685 248 M
455.685 238.502 L
459.164 238.502 L
459.164 248 L
cp
S
GR
GS
[0.75 0 0 0.75 0 0] CT
10.0 ML
0.667 LW
N
460.034 248 M
460.034 244.003 L
463.513 244.003 L
463.513 248 L
cp
S
GR
GS
[0.75 0 0 0.75 0 0] CT
10.0 ML
0.667 LW
N
464.383 248 M
464.383 245.646 L
467.862 245.646 L
467.862 248 L
cp
S
GR
GS
[0.75 0 0 0.75 0 0] CT
10.0 ML
0.667 LW
N
468.731 248 M
468.731 233.664 L
472.21 233.664 L
472.21 248 L
cp
S
GR
GS
[0.75 0 0 0.75 0 0] CT
10.0 ML
0.667 LW
N
473.08 248 M
473.08 244.972 L
476.559 244.972 L
476.559 248 L
cp
S
GR
GS
[0.75 0 0 0.75 0 0] CT
10.0 ML
0.667 LW
N
477.429 248 M
477.429 242.203 L
480.908 242.203 L
480.908 248 L
cp
S
GR
GS
[0.75 0 0 0.75 0 0] CT
10.0 ML
0.667 LW
N
481.778 248 M
481.778 240.293 L
485.257 240.293 L
485.257 248 L
cp
S
GR
GS
[0.75 0 0 0.75 0 0] CT
10.0 ML
0.667 LW
N
486.126 248 M
486.126 239.387 L
489.605 239.387 L
489.605 248 L
cp
S
GR
GS
[0.75 0 0 0.75 0 0] CT
10.0 ML
0.667 LW
N
490.475 248 M
490.475 244.878 L
493.954 244.878 L
493.954 248 L
cp
S
GR
GS
[0.75 0 0 0.75 0 0] CT
10.0 ML
0.667 LW
N
494.824 248 M
494.824 247.198 L
498.303 247.198 L
498.303 248 L
cp
S
GR
GS
[0.75 0 0 0.75 0 0] CT
10.0 ML
0.667 LW
N
499.172 248 M
499.172 244.322 L
502.651 244.322 L
502.651 248 L
cp
S
GR
GS
[0.75 0 0 0.75 0 0] CT
10.0 ML
0.667 LW
N
503.521 248 M
503.521 243.288 L
507 243.288 L
507 248 L
cp
S
GR
GS
[0.75 0 0 0.75 0 0] CT
1 GC
N
73 374 M
507 374 L
507 294 L
73 294 L
cp
f
GR
GS
[0.75 0 0 0.75 0 0] CT
0.149 GC
2 setlinecap
1 LJ
0.667 LW
N
73 374 M
507 374 L
S
GR
GS
[0.75 0 0 0.75 0 0] CT
0.149 GC
2 setlinecap
1 LJ
0.667 LW
N
73 294 M
507 294 L
S
GR
GS
[0.75 0 0 0.75 0 0] CT
0.149 GC
2 setlinecap
1 LJ
0.667 LW
N
113.878 374 M
113.878 369.66 L
S
GR
GS
[0.75 0 0 0.75 0 0] CT
0.149 GC
2 setlinecap
1 LJ
0.667 LW
N
157.365 374 M
157.365 369.66 L
S
GR
GS
[0.75 0 0 0.75 0 0] CT
0.149 GC
2 setlinecap
1 LJ
0.667 LW
N
200.852 374 M
200.852 369.66 L
S
GR
GS
[0.75 0 0 0.75 0 0] CT
0.149 GC
2 setlinecap
1 LJ
0.667 LW
N
244.339 374 M
244.339 369.66 L
S
GR
GS
[0.75 0 0 0.75 0 0] CT
0.149 GC
2 setlinecap
1 LJ
0.667 LW
N
287.826 374 M
287.826 369.66 L
S
GR
GS
[0.75 0 0 0.75 0 0] CT
0.149 GC
2 setlinecap
1 LJ
0.667 LW
N
331.313 374 M
331.313 369.66 L
S
GR
GS
[0.75 0 0 0.75 0 0] CT
0.149 GC
2 setlinecap
1 LJ
0.667 LW
N
374.8 374 M
374.8 369.66 L
S
GR
GS
[0.75 0 0 0.75 0 0] CT
0.149 GC
2 setlinecap
1 LJ
0.667 LW
N
418.287 374 M
418.287 369.66 L
S
GR
GS
[0.75 0 0 0.75 0 0] CT
0.149 GC
2 setlinecap
1 LJ
0.667 LW
N
461.774 374 M
461.774 369.66 L
S
GR
GS
[0.75 0 0 0.75 0 0] CT
0.149 GC
2 setlinecap
1 LJ
0.667 LW
N
505.261 374 M
505.261 369.66 L
S
GR
GS
[0.75 0 0 0.75 0 0] CT
0.149 GC
2 setlinecap
1 LJ
0.667 LW
N
113.878 294 M
113.878 298.34 L
S
GR
GS
[0.75 0 0 0.75 0 0] CT
0.149 GC
2 setlinecap
1 LJ
0.667 LW
N
157.365 294 M
157.365 298.34 L
S
GR
GS
[0.75 0 0 0.75 0 0] CT
0.149 GC
2 setlinecap
1 LJ
0.667 LW
N
200.852 294 M
200.852 298.34 L
S
GR
GS
[0.75 0 0 0.75 0 0] CT
0.149 GC
2 setlinecap
1 LJ
0.667 LW
N
244.339 294 M
244.339 298.34 L
S
GR
GS
[0.75 0 0 0.75 0 0] CT
0.149 GC
2 setlinecap
1 LJ
0.667 LW
N
287.826 294 M
287.826 298.34 L
S
GR
GS
[0.75 0 0 0.75 0 0] CT
0.149 GC
2 setlinecap
1 LJ
0.667 LW
N
331.313 294 M
331.313 298.34 L
S
GR
GS
[0.75 0 0 0.75 0 0] CT
0.149 GC
2 setlinecap
1 LJ
0.667 LW
N
374.8 294 M
374.8 298.34 L
S
GR
GS
[0.75 0 0 0.75 0 0] CT
0.149 GC
2 setlinecap
1 LJ
0.667 LW
N
418.287 294 M
418.287 298.34 L
S
GR
GS
[0.75 0 0 0.75 0 0] CT
0.149 GC
2 setlinecap
1 LJ
0.667 LW
N
461.774 294 M
461.774 298.34 L
S
GR
GS
[0.75 0 0 0.75 0 0] CT
0.149 GC
2 setlinecap
1 LJ
0.667 LW
N
505.261 294 M
505.261 298.34 L
S
GR
GS
[0.75 0 0 0.75 85.40832 284.50001] CT
0.149 GC
/Helvetica 13.333 F
GS
[1 0 0 1 0 0] CT
-7.5 14 moveto 
1 -1 scale
(10) t 
GR
GR
GS
[0.75 0 0 0.75 118.02355 284.50001] CT
0.149 GC
/Helvetica 13.333 F
GS
[1 0 0 1 0 0] CT
-7.5 14 moveto 
1 -1 scale
(20) t 
GR
GR
GS
[0.75 0 0 0.75 150.63877 284.50001] CT
0.149 GC
/Helvetica 13.333 F
GS
[1 0 0 1 0 0] CT
-7.5 14 moveto 
1 -1 scale
(30) t 
GR
GR
GS
[0.75 0 0 0.75 183.25401 284.50001] CT
0.149 GC
/Helvetica 13.333 F
GS
[1 0 0 1 0 0] CT
-7.5 14 moveto 
1 -1 scale
(40) t 
GR
GR
GS
[0.75 0 0 0.75 215.86924 284.50001] CT
0.149 GC
/Helvetica 13.333 F
GS
[1 0 0 1 0 0] CT
-7.5 14 moveto 
1 -1 scale
(50) t 
GR
GR
GS
[0.75 0 0 0.75 248.48447 284.50001] CT
0.149 GC
/Helvetica 13.333 F
GS
[1 0 0 1 0 0] CT
-7.5 14 moveto 
1 -1 scale
(60) t 
GR
GR
GS
[0.75 0 0 0.75 281.09969 284.50001] CT
0.149 GC
/Helvetica 13.333 F
GS
[1 0 0 1 0 0] CT
-7.5 14 moveto 
1 -1 scale
(70) t 
GR
GR
GS
[0.75 0 0 0.75 313.71492 284.50001] CT
0.149 GC
/Helvetica 13.333 F
GS
[1 0 0 1 0 0] CT
-7.5 14 moveto 
1 -1 scale
(80) t 
GR
GR
GS
[0.75 0 0 0.75 346.33017 284.50001] CT
0.149 GC
/Helvetica 13.333 F
GS
[1 0 0 1 0 0] CT
-7.5 14 moveto 
1 -1 scale
(90) t 
GR
GR
GS
[0.75 0 0 0.75 378.9454 284.50001] CT
0.149 GC
/Helvetica 13.333 F
GS
[1 0 0 1 0 0] CT
-11 14 moveto 
1 -1 scale
(100) t 
GR
GR
GS
[0.75 0 0 0.75 0 0] CT
0.149 GC
2 setlinecap
1 LJ
0.667 LW
N
73 374 M
73 294 L
S
GR
GS
[0.75 0 0 0.75 0 0] CT
0.149 GC
2 setlinecap
1 LJ
0.667 LW
N
507 374 M
507 294 L
S
GR
GS
[0.75 0 0 0.75 0 0] CT
0.149 GC
2 setlinecap
1 LJ
0.667 LW
N
73 374 M
77.34 374 L
S
GR
GS
[0.75 0 0 0.75 0 0] CT
0.149 GC
2 setlinecap
1 LJ
0.667 LW
N
73 334 M
77.34 334 L
S
GR
GS
[0.75 0 0 0.75 0 0] CT
0.149 GC
2 setlinecap
1 LJ
0.667 LW
N
73 294 M
77.34 294 L
S
GR
GS
[0.75 0 0 0.75 0 0] CT
0.149 GC
2 setlinecap
1 LJ
0.667 LW
N
507 374 M
502.66 374 L
S
GR
GS
[0.75 0 0 0.75 0 0] CT
0.149 GC
2 setlinecap
1 LJ
0.667 LW
N
507 334 M
502.66 334 L
S
GR
GS
[0.75 0 0 0.75 0 0] CT
0.149 GC
2 setlinecap
1 LJ
0.667 LW
N
507 294 M
502.66 294 L
S
GR
GS
[0.75 0 0 0.75 50.75 280.5] CT
0.149 GC
/Helvetica 13.333 F
GS
[1 0 0 1 0 0] CT
-8 5.5 moveto 
1 -1 scale
(0) t 
GR
GR
GS
[0.75 0 0 0.75 50.75 250.5] CT
0.149 GC
/Helvetica 13.333 F
GS
[1 0 0 1 0 0] CT
-19 5.5 moveto 
1 -1 scale
(0.2) t 
GR
GR
GS
[0.75 0 0 0.75 50.75 220.5] CT
0.149 GC
/Helvetica 13.333 F
GS
[1 0 0 1 0 0] CT
-19 5.5 moveto 
1 -1 scale
(0.4) t 
GR
GR
GS
[0.75 0 0 0.75 217.50021 218.4375] CT
/Helvetica-Bold 14.667 F
GS
[1 0 0 1 0 0] CT
-112.5 -4 moveto 
1 -1 scale
(Importance weighting third hop) t 
GR
GR
GS
[0.75 0 0 0.75 0 0] CT
0.149 GC
1 LJ
0.667 LW
N
73 374 M
507 374 L
S
GR
GS
[0.75 0 0 0.75 0 0] CT
0.208 0.165 0.525 RC
N
73 374 M
76.479 374 L
76.479 373.816 L
73 373.816 L
cp
f
GR
GS
[0.75 0 0 0.75 0 0] CT
0.208 0.165 0.525 RC
N
77.349 374 M
80.828 374 L
80.828 370.614 L
77.349 370.614 L
cp
f
GR
GS
[0.75 0 0 0.75 0 0] CT
0.208 0.165 0.525 RC
N
81.697 374 M
85.176 374 L
85.176 373.961 L
81.697 373.961 L
cp
f
GR
GS
[0.75 0 0 0.75 0 0] CT
0.208 0.165 0.525 RC
N
86.046 374 M
89.525 374 L
89.525 373.995 L
86.046 373.995 L
cp
f
GR
GS
[0.75 0 0 0.75 0 0] CT
0.208 0.165 0.525 RC
N
90.395 374 M
93.874 374 L
93.874 373.572 L
90.395 373.572 L
cp
f
GR
GS
[0.75 0 0 0.75 0 0] CT
0.208 0.165 0.525 RC
N
94.743 374 M
98.222 374 L
98.222 373.099 L
94.743 373.099 L
cp
f
GR
GS
[0.75 0 0 0.75 0 0] CT
0.208 0.165 0.525 RC
N
99.092 374 M
102.571 374 L
102.571 373.99 L
99.092 373.99 L
cp
f
GR
GS
[0.75 0 0 0.75 0 0] CT
0.208 0.165 0.525 RC
N
103.441 374 M
106.92 374 L
106.92 373.894 L
103.441 373.894 L
cp
f
GR
GS
[0.75 0 0 0.75 0 0] CT
0.208 0.165 0.525 RC
N
107.79 374 M
111.269 374 L
111.269 373.986 L
107.79 373.986 L
cp
f
GR
GS
[0.75 0 0 0.75 0 0] CT
0.208 0.165 0.525 RC
N
112.138 374 M
115.617 374 L
115.617 373.625 L
112.138 373.625 L
cp
f
GR
GS
[0.75 0 0 0.75 0 0] CT
0.208 0.165 0.525 RC
N
116.487 374 M
119.966 374 L
119.966 369.644 L
116.487 369.644 L
cp
f
GR
GS
[0.75 0 0 0.75 0 0] CT
0.208 0.165 0.525 RC
N
120.836 374 M
124.315 374 L
124.315 373.692 L
120.836 373.692 L
cp
f
GR
GS
[0.75 0 0 0.75 0 0] CT
0.208 0.165 0.525 RC
N
125.184 374 M
128.663 374 L
128.663 373.769 L
125.184 373.769 L
cp
f
GR
GS
[0.75 0 0 0.75 0 0] CT
0.208 0.165 0.525 RC
N
129.533 374 M
133.012 374 L
133.012 361.058 L
129.533 361.058 L
cp
f
GR
GS
[0.75 0 0 0.75 0 0] CT
0.208 0.165 0.525 RC
N
133.882 374 M
137.361 374 L
137.361 373.99 L
133.882 373.99 L
cp
f
GR
GS
[0.75 0 0 0.75 0 0] CT
0.208 0.165 0.525 RC
N
138.23 374 M
141.709 374 L
141.709 373.955 L
138.23 373.955 L
cp
f
GR
GS
[0.75 0 0 0.75 0 0] CT
0.208 0.165 0.525 RC
N
142.579 374 M
146.058 374 L
146.058 372.426 L
142.579 372.426 L
cp
f
GR
GS
[0.75 0 0 0.75 0 0] CT
0.208 0.165 0.525 RC
N
146.928 374 M
150.407 374 L
150.407 373.982 L
146.928 373.982 L
cp
f
GR
GS
[0.75 0 0 0.75 0 0] CT
0.208 0.165 0.525 RC
N
151.277 374 M
154.756 374 L
154.756 373.977 L
151.277 373.977 L
cp
f
GR
GS
[0.75 0 0 0.75 0 0] CT
0.208 0.165 0.525 RC
N
155.625 374 M
159.104 374 L
159.104 365.407 L
155.625 365.407 L
cp
f
GR
GS
[0.75 0 0 0.75 0 0] CT
0.208 0.165 0.525 RC
N
159.974 374 M
163.453 374 L
163.453 370.988 L
159.974 370.988 L
cp
f
GR
GS
[0.75 0 0 0.75 0 0] CT
0.208 0.165 0.525 RC
N
164.323 374 M
167.802 374 L
167.802 373.936 L
164.323 373.936 L
cp
f
GR
GS
[0.75 0 0 0.75 0 0] CT
0.208 0.165 0.525 RC
N
168.671 374 M
172.15 374 L
172.15 373.983 L
168.671 373.983 L
cp
f
GR
GS
[0.75 0 0 0.75 0 0] CT
0.208 0.165 0.525 RC
N
173.02 374 M
176.499 374 L
176.499 373.113 L
173.02 373.113 L
cp
f
GR
GS
[0.75 0 0 0.75 0 0] CT
0.208 0.165 0.525 RC
N
177.369 374 M
180.848 374 L
180.848 372.993 L
177.369 372.993 L
cp
f
GR
GS
[0.75 0 0 0.75 0 0] CT
0.208 0.165 0.525 RC
N
181.717 374 M
185.196 374 L
185.196 373.961 L
181.717 373.961 L
cp
f
GR
GS
[0.75 0 0 0.75 0 0] CT
0.208 0.165 0.525 RC
N
186.066 374 M
189.545 374 L
189.545 373.968 L
186.066 373.968 L
cp
f
GR
GS
[0.75 0 0 0.75 0 0] CT
0.208 0.165 0.525 RC
N
190.415 374 M
193.894 374 L
193.894 373.986 L
190.415 373.986 L
cp
f
GR
GS
[0.75 0 0 0.75 0 0] CT
0.208 0.165 0.525 RC
N
194.764 374 M
198.242 374 L
198.242 373.564 L
194.764 373.564 L
cp
f
GR
GS
[0.75 0 0 0.75 0 0] CT
0.208 0.165 0.525 RC
N
199.112 374 M
202.591 374 L
202.591 373.988 L
199.112 373.988 L
cp
f
GR
GS
[0.75 0 0 0.75 0 0] CT
0.208 0.165 0.525 RC
N
203.461 374 M
206.94 374 L
206.94 373.549 L
203.461 373.549 L
cp
f
GR
GS
[0.75 0 0 0.75 0 0] CT
0.208 0.165 0.525 RC
N
207.81 374 M
211.289 374 L
211.289 373.979 L
207.81 373.979 L
cp
f
GR
GS
[0.75 0 0 0.75 0 0] CT
0.208 0.165 0.525 RC
N
212.158 374 M
215.637 374 L
215.637 370.64 L
212.158 370.64 L
cp
f
GR
GS
[0.75 0 0 0.75 0 0] CT
0.208 0.165 0.525 RC
N
216.507 374 M
219.986 374 L
219.986 372.97 L
216.507 372.97 L
cp
f
GR
GS
[0.75 0 0 0.75 0 0] CT
0.208 0.165 0.525 RC
N
220.856 374 M
224.335 374 L
224.335 373.934 L
220.856 373.934 L
cp
f
GR
GS
[0.75 0 0 0.75 0 0] CT
0.208 0.165 0.525 RC
N
225.204 374 M
228.683 374 L
228.683 373.979 L
225.204 373.979 L
cp
f
GR
GS
[0.75 0 0 0.75 0 0] CT
0.208 0.165 0.525 RC
N
229.553 374 M
233.032 374 L
233.032 373.976 L
229.553 373.976 L
cp
f
GR
GS
[0.75 0 0 0.75 0 0] CT
0.208 0.165 0.525 RC
N
233.902 374 M
237.381 374 L
237.381 362.881 L
233.902 362.881 L
cp
f
GR
GS
[0.75 0 0 0.75 0 0] CT
0.208 0.165 0.525 RC
N
238.25 374 M
241.729 374 L
241.729 363.189 L
238.25 363.189 L
cp
f
GR
GS
[0.75 0 0 0.75 0 0] CT
0.208 0.165 0.525 RC
N
242.599 374 M
246.078 374 L
246.078 373.987 L
242.599 373.987 L
cp
f
GR
GS
[0.75 0 0 0.75 0 0] CT
0.208 0.165 0.525 RC
N
246.948 374 M
250.427 374 L
250.427 373.974 L
246.948 373.974 L
cp
f
GR
GS
[0.75 0 0 0.75 0 0] CT
0.208 0.165 0.525 RC
N
251.297 374 M
254.776 374 L
254.776 373.936 L
251.297 373.936 L
cp
f
GR
GS
[0.75 0 0 0.75 0 0] CT
0.208 0.165 0.525 RC
N
255.645 374 M
259.124 374 L
259.124 373.979 L
255.645 373.979 L
cp
f
GR
GS
[0.75 0 0 0.75 0 0] CT
0.208 0.165 0.525 RC
N
259.994 374 M
263.473 374 L
263.473 373.306 L
259.994 373.306 L
cp
f
GR
GS
[0.75 0 0 0.75 0 0] CT
0.208 0.165 0.525 RC
N
264.343 374 M
267.822 374 L
267.822 373.448 L
264.343 373.448 L
cp
f
GR
GS
[0.75 0 0 0.75 0 0] CT
0.208 0.165 0.525 RC
N
268.691 374 M
272.17 374 L
272.17 373.699 L
268.691 373.699 L
cp
f
GR
GS
[0.75 0 0 0.75 0 0] CT
0.208 0.165 0.525 RC
N
273.04 374 M
276.519 374 L
276.519 373.852 L
273.04 373.852 L
cp
f
GR
GS
[0.75 0 0 0.75 0 0] CT
0.208 0.165 0.525 RC
N
277.389 374 M
280.868 374 L
280.868 373.976 L
277.389 373.976 L
cp
f
GR
GS
[0.75 0 0 0.75 0 0] CT
0.208 0.165 0.525 RC
N
281.737 374 M
285.216 374 L
285.216 373.424 L
281.737 373.424 L
cp
f
GR
GS
[0.75 0 0 0.75 0 0] CT
0.208 0.165 0.525 RC
N
286.086 374 M
289.565 374 L
289.565 366.539 L
286.086 366.539 L
cp
f
GR
GS
[0.75 0 0 0.75 0 0] CT
0.208 0.165 0.525 RC
N
290.435 374 M
293.914 374 L
293.914 331.209 L
290.435 331.209 L
cp
f
GR
GS
[0.75 0 0 0.75 0 0] CT
0.208 0.165 0.525 RC
N
294.784 374 M
298.263 374 L
298.263 373.352 L
294.784 373.352 L
cp
f
GR
GS
[0.75 0 0 0.75 0 0] CT
0.208 0.165 0.525 RC
N
299.132 374 M
302.611 374 L
302.611 373.463 L
299.132 373.463 L
cp
f
GR
GS
[0.75 0 0 0.75 0 0] CT
0.208 0.165 0.525 RC
N
303.481 374 M
306.96 374 L
306.96 373.962 L
303.481 373.962 L
cp
f
GR
GS
[0.75 0 0 0.75 0 0] CT
0.208 0.165 0.525 RC
N
307.83 374 M
311.309 374 L
311.309 355.868 L
307.83 355.868 L
cp
f
GR
GS
[0.75 0 0 0.75 0 0] CT
0.208 0.165 0.525 RC
N
312.178 374 M
315.657 374 L
315.657 373.559 L
312.178 373.559 L
cp
f
GR
GS
[0.75 0 0 0.75 0 0] CT
0.208 0.165 0.525 RC
N
316.527 374 M
320.006 374 L
320.006 373.957 L
316.527 373.957 L
cp
f
GR
GS
[0.75 0 0 0.75 0 0] CT
0.208 0.165 0.525 RC
N
320.876 374 M
324.355 374 L
324.355 373.047 L
320.876 373.047 L
cp
f
GR
GS
[0.75 0 0 0.75 0 0] CT
0.208 0.165 0.525 RC
N
325.224 374 M
328.703 374 L
328.703 362.164 L
325.224 362.164 L
cp
f
GR
GS
[0.75 0 0 0.75 0 0] CT
0.208 0.165 0.525 RC
N
329.573 374 M
333.052 374 L
333.052 373.95 L
329.573 373.95 L
cp
f
GR
GS
[0.75 0 0 0.75 0 0] CT
0.208 0.165 0.525 RC
N
333.922 374 M
337.401 374 L
337.401 373.801 L
333.922 373.801 L
cp
f
GR
GS
[0.75 0 0 0.75 0 0] CT
0.208 0.165 0.525 RC
N
338.271 374 M
341.75 374 L
341.75 373.306 L
338.271 373.306 L
cp
f
GR
GS
[0.75 0 0 0.75 0 0] CT
0.208 0.165 0.525 RC
N
342.619 374 M
346.098 374 L
346.098 372.739 L
342.619 372.739 L
cp
f
GR
GS
[0.75 0 0 0.75 0 0] CT
0.208 0.165 0.525 RC
N
346.968 374 M
350.447 374 L
350.447 373.831 L
346.968 373.831 L
cp
f
GR
GS
[0.75 0 0 0.75 0 0] CT
0.208 0.165 0.525 RC
N
351.317 374 M
354.796 374 L
354.796 373.81 L
351.317 373.81 L
cp
f
GR
GS
[0.75 0 0 0.75 0 0] CT
0.208 0.165 0.525 RC
N
355.665 374 M
359.144 374 L
359.144 373.981 L
355.665 373.981 L
cp
f
GR
GS
[0.75 0 0 0.75 0 0] CT
0.208 0.165 0.525 RC
N
360.014 374 M
363.493 374 L
363.493 373.173 L
360.014 373.173 L
cp
f
GR
GS
[0.75 0 0 0.75 0 0] CT
0.208 0.165 0.525 RC
N
364.363 374 M
367.842 374 L
367.842 373.97 L
364.363 373.97 L
cp
f
GR
GS
[0.75 0 0 0.75 0 0] CT
0.208 0.165 0.525 RC
N
368.711 374 M
372.19 374 L
372.19 373.976 L
368.711 373.976 L
cp
f
GR
GS
[0.75 0 0 0.75 0 0] CT
0.208 0.165 0.525 RC
N
373.06 374 M
376.539 374 L
376.539 373.77 L
373.06 373.77 L
cp
f
GR
GS
[0.75 0 0 0.75 0 0] CT
0.208 0.165 0.525 RC
N
377.409 374 M
380.888 374 L
380.888 372.774 L
377.409 372.774 L
cp
f
GR
GS
[0.75 0 0 0.75 0 0] CT
0.208 0.165 0.525 RC
N
381.758 374 M
385.236 374 L
385.236 373.88 L
381.758 373.88 L
cp
f
GR
GS
[0.75 0 0 0.75 0 0] CT
0.208 0.165 0.525 RC
N
386.106 374 M
389.585 374 L
389.585 373.95 L
386.106 373.95 L
cp
f
GR
GS
[0.75 0 0 0.75 0 0] CT
0.208 0.165 0.525 RC
N
390.455 374 M
393.934 374 L
393.934 373.962 L
390.455 373.962 L
cp
f
GR
GS
[0.75 0 0 0.75 0 0] CT
0.208 0.165 0.525 RC
N
394.804 374 M
398.283 374 L
398.283 373.777 L
394.804 373.777 L
cp
f
GR
GS
[0.75 0 0 0.75 0 0] CT
0.208 0.165 0.525 RC
N
399.152 374 M
402.631 374 L
402.631 373.984 L
399.152 373.984 L
cp
f
GR
GS
[0.75 0 0 0.75 0 0] CT
0.208 0.165 0.525 RC
N
403.501 374 M
406.98 374 L
406.98 370.581 L
403.501 370.581 L
cp
f
GR
GS
[0.75 0 0 0.75 0 0] CT
0.208 0.165 0.525 RC
N
407.85 374 M
411.329 374 L
411.329 373.983 L
407.85 373.983 L
cp
f
GR
GS
[0.75 0 0 0.75 0 0] CT
0.208 0.165 0.525 RC
N
412.198 374 M
415.677 374 L
415.677 371.506 L
412.198 371.506 L
cp
f
GR
GS
[0.75 0 0 0.75 0 0] CT
0.208 0.165 0.525 RC
N
416.547 374 M
420.026 374 L
420.026 373.783 L
416.547 373.783 L
cp
f
GR
GS
[0.75 0 0 0.75 0 0] CT
0.208 0.165 0.525 RC
N
420.896 374 M
424.375 374 L
424.375 372.878 L
420.896 372.878 L
cp
f
GR
GS
[0.75 0 0 0.75 0 0] CT
0.208 0.165 0.525 RC
N
425.244 374 M
428.723 374 L
428.723 373.976 L
425.244 373.976 L
cp
f
GR
GS
[0.75 0 0 0.75 0 0] CT
0.208 0.165 0.525 RC
N
429.593 374 M
433.072 374 L
433.072 373.943 L
429.593 373.943 L
cp
f
GR
GS
[0.75 0 0 0.75 0 0] CT
0.208 0.165 0.525 RC
N
433.942 374 M
437.421 374 L
437.421 373.162 L
433.942 373.162 L
cp
f
GR
GS
[0.75 0 0 0.75 0 0] CT
0.208 0.165 0.525 RC
N
438.291 374 M
441.77 374 L
441.77 373.149 L
438.291 373.149 L
cp
f
GR
GS
[0.75 0 0 0.75 0 0] CT
0.208 0.165 0.525 RC
N
442.639 374 M
446.118 374 L
446.118 373.976 L
442.639 373.976 L
cp
f
GR
GS
[0.75 0 0 0.75 0 0] CT
0.208 0.165 0.525 RC
N
446.988 374 M
450.467 374 L
450.467 373.951 L
446.988 373.951 L
cp
f
GR
GS
[0.75 0 0 0.75 0 0] CT
0.208 0.165 0.525 RC
N
451.337 374 M
454.816 374 L
454.816 373.983 L
451.337 373.983 L
cp
f
GR
GS
[0.75 0 0 0.75 0 0] CT
0.208 0.165 0.525 RC
N
455.685 374 M
459.164 374 L
459.164 370.309 L
455.685 370.309 L
cp
f
GR
GS
[0.75 0 0 0.75 0 0] CT
0.208 0.165 0.525 RC
N
460.034 374 M
463.513 374 L
463.513 373.966 L
460.034 373.966 L
cp
f
GR
GS
[0.75 0 0 0.75 0 0] CT
0.208 0.165 0.525 RC
N
464.383 374 M
467.862 374 L
467.862 373.987 L
464.383 373.987 L
cp
f
GR
GS
[0.75 0 0 0.75 0 0] CT
0.208 0.165 0.525 RC
N
468.731 374 M
472.21 374 L
472.21 372.922 L
468.731 372.922 L
cp
f
GR
GS
[0.75 0 0 0.75 0 0] CT
0.208 0.165 0.525 RC
N
473.08 374 M
476.559 374 L
476.559 373.978 L
473.08 373.978 L
cp
f
GR
GS
[0.75 0 0 0.75 0 0] CT
0.208 0.165 0.525 RC
N
477.429 374 M
480.908 374 L
480.908 373.148 L
477.429 373.148 L
cp
f
GR
GS
[0.75 0 0 0.75 0 0] CT
0.208 0.165 0.525 RC
N
481.778 374 M
485.257 374 L
485.257 371.474 L
481.778 371.474 L
cp
f
GR
GS
[0.75 0 0 0.75 0 0] CT
0.208 0.165 0.525 RC
N
486.126 374 M
489.605 374 L
489.605 373.841 L
486.126 373.841 L
cp
f
GR
GS
[0.75 0 0 0.75 0 0] CT
0.208 0.165 0.525 RC
N
490.475 374 M
493.954 374 L
493.954 373.984 L
490.475 373.984 L
cp
f
GR
GS
[0.75 0 0 0.75 0 0] CT
0.208 0.165 0.525 RC
N
494.824 374 M
498.303 374 L
498.303 373.994 L
494.824 373.994 L
cp
f
GR
GS
[0.75 0 0 0.75 0 0] CT
0.208 0.165 0.525 RC
N
499.172 374 M
502.651 374 L
502.651 353.532 L
499.172 353.532 L
cp
f
GR
GS
[0.75 0 0 0.75 0 0] CT
0.208 0.165 0.525 RC
N
503.521 374 M
507 374 L
507 368.634 L
503.521 368.634 L
cp
f
GR
GS
[0.75 0 0 0.75 0 0] CT
10.0 ML
0.667 LW
N
73 374 M
73 373.816 L
76.479 373.816 L
76.479 374 L
cp
S
GR
GS
[0.75 0 0 0.75 0 0] CT
10.0 ML
0.667 LW
N
77.349 374 M
77.349 370.614 L
80.828 370.614 L
80.828 374 L
cp
S
GR
GS
[0.75 0 0 0.75 0 0] CT
10.0 ML
0.667 LW
N
81.697 374 M
81.697 373.961 L
85.176 373.961 L
85.176 374 L
cp
S
GR
GS
[0.75 0 0 0.75 0 0] CT
10.0 ML
0.667 LW
N
86.046 374 M
86.046 373.995 L
89.525 373.995 L
89.525 374 L
cp
S
GR
GS
[0.75 0 0 0.75 0 0] CT
10.0 ML
0.667 LW
N
90.395 374 M
90.395 373.572 L
93.874 373.572 L
93.874 374 L
cp
S
GR
GS
[0.75 0 0 0.75 0 0] CT
10.0 ML
0.667 LW
N
94.743 374 M
94.743 373.099 L
98.222 373.099 L
98.222 374 L
cp
S
GR
GS
[0.75 0 0 0.75 0 0] CT
10.0 ML
0.667 LW
N
99.092 374 M
99.092 373.99 L
102.571 373.99 L
102.571 374 L
cp
S
GR
GS
[0.75 0 0 0.75 0 0] CT
10.0 ML
0.667 LW
N
103.441 374 M
103.441 373.894 L
106.92 373.894 L
106.92 374 L
cp
S
GR
GS
[0.75 0 0 0.75 0 0] CT
10.0 ML
0.667 LW
N
107.79 374 M
107.79 373.986 L
111.269 373.986 L
111.269 374 L
cp
S
GR
GS
[0.75 0 0 0.75 0 0] CT
10.0 ML
0.667 LW
N
112.138 374 M
112.138 373.625 L
115.617 373.625 L
115.617 374 L
cp
S
GR
GS
[0.75 0 0 0.75 0 0] CT
10.0 ML
0.667 LW
N
116.487 374 M
116.487 369.644 L
119.966 369.644 L
119.966 374 L
cp
S
GR
GS
[0.75 0 0 0.75 0 0] CT
10.0 ML
0.667 LW
N
120.836 374 M
120.836 373.692 L
124.315 373.692 L
124.315 374 L
cp
S
GR
GS
[0.75 0 0 0.75 0 0] CT
10.0 ML
0.667 LW
N
125.184 374 M
125.184 373.769 L
128.663 373.769 L
128.663 374 L
cp
S
GR
GS
[0.75 0 0 0.75 0 0] CT
10.0 ML
0.667 LW
N
129.533 374 M
129.533 361.058 L
133.012 361.058 L
133.012 374 L
cp
S
GR
GS
[0.75 0 0 0.75 0 0] CT
10.0 ML
0.667 LW
N
133.882 374 M
133.882 373.99 L
137.361 373.99 L
137.361 374 L
cp
S
GR
GS
[0.75 0 0 0.75 0 0] CT
10.0 ML
0.667 LW
N
138.23 374 M
138.23 373.955 L
141.709 373.955 L
141.709 374 L
cp
S
GR
GS
[0.75 0 0 0.75 0 0] CT
10.0 ML
0.667 LW
N
142.579 374 M
142.579 372.426 L
146.058 372.426 L
146.058 374 L
cp
S
GR
GS
[0.75 0 0 0.75 0 0] CT
10.0 ML
0.667 LW
N
146.928 374 M
146.928 373.982 L
150.407 373.982 L
150.407 374 L
cp
S
GR
GS
[0.75 0 0 0.75 0 0] CT
10.0 ML
0.667 LW
N
151.277 374 M
151.277 373.977 L
154.756 373.977 L
154.756 374 L
cp
S
GR
GS
[0.75 0 0 0.75 0 0] CT
10.0 ML
0.667 LW
N
155.625 374 M
155.625 365.407 L
159.104 365.407 L
159.104 374 L
cp
S
GR
GS
[0.75 0 0 0.75 0 0] CT
10.0 ML
0.667 LW
N
159.974 374 M
159.974 370.988 L
163.453 370.988 L
163.453 374 L
cp
S
GR
GS
[0.75 0 0 0.75 0 0] CT
10.0 ML
0.667 LW
N
164.323 374 M
164.323 373.936 L
167.802 373.936 L
167.802 374 L
cp
S
GR
GS
[0.75 0 0 0.75 0 0] CT
10.0 ML
0.667 LW
N
168.671 374 M
168.671 373.983 L
172.15 373.983 L
172.15 374 L
cp
S
GR
GS
[0.75 0 0 0.75 0 0] CT
10.0 ML
0.667 LW
N
173.02 374 M
173.02 373.113 L
176.499 373.113 L
176.499 374 L
cp
S
GR
GS
[0.75 0 0 0.75 0 0] CT
10.0 ML
0.667 LW
N
177.369 374 M
177.369 372.993 L
180.848 372.993 L
180.848 374 L
cp
S
GR
GS
[0.75 0 0 0.75 0 0] CT
10.0 ML
0.667 LW
N
181.717 374 M
181.717 373.961 L
185.196 373.961 L
185.196 374 L
cp
S
GR
GS
[0.75 0 0 0.75 0 0] CT
10.0 ML
0.667 LW
N
186.066 374 M
186.066 373.968 L
189.545 373.968 L
189.545 374 L
cp
S
GR
GS
[0.75 0 0 0.75 0 0] CT
10.0 ML
0.667 LW
N
190.415 374 M
190.415 373.986 L
193.894 373.986 L
193.894 374 L
cp
S
GR
GS
[0.75 0 0 0.75 0 0] CT
10.0 ML
0.667 LW
N
194.764 374 M
194.764 373.564 L
198.242 373.564 L
198.242 374 L
cp
S
GR
GS
[0.75 0 0 0.75 0 0] CT
10.0 ML
0.667 LW
N
199.112 374 M
199.112 373.988 L
202.591 373.988 L
202.591 374 L
cp
S
GR
GS
[0.75 0 0 0.75 0 0] CT
10.0 ML
0.667 LW
N
203.461 374 M
203.461 373.549 L
206.94 373.549 L
206.94 374 L
cp
S
GR
GS
[0.75 0 0 0.75 0 0] CT
10.0 ML
0.667 LW
N
207.81 374 M
207.81 373.979 L
211.289 373.979 L
211.289 374 L
cp
S
GR
GS
[0.75 0 0 0.75 0 0] CT
10.0 ML
0.667 LW
N
212.158 374 M
212.158 370.64 L
215.637 370.64 L
215.637 374 L
cp
S
GR
GS
[0.75 0 0 0.75 0 0] CT
10.0 ML
0.667 LW
N
216.507 374 M
216.507 372.97 L
219.986 372.97 L
219.986 374 L
cp
S
GR
GS
[0.75 0 0 0.75 0 0] CT
10.0 ML
0.667 LW
N
220.856 374 M
220.856 373.934 L
224.335 373.934 L
224.335 374 L
cp
S
GR
GS
[0.75 0 0 0.75 0 0] CT
10.0 ML
0.667 LW
N
225.204 374 M
225.204 373.979 L
228.683 373.979 L
228.683 374 L
cp
S
GR
GS
[0.75 0 0 0.75 0 0] CT
10.0 ML
0.667 LW
N
229.553 374 M
229.553 373.976 L
233.032 373.976 L
233.032 374 L
cp
S
GR
GS
[0.75 0 0 0.75 0 0] CT
10.0 ML
0.667 LW
N
233.902 374 M
233.902 362.881 L
237.381 362.881 L
237.381 374 L
cp
S
GR
GS
[0.75 0 0 0.75 0 0] CT
10.0 ML
0.667 LW
N
238.25 374 M
238.25 363.189 L
241.729 363.189 L
241.729 374 L
cp
S
GR
GS
[0.75 0 0 0.75 0 0] CT
10.0 ML
0.667 LW
N
242.599 374 M
242.599 373.987 L
246.078 373.987 L
246.078 374 L
cp
S
GR
GS
[0.75 0 0 0.75 0 0] CT
10.0 ML
0.667 LW
N
246.948 374 M
246.948 373.974 L
250.427 373.974 L
250.427 374 L
cp
S
GR
GS
[0.75 0 0 0.75 0 0] CT
10.0 ML
0.667 LW
N
251.297 374 M
251.297 373.936 L
254.776 373.936 L
254.776 374 L
cp
S
GR
GS
[0.75 0 0 0.75 0 0] CT
10.0 ML
0.667 LW
N
255.645 374 M
255.645 373.979 L
259.124 373.979 L
259.124 374 L
cp
S
GR
GS
[0.75 0 0 0.75 0 0] CT
10.0 ML
0.667 LW
N
259.994 374 M
259.994 373.306 L
263.473 373.306 L
263.473 374 L
cp
S
GR
GS
[0.75 0 0 0.75 0 0] CT
10.0 ML
0.667 LW
N
264.343 374 M
264.343 373.448 L
267.822 373.448 L
267.822 374 L
cp
S
GR
GS
[0.75 0 0 0.75 0 0] CT
10.0 ML
0.667 LW
N
268.691 374 M
268.691 373.699 L
272.17 373.699 L
272.17 374 L
cp
S
GR
GS
[0.75 0 0 0.75 0 0] CT
10.0 ML
0.667 LW
N
273.04 374 M
273.04 373.852 L
276.519 373.852 L
276.519 374 L
cp
S
GR
GS
[0.75 0 0 0.75 0 0] CT
10.0 ML
0.667 LW
N
277.389 374 M
277.389 373.976 L
280.868 373.976 L
280.868 374 L
cp
S
GR
GS
[0.75 0 0 0.75 0 0] CT
10.0 ML
0.667 LW
N
281.737 374 M
281.737 373.424 L
285.216 373.424 L
285.216 374 L
cp
S
GR
GS
[0.75 0 0 0.75 0 0] CT
10.0 ML
0.667 LW
N
286.086 374 M
286.086 366.539 L
289.565 366.539 L
289.565 374 L
cp
S
GR
GS
[0.75 0 0 0.75 0 0] CT
10.0 ML
0.667 LW
N
290.435 374 M
290.435 331.209 L
293.914 331.209 L
293.914 374 L
cp
S
GR
GS
[0.75 0 0 0.75 0 0] CT
10.0 ML
0.667 LW
N
294.784 374 M
294.784 373.352 L
298.263 373.352 L
298.263 374 L
cp
S
GR
GS
[0.75 0 0 0.75 0 0] CT
10.0 ML
0.667 LW
N
299.132 374 M
299.132 373.463 L
302.611 373.463 L
302.611 374 L
cp
S
GR
GS
[0.75 0 0 0.75 0 0] CT
10.0 ML
0.667 LW
N
303.481 374 M
303.481 373.962 L
306.96 373.962 L
306.96 374 L
cp
S
GR
GS
[0.75 0 0 0.75 0 0] CT
10.0 ML
0.667 LW
N
307.83 374 M
307.83 355.868 L
311.309 355.868 L
311.309 374 L
cp
S
GR
GS
[0.75 0 0 0.75 0 0] CT
10.0 ML
0.667 LW
N
312.178 374 M
312.178 373.559 L
315.657 373.559 L
315.657 374 L
cp
S
GR
GS
[0.75 0 0 0.75 0 0] CT
10.0 ML
0.667 LW
N
316.527 374 M
316.527 373.957 L
320.006 373.957 L
320.006 374 L
cp
S
GR
GS
[0.75 0 0 0.75 0 0] CT
10.0 ML
0.667 LW
N
320.876 374 M
320.876 373.047 L
324.355 373.047 L
324.355 374 L
cp
S
GR
GS
[0.75 0 0 0.75 0 0] CT
10.0 ML
0.667 LW
N
325.224 374 M
325.224 362.164 L
328.703 362.164 L
328.703 374 L
cp
S
GR
GS
[0.75 0 0 0.75 0 0] CT
10.0 ML
0.667 LW
N
329.573 374 M
329.573 373.95 L
333.052 373.95 L
333.052 374 L
cp
S
GR
GS
[0.75 0 0 0.75 0 0] CT
10.0 ML
0.667 LW
N
333.922 374 M
333.922 373.801 L
337.401 373.801 L
337.401 374 L
cp
S
GR
GS
[0.75 0 0 0.75 0 0] CT
10.0 ML
0.667 LW
N
338.271 374 M
338.271 373.306 L
341.75 373.306 L
341.75 374 L
cp
S
GR
GS
[0.75 0 0 0.75 0 0] CT
10.0 ML
0.667 LW
N
342.619 374 M
342.619 372.739 L
346.098 372.739 L
346.098 374 L
cp
S
GR
GS
[0.75 0 0 0.75 0 0] CT
10.0 ML
0.667 LW
N
346.968 374 M
346.968 373.831 L
350.447 373.831 L
350.447 374 L
cp
S
GR
GS
[0.75 0 0 0.75 0 0] CT
10.0 ML
0.667 LW
N
351.317 374 M
351.317 373.81 L
354.796 373.81 L
354.796 374 L
cp
S
GR
GS
[0.75 0 0 0.75 0 0] CT
10.0 ML
0.667 LW
N
355.665 374 M
355.665 373.981 L
359.144 373.981 L
359.144 374 L
cp
S
GR
GS
[0.75 0 0 0.75 0 0] CT
10.0 ML
0.667 LW
N
360.014 374 M
360.014 373.173 L
363.493 373.173 L
363.493 374 L
cp
S
GR
GS
[0.75 0 0 0.75 0 0] CT
10.0 ML
0.667 LW
N
364.363 374 M
364.363 373.97 L
367.842 373.97 L
367.842 374 L
cp
S
GR
GS
[0.75 0 0 0.75 0 0] CT
10.0 ML
0.667 LW
N
368.711 374 M
368.711 373.976 L
372.19 373.976 L
372.19 374 L
cp
S
GR
GS
[0.75 0 0 0.75 0 0] CT
10.0 ML
0.667 LW
N
373.06 374 M
373.06 373.77 L
376.539 373.77 L
376.539 374 L
cp
S
GR
GS
[0.75 0 0 0.75 0 0] CT
10.0 ML
0.667 LW
N
377.409 374 M
377.409 372.774 L
380.888 372.774 L
380.888 374 L
cp
S
GR
GS
[0.75 0 0 0.75 0 0] CT
10.0 ML
0.667 LW
N
381.758 374 M
381.758 373.88 L
385.236 373.88 L
385.236 374 L
cp
S
GR
GS
[0.75 0 0 0.75 0 0] CT
10.0 ML
0.667 LW
N
386.106 374 M
386.106 373.95 L
389.585 373.95 L
389.585 374 L
cp
S
GR
GS
[0.75 0 0 0.75 0 0] CT
10.0 ML
0.667 LW
N
390.455 374 M
390.455 373.962 L
393.934 373.962 L
393.934 374 L
cp
S
GR
GS
[0.75 0 0 0.75 0 0] CT
10.0 ML
0.667 LW
N
394.804 374 M
394.804 373.777 L
398.283 373.777 L
398.283 374 L
cp
S
GR
GS
[0.75 0 0 0.75 0 0] CT
10.0 ML
0.667 LW
N
399.152 374 M
399.152 373.984 L
402.631 373.984 L
402.631 374 L
cp
S
GR
GS
[0.75 0 0 0.75 0 0] CT
10.0 ML
0.667 LW
N
403.501 374 M
403.501 370.581 L
406.98 370.581 L
406.98 374 L
cp
S
GR
GS
[0.75 0 0 0.75 0 0] CT
10.0 ML
0.667 LW
N
407.85 374 M
407.85 373.983 L
411.329 373.983 L
411.329 374 L
cp
S
GR
GS
[0.75 0 0 0.75 0 0] CT
10.0 ML
0.667 LW
N
412.198 374 M
412.198 371.506 L
415.677 371.506 L
415.677 374 L
cp
S
GR
GS
[0.75 0 0 0.75 0 0] CT
10.0 ML
0.667 LW
N
416.547 374 M
416.547 373.783 L
420.026 373.783 L
420.026 374 L
cp
S
GR
GS
[0.75 0 0 0.75 0 0] CT
10.0 ML
0.667 LW
N
420.896 374 M
420.896 372.878 L
424.375 372.878 L
424.375 374 L
cp
S
GR
GS
[0.75 0 0 0.75 0 0] CT
10.0 ML
0.667 LW
N
425.244 374 M
425.244 373.976 L
428.723 373.976 L
428.723 374 L
cp
S
GR
GS
[0.75 0 0 0.75 0 0] CT
10.0 ML
0.667 LW
N
429.593 374 M
429.593 373.943 L
433.072 373.943 L
433.072 374 L
cp
S
GR
GS
[0.75 0 0 0.75 0 0] CT
10.0 ML
0.667 LW
N
433.942 374 M
433.942 373.162 L
437.421 373.162 L
437.421 374 L
cp
S
GR
GS
[0.75 0 0 0.75 0 0] CT
10.0 ML
0.667 LW
N
438.291 374 M
438.291 373.149 L
441.77 373.149 L
441.77 374 L
cp
S
GR
GS
[0.75 0 0 0.75 0 0] CT
10.0 ML
0.667 LW
N
442.639 374 M
442.639 373.976 L
446.118 373.976 L
446.118 374 L
cp
S
GR
GS
[0.75 0 0 0.75 0 0] CT
10.0 ML
0.667 LW
N
446.988 374 M
446.988 373.951 L
450.467 373.951 L
450.467 374 L
cp
S
GR
GS
[0.75 0 0 0.75 0 0] CT
10.0 ML
0.667 LW
N
451.337 374 M
451.337 373.983 L
454.816 373.983 L
454.816 374 L
cp
S
GR
GS
[0.75 0 0 0.75 0 0] CT
10.0 ML
0.667 LW
N
455.685 374 M
455.685 370.309 L
459.164 370.309 L
459.164 374 L
cp
S
GR
GS
[0.75 0 0 0.75 0 0] CT
10.0 ML
0.667 LW
N
460.034 374 M
460.034 373.966 L
463.513 373.966 L
463.513 374 L
cp
S
GR
GS
[0.75 0 0 0.75 0 0] CT
10.0 ML
0.667 LW
N
464.383 374 M
464.383 373.987 L
467.862 373.987 L
467.862 374 L
cp
S
GR
GS
[0.75 0 0 0.75 0 0] CT
10.0 ML
0.667 LW
N
468.731 374 M
468.731 372.922 L
472.21 372.922 L
472.21 374 L
cp
S
GR
GS
[0.75 0 0 0.75 0 0] CT
10.0 ML
0.667 LW
N
473.08 374 M
473.08 373.978 L
476.559 373.978 L
476.559 374 L
cp
S
GR
GS
[0.75 0 0 0.75 0 0] CT
10.0 ML
0.667 LW
N
477.429 374 M
477.429 373.148 L
480.908 373.148 L
480.908 374 L
cp
S
GR
GS
[0.75 0 0 0.75 0 0] CT
10.0 ML
0.667 LW
N
481.778 374 M
481.778 371.474 L
485.257 371.474 L
485.257 374 L
cp
S
GR
GS
[0.75 0 0 0.75 0 0] CT
10.0 ML
0.667 LW
N
486.126 374 M
486.126 373.841 L
489.605 373.841 L
489.605 374 L
cp
S
GR
GS
[0.75 0 0 0.75 0 0] CT
10.0 ML
0.667 LW
N
490.475 374 M
490.475 373.984 L
493.954 373.984 L
493.954 374 L
cp
S
GR
GS
[0.75 0 0 0.75 0 0] CT
10.0 ML
0.667 LW
N
494.824 374 M
494.824 373.994 L
498.303 373.994 L
498.303 374 L
cp
S
GR
GS
[0.75 0 0 0.75 0 0] CT
10.0 ML
0.667 LW
N
499.172 374 M
499.172 353.532 L
502.651 353.532 L
502.651 374 L
cp
S
GR
GS
[0.75 0 0 0.75 0 0] CT
10.0 ML
0.667 LW
N
503.521 374 M
503.521 368.634 L
507 368.634 L
507 374 L
cp
S
GR
%%Trailer
%%Pages: 1
%%EOF
