%!PS-Adobe-3.0 EPSF-3.0
%%Creator: (MATLAB, The Mathworks, Inc. Version 9.0.0.341360 \(R2016a\). Operating System: Windows 8)
%%Title: ../doc/thesis/figures/word_weights_group.eps
%%CreationDate: 2016-08-25T15:02:22
%%Pages: (atend)
%%BoundingBox:    31    19   387   305
%%LanguageLevel: 3
%%EndComments
%%BeginProlog
%%BeginResource: procset (Apache XML Graphics Std ProcSet) 1.2 0
%%Version: 1.2 0
%%Copyright: (Copyright 2001-2003,2010 The Apache Software Foundation. License terms: http://www.apache.org/licenses/LICENSE-2.0)
/bd{bind def}bind def
/ld{load def}bd
/GR/grestore ld
/M/moveto ld
/LJ/setlinejoin ld
/C/curveto ld
/f/fill ld
/LW/setlinewidth ld
/GC/setgray ld
/t/show ld
/N/newpath ld
/CT/concat ld
/cp/closepath ld
/S/stroke ld
/L/lineto ld
/CC/setcmykcolor ld
/A/ashow ld
/GS/gsave ld
/RC/setrgbcolor ld
/RM/rmoveto ld
/ML/setmiterlimit ld
/re {4 2 roll M
1 index 0 rlineto
0 exch rlineto
neg 0 rlineto
cp } bd
/_ctm matrix def
/_tm matrix def
/BT { _ctm currentmatrix pop matrix _tm copy pop 0 0 moveto } bd
/ET { _ctm setmatrix } bd
/iTm { _ctm setmatrix _tm concat } bd
/Tm { _tm astore pop iTm 0 0 moveto } bd
/ux 0.0 def
/uy 0.0 def
/F {
  /Tp exch def
  /Tf exch def
  Tf findfont Tp scalefont setfont
  /cf Tf def  /cs Tp def
} bd
/ULS {currentpoint /uy exch def /ux exch def} bd
/ULE {
  /Tcx currentpoint pop def
  gsave
  newpath
  cf findfont cs scalefont dup
  /FontMatrix get 0 get /Ts exch def /FontInfo get dup
  /UnderlinePosition get Ts mul /To exch def
  /UnderlineThickness get Ts mul /Tt exch def
  ux uy To add moveto  Tcx uy To add lineto
  Tt setlinewidth stroke
  grestore
} bd
/OLE {
  /Tcx currentpoint pop def
  gsave
  newpath
  cf findfont cs scalefont dup
  /FontMatrix get 0 get /Ts exch def /FontInfo get dup
  /UnderlinePosition get Ts mul /To exch def
  /UnderlineThickness get Ts mul /Tt exch def
  ux uy To add cs add moveto Tcx uy To add cs add lineto
  Tt setlinewidth stroke
  grestore
} bd
/SOE {
  /Tcx currentpoint pop def
  gsave
  newpath
  cf findfont cs scalefont dup
  /FontMatrix get 0 get /Ts exch def /FontInfo get dup
  /UnderlinePosition get Ts mul /To exch def
  /UnderlineThickness get Ts mul /Tt exch def
  ux uy To add cs 10 mul 26 idiv add moveto Tcx uy To add cs 10 mul 26 idiv add lineto
  Tt setlinewidth stroke
  grestore
} bd
/QT {
/Y22 exch store
/X22 exch store
/Y21 exch store
/X21 exch store
currentpoint
/Y21 load 2 mul add 3 div exch
/X21 load 2 mul add 3 div exch
/X21 load 2 mul /X22 load add 3 div
/Y21 load 2 mul /Y22 load add 3 div
/X22 load /Y22 load curveto
} bd
/SSPD {
dup length /d exch dict def
{
/v exch def
/k exch def
currentpagedevice k known {
/cpdv currentpagedevice k get def
v cpdv ne {
/upd false def
/nullv v type /nulltype eq def
/nullcpdv cpdv type /nulltype eq def
nullv nullcpdv or
{
/upd true def
} {
/sametype v type cpdv type eq def
sametype {
v type /arraytype eq {
/vlen v length def
/cpdvlen cpdv length def
vlen cpdvlen eq {
0 1 vlen 1 sub {
/i exch def
/obj v i get def
/cpdobj cpdv i get def
obj cpdobj ne {
/upd true def
exit
} if
} for
} {
/upd true def
} ifelse
} {
v type /dicttype eq {
v {
/dv exch def
/dk exch def
/cpddv cpdv dk get def
dv cpddv ne {
/upd true def
exit
} if
} forall
} {
/upd true def
} ifelse
} ifelse
} if
} ifelse
upd true eq {
d k v put
} if
} if
} if
} forall
d length 0 gt {
d setpagedevice
} if
} bd
%%EndResource
%%BeginResource: procset (Apache XML Graphics EPS ProcSet) 1.0 0
%%Version: 1.0 0
%%Copyright: (Copyright 2002-2003 The Apache Software Foundation. License terms: http://www.apache.org/licenses/LICENSE-2.0)
/BeginEPSF { %def
/b4_Inc_state save def         % Save state for cleanup
/dict_count countdictstack def % Count objects on dict stack
/op_count count 1 sub def      % Count objects on operand stack
userdict begin                 % Push userdict on dict stack
/showpage { } def              % Redefine showpage, { } = null proc
0 setgray 0 setlinecap         % Prepare graphics state
1 setlinewidth 0 setlinejoin
10 setmiterlimit [ ] 0 setdash newpath
/languagelevel where           % If level not equal to 1 then
{pop languagelevel             % set strokeadjust and
1 ne                           % overprint to their defaults.
{false setstrokeadjust false setoverprint
} if
} if
} bd
/EndEPSF { %def
count op_count sub {pop} repeat            % Clean up stacks
countdictstack dict_count sub {end} repeat
b4_Inc_state restore
} bd
%%EndResource
%FOPBeginFontDict
%%IncludeResource: font Courier-Bold
%%IncludeResource: font Helvetica
%%IncludeResource: font Courier-BoldOblique
%%IncludeResource: font Courier-Oblique
%%IncludeResource: font Times-Roman
%%IncludeResource: font Helvetica-BoldOblique
%%IncludeResource: font Helvetica-Bold
%%IncludeResource: font Helvetica-Oblique
%%IncludeResource: font Times-BoldItalic
%%IncludeResource: font Courier
%%IncludeResource: font Times-Italic
%%IncludeResource: font Times-Bold
%%IncludeResource: font Symbol
%%IncludeResource: font ZapfDingbats
%FOPEndFontDict
%%BeginResource: encoding WinAnsiEncoding
/WinAnsiEncoding [
/.notdef /.notdef /.notdef /.notdef /.notdef
/.notdef /.notdef /.notdef /.notdef /.notdef
/.notdef /.notdef /.notdef /.notdef /.notdef
/.notdef /.notdef /.notdef /.notdef /.notdef
/.notdef /.notdef /.notdef /.notdef /.notdef
/.notdef /.notdef /.notdef /.notdef /.notdef
/.notdef /.notdef /space /exclam /quotedbl
/numbersign /dollar /percent /ampersand /quotesingle
/parenleft /parenright /asterisk /plus /comma
/hyphen /period /slash /zero /one
/two /three /four /five /six
/seven /eight /nine /colon /semicolon
/less /equal /greater /question /at
/A /B /C /D /E
/F /G /H /I /J
/K /L /M /N /O
/P /Q /R /S /T
/U /V /W /X /Y
/Z /bracketleft /backslash /bracketright /asciicircum
/underscore /quoteleft /a /b /c
/d /e /f /g /h
/i /j /k /l /m
/n /o /p /q /r
/s /t /u /v /w
/x /y /z /braceleft /bar
/braceright /asciitilde /bullet /Euro /bullet
/quotesinglbase /florin /quotedblbase /ellipsis /dagger
/daggerdbl /circumflex /perthousand /Scaron /guilsinglleft
/OE /bullet /Zcaron /bullet /bullet
/quoteleft /quoteright /quotedblleft /quotedblright /bullet
/endash /emdash /asciitilde /trademark /scaron
/guilsinglright /oe /bullet /zcaron /Ydieresis
/space /exclamdown /cent /sterling /currency
/yen /brokenbar /section /dieresis /copyright
/ordfeminine /guillemotleft /logicalnot /sfthyphen /registered
/macron /degree /plusminus /twosuperior /threesuperior
/acute /mu /paragraph /middot /cedilla
/onesuperior /ordmasculine /guillemotright /onequarter /onehalf
/threequarters /questiondown /Agrave /Aacute /Acircumflex
/Atilde /Adieresis /Aring /AE /Ccedilla
/Egrave /Eacute /Ecircumflex /Edieresis /Igrave
/Iacute /Icircumflex /Idieresis /Eth /Ntilde
/Ograve /Oacute /Ocircumflex /Otilde /Odieresis
/multiply /Oslash /Ugrave /Uacute /Ucircumflex
/Udieresis /Yacute /Thorn /germandbls /agrave
/aacute /acircumflex /atilde /adieresis /aring
/ae /ccedilla /egrave /eacute /ecircumflex
/edieresis /igrave /iacute /icircumflex /idieresis
/eth /ntilde /ograve /oacute /ocircumflex
/otilde /odieresis /divide /oslash /ugrave
/uacute /ucircumflex /udieresis /yacute /thorn
/ydieresis
] def
%%EndResource
%FOPBeginFontReencode
/Courier-Bold findfont
dup length dict begin
  {1 index /FID ne {def} {pop pop} ifelse} forall
  /Encoding WinAnsiEncoding def
  currentdict
end
/Courier-Bold exch definefont pop
/Helvetica findfont
dup length dict begin
  {1 index /FID ne {def} {pop pop} ifelse} forall
  /Encoding WinAnsiEncoding def
  currentdict
end
/Helvetica exch definefont pop
/Courier-BoldOblique findfont
dup length dict begin
  {1 index /FID ne {def} {pop pop} ifelse} forall
  /Encoding WinAnsiEncoding def
  currentdict
end
/Courier-BoldOblique exch definefont pop
/Courier-Oblique findfont
dup length dict begin
  {1 index /FID ne {def} {pop pop} ifelse} forall
  /Encoding WinAnsiEncoding def
  currentdict
end
/Courier-Oblique exch definefont pop
/Times-Roman findfont
dup length dict begin
  {1 index /FID ne {def} {pop pop} ifelse} forall
  /Encoding WinAnsiEncoding def
  currentdict
end
/Times-Roman exch definefont pop
/Helvetica-BoldOblique findfont
dup length dict begin
  {1 index /FID ne {def} {pop pop} ifelse} forall
  /Encoding WinAnsiEncoding def
  currentdict
end
/Helvetica-BoldOblique exch definefont pop
/Helvetica-Bold findfont
dup length dict begin
  {1 index /FID ne {def} {pop pop} ifelse} forall
  /Encoding WinAnsiEncoding def
  currentdict
end
/Helvetica-Bold exch definefont pop
/Helvetica-Oblique findfont
dup length dict begin
  {1 index /FID ne {def} {pop pop} ifelse} forall
  /Encoding WinAnsiEncoding def
  currentdict
end
/Helvetica-Oblique exch definefont pop
/Times-BoldItalic findfont
dup length dict begin
  {1 index /FID ne {def} {pop pop} ifelse} forall
  /Encoding WinAnsiEncoding def
  currentdict
end
/Times-BoldItalic exch definefont pop
/Courier findfont
dup length dict begin
  {1 index /FID ne {def} {pop pop} ifelse} forall
  /Encoding WinAnsiEncoding def
  currentdict
end
/Courier exch definefont pop
/Times-Italic findfont
dup length dict begin
  {1 index /FID ne {def} {pop pop} ifelse} forall
  /Encoding WinAnsiEncoding def
  currentdict
end
/Times-Italic exch definefont pop
/Times-Bold findfont
dup length dict begin
  {1 index /FID ne {def} {pop pop} ifelse} forall
  /Encoding WinAnsiEncoding def
  currentdict
end
/Times-Bold exch definefont pop
%FOPEndFontReencode
%%EndProlog
%%Page: 1 1
%%PageBoundingBox: 0 0 420 315
%%BeginPageSetup
[1 0 0 -1 0 315] CT
%%EndPageSetup
GS
[0.75 0 0 0.75 0 0] CT
1 GC
N
0 0 560 420 re
f
GR
GS
[0.75 0 0 0.75 0 0] CT
1 GC
N
0 0 560 420 re
f
GR
GS
[0.75 0 0 0.75 0 0] CT
1 GC
N
73 374 M
507 374 L
507 31 L
73 31 L
cp
f
GR
GS
[0.75 0 0 0.75 0 0] CT
0.149 GC
2 setlinecap
1 LJ
0.667 LW
N
73 374 M
507 374 L
S
GR
GS
[0.75 0 0 0.75 0 0] CT
0.149 GC
2 setlinecap
1 LJ
0.667 LW
N
73 31 M
507 31 L
S
GR
GS
[0.75 0 0 0.75 0 0] CT
0.149 GC
2 setlinecap
1 LJ
0.667 LW
N
113.603 374 M
113.603 369.66 L
S
GR
GS
[0.75 0 0 0.75 0 0] CT
0.149 GC
2 setlinecap
1 LJ
0.667 LW
N
157.158 374 M
157.158 369.66 L
S
GR
GS
[0.75 0 0 0.75 0 0] CT
0.149 GC
2 setlinecap
1 LJ
0.667 LW
N
200.713 374 M
200.713 369.66 L
S
GR
GS
[0.75 0 0 0.75 0 0] CT
0.149 GC
2 setlinecap
1 LJ
0.667 LW
N
244.267 374 M
244.267 369.66 L
S
GR
GS
[0.75 0 0 0.75 0 0] CT
0.149 GC
2 setlinecap
1 LJ
0.667 LW
N
287.822 374 M
287.822 369.66 L
S
GR
GS
[0.75 0 0 0.75 0 0] CT
0.149 GC
2 setlinecap
1 LJ
0.667 LW
N
331.377 374 M
331.377 369.66 L
S
GR
GS
[0.75 0 0 0.75 0 0] CT
0.149 GC
2 setlinecap
1 LJ
0.667 LW
N
374.932 374 M
374.932 369.66 L
S
GR
GS
[0.75 0 0 0.75 0 0] CT
0.149 GC
2 setlinecap
1 LJ
0.667 LW
N
418.487 374 M
418.487 369.66 L
S
GR
GS
[0.75 0 0 0.75 0 0] CT
0.149 GC
2 setlinecap
1 LJ
0.667 LW
N
462.042 374 M
462.042 369.66 L
S
GR
GS
[0.75 0 0 0.75 0 0] CT
0.149 GC
2 setlinecap
1 LJ
0.667 LW
N
505.597 374 M
505.597 369.66 L
S
GR
GS
[0.75 0 0 0.75 0 0] CT
0.149 GC
2 setlinecap
1 LJ
0.667 LW
N
113.603 31 M
113.603 35.34 L
S
GR
GS
[0.75 0 0 0.75 0 0] CT
0.149 GC
2 setlinecap
1 LJ
0.667 LW
N
157.158 31 M
157.158 35.34 L
S
GR
GS
[0.75 0 0 0.75 0 0] CT
0.149 GC
2 setlinecap
1 LJ
0.667 LW
N
200.713 31 M
200.713 35.34 L
S
GR
GS
[0.75 0 0 0.75 0 0] CT
0.149 GC
2 setlinecap
1 LJ
0.667 LW
N
244.267 31 M
244.267 35.34 L
S
GR
GS
[0.75 0 0 0.75 0 0] CT
0.149 GC
2 setlinecap
1 LJ
0.667 LW
N
287.822 31 M
287.822 35.34 L
S
GR
GS
[0.75 0 0 0.75 0 0] CT
0.149 GC
2 setlinecap
1 LJ
0.667 LW
N
331.377 31 M
331.377 35.34 L
S
GR
GS
[0.75 0 0 0.75 0 0] CT
0.149 GC
2 setlinecap
1 LJ
0.667 LW
N
374.932 31 M
374.932 35.34 L
S
GR
GS
[0.75 0 0 0.75 0 0] CT
0.149 GC
2 setlinecap
1 LJ
0.667 LW
N
418.487 31 M
418.487 35.34 L
S
GR
GS
[0.75 0 0 0.75 0 0] CT
0.149 GC
2 setlinecap
1 LJ
0.667 LW
N
462.042 31 M
462.042 35.34 L
S
GR
GS
[0.75 0 0 0.75 0 0] CT
0.149 GC
2 setlinecap
1 LJ
0.667 LW
N
505.597 31 M
505.597 35.34 L
S
GR
GS
[0.75 0 0 0.75 85.20211 284.50001] CT
0.149 GC
/Helvetica 13.333 F
GS
[1 0 0 1 0 0] CT
-7.5 14 moveto 
1 -1 scale
(10) t 
GR
GR
GS
[0.75 0 0 0.75 117.86825 284.50001] CT
0.149 GC
/Helvetica 13.333 F
GS
[1 0 0 1 0 0] CT
-7.5 14 moveto 
1 -1 scale
(20) t 
GR
GR
GS
[0.75 0 0 0.75 150.5344 284.50001] CT
0.149 GC
/Helvetica 13.333 F
GS
[1 0 0 1 0 0] CT
-7.5 14 moveto 
1 -1 scale
(30) t 
GR
GR
GS
[0.75 0 0 0.75 183.20055 284.50001] CT
0.149 GC
/Helvetica 13.333 F
GS
[1 0 0 1 0 0] CT
-7.5 14 moveto 
1 -1 scale
(40) t 
GR
GR
GS
[0.75 0 0 0.75 215.8667 284.50001] CT
0.149 GC
/Helvetica 13.333 F
GS
[1 0 0 1 0 0] CT
-7.5 14 moveto 
1 -1 scale
(50) t 
GR
GR
GS
[0.75 0 0 0.75 248.53283 284.50001] CT
0.149 GC
/Helvetica 13.333 F
GS
[1 0 0 1 0 0] CT
-7.5 14 moveto 
1 -1 scale
(60) t 
GR
GR
GS
[0.75 0 0 0.75 281.19898 284.50001] CT
0.149 GC
/Helvetica 13.333 F
GS
[1 0 0 1 0 0] CT
-7.5 14 moveto 
1 -1 scale
(70) t 
GR
GR
GS
[0.75 0 0 0.75 313.86514 284.50001] CT
0.149 GC
/Helvetica 13.333 F
GS
[1 0 0 1 0 0] CT
-7.5 14 moveto 
1 -1 scale
(80) t 
GR
GR
GS
[0.75 0 0 0.75 346.53129 284.50001] CT
0.149 GC
/Helvetica 13.333 F
GS
[1 0 0 1 0 0] CT
-7.5 14 moveto 
1 -1 scale
(90) t 
GR
GR
GS
[0.75 0 0 0.75 379.19742 284.50001] CT
0.149 GC
/Helvetica 13.333 F
GS
[1 0 0 1 0 0] CT
-11 14 moveto 
1 -1 scale
(100) t 
GR
GR
GS
[0.75 0 0 0.75 0 0] CT
0.149 GC
2 setlinecap
1 LJ
0.667 LW
N
73 374 M
73 31 L
S
GR
GS
[0.75 0 0 0.75 0 0] CT
0.149 GC
2 setlinecap
1 LJ
0.667 LW
N
507 374 M
507 31 L
S
GR
GS
[0.75 0 0 0.75 0 0] CT
0.149 GC
2 setlinecap
1 LJ
0.667 LW
N
73 374 M
77.34 374 L
S
GR
GS
[0.75 0 0 0.75 0 0] CT
0.149 GC
2 setlinecap
1 LJ
0.667 LW
N
73 305.4 M
77.34 305.4 L
S
GR
GS
[0.75 0 0 0.75 0 0] CT
0.149 GC
2 setlinecap
1 LJ
0.667 LW
N
73 236.8 M
77.34 236.8 L
S
GR
GS
[0.75 0 0 0.75 0 0] CT
0.149 GC
2 setlinecap
1 LJ
0.667 LW
N
73 168.2 M
77.34 168.2 L
S
GR
GS
[0.75 0 0 0.75 0 0] CT
0.149 GC
2 setlinecap
1 LJ
0.667 LW
N
73 99.6 M
77.34 99.6 L
S
GR
GS
[0.75 0 0 0.75 0 0] CT
0.149 GC
2 setlinecap
1 LJ
0.667 LW
N
73 31 M
77.34 31 L
S
GR
GS
[0.75 0 0 0.75 0 0] CT
0.149 GC
2 setlinecap
1 LJ
0.667 LW
N
507 374 M
502.66 374 L
S
GR
GS
[0.75 0 0 0.75 0 0] CT
0.149 GC
2 setlinecap
1 LJ
0.667 LW
N
507 305.4 M
502.66 305.4 L
S
GR
GS
[0.75 0 0 0.75 0 0] CT
0.149 GC
2 setlinecap
1 LJ
0.667 LW
N
507 236.8 M
502.66 236.8 L
S
GR
GS
[0.75 0 0 0.75 0 0] CT
0.149 GC
2 setlinecap
1 LJ
0.667 LW
N
507 168.2 M
502.66 168.2 L
S
GR
GS
[0.75 0 0 0.75 0 0] CT
0.149 GC
2 setlinecap
1 LJ
0.667 LW
N
507 99.6 M
502.66 99.6 L
S
GR
GS
[0.75 0 0 0.75 0 0] CT
0.149 GC
2 setlinecap
1 LJ
0.667 LW
N
507 31 M
502.66 31 L
S
GR
GS
[0.75 0 0 0.75 50.75 280.5] CT
0.149 GC
/Helvetica 13.333 F
GS
[1 0 0 1 0 0] CT
-8 5.5 moveto 
1 -1 scale
(0) t 
GR
GR
GS
[0.75 0 0 0.75 50.75 229.05] CT
0.149 GC
/Helvetica 13.333 F
GS
[1 0 0 1 0 0] CT
-26 5.5 moveto 
1 -1 scale
(0.05) t 
GR
GR
GS
[0.75 0 0 0.75 50.75 177.6] CT
0.149 GC
/Helvetica 13.333 F
GS
[1 0 0 1 0 0] CT
-19 5.5 moveto 
1 -1 scale
(0.1) t 
GR
GR
GS
[0.75 0 0 0.75 50.75 126.15] CT
0.149 GC
/Helvetica 13.333 F
GS
[1 0 0 1 0 0] CT
-26 5.5 moveto 
1 -1 scale
(0.15) t 
GR
GR
GS
[0.75 0 0 0.75 50.75 74.7] CT
0.149 GC
/Helvetica 13.333 F
GS
[1 0 0 1 0 0] CT
-19 5.5 moveto 
1 -1 scale
(0.2) t 
GR
GR
GS
[0.75 0 0 0.75 50.75 23.25] CT
0.149 GC
/Helvetica 13.333 F
GS
[1 0 0 1 0 0] CT
-26 5.5 moveto 
1 -1 scale
(0.25) t 
GR
GR
GS
[0.75 0 0 0.75 217.50021 21.18749] CT
/Helvetica-Bold 14.667 F
GS
[1 0 0 1 0 0] CT
-78 -4 moveto 
1 -1 scale
(Importance weighting) t 
GR
GR
GS
[0.75 0 0 0.75 0 0] CT
0.149 GC
1 LJ
0.667 LW
N
73 374 M
507 374 L
S
GR
GS
[0.75 0 0 0.75 0 0] CT
0 0 0.8 RC
N
73 374 M
73.871 374 L
73.871 367.227 L
73 367.227 L
cp
f
GR
GS
[0.75 0 0 0.75 0 0] CT
0 0 0.8 RC
N
77.355 374 M
78.227 374 L
78.227 370.987 L
77.355 370.987 L
cp
f
GR
GS
[0.75 0 0 0.75 0 0] CT
0 0 0.8 RC
N
81.711 374 M
82.582 374 L
82.582 353.659 L
81.711 353.659 L
cp
f
GR
GS
[0.75 0 0 0.75 0 0] CT
0 0 0.8 RC
N
86.066 374 M
86.938 374 L
86.938 370.148 L
86.066 370.148 L
cp
f
GR
GS
[0.75 0 0 0.75 0 0] CT
0 0 0.8 RC
N
90.422 374 M
91.293 374 L
91.293 367.455 L
90.422 367.455 L
cp
f
GR
GS
[0.75 0 0 0.75 0 0] CT
0 0 0.8 RC
N
94.777 374 M
95.649 374 L
95.649 370.543 L
94.777 370.543 L
cp
f
GR
GS
[0.75 0 0 0.75 0 0] CT
0 0 0.8 RC
N
99.133 374 M
100.004 374 L
100.004 344.04 L
99.133 344.04 L
cp
f
GR
GS
[0.75 0 0 0.75 0 0] CT
0 0 0.8 RC
N
103.488 374 M
104.359 374 L
104.359 361.721 L
103.488 361.721 L
cp
f
GR
GS
[0.75 0 0 0.75 0 0] CT
0 0 0.8 RC
N
107.844 374 M
108.715 374 L
108.715 347.045 L
107.844 347.045 L
cp
f
GR
GS
[0.75 0 0 0.75 0 0] CT
0 0 0.8 RC
N
112.199 374 M
113.07 374 L
113.07 369.979 L
112.199 369.979 L
cp
f
GR
GS
[0.75 0 0 0.75 0 0] CT
0 0 0.8 RC
N
116.555 374 M
117.426 374 L
117.426 373.327 L
116.555 373.327 L
cp
f
GR
GS
[0.75 0 0 0.75 0 0] CT
0 0 0.8 RC
N
120.91 374 M
121.781 374 L
121.781 359.636 L
120.91 359.636 L
cp
f
GR
GS
[0.75 0 0 0.75 0 0] CT
0 0 0.8 RC
N
125.266 374 M
126.137 374 L
126.137 357.408 L
125.266 357.408 L
cp
f
GR
GS
[0.75 0 0 0.75 0 0] CT
0 0 0.8 RC
N
129.621 374 M
130.492 374 L
130.492 373.298 L
129.621 373.298 L
cp
f
GR
GS
[0.75 0 0 0.75 0 0] CT
0 0 0.8 RC
N
133.977 374 M
134.848 374 L
134.848 335.205 L
133.977 335.205 L
cp
f
GR
GS
[0.75 0 0 0.75 0 0] CT
0 0 0.8 RC
N
138.332 374 M
139.203 374 L
139.203 350.465 L
138.332 350.465 L
cp
f
GR
GS
[0.75 0 0 0.75 0 0] CT
0 0 0.8 RC
N
142.688 374 M
143.559 374 L
143.559 369.426 L
142.688 369.426 L
cp
f
GR
GS
[0.75 0 0 0.75 0 0] CT
0 0 0.8 RC
N
147.043 374 M
147.914 374 L
147.914 333.721 L
147.043 333.721 L
cp
f
GR
GS
[0.75 0 0 0.75 0 0] CT
0 0 0.8 RC
N
151.399 374 M
152.27 374 L
152.27 352.087 L
151.399 352.087 L
cp
f
GR
GS
[0.75 0 0 0.75 0 0] CT
0 0 0.8 RC
N
155.754 374 M
156.625 374 L
156.625 372.13 L
155.754 372.13 L
cp
f
GR
GS
[0.75 0 0 0.75 0 0] CT
0 0 0.8 RC
N
160.11 374 M
160.981 374 L
160.981 370.794 L
160.11 370.794 L
cp
f
GR
GS
[0.75 0 0 0.75 0 0] CT
0 0 0.8 RC
N
164.465 374 M
165.336 374 L
165.336 361.869 L
164.465 361.869 L
cp
f
GR
GS
[0.75 0 0 0.75 0 0] CT
0 0 0.8 RC
N
168.821 374 M
169.692 374 L
169.692 350.02 L
168.821 350.02 L
cp
f
GR
GS
[0.75 0 0 0.75 0 0] CT
0 0 0.8 RC
N
173.176 374 M
174.047 374 L
174.047 367.736 L
173.176 367.736 L
cp
f
GR
GS
[0.75 0 0 0.75 0 0] CT
0 0 0.8 RC
N
177.532 374 M
178.403 374 L
178.403 370.557 L
177.532 370.557 L
cp
f
GR
GS
[0.75 0 0 0.75 0 0] CT
0 0 0.8 RC
N
181.887 374 M
182.758 374 L
182.758 353.335 L
181.887 353.335 L
cp
f
GR
GS
[0.75 0 0 0.75 0 0] CT
0 0 0.8 RC
N
186.243 374 M
187.114 374 L
187.114 343.479 L
186.243 343.479 L
cp
f
GR
GS
[0.75 0 0 0.75 0 0] CT
0 0 0.8 RC
N
190.598 374 M
191.469 374 L
191.469 349.632 L
190.598 349.632 L
cp
f
GR
GS
[0.75 0 0 0.75 0 0] CT
0 0 0.8 RC
N
194.954 374 M
195.825 374 L
195.825 363.054 L
194.954 363.054 L
cp
f
GR
GS
[0.75 0 0 0.75 0 0] CT
0 0 0.8 RC
N
199.309 374 M
200.18 374 L
200.18 345.031 L
199.309 345.031 L
cp
f
GR
GS
[0.75 0 0 0.75 0 0] CT
0 0 0.8 RC
N
203.665 374 M
204.536 374 L
204.536 371.485 L
203.665 371.485 L
cp
f
GR
GS
[0.75 0 0 0.75 0 0] CT
0 0 0.8 RC
N
208.02 374 M
208.891 374 L
208.891 344.743 L
208.02 344.743 L
cp
f
GR
GS
[0.75 0 0 0.75 0 0] CT
0 0 0.8 RC
N
212.376 374 M
213.247 374 L
213.247 372.462 L
212.376 372.462 L
cp
f
GR
GS
[0.75 0 0 0.75 0 0] CT
0 0 0.8 RC
N
216.731 374 M
217.602 374 L
217.602 365.356 L
216.731 365.356 L
cp
f
GR
GS
[0.75 0 0 0.75 0 0] CT
0 0 0.8 RC
N
221.087 374 M
221.958 374 L
221.958 360.891 L
221.087 360.891 L
cp
f
GR
GS
[0.75 0 0 0.75 0 0] CT
0 0 0.8 RC
N
225.442 374 M
226.313 374 L
226.313 349.447 L
225.442 349.447 L
cp
f
GR
GS
[0.75 0 0 0.75 0 0] CT
0 0 0.8 RC
N
229.798 374 M
230.669 374 L
230.669 343.19 L
229.798 343.19 L
cp
f
GR
GS
[0.75 0 0 0.75 0 0] CT
0 0 0.8 RC
N
234.153 374 M
235.024 374 L
235.024 371.971 L
234.153 371.971 L
cp
f
GR
GS
[0.75 0 0 0.75 0 0] CT
0 0 0.8 RC
N
238.508 374 M
239.38 374 L
239.38 371.195 L
238.508 371.195 L
cp
f
GR
GS
[0.75 0 0 0.75 0 0] CT
0 0 0.8 RC
N
242.864 374 M
243.735 374 L
243.735 334.655 L
242.864 334.655 L
cp
f
GR
GS
[0.75 0 0 0.75 0 0] CT
0 0 0.8 RC
N
247.219 374 M
248.091 374 L
248.091 344.265 L
247.219 344.265 L
cp
f
GR
GS
[0.75 0 0 0.75 0 0] CT
0 0 0.8 RC
N
251.575 374 M
252.446 374 L
252.446 353.088 L
251.575 353.088 L
cp
f
GR
GS
[0.75 0 0 0.75 0 0] CT
0 0 0.8 RC
N
255.93 374 M
256.802 374 L
256.802 353.618 L
255.93 353.618 L
cp
f
GR
GS
[0.75 0 0 0.75 0 0] CT
0 0 0.8 RC
N
260.286 374 M
261.157 374 L
261.157 368.815 L
260.286 368.815 L
cp
f
GR
GS
[0.75 0 0 0.75 0 0] CT
0 0 0.8 RC
N
264.641 374 M
265.512 374 L
265.512 369.247 L
264.641 369.247 L
cp
f
GR
GS
[0.75 0 0 0.75 0 0] CT
0 0 0.8 RC
N
268.997 374 M
269.868 374 L
269.868 358.711 L
268.997 358.711 L
cp
f
GR
GS
[0.75 0 0 0.75 0 0] CT
0 0 0.8 RC
N
273.352 374 M
274.223 374 L
274.223 359.966 L
273.352 359.966 L
cp
f
GR
GS
[0.75 0 0 0.75 0 0] CT
0 0 0.8 RC
N
277.708 374 M
278.579 374 L
278.579 347.013 L
277.708 347.013 L
cp
f
GR
GS
[0.75 0 0 0.75 0 0] CT
0 0 0.8 RC
N
282.063 374 M
282.934 374 L
282.934 369.944 L
282.063 369.944 L
cp
f
GR
GS
[0.75 0 0 0.75 0 0] CT
0 0 0.8 RC
N
286.419 374 M
287.29 374 L
287.29 373.22 L
286.419 373.22 L
cp
f
GR
GS
[0.75 0 0 0.75 0 0] CT
0 0 0.8 RC
N
290.774 374 M
291.645 374 L
291.645 372.343 L
290.774 372.343 L
cp
f
GR
GS
[0.75 0 0 0.75 0 0] CT
0 0 0.8 RC
N
295.13 374 M
296.001 374 L
296.001 363.321 L
295.13 363.321 L
cp
f
GR
GS
[0.75 0 0 0.75 0 0] CT
0 0 0.8 RC
N
299.485 374 M
300.356 374 L
300.356 363.464 L
299.485 363.464 L
cp
f
GR
GS
[0.75 0 0 0.75 0 0] CT
0 0 0.8 RC
N
303.841 374 M
304.712 374 L
304.712 344.23 L
303.841 344.23 L
cp
f
GR
GS
[0.75 0 0 0.75 0 0] CT
0 0 0.8 RC
N
308.196 374 M
309.067 374 L
309.067 372.283 L
308.196 372.283 L
cp
f
GR
GS
[0.75 0 0 0.75 0 0] CT
0 0 0.8 RC
N
312.552 374 M
313.423 374 L
313.423 359.651 L
312.552 359.651 L
cp
f
GR
GS
[0.75 0 0 0.75 0 0] CT
0 0 0.8 RC
N
316.907 374 M
317.778 374 L
317.778 354.407 L
316.907 354.407 L
cp
f
GR
GS
[0.75 0 0 0.75 0 0] CT
0 0 0.8 RC
N
321.263 374 M
322.134 374 L
322.134 370.397 L
321.263 370.397 L
cp
f
GR
GS
[0.75 0 0 0.75 0 0] CT
0 0 0.8 RC
N
325.618 374 M
326.489 374 L
326.489 372.89 L
325.618 372.89 L
cp
f
GR
GS
[0.75 0 0 0.75 0 0] CT
0 0 0.8 RC
N
329.974 374 M
330.845 374 L
330.845 352.443 L
329.974 352.443 L
cp
f
GR
GS
[0.75 0 0 0.75 0 0] CT
0 0 0.8 RC
N
334.329 374 M
335.2 374 L
335.2 363.344 L
334.329 363.344 L
cp
f
GR
GS
[0.75 0 0 0.75 0 0] CT
0 0 0.8 RC
N
338.685 374 M
339.556 374 L
339.556 365.726 L
338.685 365.726 L
cp
f
GR
GS
[0.75 0 0 0.75 0 0] CT
0 0 0.8 RC
N
343.04 374 M
343.911 374 L
343.911 370.589 L
343.04 370.589 L
cp
f
GR
GS
[0.75 0 0 0.75 0 0] CT
0 0 0.8 RC
N
347.396 374 M
348.267 374 L
348.267 357.257 L
347.396 357.257 L
cp
f
GR
GS
[0.75 0 0 0.75 0 0] CT
0 0 0.8 RC
N
351.751 374 M
352.622 374 L
352.622 360.243 L
351.751 360.243 L
cp
f
GR
GS
[0.75 0 0 0.75 0 0] CT
0 0 0.8 RC
N
356.107 374 M
356.978 374 L
356.978 341.761 L
356.107 341.761 L
cp
f
GR
GS
[0.75 0 0 0.75 0 0] CT
0 0 0.8 RC
N
360.462 374 M
361.333 374 L
361.333 368.654 L
360.462 368.654 L
cp
f
GR
GS
[0.75 0 0 0.75 0 0] CT
0 0 0.8 RC
N
364.818 374 M
365.689 374 L
365.689 368.705 L
364.818 368.705 L
cp
f
GR
GS
[0.75 0 0 0.75 0 0] CT
0 0 0.8 RC
N
369.173 374 M
370.044 374 L
370.044 343.35 L
369.173 343.35 L
cp
f
GR
GS
[0.75 0 0 0.75 0 0] CT
0 0 0.8 RC
N
373.529 374 M
374.4 374 L
374.4 369.86 L
373.529 369.86 L
cp
f
GR
GS
[0.75 0 0 0.75 0 0] CT
0 0 0.8 RC
N
377.884 374 M
378.755 374 L
378.755 370.746 L
377.884 370.746 L
cp
f
GR
GS
[0.75 0 0 0.75 0 0] CT
0 0 0.8 RC
N
382.24 374 M
383.111 374 L
383.111 354.995 L
382.24 354.995 L
cp
f
GR
GS
[0.75 0 0 0.75 0 0] CT
0 0 0.8 RC
N
386.595 374 M
387.466 374 L
387.466 359.677 L
386.595 359.677 L
cp
f
GR
GS
[0.75 0 0 0.75 0 0] CT
0 0 0.8 RC
N
390.951 374 M
391.822 374 L
391.822 344.024 L
390.951 344.024 L
cp
f
GR
GS
[0.75 0 0 0.75 0 0] CT
0 0 0.8 RC
N
395.306 374 M
396.177 374 L
396.177 368.475 L
395.306 368.475 L
cp
f
GR
GS
[0.75 0 0 0.75 0 0] CT
0 0 0.8 RC
N
399.661 374 M
400.533 374 L
400.533 346.549 L
399.661 346.549 L
cp
f
GR
GS
[0.75 0 0 0.75 0 0] CT
0 0 0.8 RC
N
404.017 374 M
404.888 374 L
404.888 371.314 L
404.017 371.314 L
cp
f
GR
GS
[0.75 0 0 0.75 0 0] CT
0 0 0.8 RC
N
408.372 374 M
409.244 374 L
409.244 341.323 L
408.372 341.323 L
cp
f
GR
GS
[0.75 0 0 0.75 0 0] CT
0 0 0.8 RC
N
412.728 374 M
413.599 374 L
413.599 372.13 L
412.728 372.13 L
cp
f
GR
GS
[0.75 0 0 0.75 0 0] CT
0 0 0.8 RC
N
417.083 374 M
417.954 374 L
417.954 359.539 L
417.083 359.539 L
cp
f
GR
GS
[0.75 0 0 0.75 0 0] CT
0 0 0.8 RC
N
421.439 374 M
422.31 374 L
422.31 370.878 L
421.439 370.878 L
cp
f
GR
GS
[0.75 0 0 0.75 0 0] CT
0 0 0.8 RC
N
425.794 374 M
426.665 374 L
426.665 353.116 L
425.794 353.116 L
cp
f
GR
GS
[0.75 0 0 0.75 0 0] CT
0 0 0.8 RC
N
430.15 374 M
431.021 374 L
431.021 353.627 L
430.15 353.627 L
cp
f
GR
GS
[0.75 0 0 0.75 0 0] CT
0 0 0.8 RC
N
434.505 374 M
435.376 374 L
435.376 370.088 L
434.505 370.088 L
cp
f
GR
GS
[0.75 0 0 0.75 0 0] CT
0 0 0.8 RC
N
438.861 374 M
439.732 374 L
439.732 370.345 L
438.861 370.345 L
cp
f
GR
GS
[0.75 0 0 0.75 0 0] CT
0 0 0.8 RC
N
443.216 374 M
444.087 374 L
444.087 368.577 L
443.216 368.577 L
cp
f
GR
GS
[0.75 0 0 0.75 0 0] CT
0 0 0.8 RC
N
447.572 374 M
448.443 374 L
448.443 352.977 L
447.572 352.977 L
cp
f
GR
GS
[0.75 0 0 0.75 0 0] CT
0 0 0.8 RC
N
451.927 374 M
452.798 374 L
452.798 354.185 L
451.927 354.185 L
cp
f
GR
GS
[0.75 0 0 0.75 0 0] CT
0 0 0.8 RC
N
456.283 374 M
457.154 374 L
457.154 371.227 L
456.283 371.227 L
cp
f
GR
GS
[0.75 0 0 0.75 0 0] CT
0 0 0.8 RC
N
460.638 374 M
461.509 374 L
461.509 344.257 L
460.638 344.257 L
cp
f
GR
GS
[0.75 0 0 0.75 0 0] CT
0 0 0.8 RC
N
464.994 374 M
465.865 374 L
465.865 350.725 L
464.994 350.725 L
cp
f
GR
GS
[0.75 0 0 0.75 0 0] CT
0 0 0.8 RC
N
469.349 374 M
470.22 374 L
470.22 369.035 L
469.349 369.035 L
cp
f
GR
GS
[0.75 0 0 0.75 0 0] CT
0 0 0.8 RC
N
473.705 374 M
474.576 374 L
474.576 346.23 L
473.705 346.23 L
cp
f
GR
GS
[0.75 0 0 0.75 0 0] CT
0 0 0.8 RC
N
478.06 374 M
478.931 374 L
478.931 371.485 L
478.06 371.485 L
cp
f
GR
GS
[0.75 0 0 0.75 0 0] CT
0 0 0.8 RC
N
482.416 374 M
483.287 374 L
483.287 372.377 L
482.416 372.377 L
cp
f
GR
GS
[0.75 0 0 0.75 0 0] CT
0 0 0.8 RC
N
486.771 374 M
487.642 374 L
487.642 360.501 L
486.771 360.501 L
cp
f
GR
GS
[0.75 0 0 0.75 0 0] CT
0 0 0.8 RC
N
491.127 374 M
491.998 374 L
491.998 349.685 L
491.127 349.685 L
cp
f
GR
GS
[0.75 0 0 0.75 0 0] CT
0 0 0.8 RC
N
495.482 374 M
496.353 374 L
496.353 370.531 L
495.482 370.531 L
cp
f
GR
GS
[0.75 0 0 0.75 0 0] CT
0 0 0.8 RC
N
499.838 374 M
500.709 374 L
500.709 373.458 L
499.838 373.458 L
cp
f
GR
GS
[0.75 0 0 0.75 0 0] CT
0 0 0.8 RC
N
504.193 374 M
505.064 374 L
505.064 372.714 L
504.193 372.714 L
cp
f
GR
GS
[0.75 0 0 0.75 0 0] CT
0.8 0 0 RC
N
73.968 374 M
74.839 374 L
74.839 357.882 L
73.968 357.882 L
cp
f
GR
GS
[0.75 0 0 0.75 0 0] CT
0.8 0 0 RC
N
78.323 374 M
79.194 374 L
79.194 356.504 L
78.323 356.504 L
cp
f
GR
GS
[0.75 0 0 0.75 0 0] CT
0.8 0 0 RC
N
82.679 374 M
83.55 374 L
83.55 369.007 L
82.679 369.007 L
cp
f
GR
GS
[0.75 0 0 0.75 0 0] CT
0.8 0 0 RC
N
87.034 374 M
87.905 374 L
87.905 372.66 L
87.034 372.66 L
cp
f
GR
GS
[0.75 0 0 0.75 0 0] CT
0.8 0 0 RC
N
91.39 374 M
92.261 374 L
92.261 355.421 L
91.39 355.421 L
cp
f
GR
GS
[0.75 0 0 0.75 0 0] CT
0.8 0 0 RC
N
95.745 374 M
96.616 374 L
96.616 362.87 L
95.745 362.87 L
cp
f
GR
GS
[0.75 0 0 0.75 0 0] CT
0.8 0 0 RC
N
100.101 374 M
100.972 374 L
100.972 369.642 L
100.101 369.642 L
cp
f
GR
GS
[0.75 0 0 0.75 0 0] CT
0.8 0 0 RC
N
104.456 374 M
105.327 374 L
105.327 361.976 L
104.456 361.976 L
cp
f
GR
GS
[0.75 0 0 0.75 0 0] CT
0.8 0 0 RC
N
108.812 374 M
109.683 374 L
109.683 369.305 L
108.812 369.305 L
cp
f
GR
GS
[0.75 0 0 0.75 0 0] CT
0.8 0 0 RC
N
113.167 374 M
114.038 374 L
114.038 365.147 L
113.167 365.147 L
cp
f
GR
GS
[0.75 0 0 0.75 0 0] CT
0.8 0 0 RC
N
117.523 374 M
118.394 374 L
118.394 368.134 L
117.523 368.134 L
cp
f
GR
GS
[0.75 0 0 0.75 0 0] CT
0.8 0 0 RC
N
121.878 374 M
122.749 374 L
122.749 365.763 L
121.878 365.763 L
cp
f
GR
GS
[0.75 0 0 0.75 0 0] CT
0.8 0 0 RC
N
126.234 374 M
127.105 374 L
127.105 359.936 L
126.234 359.936 L
cp
f
GR
GS
[0.75 0 0 0.75 0 0] CT
0.8 0 0 RC
N
130.589 374 M
131.46 374 L
131.46 365.405 L
130.589 365.405 L
cp
f
GR
GS
[0.75 0 0 0.75 0 0] CT
0.8 0 0 RC
N
134.945 374 M
135.816 374 L
135.816 368.065 L
134.945 368.065 L
cp
f
GR
GS
[0.75 0 0 0.75 0 0] CT
0.8 0 0 RC
N
139.3 374 M
140.171 374 L
140.171 365.898 L
139.3 365.898 L
cp
f
GR
GS
[0.75 0 0 0.75 0 0] CT
0.8 0 0 RC
N
143.656 374 M
144.527 374 L
144.527 356.572 L
143.656 356.572 L
cp
f
GR
GS
[0.75 0 0 0.75 0 0] CT
0.8 0 0 RC
N
148.011 374 M
148.882 374 L
148.882 368.142 L
148.011 368.142 L
cp
f
GR
GS
[0.75 0 0 0.75 0 0] CT
0.8 0 0 RC
N
152.367 374 M
153.238 374 L
153.238 368.301 L
152.367 368.301 L
cp
f
GR
GS
[0.75 0 0 0.75 0 0] CT
0.8 0 0 RC
N
156.722 374 M
157.593 374 L
157.593 352.52 L
156.722 352.52 L
cp
f
GR
GS
[0.75 0 0 0.75 0 0] CT
0.8 0 0 RC
N
161.078 374 M
161.949 374 L
161.949 358.754 L
161.078 358.754 L
cp
f
GR
GS
[0.75 0 0 0.75 0 0] CT
0.8 0 0 RC
N
165.433 374 M
166.304 374 L
166.304 366.392 L
165.433 366.392 L
cp
f
GR
GS
[0.75 0 0 0.75 0 0] CT
0.8 0 0 RC
N
169.789 374 M
170.66 374 L
170.66 368.224 L
169.789 368.224 L
cp
f
GR
GS
[0.75 0 0 0.75 0 0] CT
0.8 0 0 RC
N
174.144 374 M
175.015 374 L
175.015 369.9 L
174.144 369.9 L
cp
f
GR
GS
[0.75 0 0 0.75 0 0] CT
0.8 0 0 RC
N
178.5 374 M
179.371 374 L
179.371 362.28 L
178.5 362.28 L
cp
f
GR
GS
[0.75 0 0 0.75 0 0] CT
0.8 0 0 RC
N
182.855 374 M
183.726 374 L
183.726 368.587 L
182.855 368.587 L
cp
f
GR
GS
[0.75 0 0 0.75 0 0] CT
0.8 0 0 RC
N
187.211 374 M
188.082 374 L
188.082 366.306 L
187.211 366.306 L
cp
f
GR
GS
[0.75 0 0 0.75 0 0] CT
0.8 0 0 RC
N
191.566 374 M
192.437 374 L
192.437 369.272 L
191.566 369.272 L
cp
f
GR
GS
[0.75 0 0 0.75 0 0] CT
0.8 0 0 RC
N
195.921 374 M
196.793 374 L
196.793 350.572 L
195.921 350.572 L
cp
f
GR
GS
[0.75 0 0 0.75 0 0] CT
0.8 0 0 RC
N
200.277 374 M
201.148 374 L
201.148 369.247 L
200.277 369.247 L
cp
f
GR
GS
[0.75 0 0 0.75 0 0] CT
0.8 0 0 RC
N
204.632 374 M
205.504 374 L
205.504 363.735 L
204.632 363.735 L
cp
f
GR
GS
[0.75 0 0 0.75 0 0] CT
0.8 0 0 RC
N
208.988 374 M
209.859 374 L
209.859 368.751 L
208.988 368.751 L
cp
f
GR
GS
[0.75 0 0 0.75 0 0] CT
0.8 0 0 RC
N
213.343 374 M
214.215 374 L
214.215 345.596 L
213.343 345.596 L
cp
f
GR
GS
[0.75 0 0 0.75 0 0] CT
0.8 0 0 RC
N
217.699 374 M
218.57 374 L
218.57 345.816 L
217.699 345.816 L
cp
f
GR
GS
[0.75 0 0 0.75 0 0] CT
0.8 0 0 RC
N
222.054 374 M
222.926 374 L
222.926 365.76 L
222.054 365.76 L
cp
f
GR
GS
[0.75 0 0 0.75 0 0] CT
0.8 0 0 RC
N
226.41 374 M
227.281 374 L
227.281 367.133 L
226.41 367.133 L
cp
f
GR
GS
[0.75 0 0 0.75 0 0] CT
0.8 0 0 RC
N
230.765 374 M
231.636 374 L
231.636 365.428 L
230.765 365.428 L
cp
f
GR
GS
[0.75 0 0 0.75 0 0] CT
0.8 0 0 RC
N
235.121 374 M
235.992 374 L
235.992 364.046 L
235.121 364.046 L
cp
f
GR
GS
[0.75 0 0 0.75 0 0] CT
0.8 0 0 RC
N
239.476 374 M
240.347 374 L
240.347 344.339 L
239.476 344.339 L
cp
f
GR
GS
[0.75 0 0 0.75 0 0] CT
0.8 0 0 RC
N
243.832 374 M
244.703 374 L
244.703 366.605 L
243.832 366.605 L
cp
f
GR
GS
[0.75 0 0 0.75 0 0] CT
0.8 0 0 RC
N
248.187 374 M
249.058 374 L
249.058 367.876 L
248.187 367.876 L
cp
f
GR
GS
[0.75 0 0 0.75 0 0] CT
0.8 0 0 RC
N
252.543 374 M
253.414 374 L
253.414 365.106 L
252.543 365.106 L
cp
f
GR
GS
[0.75 0 0 0.75 0 0] CT
0.8 0 0 RC
N
256.898 374 M
257.769 374 L
257.769 350.842 L
256.898 350.842 L
cp
f
GR
GS
[0.75 0 0 0.75 0 0] CT
0.8 0 0 RC
N
261.254 374 M
262.125 374 L
262.125 337.097 L
261.254 337.097 L
cp
f
GR
GS
[0.75 0 0 0.75 0 0] CT
0.8 0 0 RC
N
265.609 374 M
266.48 374 L
266.48 346.437 L
265.609 346.437 L
cp
f
GR
GS
[0.75 0 0 0.75 0 0] CT
0.8 0 0 RC
N
269.965 374 M
270.836 374 L
270.836 353.083 L
269.965 353.083 L
cp
f
GR
GS
[0.75 0 0 0.75 0 0] CT
0.8 0 0 RC
N
274.32 374 M
275.191 374 L
275.191 349.483 L
274.32 349.483 L
cp
f
GR
GS
[0.75 0 0 0.75 0 0] CT
0.8 0 0 RC
N
278.676 374 M
279.547 374 L
279.547 365.244 L
278.676 365.244 L
cp
f
GR
GS
[0.75 0 0 0.75 0 0] CT
0.8 0 0 RC
N
283.031 374 M
283.902 374 L
283.902 358.12 L
283.031 358.12 L
cp
f
GR
GS
[0.75 0 0 0.75 0 0] CT
0.8 0 0 RC
N
287.387 374 M
288.258 374 L
288.258 359.013 L
287.387 359.013 L
cp
f
GR
GS
[0.75 0 0 0.75 0 0] CT
0.8 0 0 RC
N
291.742 374 M
292.613 374 L
292.613 283.919 L
291.742 283.919 L
cp
f
GR
GS
[0.75 0 0 0.75 0 0] CT
0.8 0 0 RC
N
296.098 374 M
296.969 374 L
296.969 331.678 L
296.098 331.678 L
cp
f
GR
GS
[0.75 0 0 0.75 0 0] CT
0.8 0 0 RC
N
300.453 374 M
301.324 374 L
301.324 341.556 L
300.453 341.556 L
cp
f
GR
GS
[0.75 0 0 0.75 0 0] CT
0.8 0 0 RC
N
304.809 374 M
305.68 374 L
305.68 359.883 L
304.809 359.883 L
cp
f
GR
GS
[0.75 0 0 0.75 0 0] CT
0.8 0 0 RC
N
309.164 374 M
310.035 374 L
310.035 332.806 L
309.164 332.806 L
cp
f
GR
GS
[0.75 0 0 0.75 0 0] CT
0.8 0 0 RC
N
313.52 374 M
314.391 374 L
314.391 350.564 L
313.52 350.564 L
cp
f
GR
GS
[0.75 0 0 0.75 0 0] CT
0.8 0 0 RC
N
317.875 374 M
318.746 374 L
318.746 363.086 L
317.875 363.086 L
cp
f
GR
GS
[0.75 0 0 0.75 0 0] CT
0.8 0 0 RC
N
322.231 374 M
323.102 374 L
323.102 357.687 L
322.231 357.687 L
cp
f
GR
GS
[0.75 0 0 0.75 0 0] CT
0.8 0 0 RC
N
326.586 374 M
327.457 374 L
327.457 353.747 L
326.586 353.747 L
cp
f
GR
GS
[0.75 0 0 0.75 0 0] CT
0.8 0 0 RC
N
330.942 374 M
331.813 374 L
331.813 362.617 L
330.942 362.617 L
cp
f
GR
GS
[0.75 0 0 0.75 0 0] CT
0.8 0 0 RC
N
335.297 374 M
336.168 374 L
336.168 359.606 L
335.297 359.606 L
cp
f
GR
GS
[0.75 0 0 0.75 0 0] CT
0.8 0 0 RC
N
339.653 374 M
340.524 374 L
340.524 360.609 L
339.653 360.609 L
cp
f
GR
GS
[0.75 0 0 0.75 0 0] CT
0.8 0 0 RC
N
344.008 374 M
344.879 374 L
344.879 360.102 L
344.008 360.102 L
cp
f
GR
GS
[0.75 0 0 0.75 0 0] CT
0.8 0 0 RC
N
348.364 374 M
349.235 374 L
349.235 361.832 L
348.364 361.832 L
cp
f
GR
GS
[0.75 0 0 0.75 0 0] CT
0.8 0 0 RC
N
352.719 374 M
353.59 374 L
353.59 359.662 L
352.719 359.662 L
cp
f
GR
GS
[0.75 0 0 0.75 0 0] CT
0.8 0 0 RC
N
357.074 374 M
357.946 374 L
357.946 368.341 L
357.074 368.341 L
cp
f
GR
GS
[0.75 0 0 0.75 0 0] CT
0.8 0 0 RC
N
361.43 374 M
362.301 374 L
362.301 358.083 L
361.43 358.083 L
cp
f
GR
GS
[0.75 0 0 0.75 0 0] CT
0.8 0 0 RC
N
365.785 374 M
366.657 374 L
366.657 372.878 L
365.785 372.878 L
cp
f
GR
GS
[0.75 0 0 0.75 0 0] CT
0.8 0 0 RC
N
370.141 374 M
371.012 374 L
371.012 368.903 L
370.141 368.903 L
cp
f
GR
GS
[0.75 0 0 0.75 0 0] CT
0.8 0 0 RC
N
374.496 374 M
375.368 374 L
375.368 345.855 L
374.496 345.855 L
cp
f
GR
GS
[0.75 0 0 0.75 0 0] CT
0.8 0 0 RC
N
378.852 374 M
379.723 374 L
379.723 361.939 L
378.852 361.939 L
cp
f
GR
GS
[0.75 0 0 0.75 0 0] CT
0.8 0 0 RC
N
383.207 374 M
384.078 374 L
384.078 357.254 L
383.207 357.254 L
cp
f
GR
GS
[0.75 0 0 0.75 0 0] CT
0.8 0 0 RC
N
387.563 374 M
388.434 374 L
388.434 366.143 L
387.563 366.143 L
cp
f
GR
GS
[0.75 0 0 0.75 0 0] CT
0.8 0 0 RC
N
391.918 374 M
392.789 374 L
392.789 366.371 L
391.918 366.371 L
cp
f
GR
GS
[0.75 0 0 0.75 0 0] CT
0.8 0 0 RC
N
396.274 374 M
397.145 374 L
397.145 367.222 L
396.274 367.222 L
cp
f
GR
GS
[0.75 0 0 0.75 0 0] CT
0.8 0 0 RC
N
400.629 374 M
401.5 374 L
401.5 368.967 L
400.629 368.967 L
cp
f
GR
GS
[0.75 0 0 0.75 0 0] CT
0.8 0 0 RC
N
404.985 374 M
405.856 374 L
405.856 336.556 L
404.985 336.556 L
cp
f
GR
GS
[0.75 0 0 0.75 0 0] CT
0.8 0 0 RC
N
409.34 374 M
410.211 374 L
410.211 369.108 L
409.34 369.108 L
cp
f
GR
GS
[0.75 0 0 0.75 0 0] CT
0.8 0 0 RC
N
413.696 374 M
414.567 374 L
414.567 356.986 L
413.696 356.986 L
cp
f
GR
GS
[0.75 0 0 0.75 0 0] CT
0.8 0 0 RC
N
418.051 374 M
418.922 374 L
418.922 361.675 L
418.051 361.675 L
cp
f
GR
GS
[0.75 0 0 0.75 0 0] CT
0.8 0 0 RC
N
422.407 374 M
423.278 374 L
423.278 351.518 L
422.407 351.518 L
cp
f
GR
GS
[0.75 0 0 0.75 0 0] CT
0.8 0 0 RC
N
426.762 374 M
427.633 374 L
427.633 369.396 L
426.762 369.396 L
cp
f
GR
GS
[0.75 0 0 0.75 0 0] CT
0.8 0 0 RC
N
431.118 374 M
431.989 374 L
431.989 363.827 L
431.118 363.827 L
cp
f
GR
GS
[0.75 0 0 0.75 0 0] CT
0.8 0 0 RC
N
435.473 374 M
436.344 374 L
436.344 366.194 L
435.473 366.194 L
cp
f
GR
GS
[0.75 0 0 0.75 0 0] CT
0.8 0 0 RC
N
439.829 374 M
440.7 374 L
440.7 361.33 L
439.829 361.33 L
cp
f
GR
GS
[0.75 0 0 0.75 0 0] CT
0.8 0 0 RC
N
444.184 374 M
445.055 374 L
445.055 373.062 L
444.184 373.062 L
cp
f
GR
GS
[0.75 0 0 0.75 0 0] CT
0.8 0 0 RC
N
448.54 374 M
449.411 374 L
449.411 367.828 L
448.54 367.828 L
cp
f
GR
GS
[0.75 0 0 0.75 0 0] CT
0.8 0 0 RC
N
452.895 374 M
453.766 374 L
453.766 359.023 L
452.895 359.023 L
cp
f
GR
GS
[0.75 0 0 0.75 0 0] CT
0.8 0 0 RC
N
457.251 374 M
458.122 374 L
458.122 357.711 L
457.251 357.711 L
cp
f
GR
GS
[0.75 0 0 0.75 0 0] CT
0.8 0 0 RC
N
461.606 374 M
462.477 374 L
462.477 367.145 L
461.606 367.145 L
cp
f
GR
GS
[0.75 0 0 0.75 0 0] CT
0.8 0 0 RC
N
465.962 374 M
466.833 374 L
466.833 369.964 L
465.962 369.964 L
cp
f
GR
GS
[0.75 0 0 0.75 0 0] CT
0.8 0 0 RC
N
470.317 374 M
471.188 374 L
471.188 349.413 L
470.317 349.413 L
cp
f
GR
GS
[0.75 0 0 0.75 0 0] CT
0.8 0 0 RC
N
474.673 374 M
475.544 374 L
475.544 368.807 L
474.673 368.807 L
cp
f
GR
GS
[0.75 0 0 0.75 0 0] CT
0.8 0 0 RC
N
479.028 374 M
479.899 374 L
479.899 364.059 L
479.028 364.059 L
cp
f
GR
GS
[0.75 0 0 0.75 0 0] CT
0.8 0 0 RC
N
483.384 374 M
484.255 374 L
484.255 360.782 L
483.384 360.782 L
cp
f
GR
GS
[0.75 0 0 0.75 0 0] CT
0.8 0 0 RC
N
487.739 374 M
488.61 374 L
488.61 359.229 L
487.739 359.229 L
cp
f
GR
GS
[0.75 0 0 0.75 0 0] CT
0.8 0 0 RC
N
492.095 374 M
492.966 374 L
492.966 368.646 L
492.095 368.646 L
cp
f
GR
GS
[0.75 0 0 0.75 0 0] CT
0.8 0 0 RC
N
496.45 374 M
497.321 374 L
497.321 372.624 L
496.45 372.624 L
cp
f
GR
GS
[0.75 0 0 0.75 0 0] CT
0.8 0 0 RC
N
500.806 374 M
501.677 374 L
501.677 367.693 L
500.806 367.693 L
cp
f
GR
GS
[0.75 0 0 0.75 0 0] CT
0.8 0 0 RC
N
505.161 374 M
506.032 374 L
506.032 365.918 L
505.161 365.918 L
cp
f
GR
GS
[0.75 0 0 0.75 0 0] CT
0 0.8 0 RC
N
74.936 374 M
75.807 374 L
75.807 372.736 L
74.936 372.736 L
cp
f
GR
GS
[0.75 0 0 0.75 0 0] CT
0 0.8 0 RC
N
79.291 374 M
80.162 374 L
80.162 350.772 L
79.291 350.772 L
cp
f
GR
GS
[0.75 0 0 0.75 0 0] CT
0 0.8 0 RC
N
83.647 374 M
84.518 374 L
84.518 373.732 L
83.647 373.732 L
cp
f
GR
GS
[0.75 0 0 0.75 0 0] CT
0 0.8 0 RC
N
88.002 374 M
88.873 374 L
88.873 373.968 L
88.002 373.968 L
cp
f
GR
GS
[0.75 0 0 0.75 0 0] CT
0 0.8 0 RC
N
92.358 374 M
93.229 374 L
93.229 371.067 L
92.358 371.067 L
cp
f
GR
GS
[0.75 0 0 0.75 0 0] CT
0 0.8 0 RC
N
96.713 374 M
97.584 374 L
97.584 367.816 L
96.713 367.816 L
cp
f
GR
GS
[0.75 0 0 0.75 0 0] CT
0 0.8 0 RC
N
101.069 374 M
101.94 374 L
101.94 373.928 L
101.069 373.928 L
cp
f
GR
GS
[0.75 0 0 0.75 0 0] CT
0 0.8 0 RC
N
105.424 374 M
106.295 374 L
106.295 373.272 L
105.424 373.272 L
cp
f
GR
GS
[0.75 0 0 0.75 0 0] CT
0 0.8 0 RC
N
109.78 374 M
110.651 374 L
110.651 373.903 L
109.78 373.903 L
cp
f
GR
GS
[0.75 0 0 0.75 0 0] CT
0 0.8 0 RC
N
114.135 374 M
115.006 374 L
115.006 371.426 L
114.135 371.426 L
cp
f
GR
GS
[0.75 0 0 0.75 0 0] CT
0 0.8 0 RC
N
118.491 374 M
119.362 374 L
119.362 344.116 L
118.491 344.116 L
cp
f
GR
GS
[0.75 0 0 0.75 0 0] CT
0 0.8 0 RC
N
122.846 374 M
123.717 374 L
123.717 371.89 L
122.846 371.89 L
cp
f
GR
GS
[0.75 0 0 0.75 0 0] CT
0 0.8 0 RC
N
127.202 374 M
128.073 374 L
128.073 372.415 L
127.202 372.415 L
cp
f
GR
GS
[0.75 0 0 0.75 0 0] CT
0 0.8 0 RC
N
131.557 374 M
132.428 374 L
132.428 285.221 L
131.557 285.221 L
cp
f
GR
GS
[0.75 0 0 0.75 0 0] CT
0 0.8 0 RC
N
135.913 374 M
136.784 374 L
136.784 373.93 L
135.913 373.93 L
cp
f
GR
GS
[0.75 0 0 0.75 0 0] CT
0 0.8 0 RC
N
140.268 374 M
141.139 374 L
141.139 373.692 L
140.268 373.692 L
cp
f
GR
GS
[0.75 0 0 0.75 0 0] CT
0 0.8 0 RC
N
144.624 374 M
145.495 374 L
145.495 363.199 L
144.624 363.199 L
cp
f
GR
GS
[0.75 0 0 0.75 0 0] CT
0 0.8 0 RC
N
148.979 374 M
149.85 374 L
149.85 373.876 L
148.979 373.876 L
cp
f
GR
GS
[0.75 0 0 0.75 0 0] CT
0 0.8 0 RC
N
153.335 374 M
154.206 374 L
154.206 373.842 L
153.335 373.842 L
cp
f
GR
GS
[0.75 0 0 0.75 0 0] CT
0 0.8 0 RC
N
157.69 374 M
158.561 374 L
158.561 315.051 L
157.69 315.051 L
cp
f
GR
GS
[0.75 0 0 0.75 0 0] CT
0 0.8 0 RC
N
162.046 374 M
162.917 374 L
162.917 353.34 L
162.046 353.34 L
cp
f
GR
GS
[0.75 0 0 0.75 0 0] CT
0 0.8 0 RC
N
166.401 374 M
167.272 374 L
167.272 373.562 L
166.401 373.562 L
cp
f
GR
GS
[0.75 0 0 0.75 0 0] CT
0 0.8 0 RC
N
170.756 374 M
171.628 374 L
171.628 373.88 L
170.756 373.88 L
cp
f
GR
GS
[0.75 0 0 0.75 0 0] CT
0 0.8 0 RC
N
175.112 374 M
175.983 374 L
175.983 367.917 L
175.112 367.917 L
cp
f
GR
GS
[0.75 0 0 0.75 0 0] CT
0 0.8 0 RC
N
179.467 374 M
180.339 374 L
180.339 367.09 L
179.467 367.09 L
cp
f
GR
GS
[0.75 0 0 0.75 0 0] CT
0 0.8 0 RC
N
183.823 374 M
184.694 374 L
184.694 373.73 L
183.823 373.73 L
cp
f
GR
GS
[0.75 0 0 0.75 0 0] CT
0 0.8 0 RC
N
188.178 374 M
189.05 374 L
189.05 373.781 L
188.178 373.781 L
cp
f
GR
GS
[0.75 0 0 0.75 0 0] CT
0 0.8 0 RC
N
192.534 374 M
193.405 374 L
193.405 373.903 L
192.534 373.903 L
cp
f
GR
GS
[0.75 0 0 0.75 0 0] CT
0 0.8 0 RC
N
196.889 374 M
197.76 374 L
197.76 371.011 L
196.889 371.011 L
cp
f
GR
GS
[0.75 0 0 0.75 0 0] CT
0 0.8 0 RC
N
201.245 374 M
202.116 374 L
202.116 373.916 L
201.245 373.916 L
cp
f
GR
GS
[0.75 0 0 0.75 0 0] CT
0 0.8 0 RC
N
205.6 374 M
206.471 374 L
206.471 370.903 L
205.6 370.903 L
cp
f
GR
GS
[0.75 0 0 0.75 0 0] CT
0 0.8 0 RC
N
209.956 374 M
210.827 374 L
210.827 373.854 L
209.956 373.854 L
cp
f
GR
GS
[0.75 0 0 0.75 0 0] CT
0 0.8 0 RC
N
214.311 374 M
215.182 374 L
215.182 350.951 L
214.311 350.951 L
cp
f
GR
GS
[0.75 0 0 0.75 0 0] CT
0 0.8 0 RC
N
218.667 374 M
219.538 374 L
219.538 366.934 L
218.667 366.934 L
cp
f
GR
GS
[0.75 0 0 0.75 0 0] CT
0 0.8 0 RC
N
223.022 374 M
223.893 374 L
223.893 373.545 L
223.022 373.545 L
cp
f
GR
GS
[0.75 0 0 0.75 0 0] CT
0 0.8 0 RC
N
227.378 374 M
228.249 374 L
228.249 373.858 L
227.378 373.858 L
cp
f
GR
GS
[0.75 0 0 0.75 0 0] CT
0 0.8 0 RC
N
231.733 374 M
232.604 374 L
232.604 373.835 L
231.733 373.835 L
cp
f
GR
GS
[0.75 0 0 0.75 0 0] CT
0 0.8 0 RC
N
236.089 374 M
236.96 374 L
236.96 297.725 L
236.089 297.725 L
cp
f
GR
GS
[0.75 0 0 0.75 0 0] CT
0 0.8 0 RC
N
240.444 374 M
241.315 374 L
241.315 299.839 L
240.444 299.839 L
cp
f
GR
GS
[0.75 0 0 0.75 0 0] CT
0 0.8 0 RC
N
244.8 374 M
245.671 374 L
245.671 373.913 L
244.8 373.913 L
cp
f
GR
GS
[0.75 0 0 0.75 0 0] CT
0 0.8 0 RC
N
249.155 374 M
250.026 374 L
250.026 373.823 L
249.155 373.823 L
cp
f
GR
GS
[0.75 0 0 0.75 0 0] CT
0 0.8 0 RC
N
253.511 374 M
254.382 374 L
254.382 373.562 L
253.511 373.562 L
cp
f
GR
GS
[0.75 0 0 0.75 0 0] CT
0 0.8 0 RC
N
257.866 374 M
258.737 374 L
258.737 373.853 L
257.866 373.853 L
cp
f
GR
GS
[0.75 0 0 0.75 0 0] CT
0 0.8 0 RC
N
262.222 374 M
263.093 374 L
263.093 369.24 L
262.222 369.24 L
cp
f
GR
GS
[0.75 0 0 0.75 0 0] CT
0 0.8 0 RC
N
266.577 374 M
267.448 374 L
267.448 370.215 L
266.577 370.215 L
cp
f
GR
GS
[0.75 0 0 0.75 0 0] CT
0 0.8 0 RC
N
270.933 374 M
271.804 374 L
271.804 371.937 L
270.933 371.937 L
cp
f
GR
GS
[0.75 0 0 0.75 0 0] CT
0 0.8 0 RC
N
275.288 374 M
276.159 374 L
276.159 372.982 L
275.288 372.982 L
cp
f
GR
GS
[0.75 0 0 0.75 0 0] CT
0 0.8 0 RC
N
279.644 374 M
280.515 374 L
280.515 373.832 L
279.644 373.832 L
cp
f
GR
GS
[0.75 0 0 0.75 0 0] CT
0 0.8 0 RC
N
283.999 374 M
284.87 374 L
284.87 370.05 L
283.999 370.05 L
cp
f
GR
GS
[0.75 0 0 0.75 0 0] CT
0 0.8 0 RC
N
288.355 374 M
289.226 374 L
289.226 322.82 L
288.355 322.82 L
cp
f
GR
GS
[0.75 0 0 0.75 0 0] CT
0 0.8 0 RC
N
292.71 374 M
293.581 374 L
293.581 80.455 L
292.71 80.455 L
cp
f
GR
GS
[0.75 0 0 0.75 0 0] CT
0 0.8 0 RC
N
297.066 374 M
297.937 374 L
297.937 369.556 L
297.066 369.556 L
cp
f
GR
GS
[0.75 0 0 0.75 0 0] CT
0 0.8 0 RC
N
301.421 374 M
302.292 374 L
302.292 370.319 L
301.421 370.319 L
cp
f
GR
GS
[0.75 0 0 0.75 0 0] CT
0 0.8 0 RC
N
305.777 374 M
306.648 374 L
306.648 373.738 L
305.777 373.738 L
cp
f
GR
GS
[0.75 0 0 0.75 0 0] CT
0 0.8 0 RC
N
310.132 374 M
311.003 374 L
311.003 249.611 L
310.132 249.611 L
cp
f
GR
GS
[0.75 0 0 0.75 0 0] CT
0 0.8 0 RC
N
314.488 374 M
315.359 374 L
315.359 370.973 L
314.488 370.973 L
cp
f
GR
GS
[0.75 0 0 0.75 0 0] CT
0 0.8 0 RC
N
318.843 374 M
319.714 374 L
319.714 373.703 L
318.843 373.703 L
cp
f
GR
GS
[0.75 0 0 0.75 0 0] CT
0 0.8 0 RC
N
323.198 374 M
324.07 374 L
324.07 367.463 L
323.198 367.463 L
cp
f
GR
GS
[0.75 0 0 0.75 0 0] CT
0 0.8 0 RC
N
327.554 374 M
328.425 374 L
328.425 292.803 L
327.554 292.803 L
cp
f
GR
GS
[0.75 0 0 0.75 0 0] CT
0 0.8 0 RC
N
331.909 374 M
332.781 374 L
332.781 373.656 L
331.909 373.656 L
cp
f
GR
GS
[0.75 0 0 0.75 0 0] CT
0 0.8 0 RC
N
336.265 374 M
337.136 374 L
337.136 372.638 L
336.265 372.638 L
cp
f
GR
GS
[0.75 0 0 0.75 0 0] CT
0 0.8 0 RC
N
340.62 374 M
341.492 374 L
341.492 369.242 L
340.62 369.242 L
cp
f
GR
GS
[0.75 0 0 0.75 0 0] CT
0 0.8 0 RC
N
344.976 374 M
345.847 374 L
345.847 365.352 L
344.976 365.352 L
cp
f
GR
GS
[0.75 0 0 0.75 0 0] CT
0 0.8 0 RC
N
349.331 374 M
350.202 374 L
350.202 372.842 L
349.331 372.842 L
cp
f
GR
GS
[0.75 0 0 0.75 0 0] CT
0 0.8 0 RC
N
353.687 374 M
354.558 374 L
354.558 372.695 L
353.687 372.695 L
cp
f
GR
GS
[0.75 0 0 0.75 0 0] CT
0 0.8 0 RC
N
358.042 374 M
358.913 374 L
358.913 373.868 L
358.042 373.868 L
cp
f
GR
GS
[0.75 0 0 0.75 0 0] CT
0 0.8 0 RC
N
362.398 374 M
363.269 374 L
363.269 368.325 L
362.398 368.325 L
cp
f
GR
GS
[0.75 0 0 0.75 0 0] CT
0 0.8 0 RC
N
366.753 374 M
367.624 374 L
367.624 373.791 L
366.753 373.791 L
cp
f
GR
GS
[0.75 0 0 0.75 0 0] CT
0 0.8 0 RC
N
371.109 374 M
371.98 374 L
371.98 373.833 L
371.109 373.833 L
cp
f
GR
GS
[0.75 0 0 0.75 0 0] CT
0 0.8 0 RC
N
375.464 374 M
376.335 374 L
376.335 372.424 L
375.464 372.424 L
cp
f
GR
GS
[0.75 0 0 0.75 0 0] CT
0 0.8 0 RC
N
379.82 374 M
380.691 374 L
380.691 365.587 L
379.82 365.587 L
cp
f
GR
GS
[0.75 0 0 0.75 0 0] CT
0 0.8 0 RC
N
384.175 374 M
385.046 374 L
385.046 373.175 L
384.175 373.175 L
cp
f
GR
GS
[0.75 0 0 0.75 0 0] CT
0 0.8 0 RC
N
388.531 374 M
389.402 374 L
389.402 373.658 L
388.531 373.658 L
cp
f
GR
GS
[0.75 0 0 0.75 0 0] CT
0 0.8 0 RC
N
392.886 374 M
393.757 374 L
393.757 373.736 L
392.886 373.736 L
cp
f
GR
GS
[0.75 0 0 0.75 0 0] CT
0 0.8 0 RC
N
397.242 374 M
398.113 374 L
398.113 372.469 L
397.242 372.469 L
cp
f
GR
GS
[0.75 0 0 0.75 0 0] CT
0 0.8 0 RC
N
401.597 374 M
402.468 374 L
402.468 373.888 L
401.597 373.888 L
cp
f
GR
GS
[0.75 0 0 0.75 0 0] CT
0 0.8 0 RC
N
405.953 374 M
406.824 374 L
406.824 350.543 L
405.953 350.543 L
cp
f
GR
GS
[0.75 0 0 0.75 0 0] CT
0 0.8 0 RC
N
410.308 374 M
411.179 374 L
411.179 373.886 L
410.308 373.886 L
cp
f
GR
GS
[0.75 0 0 0.75 0 0] CT
0 0.8 0 RC
N
414.664 374 M
415.535 374 L
415.535 356.89 L
414.664 356.89 L
cp
f
GR
GS
[0.75 0 0 0.75 0 0] CT
0 0.8 0 RC
N
419.019 374 M
419.89 374 L
419.89 372.511 L
419.019 372.511 L
cp
f
GR
GS
[0.75 0 0 0.75 0 0] CT
0 0.8 0 RC
N
423.375 374 M
424.246 374 L
424.246 366.302 L
423.375 366.302 L
cp
f
GR
GS
[0.75 0 0 0.75 0 0] CT
0 0.8 0 RC
N
427.73 374 M
428.601 374 L
428.601 373.838 L
427.73 373.838 L
cp
f
GR
GS
[0.75 0 0 0.75 0 0] CT
0 0.8 0 RC
N
432.086 374 M
432.957 374 L
432.957 373.607 L
432.086 373.607 L
cp
f
GR
GS
[0.75 0 0 0.75 0 0] CT
0 0.8 0 RC
N
436.441 374 M
437.312 374 L
437.312 368.251 L
436.441 368.251 L
cp
f
GR
GS
[0.75 0 0 0.75 0 0] CT
0 0.8 0 RC
N
440.797 374 M
441.668 374 L
441.668 368.162 L
440.797 368.162 L
cp
f
GR
GS
[0.75 0 0 0.75 0 0] CT
0 0.8 0 RC
N
445.152 374 M
446.023 374 L
446.023 373.837 L
445.152 373.837 L
cp
f
GR
GS
[0.75 0 0 0.75 0 0] CT
0 0.8 0 RC
N
449.508 374 M
450.379 374 L
450.379 373.667 L
449.508 373.667 L
cp
f
GR
GS
[0.75 0 0 0.75 0 0] CT
0 0.8 0 RC
N
453.863 374 M
454.734 374 L
454.734 373.881 L
453.863 373.881 L
cp
f
GR
GS
[0.75 0 0 0.75 0 0] CT
0 0.8 0 RC
N
458.219 374 M
459.09 374 L
459.09 348.679 L
458.219 348.679 L
cp
f
GR
GS
[0.75 0 0 0.75 0 0] CT
0 0.8 0 RC
N
462.574 374 M
463.445 374 L
463.445 373.767 L
462.574 373.767 L
cp
f
GR
GS
[0.75 0 0 0.75 0 0] CT
0 0.8 0 RC
N
466.93 374 M
467.801 374 L
467.801 373.912 L
466.93 373.912 L
cp
f
GR
GS
[0.75 0 0 0.75 0 0] CT
0 0.8 0 RC
N
471.285 374 M
472.156 374 L
472.156 366.603 L
471.285 366.603 L
cp
f
GR
GS
[0.75 0 0 0.75 0 0] CT
0 0.8 0 RC
N
475.641 374 M
476.512 374 L
476.512 373.847 L
475.641 373.847 L
cp
f
GR
GS
[0.75 0 0 0.75 0 0] CT
0 0.8 0 RC
N
479.996 374 M
480.867 374 L
480.867 368.154 L
479.996 368.154 L
cp
f
GR
GS
[0.75 0 0 0.75 0 0] CT
0 0.8 0 RC
N
484.351 374 M
485.223 374 L
485.223 356.674 L
484.351 356.674 L
cp
f
GR
GS
[0.75 0 0 0.75 0 0] CT
0 0.8 0 RC
N
488.707 374 M
489.578 374 L
489.578 372.909 L
488.707 372.909 L
cp
f
GR
GS
[0.75 0 0 0.75 0 0] CT
0 0.8 0 RC
N
493.062 374 M
493.934 374 L
493.934 373.889 L
493.062 373.889 L
cp
f
GR
GS
[0.75 0 0 0.75 0 0] CT
0 0.8 0 RC
N
497.418 374 M
498.289 374 L
498.289 373.962 L
497.418 373.962 L
cp
f
GR
GS
[0.75 0 0 0.75 0 0] CT
0 0.8 0 RC
N
501.773 374 M
502.645 374 L
502.645 233.588 L
501.773 233.588 L
cp
f
GR
GS
[0.75 0 0 0.75 0 0] CT
0 0.8 0 RC
N
506.129 374 M
507 374 L
507 337.188 L
506.129 337.188 L
cp
f
GR
%%Trailer
%%Pages: 1
%%EOF
