%!PS-Adobe-3.0 EPSF-3.0
%%Creator: (MATLAB, The Mathworks, Inc. Version 9.0.0.341360 \(R2016a\). Operating System: Windows 8)
%%Title: ../doc/thesis/figures/word_weights_group_nhop1.eps
%%CreationDate: 2016-08-24T16:53:16
%%Pages: (atend)
%%BoundingBox:    26    19   386   305
%%LanguageLevel: 3
%%EndComments
%%BeginProlog
%%BeginResource: procset (Apache XML Graphics Std ProcSet) 1.2 0
%%Version: 1.2 0
%%Copyright: (Copyright 2001-2003,2010 The Apache Software Foundation. License terms: http://www.apache.org/licenses/LICENSE-2.0)
/bd{bind def}bind def
/ld{load def}bd
/GR/grestore ld
/M/moveto ld
/LJ/setlinejoin ld
/C/curveto ld
/f/fill ld
/LW/setlinewidth ld
/GC/setgray ld
/t/show ld
/N/newpath ld
/CT/concat ld
/cp/closepath ld
/S/stroke ld
/L/lineto ld
/CC/setcmykcolor ld
/A/ashow ld
/GS/gsave ld
/RC/setrgbcolor ld
/RM/rmoveto ld
/ML/setmiterlimit ld
/re {4 2 roll M
1 index 0 rlineto
0 exch rlineto
neg 0 rlineto
cp } bd
/_ctm matrix def
/_tm matrix def
/BT { _ctm currentmatrix pop matrix _tm copy pop 0 0 moveto } bd
/ET { _ctm setmatrix } bd
/iTm { _ctm setmatrix _tm concat } bd
/Tm { _tm astore pop iTm 0 0 moveto } bd
/ux 0.0 def
/uy 0.0 def
/F {
  /Tp exch def
  /Tf exch def
  Tf findfont Tp scalefont setfont
  /cf Tf def  /cs Tp def
} bd
/ULS {currentpoint /uy exch def /ux exch def} bd
/ULE {
  /Tcx currentpoint pop def
  gsave
  newpath
  cf findfont cs scalefont dup
  /FontMatrix get 0 get /Ts exch def /FontInfo get dup
  /UnderlinePosition get Ts mul /To exch def
  /UnderlineThickness get Ts mul /Tt exch def
  ux uy To add moveto  Tcx uy To add lineto
  Tt setlinewidth stroke
  grestore
} bd
/OLE {
  /Tcx currentpoint pop def
  gsave
  newpath
  cf findfont cs scalefont dup
  /FontMatrix get 0 get /Ts exch def /FontInfo get dup
  /UnderlinePosition get Ts mul /To exch def
  /UnderlineThickness get Ts mul /Tt exch def
  ux uy To add cs add moveto Tcx uy To add cs add lineto
  Tt setlinewidth stroke
  grestore
} bd
/SOE {
  /Tcx currentpoint pop def
  gsave
  newpath
  cf findfont cs scalefont dup
  /FontMatrix get 0 get /Ts exch def /FontInfo get dup
  /UnderlinePosition get Ts mul /To exch def
  /UnderlineThickness get Ts mul /Tt exch def
  ux uy To add cs 10 mul 26 idiv add moveto Tcx uy To add cs 10 mul 26 idiv add lineto
  Tt setlinewidth stroke
  grestore
} bd
/QT {
/Y22 exch store
/X22 exch store
/Y21 exch store
/X21 exch store
currentpoint
/Y21 load 2 mul add 3 div exch
/X21 load 2 mul add 3 div exch
/X21 load 2 mul /X22 load add 3 div
/Y21 load 2 mul /Y22 load add 3 div
/X22 load /Y22 load curveto
} bd
/SSPD {
dup length /d exch dict def
{
/v exch def
/k exch def
currentpagedevice k known {
/cpdv currentpagedevice k get def
v cpdv ne {
/upd false def
/nullv v type /nulltype eq def
/nullcpdv cpdv type /nulltype eq def
nullv nullcpdv or
{
/upd true def
} {
/sametype v type cpdv type eq def
sametype {
v type /arraytype eq {
/vlen v length def
/cpdvlen cpdv length def
vlen cpdvlen eq {
0 1 vlen 1 sub {
/i exch def
/obj v i get def
/cpdobj cpdv i get def
obj cpdobj ne {
/upd true def
exit
} if
} for
} {
/upd true def
} ifelse
} {
v type /dicttype eq {
v {
/dv exch def
/dk exch def
/cpddv cpdv dk get def
dv cpddv ne {
/upd true def
exit
} if
} forall
} {
/upd true def
} ifelse
} ifelse
} if
} ifelse
upd true eq {
d k v put
} if
} if
} if
} forall
d length 0 gt {
d setpagedevice
} if
} bd
%%EndResource
%%BeginResource: procset (Apache XML Graphics EPS ProcSet) 1.0 0
%%Version: 1.0 0
%%Copyright: (Copyright 2002-2003 The Apache Software Foundation. License terms: http://www.apache.org/licenses/LICENSE-2.0)
/BeginEPSF { %def
/b4_Inc_state save def         % Save state for cleanup
/dict_count countdictstack def % Count objects on dict stack
/op_count count 1 sub def      % Count objects on operand stack
userdict begin                 % Push userdict on dict stack
/showpage { } def              % Redefine showpage, { } = null proc
0 setgray 0 setlinecap         % Prepare graphics state
1 setlinewidth 0 setlinejoin
10 setmiterlimit [ ] 0 setdash newpath
/languagelevel where           % If level not equal to 1 then
{pop languagelevel             % set strokeadjust and
1 ne                           % overprint to their defaults.
{false setstrokeadjust false setoverprint
} if
} if
} bd
/EndEPSF { %def
count op_count sub {pop} repeat            % Clean up stacks
countdictstack dict_count sub {end} repeat
b4_Inc_state restore
} bd
%%EndResource
%FOPBeginFontDict
%%IncludeResource: font Courier-Bold
%%IncludeResource: font Helvetica
%%IncludeResource: font Courier-BoldOblique
%%IncludeResource: font Courier-Oblique
%%IncludeResource: font Times-Roman
%%IncludeResource: font Helvetica-BoldOblique
%%IncludeResource: font Helvetica-Bold
%%IncludeResource: font Helvetica-Oblique
%%IncludeResource: font Times-BoldItalic
%%IncludeResource: font Courier
%%IncludeResource: font Times-Italic
%%IncludeResource: font Times-Bold
%%IncludeResource: font Symbol
%%IncludeResource: font ZapfDingbats
%FOPEndFontDict
%%BeginResource: encoding WinAnsiEncoding
/WinAnsiEncoding [
/.notdef /.notdef /.notdef /.notdef /.notdef
/.notdef /.notdef /.notdef /.notdef /.notdef
/.notdef /.notdef /.notdef /.notdef /.notdef
/.notdef /.notdef /.notdef /.notdef /.notdef
/.notdef /.notdef /.notdef /.notdef /.notdef
/.notdef /.notdef /.notdef /.notdef /.notdef
/.notdef /.notdef /space /exclam /quotedbl
/numbersign /dollar /percent /ampersand /quotesingle
/parenleft /parenright /asterisk /plus /comma
/hyphen /period /slash /zero /one
/two /three /four /five /six
/seven /eight /nine /colon /semicolon
/less /equal /greater /question /at
/A /B /C /D /E
/F /G /H /I /J
/K /L /M /N /O
/P /Q /R /S /T
/U /V /W /X /Y
/Z /bracketleft /backslash /bracketright /asciicircum
/underscore /quoteleft /a /b /c
/d /e /f /g /h
/i /j /k /l /m
/n /o /p /q /r
/s /t /u /v /w
/x /y /z /braceleft /bar
/braceright /asciitilde /bullet /Euro /bullet
/quotesinglbase /florin /quotedblbase /ellipsis /dagger
/daggerdbl /circumflex /perthousand /Scaron /guilsinglleft
/OE /bullet /Zcaron /bullet /bullet
/quoteleft /quoteright /quotedblleft /quotedblright /bullet
/endash /emdash /asciitilde /trademark /scaron
/guilsinglright /oe /bullet /zcaron /Ydieresis
/space /exclamdown /cent /sterling /currency
/yen /brokenbar /section /dieresis /copyright
/ordfeminine /guillemotleft /logicalnot /sfthyphen /registered
/macron /degree /plusminus /twosuperior /threesuperior
/acute /mu /paragraph /middot /cedilla
/onesuperior /ordmasculine /guillemotright /onequarter /onehalf
/threequarters /questiondown /Agrave /Aacute /Acircumflex
/Atilde /Adieresis /Aring /AE /Ccedilla
/Egrave /Eacute /Ecircumflex /Edieresis /Igrave
/Iacute /Icircumflex /Idieresis /Eth /Ntilde
/Ograve /Oacute /Ocircumflex /Otilde /Odieresis
/multiply /Oslash /Ugrave /Uacute /Ucircumflex
/Udieresis /Yacute /Thorn /germandbls /agrave
/aacute /acircumflex /atilde /adieresis /aring
/ae /ccedilla /egrave /eacute /ecircumflex
/edieresis /igrave /iacute /icircumflex /idieresis
/eth /ntilde /ograve /oacute /ocircumflex
/otilde /odieresis /divide /oslash /ugrave
/uacute /ucircumflex /udieresis /yacute /thorn
/ydieresis
] def
%%EndResource
%FOPBeginFontReencode
/Courier-Bold findfont
dup length dict begin
  {1 index /FID ne {def} {pop pop} ifelse} forall
  /Encoding WinAnsiEncoding def
  currentdict
end
/Courier-Bold exch definefont pop
/Helvetica findfont
dup length dict begin
  {1 index /FID ne {def} {pop pop} ifelse} forall
  /Encoding WinAnsiEncoding def
  currentdict
end
/Helvetica exch definefont pop
/Courier-BoldOblique findfont
dup length dict begin
  {1 index /FID ne {def} {pop pop} ifelse} forall
  /Encoding WinAnsiEncoding def
  currentdict
end
/Courier-BoldOblique exch definefont pop
/Courier-Oblique findfont
dup length dict begin
  {1 index /FID ne {def} {pop pop} ifelse} forall
  /Encoding WinAnsiEncoding def
  currentdict
end
/Courier-Oblique exch definefont pop
/Times-Roman findfont
dup length dict begin
  {1 index /FID ne {def} {pop pop} ifelse} forall
  /Encoding WinAnsiEncoding def
  currentdict
end
/Times-Roman exch definefont pop
/Helvetica-BoldOblique findfont
dup length dict begin
  {1 index /FID ne {def} {pop pop} ifelse} forall
  /Encoding WinAnsiEncoding def
  currentdict
end
/Helvetica-BoldOblique exch definefont pop
/Helvetica-Bold findfont
dup length dict begin
  {1 index /FID ne {def} {pop pop} ifelse} forall
  /Encoding WinAnsiEncoding def
  currentdict
end
/Helvetica-Bold exch definefont pop
/Helvetica-Oblique findfont
dup length dict begin
  {1 index /FID ne {def} {pop pop} ifelse} forall
  /Encoding WinAnsiEncoding def
  currentdict
end
/Helvetica-Oblique exch definefont pop
/Times-BoldItalic findfont
dup length dict begin
  {1 index /FID ne {def} {pop pop} ifelse} forall
  /Encoding WinAnsiEncoding def
  currentdict
end
/Times-BoldItalic exch definefont pop
/Courier findfont
dup length dict begin
  {1 index /FID ne {def} {pop pop} ifelse} forall
  /Encoding WinAnsiEncoding def
  currentdict
end
/Courier exch definefont pop
/Times-Italic findfont
dup length dict begin
  {1 index /FID ne {def} {pop pop} ifelse} forall
  /Encoding WinAnsiEncoding def
  currentdict
end
/Times-Italic exch definefont pop
/Times-Bold findfont
dup length dict begin
  {1 index /FID ne {def} {pop pop} ifelse} forall
  /Encoding WinAnsiEncoding def
  currentdict
end
/Times-Bold exch definefont pop
%FOPEndFontReencode
%%EndProlog
%%Page: 1 1
%%PageBoundingBox: 0 0 420 315
%%BeginPageSetup
[1 0 0 -1 0 315] CT
%%EndPageSetup
GS
[0.75 0 0 0.75 0 0] CT
1 GC
N
0 0 560 420 re
f
GR
GS
[0.75 0 0 0.75 0 0] CT
1 GC
N
0 0 560 420 re
f
GR
GS
[0.75 0 0 0.75 0 0] CT
1 GC
N
73 374 M
507 374 L
507 31 L
73 31 L
cp
f
GR
GS
[0.75 0 0 0.75 0 0] CT
0.149 GC
2 setlinecap
1 LJ
0.667 LW
N
73 374 M
507 374 L
S
GR
GS
[0.75 0 0 0.75 0 0] CT
0.149 GC
2 setlinecap
1 LJ
0.667 LW
N
73 31 M
507 31 L
S
GR
GS
[0.75 0 0 0.75 0 0] CT
0.149 GC
2 setlinecap
1 LJ
0.667 LW
N
114.054 374 M
114.054 369.66 L
S
GR
GS
[0.75 0 0 0.75 0 0] CT
0.149 GC
2 setlinecap
1 LJ
0.667 LW
N
157.497 374 M
157.497 369.66 L
S
GR
GS
[0.75 0 0 0.75 0 0] CT
0.149 GC
2 setlinecap
1 LJ
0.667 LW
N
200.941 374 M
200.941 369.66 L
S
GR
GS
[0.75 0 0 0.75 0 0] CT
0.149 GC
2 setlinecap
1 LJ
0.667 LW
N
244.384 374 M
244.384 369.66 L
S
GR
GS
[0.75 0 0 0.75 0 0] CT
0.149 GC
2 setlinecap
1 LJ
0.667 LW
N
287.828 374 M
287.828 369.66 L
S
GR
GS
[0.75 0 0 0.75 0 0] CT
0.149 GC
2 setlinecap
1 LJ
0.667 LW
N
331.271 374 M
331.271 369.66 L
S
GR
GS
[0.75 0 0 0.75 0 0] CT
0.149 GC
2 setlinecap
1 LJ
0.667 LW
N
374.715 374 M
374.715 369.66 L
S
GR
GS
[0.75 0 0 0.75 0 0] CT
0.149 GC
2 setlinecap
1 LJ
0.667 LW
N
418.158 374 M
418.158 369.66 L
S
GR
GS
[0.75 0 0 0.75 0 0] CT
0.149 GC
2 setlinecap
1 LJ
0.667 LW
N
461.602 374 M
461.602 369.66 L
S
GR
GS
[0.75 0 0 0.75 0 0] CT
0.149 GC
2 setlinecap
1 LJ
0.667 LW
N
505.045 374 M
505.045 369.66 L
S
GR
GS
[0.75 0 0 0.75 0 0] CT
0.149 GC
2 setlinecap
1 LJ
0.667 LW
N
114.054 31 M
114.054 35.34 L
S
GR
GS
[0.75 0 0 0.75 0 0] CT
0.149 GC
2 setlinecap
1 LJ
0.667 LW
N
157.497 31 M
157.497 35.34 L
S
GR
GS
[0.75 0 0 0.75 0 0] CT
0.149 GC
2 setlinecap
1 LJ
0.667 LW
N
200.941 31 M
200.941 35.34 L
S
GR
GS
[0.75 0 0 0.75 0 0] CT
0.149 GC
2 setlinecap
1 LJ
0.667 LW
N
244.384 31 M
244.384 35.34 L
S
GR
GS
[0.75 0 0 0.75 0 0] CT
0.149 GC
2 setlinecap
1 LJ
0.667 LW
N
287.828 31 M
287.828 35.34 L
S
GR
GS
[0.75 0 0 0.75 0 0] CT
0.149 GC
2 setlinecap
1 LJ
0.667 LW
N
331.271 31 M
331.271 35.34 L
S
GR
GS
[0.75 0 0 0.75 0 0] CT
0.149 GC
2 setlinecap
1 LJ
0.667 LW
N
374.715 31 M
374.715 35.34 L
S
GR
GS
[0.75 0 0 0.75 0 0] CT
0.149 GC
2 setlinecap
1 LJ
0.667 LW
N
418.158 31 M
418.158 35.34 L
S
GR
GS
[0.75 0 0 0.75 0 0] CT
0.149 GC
2 setlinecap
1 LJ
0.667 LW
N
461.602 31 M
461.602 35.34 L
S
GR
GS
[0.75 0 0 0.75 0 0] CT
0.149 GC
2 setlinecap
1 LJ
0.667 LW
N
505.045 31 M
505.045 35.34 L
S
GR
GS
[0.75 0 0 0.75 85.54054 284.50001] CT
0.149 GC
/Helvetica 13.333 F
GS
[1 0 0 1 0 0] CT
-7.5 14 moveto 
1 -1 scale
(10) t 
GR
GR
GS
[0.75 0 0 0.75 118.12312 284.50001] CT
0.149 GC
/Helvetica 13.333 F
GS
[1 0 0 1 0 0] CT
-7.5 14 moveto 
1 -1 scale
(20) t 
GR
GR
GS
[0.75 0 0 0.75 150.70571 284.50001] CT
0.149 GC
/Helvetica 13.333 F
GS
[1 0 0 1 0 0] CT
-7.5 14 moveto 
1 -1 scale
(30) t 
GR
GR
GS
[0.75 0 0 0.75 183.28829 284.50001] CT
0.149 GC
/Helvetica 13.333 F
GS
[1 0 0 1 0 0] CT
-7.5 14 moveto 
1 -1 scale
(40) t 
GR
GR
GS
[0.75 0 0 0.75 215.87086 284.50001] CT
0.149 GC
/Helvetica 13.333 F
GS
[1 0 0 1 0 0] CT
-7.5 14 moveto 
1 -1 scale
(50) t 
GR
GR
GS
[0.75 0 0 0.75 248.45345 284.50001] CT
0.149 GC
/Helvetica 13.333 F
GS
[1 0 0 1 0 0] CT
-7.5 14 moveto 
1 -1 scale
(60) t 
GR
GR
GS
[0.75 0 0 0.75 281.03604 284.50001] CT
0.149 GC
/Helvetica 13.333 F
GS
[1 0 0 1 0 0] CT
-7.5 14 moveto 
1 -1 scale
(70) t 
GR
GR
GS
[0.75 0 0 0.75 313.61863 284.50001] CT
0.149 GC
/Helvetica 13.333 F
GS
[1 0 0 1 0 0] CT
-7.5 14 moveto 
1 -1 scale
(80) t 
GR
GR
GS
[0.75 0 0 0.75 346.20119 284.50001] CT
0.149 GC
/Helvetica 13.333 F
GS
[1 0 0 1 0 0] CT
-7.5 14 moveto 
1 -1 scale
(90) t 
GR
GR
GS
[0.75 0 0 0.75 378.78378 284.50001] CT
0.149 GC
/Helvetica 13.333 F
GS
[1 0 0 1 0 0] CT
-11 14 moveto 
1 -1 scale
(100) t 
GR
GR
GS
[0.75 0 0 0.75 0 0] CT
0.149 GC
2 setlinecap
1 LJ
0.667 LW
N
73 374 M
73 31 L
S
GR
GS
[0.75 0 0 0.75 0 0] CT
0.149 GC
2 setlinecap
1 LJ
0.667 LW
N
507 374 M
507 31 L
S
GR
GS
[0.75 0 0 0.75 0 0] CT
0.149 GC
2 setlinecap
1 LJ
0.667 LW
N
73 374 M
77.34 374 L
S
GR
GS
[0.75 0 0 0.75 0 0] CT
0.149 GC
2 setlinecap
1 LJ
0.667 LW
N
73 331.125 M
77.34 331.125 L
S
GR
GS
[0.75 0 0 0.75 0 0] CT
0.149 GC
2 setlinecap
1 LJ
0.667 LW
N
73 288.25 M
77.34 288.25 L
S
GR
GS
[0.75 0 0 0.75 0 0] CT
0.149 GC
2 setlinecap
1 LJ
0.667 LW
N
73 245.375 M
77.34 245.375 L
S
GR
GS
[0.75 0 0 0.75 0 0] CT
0.149 GC
2 setlinecap
1 LJ
0.667 LW
N
73 202.5 M
77.34 202.5 L
S
GR
GS
[0.75 0 0 0.75 0 0] CT
0.149 GC
2 setlinecap
1 LJ
0.667 LW
N
73 159.625 M
77.34 159.625 L
S
GR
GS
[0.75 0 0 0.75 0 0] CT
0.149 GC
2 setlinecap
1 LJ
0.667 LW
N
73 116.75 M
77.34 116.75 L
S
GR
GS
[0.75 0 0 0.75 0 0] CT
0.149 GC
2 setlinecap
1 LJ
0.667 LW
N
73 73.875 M
77.34 73.875 L
S
GR
GS
[0.75 0 0 0.75 0 0] CT
0.149 GC
2 setlinecap
1 LJ
0.667 LW
N
73 31 M
77.34 31 L
S
GR
GS
[0.75 0 0 0.75 0 0] CT
0.149 GC
2 setlinecap
1 LJ
0.667 LW
N
507 374 M
502.66 374 L
S
GR
GS
[0.75 0 0 0.75 0 0] CT
0.149 GC
2 setlinecap
1 LJ
0.667 LW
N
507 331.125 M
502.66 331.125 L
S
GR
GS
[0.75 0 0 0.75 0 0] CT
0.149 GC
2 setlinecap
1 LJ
0.667 LW
N
507 288.25 M
502.66 288.25 L
S
GR
GS
[0.75 0 0 0.75 0 0] CT
0.149 GC
2 setlinecap
1 LJ
0.667 LW
N
507 245.375 M
502.66 245.375 L
S
GR
GS
[0.75 0 0 0.75 0 0] CT
0.149 GC
2 setlinecap
1 LJ
0.667 LW
N
507 202.5 M
502.66 202.5 L
S
GR
GS
[0.75 0 0 0.75 0 0] CT
0.149 GC
2 setlinecap
1 LJ
0.667 LW
N
507 159.625 M
502.66 159.625 L
S
GR
GS
[0.75 0 0 0.75 0 0] CT
0.149 GC
2 setlinecap
1 LJ
0.667 LW
N
507 116.75 M
502.66 116.75 L
S
GR
GS
[0.75 0 0 0.75 0 0] CT
0.149 GC
2 setlinecap
1 LJ
0.667 LW
N
507 73.875 M
502.66 73.875 L
S
GR
GS
[0.75 0 0 0.75 0 0] CT
0.149 GC
2 setlinecap
1 LJ
0.667 LW
N
507 31 M
502.66 31 L
S
GR
GS
[0.75 0 0 0.75 50.75 280.5] CT
0.149 GC
/Helvetica 13.333 F
GS
[1 0 0 1 0 0] CT
-8 5.5 moveto 
1 -1 scale
(0) t 
GR
GR
GS
[0.75 0 0 0.75 50.75 248.34375] CT
0.149 GC
/Helvetica 13.333 F
GS
[1 0 0 1 0 0] CT
-33 5.5 moveto 
1 -1 scale
(0.005) t 
GR
GR
GS
[0.75 0 0 0.75 50.75 216.1875] CT
0.149 GC
/Helvetica 13.333 F
GS
[1 0 0 1 0 0] CT
-26 5.5 moveto 
1 -1 scale
(0.01) t 
GR
GR
GS
[0.75 0 0 0.75 50.75 184.03125] CT
0.149 GC
/Helvetica 13.333 F
GS
[1 0 0 1 0 0] CT
-33 5.5 moveto 
1 -1 scale
(0.015) t 
GR
GR
GS
[0.75 0 0 0.75 50.75 151.875] CT
0.149 GC
/Helvetica 13.333 F
GS
[1 0 0 1 0 0] CT
-26 5.5 moveto 
1 -1 scale
(0.02) t 
GR
GR
GS
[0.75 0 0 0.75 50.75 119.71875] CT
0.149 GC
/Helvetica 13.333 F
GS
[1 0 0 1 0 0] CT
-33 5.5 moveto 
1 -1 scale
(0.025) t 
GR
GR
GS
[0.75 0 0 0.75 50.75 87.56251] CT
0.149 GC
/Helvetica 13.333 F
GS
[1 0 0 1 0 0] CT
-26 5.5 moveto 
1 -1 scale
(0.03) t 
GR
GR
GS
[0.75 0 0 0.75 50.75 55.40625] CT
0.149 GC
/Helvetica 13.333 F
GS
[1 0 0 1 0 0] CT
-33 5.5 moveto 
1 -1 scale
(0.035) t 
GR
GR
GS
[0.75 0 0 0.75 50.75 23.25001] CT
0.149 GC
/Helvetica 13.333 F
GS
[1 0 0 1 0 0] CT
-26 5.5 moveto 
1 -1 scale
(0.04) t 
GR
GR
GS
[0.75 0 0 0.75 217.50021 21.18751] CT
/Helvetica-Bold 14.667 F
GS
[1 0 0 1 0 0] CT
-78 -4 moveto 
1 -1 scale
(Importance weighting) t 
GR
GR
GS
[0.75 0 0 0.75 0 0] CT
0.149 GC
1 LJ
0.667 LW
N
73 374 M
507 374 L
S
GR
GS
[0.75 0 0 0.75 0 0] CT
0 0 0.8 RC
N
73 374 M
76.91 374 L
76.91 246.983 L
73 246.983 L
cp
f
GR
GS
[0.75 0 0 0.75 0 0] CT
0 0 0.8 RC
N
77.344 374 M
81.254 374 L
81.254 196.564 L
77.344 196.564 L
cp
f
GR
GS
[0.75 0 0 0.75 0 0] CT
0 0 0.8 RC
N
81.689 374 M
85.599 374 L
85.599 293.079 L
81.689 293.079 L
cp
f
GR
GS
[0.75 0 0 0.75 0 0] CT
0 0 0.8 RC
N
86.033 374 M
89.943 374 L
89.943 358.69 L
86.033 358.69 L
cp
f
GR
GS
[0.75 0 0 0.75 0 0] CT
0 0 0.8 RC
N
90.377 374 M
94.287 374 L
94.287 311.559 L
90.377 311.559 L
cp
f
GR
GS
[0.75 0 0 0.75 0 0] CT
0 0 0.8 RC
N
94.722 374 M
98.632 374 L
98.632 296.809 L
94.722 296.809 L
cp
f
GR
GS
[0.75 0 0 0.75 0 0] CT
0 0 0.8 RC
N
99.066 374 M
102.976 374 L
102.976 333.916 L
99.066 333.916 L
cp
f
GR
GS
[0.75 0 0 0.75 0 0] CT
0 0 0.8 RC
N
103.41 374 M
107.32 374 L
107.32 282.564 L
103.41 282.564 L
cp
f
GR
GS
[0.75 0 0 0.75 0 0] CT
0 0 0.8 RC
N
107.755 374 M
111.665 374 L
111.665 331.919 L
107.755 331.919 L
cp
f
GR
GS
[0.75 0 0 0.75 0 0] CT
0 0 0.8 RC
N
112.099 374 M
116.009 374 L
116.009 299.392 L
112.099 299.392 L
cp
f
GR
GS
[0.75 0 0 0.75 0 0] CT
0 0 0.8 RC
N
116.443 374 M
120.353 374 L
120.353 278.964 L
116.443 278.964 L
cp
f
GR
GS
[0.75 0 0 0.75 0 0] CT
0 0 0.8 RC
N
120.788 374 M
124.698 374 L
124.698 298.571 L
120.788 298.571 L
cp
f
GR
GS
[0.75 0 0 0.75 0 0] CT
0 0 0.8 RC
N
125.132 374 M
129.042 374 L
129.042 307.03 L
125.132 307.03 L
cp
f
GR
GS
[0.75 0 0 0.75 0 0] CT
0 0 0.8 RC
N
129.476 374 M
133.386 374 L
133.386 210.306 L
129.476 210.306 L
cp
f
GR
GS
[0.75 0 0 0.75 0 0] CT
0 0 0.8 RC
N
133.821 374 M
137.731 374 L
137.731 322.911 L
133.821 322.911 L
cp
f
GR
GS
[0.75 0 0 0.75 0 0] CT
0 0 0.8 RC
N
138.165 374 M
142.075 374 L
142.075 294.93 L
138.165 294.93 L
cp
f
GR
GS
[0.75 0 0 0.75 0 0] CT
0 0 0.8 RC
N
142.51 374 M
146.419 374 L
146.419 258.584 L
142.51 258.584 L
cp
f
GR
GS
[0.75 0 0 0.75 0 0] CT
0 0 0.8 RC
N
146.854 374 M
150.764 374 L
150.764 325.969 L
146.854 325.969 L
cp
f
GR
GS
[0.75 0 0 0.75 0 0] CT
0 0 0.8 RC
N
151.198 374 M
155.108 374 L
155.108 312.378 L
151.198 312.378 L
cp
f
GR
GS
[0.75 0 0 0.75 0 0] CT
0 0 0.8 RC
N
155.543 374 M
159.452 374 L
159.452 255.8 L
155.543 255.8 L
cp
f
GR
GS
[0.75 0 0 0.75 0 0] CT
0 0 0.8 RC
N
159.887 374 M
163.797 374 L
163.797 253.579 L
159.887 253.579 L
cp
f
GR
GS
[0.75 0 0 0.75 0 0] CT
0 0 0.8 RC
N
164.231 374 M
168.141 374 L
168.141 285.209 L
164.231 285.209 L
cp
f
GR
GS
[0.75 0 0 0.75 0 0] CT
0 0 0.8 RC
N
168.576 374 M
172.485 374 L
172.485 323.564 L
168.576 323.564 L
cp
f
GR
GS
[0.75 0 0 0.75 0 0] CT
0 0 0.8 RC
N
172.92 374 M
176.83 374 L
176.83 310.432 L
172.92 310.432 L
cp
f
GR
GS
[0.75 0 0 0.75 0 0] CT
0 0 0.8 RC
N
177.264 374 M
181.174 374 L
181.174 294.552 L
177.264 294.552 L
cp
f
GR
GS
[0.75 0 0 0.75 0 0] CT
0 0 0.8 RC
N
181.609 374 M
185.519 374 L
185.519 291.894 L
181.609 291.894 L
cp
f
GR
GS
[0.75 0 0 0.75 0 0] CT
0 0 0.8 RC
N
185.953 374 M
189.863 374 L
189.863 296.564 L
185.953 296.564 L
cp
f
GR
GS
[0.75 0 0 0.75 0 0] CT
0 0 0.8 RC
N
190.297 374 M
194.207 374 L
194.207 314.484 L
190.297 314.484 L
cp
f
GR
GS
[0.75 0 0 0.75 0 0] CT
0 0 0.8 RC
N
194.642 374 M
198.552 374 L
198.552 278.908 L
194.642 278.908 L
cp
f
GR
GS
[0.75 0 0 0.75 0 0] CT
0 0 0.8 RC
N
198.986 374 M
202.896 374 L
202.896 330.659 L
198.986 330.659 L
cp
f
GR
GS
[0.75 0 0 0.75 0 0] CT
0 0 0.8 RC
N
203.33 374 M
207.24 374 L
207.24 275.537 L
203.33 275.537 L
cp
f
GR
GS
[0.75 0 0 0.75 0 0] CT
0 0 0.8 RC
N
207.675 374 M
211.585 374 L
211.585 310.728 L
207.675 310.728 L
cp
f
GR
GS
[0.75 0 0 0.75 0 0] CT
0 0 0.8 RC
N
212.019 374 M
215.929 374 L
215.929 280.233 L
212.019 280.233 L
cp
f
GR
GS
[0.75 0 0 0.75 0 0] CT
0 0 0.8 RC
N
216.363 374 M
220.273 374 L
220.273 302.124 L
216.363 302.124 L
cp
f
GR
GS
[0.75 0 0 0.75 0 0] CT
0 0 0.8 RC
N
220.708 374 M
224.618 374 L
224.618 267.235 L
220.708 267.235 L
cp
f
GR
GS
[0.75 0 0 0.75 0 0] CT
0 0 0.8 RC
N
225.052 374 M
228.962 374 L
228.962 321.112 L
225.052 321.112 L
cp
f
GR
GS
[0.75 0 0 0.75 0 0] CT
0 0 0.8 RC
N
229.396 374 M
233.306 374 L
233.306 334.456 L
229.396 334.456 L
cp
f
GR
GS
[0.75 0 0 0.75 0 0] CT
0 0 0.8 RC
N
233.741 374 M
237.651 374 L
237.651 233.402 L
233.741 233.402 L
cp
f
GR
GS
[0.75 0 0 0.75 0 0] CT
0 0 0.8 RC
N
238.085 374 M
241.995 374 L
241.995 247.939 L
238.085 247.939 L
cp
f
GR
GS
[0.75 0 0 0.75 0 0] CT
0 0 0.8 RC
N
242.429 374 M
246.339 374 L
246.339 313.896 L
242.429 313.896 L
cp
f
GR
GS
[0.75 0 0 0.75 0 0] CT
0 0 0.8 RC
N
246.774 374 M
250.684 374 L
250.684 307.206 L
246.774 307.206 L
cp
f
GR
GS
[0.75 0 0 0.75 0 0] CT
0 0 0.8 RC
N
251.118 374 M
255.028 374 L
255.028 289.286 L
251.118 289.286 L
cp
f
GR
GS
[0.75 0 0 0.75 0 0] CT
0 0 0.8 RC
N
255.462 374 M
259.372 374 L
259.372 316.766 L
255.462 316.766 L
cp
f
GR
GS
[0.75 0 0 0.75 0 0] CT
0 0 0.8 RC
N
259.807 374 M
263.717 374 L
263.717 282.219 L
259.807 282.219 L
cp
f
GR
GS
[0.75 0 0 0.75 0 0] CT
0 0 0.8 RC
N
264.151 374 M
268.061 374 L
268.061 302.887 L
264.151 302.887 L
cp
f
GR
GS
[0.75 0 0 0.75 0 0] CT
0 0 0.8 RC
N
268.495 374 M
272.405 374 L
272.405 274.048 L
268.495 274.048 L
cp
f
GR
GS
[0.75 0 0 0.75 0 0] CT
0 0 0.8 RC
N
272.84 374 M
276.75 374 L
276.75 261.655 L
272.84 261.655 L
cp
f
GR
GS
[0.75 0 0 0.75 0 0] CT
0 0 0.8 RC
N
277.184 374 M
281.094 374 L
281.094 310.381 L
277.184 310.381 L
cp
f
GR
GS
[0.75 0 0 0.75 0 0] CT
0 0 0.8 RC
N
281.529 374 M
285.438 374 L
285.438 263.809 L
281.529 263.809 L
cp
f
GR
GS
[0.75 0 0 0.75 0 0] CT
0 0 0.8 RC
N
285.873 374 M
289.783 374 L
289.783 171.605 L
285.873 171.605 L
cp
f
GR
GS
[0.75 0 0 0.75 0 0] CT
0 0 0.8 RC
N
290.217 374 M
294.127 374 L
294.127 38.235 L
290.217 38.235 L
cp
f
GR
GS
[0.75 0 0 0.75 0 0] CT
0 0 0.8 RC
N
294.562 374 M
298.471 374 L
298.471 223.456 L
294.562 223.456 L
cp
f
GR
GS
[0.75 0 0 0.75 0 0] CT
0 0 0.8 RC
N
298.906 374 M
302.816 374 L
302.816 218.997 L
298.906 218.997 L
cp
f
GR
GS
[0.75 0 0 0.75 0 0] CT
0 0 0.8 RC
N
303.25 374 M
307.16 374 L
307.16 321.648 L
303.25 321.648 L
cp
f
GR
GS
[0.75 0 0 0.75 0 0] CT
0 0 0.8 RC
N
307.595 374 M
311.505 374 L
311.505 130.14 L
307.595 130.14 L
cp
f
GR
GS
[0.75 0 0 0.75 0 0] CT
0 0 0.8 RC
N
311.939 374 M
315.849 374 L
315.849 284.777 L
311.939 284.777 L
cp
f
GR
GS
[0.75 0 0 0.75 0 0] CT
0 0 0.8 RC
N
316.283 374 M
320.193 374 L
320.193 297.284 L
316.283 297.284 L
cp
f
GR
GS
[0.75 0 0 0.75 0 0] CT
0 0 0.8 RC
N
320.628 374 M
324.538 374 L
324.538 284.242 L
320.628 284.242 L
cp
f
GR
GS
[0.75 0 0 0.75 0 0] CT
0 0 0.8 RC
N
324.972 374 M
328.882 374 L
328.882 156.991 L
324.972 156.991 L
cp
f
GR
GS
[0.75 0 0 0.75 0 0] CT
0 0 0.8 RC
N
329.316 374 M
333.226 374 L
333.226 307.112 L
329.316 307.112 L
cp
f
GR
GS
[0.75 0 0 0.75 0 0] CT
0 0 0.8 RC
N
333.661 374 M
337.571 374 L
337.571 303.513 L
333.661 303.513 L
cp
f
GR
GS
[0.75 0 0 0.75 0 0] CT
0 0 0.8 RC
N
338.005 374 M
341.915 374 L
341.915 265.198 L
338.005 265.198 L
cp
f
GR
GS
[0.75 0 0 0.75 0 0] CT
0 0 0.8 RC
N
342.349 374 M
346.259 374 L
346.259 288.311 L
342.349 288.311 L
cp
f
GR
GS
[0.75 0 0 0.75 0 0] CT
0 0 0.8 RC
N
346.694 374 M
350.604 374 L
350.604 276.611 L
346.694 276.611 L
cp
f
GR
GS
[0.75 0 0 0.75 0 0] CT
0 0 0.8 RC
N
351.038 374 M
354.948 374 L
354.948 294.917 L
351.038 294.917 L
cp
f
GR
GS
[0.75 0 0 0.75 0 0] CT
0 0 0.8 RC
N
355.382 374 M
359.292 374 L
359.292 328.63 L
355.382 328.63 L
cp
f
GR
GS
[0.75 0 0 0.75 0 0] CT
0 0 0.8 RC
N
359.727 374 M
363.637 374 L
363.637 326.224 L
359.727 326.224 L
cp
f
GR
GS
[0.75 0 0 0.75 0 0] CT
0 0 0.8 RC
N
364.071 374 M
367.981 374 L
367.981 365.78 L
364.071 365.78 L
cp
f
GR
GS
[0.75 0 0 0.75 0 0] CT
0 0 0.8 RC
N
368.415 374 M
372.325 374 L
372.325 311.639 L
368.415 311.639 L
cp
f
GR
GS
[0.75 0 0 0.75 0 0] CT
0 0 0.8 RC
N
372.76 374 M
376.67 374 L
376.67 292.16 L
372.76 292.16 L
cp
f
GR
GS
[0.75 0 0 0.75 0 0] CT
0 0 0.8 RC
N
377.104 374 M
381.014 374 L
381.014 293.881 L
377.104 293.881 L
cp
f
GR
GS
[0.75 0 0 0.75 0 0] CT
0 0 0.8 RC
N
381.448 374 M
385.358 374 L
385.358 286.438 L
381.448 286.438 L
cp
f
GR
GS
[0.75 0 0 0.75 0 0] CT
0 0 0.8 RC
N
385.793 374 M
389.703 374 L
389.703 287.257 L
385.793 287.257 L
cp
f
GR
GS
[0.75 0 0 0.75 0 0] CT
0 0 0.8 RC
N
390.137 374 M
394.047 374 L
394.047 296.302 L
390.137 296.302 L
cp
f
GR
GS
[0.75 0 0 0.75 0 0] CT
0 0 0.8 RC
N
394.482 374 M
398.391 374 L
398.391 281.852 L
394.482 281.852 L
cp
f
GR
GS
[0.75 0 0 0.75 0 0] CT
0 0 0.8 RC
N
398.826 374 M
402.736 374 L
402.736 312.958 L
398.826 312.958 L
cp
f
GR
GS
[0.75 0 0 0.75 0 0] CT
0 0 0.8 RC
N
403.17 374 M
407.08 374 L
407.08 280.889 L
403.17 280.889 L
cp
f
GR
GS
[0.75 0 0 0.75 0 0] CT
0 0 0.8 RC
N
407.515 374 M
411.424 374 L
411.424 332.059 L
407.515 332.059 L
cp
f
GR
GS
[0.75 0 0 0.75 0 0] CT
0 0 0.8 RC
N
411.859 374 M
415.769 374 L
415.769 312.481 L
411.859 312.481 L
cp
f
GR
GS
[0.75 0 0 0.75 0 0] CT
0 0 0.8 RC
N
416.203 374 M
420.113 374 L
420.113 298.256 L
416.203 298.256 L
cp
f
GR
GS
[0.75 0 0 0.75 0 0] CT
0 0 0.8 RC
N
420.548 374 M
424.457 374 L
424.457 300.99 L
420.548 300.99 L
cp
f
GR
GS
[0.75 0 0 0.75 0 0] CT
0 0 0.8 RC
N
424.892 374 M
428.802 374 L
428.802 318.576 L
424.892 318.576 L
cp
f
GR
GS
[0.75 0 0 0.75 0 0] CT
0 0 0.8 RC
N
429.236 374 M
433.146 374 L
433.146 306.649 L
429.236 306.649 L
cp
f
GR
GS
[0.75 0 0 0.75 0 0] CT
0 0 0.8 RC
N
433.581 374 M
437.49 374 L
437.49 291.411 L
433.581 291.411 L
cp
f
GR
GS
[0.75 0 0 0.75 0 0] CT
0 0 0.8 RC
N
437.925 374 M
441.835 374 L
441.835 313.141 L
437.925 313.141 L
cp
f
GR
GS
[0.75 0 0 0.75 0 0] CT
0 0 0.8 RC
N
442.269 374 M
446.179 374 L
446.179 367.028 L
442.269 367.028 L
cp
f
GR
GS
[0.75 0 0 0.75 0 0] CT
0 0 0.8 RC
N
446.614 374 M
450.523 374 L
450.523 308.019 L
446.614 308.019 L
cp
f
GR
GS
[0.75 0 0 0.75 0 0] CT
0 0 0.8 RC
N
450.958 374 M
454.868 374 L
454.868 327.867 L
450.958 327.867 L
cp
f
GR
GS
[0.75 0 0 0.75 0 0] CT
0 0 0.8 RC
N
455.302 374 M
459.212 374 L
459.212 190.728 L
455.302 190.728 L
cp
f
GR
GS
[0.75 0 0 0.75 0 0] CT
0 0 0.8 RC
N
459.647 374 M
463.557 374 L
463.557 298.929 L
459.647 298.929 L
cp
f
GR
GS
[0.75 0 0 0.75 0 0] CT
0 0 0.8 RC
N
463.991 374 M
467.901 374 L
467.901 318.326 L
463.991 318.326 L
cp
f
GR
GS
[0.75 0 0 0.75 0 0] CT
0 0 0.8 RC
N
468.335 374 M
472.245 374 L
472.245 245.934 L
468.335 245.934 L
cp
f
GR
GS
[0.75 0 0 0.75 0 0] CT
0 0 0.8 RC
N
472.68 374 M
476.59 374 L
476.59 311.528 L
472.68 311.528 L
cp
f
GR
GS
[0.75 0 0 0.75 0 0] CT
0 0 0.8 RC
N
477.024 374 M
480.934 374 L
480.934 316.158 L
477.024 316.158 L
cp
f
GR
GS
[0.75 0 0 0.75 0 0] CT
0 0 0.8 RC
N
481.368 374 M
485.278 374 L
485.278 287.327 L
481.368 287.327 L
cp
f
GR
GS
[0.75 0 0 0.75 0 0] CT
0 0 0.8 RC
N
485.713 374 M
489.623 374 L
489.623 300.617 L
485.713 300.617 L
cp
f
GR
GS
[0.75 0 0 0.75 0 0] CT
0 0 0.8 RC
N
490.057 374 M
493.967 374 L
493.967 326.283 L
490.057 326.283 L
cp
f
GR
GS
[0.75 0 0 0.75 0 0] CT
0 0 0.8 RC
N
494.401 374 M
498.311 374 L
498.311 359.214 L
494.401 359.214 L
cp
f
GR
GS
[0.75 0 0 0.75 0 0] CT
0 0 0.8 RC
N
498.746 374 M
502.656 374 L
502.656 284.019 L
498.746 284.019 L
cp
f
GR
GS
[0.75 0 0 0.75 0 0] CT
0 0 0.8 RC
N
503.09 374 M
507 374 L
507 290.73 L
503.09 290.73 L
cp
f
GR
GS
[0.75 0 0 0.75 0 0] CT
10.0 ML
0.667 LW
N
73 374 M
73 246.983 L
76.91 246.983 L
76.91 374 L
cp
S
GR
GS
[0.75 0 0 0.75 0 0] CT
10.0 ML
0.667 LW
N
77.344 374 M
77.344 196.564 L
81.254 196.564 L
81.254 374 L
cp
S
GR
GS
[0.75 0 0 0.75 0 0] CT
10.0 ML
0.667 LW
N
81.689 374 M
81.689 293.079 L
85.599 293.079 L
85.599 374 L
cp
S
GR
GS
[0.75 0 0 0.75 0 0] CT
10.0 ML
0.667 LW
N
86.033 374 M
86.033 358.69 L
89.943 358.69 L
89.943 374 L
cp
S
GR
GS
[0.75 0 0 0.75 0 0] CT
10.0 ML
0.667 LW
N
90.377 374 M
90.377 311.559 L
94.287 311.559 L
94.287 374 L
cp
S
GR
GS
[0.75 0 0 0.75 0 0] CT
10.0 ML
0.667 LW
N
94.722 374 M
94.722 296.809 L
98.632 296.809 L
98.632 374 L
cp
S
GR
GS
[0.75 0 0 0.75 0 0] CT
10.0 ML
0.667 LW
N
99.066 374 M
99.066 333.916 L
102.976 333.916 L
102.976 374 L
cp
S
GR
GS
[0.75 0 0 0.75 0 0] CT
10.0 ML
0.667 LW
N
103.41 374 M
103.41 282.564 L
107.32 282.564 L
107.32 374 L
cp
S
GR
GS
[0.75 0 0 0.75 0 0] CT
10.0 ML
0.667 LW
N
107.755 374 M
107.755 331.919 L
111.665 331.919 L
111.665 374 L
cp
S
GR
GS
[0.75 0 0 0.75 0 0] CT
10.0 ML
0.667 LW
N
112.099 374 M
112.099 299.392 L
116.009 299.392 L
116.009 374 L
cp
S
GR
GS
[0.75 0 0 0.75 0 0] CT
10.0 ML
0.667 LW
N
116.443 374 M
116.443 278.964 L
120.353 278.964 L
120.353 374 L
cp
S
GR
GS
[0.75 0 0 0.75 0 0] CT
10.0 ML
0.667 LW
N
120.788 374 M
120.788 298.571 L
124.698 298.571 L
124.698 374 L
cp
S
GR
GS
[0.75 0 0 0.75 0 0] CT
10.0 ML
0.667 LW
N
125.132 374 M
125.132 307.03 L
129.042 307.03 L
129.042 374 L
cp
S
GR
GS
[0.75 0 0 0.75 0 0] CT
10.0 ML
0.667 LW
N
129.476 374 M
129.476 210.306 L
133.386 210.306 L
133.386 374 L
cp
S
GR
GS
[0.75 0 0 0.75 0 0] CT
10.0 ML
0.667 LW
N
133.821 374 M
133.821 322.911 L
137.731 322.911 L
137.731 374 L
cp
S
GR
GS
[0.75 0 0 0.75 0 0] CT
10.0 ML
0.667 LW
N
138.165 374 M
138.165 294.93 L
142.075 294.93 L
142.075 374 L
cp
S
GR
GS
[0.75 0 0 0.75 0 0] CT
10.0 ML
0.667 LW
N
142.51 374 M
142.51 258.584 L
146.419 258.584 L
146.419 374 L
cp
S
GR
GS
[0.75 0 0 0.75 0 0] CT
10.0 ML
0.667 LW
N
146.854 374 M
146.854 325.969 L
150.764 325.969 L
150.764 374 L
cp
S
GR
GS
[0.75 0 0 0.75 0 0] CT
10.0 ML
0.667 LW
N
151.198 374 M
151.198 312.378 L
155.108 312.378 L
155.108 374 L
cp
S
GR
GS
[0.75 0 0 0.75 0 0] CT
10.0 ML
0.667 LW
N
155.543 374 M
155.543 255.8 L
159.452 255.8 L
159.452 374 L
cp
S
GR
GS
[0.75 0 0 0.75 0 0] CT
10.0 ML
0.667 LW
N
159.887 374 M
159.887 253.579 L
163.797 253.579 L
163.797 374 L
cp
S
GR
GS
[0.75 0 0 0.75 0 0] CT
10.0 ML
0.667 LW
N
164.231 374 M
164.231 285.209 L
168.141 285.209 L
168.141 374 L
cp
S
GR
GS
[0.75 0 0 0.75 0 0] CT
10.0 ML
0.667 LW
N
168.576 374 M
168.576 323.564 L
172.485 323.564 L
172.485 374 L
cp
S
GR
GS
[0.75 0 0 0.75 0 0] CT
10.0 ML
0.667 LW
N
172.92 374 M
172.92 310.432 L
176.83 310.432 L
176.83 374 L
cp
S
GR
GS
[0.75 0 0 0.75 0 0] CT
10.0 ML
0.667 LW
N
177.264 374 M
177.264 294.552 L
181.174 294.552 L
181.174 374 L
cp
S
GR
GS
[0.75 0 0 0.75 0 0] CT
10.0 ML
0.667 LW
N
181.609 374 M
181.609 291.894 L
185.519 291.894 L
185.519 374 L
cp
S
GR
GS
[0.75 0 0 0.75 0 0] CT
10.0 ML
0.667 LW
N
185.953 374 M
185.953 296.564 L
189.863 296.564 L
189.863 374 L
cp
S
GR
GS
[0.75 0 0 0.75 0 0] CT
10.0 ML
0.667 LW
N
190.297 374 M
190.297 314.484 L
194.207 314.484 L
194.207 374 L
cp
S
GR
GS
[0.75 0 0 0.75 0 0] CT
10.0 ML
0.667 LW
N
194.642 374 M
194.642 278.908 L
198.552 278.908 L
198.552 374 L
cp
S
GR
GS
[0.75 0 0 0.75 0 0] CT
10.0 ML
0.667 LW
N
198.986 374 M
198.986 330.659 L
202.896 330.659 L
202.896 374 L
cp
S
GR
GS
[0.75 0 0 0.75 0 0] CT
10.0 ML
0.667 LW
N
203.33 374 M
203.33 275.537 L
207.24 275.537 L
207.24 374 L
cp
S
GR
GS
[0.75 0 0 0.75 0 0] CT
10.0 ML
0.667 LW
N
207.675 374 M
207.675 310.728 L
211.585 310.728 L
211.585 374 L
cp
S
GR
GS
[0.75 0 0 0.75 0 0] CT
10.0 ML
0.667 LW
N
212.019 374 M
212.019 280.233 L
215.929 280.233 L
215.929 374 L
cp
S
GR
GS
[0.75 0 0 0.75 0 0] CT
10.0 ML
0.667 LW
N
216.363 374 M
216.363 302.124 L
220.273 302.124 L
220.273 374 L
cp
S
GR
GS
[0.75 0 0 0.75 0 0] CT
10.0 ML
0.667 LW
N
220.708 374 M
220.708 267.235 L
224.618 267.235 L
224.618 374 L
cp
S
GR
GS
[0.75 0 0 0.75 0 0] CT
10.0 ML
0.667 LW
N
225.052 374 M
225.052 321.112 L
228.962 321.112 L
228.962 374 L
cp
S
GR
GS
[0.75 0 0 0.75 0 0] CT
10.0 ML
0.667 LW
N
229.396 374 M
229.396 334.456 L
233.306 334.456 L
233.306 374 L
cp
S
GR
GS
[0.75 0 0 0.75 0 0] CT
10.0 ML
0.667 LW
N
233.741 374 M
233.741 233.402 L
237.651 233.402 L
237.651 374 L
cp
S
GR
GS
[0.75 0 0 0.75 0 0] CT
10.0 ML
0.667 LW
N
238.085 374 M
238.085 247.939 L
241.995 247.939 L
241.995 374 L
cp
S
GR
GS
[0.75 0 0 0.75 0 0] CT
10.0 ML
0.667 LW
N
242.429 374 M
242.429 313.896 L
246.339 313.896 L
246.339 374 L
cp
S
GR
GS
[0.75 0 0 0.75 0 0] CT
10.0 ML
0.667 LW
N
246.774 374 M
246.774 307.206 L
250.684 307.206 L
250.684 374 L
cp
S
GR
GS
[0.75 0 0 0.75 0 0] CT
10.0 ML
0.667 LW
N
251.118 374 M
251.118 289.286 L
255.028 289.286 L
255.028 374 L
cp
S
GR
GS
[0.75 0 0 0.75 0 0] CT
10.0 ML
0.667 LW
N
255.462 374 M
255.462 316.766 L
259.372 316.766 L
259.372 374 L
cp
S
GR
GS
[0.75 0 0 0.75 0 0] CT
10.0 ML
0.667 LW
N
259.807 374 M
259.807 282.219 L
263.717 282.219 L
263.717 374 L
cp
S
GR
GS
[0.75 0 0 0.75 0 0] CT
10.0 ML
0.667 LW
N
264.151 374 M
264.151 302.887 L
268.061 302.887 L
268.061 374 L
cp
S
GR
GS
[0.75 0 0 0.75 0 0] CT
10.0 ML
0.667 LW
N
268.495 374 M
268.495 274.048 L
272.405 274.048 L
272.405 374 L
cp
S
GR
GS
[0.75 0 0 0.75 0 0] CT
10.0 ML
0.667 LW
N
272.84 374 M
272.84 261.655 L
276.75 261.655 L
276.75 374 L
cp
S
GR
GS
[0.75 0 0 0.75 0 0] CT
10.0 ML
0.667 LW
N
277.184 374 M
277.184 310.381 L
281.094 310.381 L
281.094 374 L
cp
S
GR
GS
[0.75 0 0 0.75 0 0] CT
10.0 ML
0.667 LW
N
281.529 374 M
281.529 263.809 L
285.438 263.809 L
285.438 374 L
cp
S
GR
GS
[0.75 0 0 0.75 0 0] CT
10.0 ML
0.667 LW
N
285.873 374 M
285.873 171.605 L
289.783 171.605 L
289.783 374 L
cp
S
GR
GS
[0.75 0 0 0.75 0 0] CT
10.0 ML
0.667 LW
N
290.217 374 M
290.217 38.235 L
294.127 38.235 L
294.127 374 L
cp
S
GR
GS
[0.75 0 0 0.75 0 0] CT
10.0 ML
0.667 LW
N
294.562 374 M
294.562 223.456 L
298.471 223.456 L
298.471 374 L
cp
S
GR
GS
[0.75 0 0 0.75 0 0] CT
10.0 ML
0.667 LW
N
298.906 374 M
298.906 218.997 L
302.816 218.997 L
302.816 374 L
cp
S
GR
GS
[0.75 0 0 0.75 0 0] CT
10.0 ML
0.667 LW
N
303.25 374 M
303.25 321.648 L
307.16 321.648 L
307.16 374 L
cp
S
GR
GS
[0.75 0 0 0.75 0 0] CT
10.0 ML
0.667 LW
N
307.595 374 M
307.595 130.14 L
311.505 130.14 L
311.505 374 L
cp
S
GR
GS
[0.75 0 0 0.75 0 0] CT
10.0 ML
0.667 LW
N
311.939 374 M
311.939 284.777 L
315.849 284.777 L
315.849 374 L
cp
S
GR
GS
[0.75 0 0 0.75 0 0] CT
10.0 ML
0.667 LW
N
316.283 374 M
316.283 297.284 L
320.193 297.284 L
320.193 374 L
cp
S
GR
GS
[0.75 0 0 0.75 0 0] CT
10.0 ML
0.667 LW
N
320.628 374 M
320.628 284.242 L
324.538 284.242 L
324.538 374 L
cp
S
GR
GS
[0.75 0 0 0.75 0 0] CT
10.0 ML
0.667 LW
N
324.972 374 M
324.972 156.991 L
328.882 156.991 L
328.882 374 L
cp
S
GR
GS
[0.75 0 0 0.75 0 0] CT
10.0 ML
0.667 LW
N
329.316 374 M
329.316 307.112 L
333.226 307.112 L
333.226 374 L
cp
S
GR
GS
[0.75 0 0 0.75 0 0] CT
10.0 ML
0.667 LW
N
333.661 374 M
333.661 303.513 L
337.571 303.513 L
337.571 374 L
cp
S
GR
GS
[0.75 0 0 0.75 0 0] CT
10.0 ML
0.667 LW
N
338.005 374 M
338.005 265.198 L
341.915 265.198 L
341.915 374 L
cp
S
GR
GS
[0.75 0 0 0.75 0 0] CT
10.0 ML
0.667 LW
N
342.349 374 M
342.349 288.311 L
346.259 288.311 L
346.259 374 L
cp
S
GR
GS
[0.75 0 0 0.75 0 0] CT
10.0 ML
0.667 LW
N
346.694 374 M
346.694 276.611 L
350.604 276.611 L
350.604 374 L
cp
S
GR
GS
[0.75 0 0 0.75 0 0] CT
10.0 ML
0.667 LW
N
351.038 374 M
351.038 294.917 L
354.948 294.917 L
354.948 374 L
cp
S
GR
GS
[0.75 0 0 0.75 0 0] CT
10.0 ML
0.667 LW
N
355.382 374 M
355.382 328.63 L
359.292 328.63 L
359.292 374 L
cp
S
GR
GS
[0.75 0 0 0.75 0 0] CT
10.0 ML
0.667 LW
N
359.727 374 M
359.727 326.224 L
363.637 326.224 L
363.637 374 L
cp
S
GR
GS
[0.75 0 0 0.75 0 0] CT
10.0 ML
0.667 LW
N
364.071 374 M
364.071 365.78 L
367.981 365.78 L
367.981 374 L
cp
S
GR
GS
[0.75 0 0 0.75 0 0] CT
10.0 ML
0.667 LW
N
368.415 374 M
368.415 311.639 L
372.325 311.639 L
372.325 374 L
cp
S
GR
GS
[0.75 0 0 0.75 0 0] CT
10.0 ML
0.667 LW
N
372.76 374 M
372.76 292.16 L
376.67 292.16 L
376.67 374 L
cp
S
GR
GS
[0.75 0 0 0.75 0 0] CT
10.0 ML
0.667 LW
N
377.104 374 M
377.104 293.881 L
381.014 293.881 L
381.014 374 L
cp
S
GR
GS
[0.75 0 0 0.75 0 0] CT
10.0 ML
0.667 LW
N
381.448 374 M
381.448 286.438 L
385.358 286.438 L
385.358 374 L
cp
S
GR
GS
[0.75 0 0 0.75 0 0] CT
10.0 ML
0.667 LW
N
385.793 374 M
385.793 287.257 L
389.703 287.257 L
389.703 374 L
cp
S
GR
GS
[0.75 0 0 0.75 0 0] CT
10.0 ML
0.667 LW
N
390.137 374 M
390.137 296.302 L
394.047 296.302 L
394.047 374 L
cp
S
GR
GS
[0.75 0 0 0.75 0 0] CT
10.0 ML
0.667 LW
N
394.482 374 M
394.482 281.852 L
398.391 281.852 L
398.391 374 L
cp
S
GR
GS
[0.75 0 0 0.75 0 0] CT
10.0 ML
0.667 LW
N
398.826 374 M
398.826 312.958 L
402.736 312.958 L
402.736 374 L
cp
S
GR
GS
[0.75 0 0 0.75 0 0] CT
10.0 ML
0.667 LW
N
403.17 374 M
403.17 280.889 L
407.08 280.889 L
407.08 374 L
cp
S
GR
GS
[0.75 0 0 0.75 0 0] CT
10.0 ML
0.667 LW
N
407.515 374 M
407.515 332.059 L
411.424 332.059 L
411.424 374 L
cp
S
GR
GS
[0.75 0 0 0.75 0 0] CT
10.0 ML
0.667 LW
N
411.859 374 M
411.859 312.481 L
415.769 312.481 L
415.769 374 L
cp
S
GR
GS
[0.75 0 0 0.75 0 0] CT
10.0 ML
0.667 LW
N
416.203 374 M
416.203 298.256 L
420.113 298.256 L
420.113 374 L
cp
S
GR
GS
[0.75 0 0 0.75 0 0] CT
10.0 ML
0.667 LW
N
420.548 374 M
420.548 300.99 L
424.457 300.99 L
424.457 374 L
cp
S
GR
GS
[0.75 0 0 0.75 0 0] CT
10.0 ML
0.667 LW
N
424.892 374 M
424.892 318.576 L
428.802 318.576 L
428.802 374 L
cp
S
GR
GS
[0.75 0 0 0.75 0 0] CT
10.0 ML
0.667 LW
N
429.236 374 M
429.236 306.649 L
433.146 306.649 L
433.146 374 L
cp
S
GR
GS
[0.75 0 0 0.75 0 0] CT
10.0 ML
0.667 LW
N
433.581 374 M
433.581 291.411 L
437.49 291.411 L
437.49 374 L
cp
S
GR
GS
[0.75 0 0 0.75 0 0] CT
10.0 ML
0.667 LW
N
437.925 374 M
437.925 313.141 L
441.835 313.141 L
441.835 374 L
cp
S
GR
GS
[0.75 0 0 0.75 0 0] CT
10.0 ML
0.667 LW
N
442.269 374 M
442.269 367.028 L
446.179 367.028 L
446.179 374 L
cp
S
GR
GS
[0.75 0 0 0.75 0 0] CT
10.0 ML
0.667 LW
N
446.614 374 M
446.614 308.019 L
450.523 308.019 L
450.523 374 L
cp
S
GR
GS
[0.75 0 0 0.75 0 0] CT
10.0 ML
0.667 LW
N
450.958 374 M
450.958 327.867 L
454.868 327.867 L
454.868 374 L
cp
S
GR
GS
[0.75 0 0 0.75 0 0] CT
10.0 ML
0.667 LW
N
455.302 374 M
455.302 190.728 L
459.212 190.728 L
459.212 374 L
cp
S
GR
GS
[0.75 0 0 0.75 0 0] CT
10.0 ML
0.667 LW
N
459.647 374 M
459.647 298.929 L
463.557 298.929 L
463.557 374 L
cp
S
GR
GS
[0.75 0 0 0.75 0 0] CT
10.0 ML
0.667 LW
N
463.991 374 M
463.991 318.326 L
467.901 318.326 L
467.901 374 L
cp
S
GR
GS
[0.75 0 0 0.75 0 0] CT
10.0 ML
0.667 LW
N
468.335 374 M
468.335 245.934 L
472.245 245.934 L
472.245 374 L
cp
S
GR
GS
[0.75 0 0 0.75 0 0] CT
10.0 ML
0.667 LW
N
472.68 374 M
472.68 311.528 L
476.59 311.528 L
476.59 374 L
cp
S
GR
GS
[0.75 0 0 0.75 0 0] CT
10.0 ML
0.667 LW
N
477.024 374 M
477.024 316.158 L
480.934 316.158 L
480.934 374 L
cp
S
GR
GS
[0.75 0 0 0.75 0 0] CT
10.0 ML
0.667 LW
N
481.368 374 M
481.368 287.327 L
485.278 287.327 L
485.278 374 L
cp
S
GR
GS
[0.75 0 0 0.75 0 0] CT
10.0 ML
0.667 LW
N
485.713 374 M
485.713 300.617 L
489.623 300.617 L
489.623 374 L
cp
S
GR
GS
[0.75 0 0 0.75 0 0] CT
10.0 ML
0.667 LW
N
490.057 374 M
490.057 326.283 L
493.967 326.283 L
493.967 374 L
cp
S
GR
GS
[0.75 0 0 0.75 0 0] CT
10.0 ML
0.667 LW
N
494.401 374 M
494.401 359.214 L
498.311 359.214 L
498.311 374 L
cp
S
GR
GS
[0.75 0 0 0.75 0 0] CT
10.0 ML
0.667 LW
N
498.746 374 M
498.746 284.019 L
502.656 284.019 L
502.656 374 L
cp
S
GR
GS
[0.75 0 0 0.75 0 0] CT
10.0 ML
0.667 LW
N
503.09 374 M
503.09 290.73 L
507 290.73 L
507 374 L
cp
S
GR
%%Trailer
%%Pages: 1
%%EOF
