wiki_f1,wiki_p,wiki_r,aidaA_f1,aidaA_p,aidaA_r,aidaB_f1,aidaB_p,aidaB_r,msnbc_f1,msnbc_p,msnbc_r,ace_f1,ace_p,ace_r,aquaint_f1,aquaint_p,aquaint_r
0.16347286479773,0.168525390625,0.15871447796875,0.54275817276467,0.56375084326512,0.52327280317262,0.50744558991982,0.52179034157833,0.49386845039019,0.52539682539683,0.54801324503311,0.50457317073171,0.54205607476636,0.63318777292576,0.47385620915033,0.52669039145907,0.54572271386431,0.50894085281981
0.16379494148563,0.168857421875,0.15902717961162,0.52933535397272,0.54980885990555,0.51033187226049,0.49736540664376,0.51142520612485,0.48405797101449,0.5015873015873,0.52317880794702,0.48170731707317,0.51214953271028,0.59825327510917,0.44771241830065,0.53380782918149,0.55309734513274,0.51581843191197
0.20831730716619,0.214755859375,0.20225358318426,0.52998484520459,0.5504834720036,0.51095804633688,0.45223367697595,0.46501766784452,0.44013377926421,0.47460317460317,0.49503311258278,0.45579268292683,0.46728971962617,0.54585152838428,0.40849673202614,0.49110320284698,0.50884955752212,0.47455295735901
0.20543756266259,0.211787109375,0.19945766261276,0.5379952370643,0.55880368787947,0.51868085994573,0.50721649484536,0.52155477031802,0.49364548494983,0.3968253968254,0.41390728476821,0.38109756097561,0.41121495327103,0.48034934497817,0.35947712418301,0.52526690391459,0.54424778761062,0.50756533700138
0.22847551869134,0.235537109375,0.22182502718481,0.58865555315003,0.61142343152687,0.5675224379044,0.54914089347079,0.56466431095406,0.53444816053512,0.53333333333333,0.55629139072848,0.51219512195122,0.53831775700935,0.62882096069869,0.47058823529412,0.55373665480427,0.57374631268437,0.53507565337001
0.24245743608379,0.249951171875,0.23539995732805,0.58714007360901,0.60984933663144,0.56606136505949,0.56471935853379,0.58068315665489,0.54960981047938,0.50634920634921,0.52814569536424,0.48628048780488,0.51214953271028,0.59825327510917,0.44771241830065,0.55800711743772,0.57817109144543,0.53920220082531
0.26255881054637,0.270673828125,0.25491621868575,0.57523273435809,0.5974814481673,0.55458150699228,0.54066437571592,0.55594817432273,0.52619843924192,0.52857142857143,0.55132450331126,0.50762195121951,0.51214953271028,0.59825327510917,0.44771241830065,0.51957295373665,0.53834808259587,0.50206327372765
0.26854564780384,0.276845703125,0.26072879040019,0.54708811431046,0.56824825725208,0.52744729701524,0.55303550973654,0.56866902237927,0.53823857302118,0.45238095238095,0.47185430463576,0.4344512195122,0.50093457943925,0.58515283842795,0.43790849673203,0.54661921708185,0.56637168141593,0.52819807427785
0.27575448190659,0.28427734375,0.26772778893611,0.60229486901927,0.62559028558579,0.58067209350866,0.57754868270332,0.59387514723204,0.56209587513935,0.53968253968254,0.56291390728477,0.51829268292683,0.53457943925234,0.62445414847162,0.46732026143791,0.56797153024911,0.58849557522124,0.54883081155433
0.29357290102257,0.302646484375,0.28502754747231,0.5769647109764,0.59928041376209,0.55625130452933,0.56265750286369,0.57856301531213,0.54760312151616,0.56666666666667,0.59105960264901,0.54420731707317,0.56448598130841,0.65938864628821,0.49346405228758,0.55800711743772,0.57817109144543,0.53920220082531
0.30228791728344,0.311630859375,0.29348888604397,0.61008876380169,0.63368563076231,0.58818618242538,0.60481099656357,0.62190812720848,0.58862876254181,0.53968253968254,0.56291390728477,0.51829268292683,0.53084112149533,0.62008733624454,0.4640522875817,0.54519572953737,0.56489675516224,0.52682255845942
0.32635841328223,0.3364453125,0.31685873529463,0.59644944793245,0.6195187767034,0.57503652682112,0.58785796105384,0.60447585394582,0.57212931995541,0.58253968253968,0.60761589403974,0.5594512195122,0.57943925233645,0.67685589519651,0.50653594771242,0.54804270462633,0.56784660766962,0.52957359009629
0.31431842886096,0.324033203125,0.30516921211573,0.59818142455077,0.62131774229818,0.57670632435817,0.58991981672394,0.60659599528857,0.57413600891862,0.57619047619048,0.60099337748344,0.55335365853659,0.58317757009346,0.68122270742358,0.50980392156863,0.57366548042705,0.59439528023599,0.55433287482806
0.33225999494584,0.342529296875,0.32258853304479,0.59298549469582,0.61592084551383,0.57169693174703,0.58602520045819,0.60259128386337,0.57034559643255,0.55396825396825,0.57781456953642,0.53201219512195,0.56448598130841,0.65938864628821,0.49346405228758,0.55800711743772,0.57817109144543,0.53920220082531
0.33131271056966,0.341552734375,0.32166882233048,0.62870751244858,0.65302451090623,0.60613650594865,0.60595647193585,0.62308598351001,0.58974358974359,0.54761904761905,0.57119205298013,0.52591463414634,0.55327102803738,0.64628820960699,0.48366013071895,0.56227758007117,0.58259587020649,0.54332874828061
0.33674065004518,0.3471484375,0.32693876472349,0.53972721368262,0.56060265347425,0.52035065748278,0.52943871706758,0.54440518256773,0.51527313266444,0.52857142857143,0.55132450331126,0.50762195121951,0.53831775700935,0.62882096069869,0.47058823529412,0.52669039145907,0.54572271386431,0.50894085281981
0.3546253790675,0.3655859375,0.34430290300969,0.61376921411561,0.63750843265123,0.59173450219161,0.60068728522337,0.61766784452297,0.58461538461538,0.55714285714286,0.58112582781457,0.53506097560976,0.56822429906542,0.66375545851528,0.49673202614379,0.57651245551601,0.59734513274336,0.55708390646492
0.35727777532081,0.3683203125,0.34687809300976,0.59904741285993,0.62221722509557,0.5775412231267,0.57777777777778,0.59411071849234,0.56231884057971,0.54603174603175,0.56953642384106,0.52439024390244,0.56448598130841,0.65938864628821,0.49346405228758,0.56227758007117,0.58259587020649,0.54332874828061
0.35525058675578,0.36623046875,0.34490991208113,0.61506819657935,0.63885765684731,0.5929868503444,0.59518900343643,0.61201413427562,0.57926421404682,0.56190476190476,0.58609271523179,0.53963414634146,0.57570093457944,0.67248908296943,0.50326797385621,0.5779359430605,0.59882005899705,0.55845942228336
0.36196683298291,0.373154296875,0.3514306610456,0.61463520242477,0.63840791544862,0.59256940096013,0.59610538373425,0.61295641931684,0.58015607580825,0.54920634920635,0.57284768211921,0.52743902439024,0.56448598130841,0.65938864628821,0.49346405228758,0.56654804270463,0.58702064896755,0.5474552957359
0.36441082667346,0.375673828125,0.35380351468853,0.59471747131414,0.61771981110861,0.57336672928407,0.58121420389462,0.59764428739694,0.56566332218506,0.47619047619048,0.49668874172185,0.45731707317073,0.50841121495327,0.5938864628821,0.44444444444444,0.54946619217082,0.5693215339233,0.53094910591472
0.36417400557942,0.3754296875,0.35357358700995,0.6077072959515,0.63121205306949,0.58589021081194,0.58923253150057,0.60588928150766,0.57346711259755,0.55396825396825,0.57781456953642,0.53201219512195,0.55327102803738,0.64628820960699,0.48366013071895,0.56085409252669,0.5811209439528,0.54195323246217
0.36353932504737,0.374775390625,0.35295738083136,0.6098722667244,0.63346076006296,0.58797745773325,0.59335624284078,0.61012956419317,0.57748049052397,0.57460317460317,0.59933774834437,0.55182926829268,0.56822429906542,0.66375545851528,0.49673202614379,0.58078291814947,0.60176991150442,0.56121045392022
0.36981982046146,0.38125,0.35905506286725,0.62307858843906,0.64717787272318,0.60070966395325,0.60870561282932,0.62591283863369,0.59241917502787,0.55079365079365,0.57450331125828,0.52896341463415,0.5607476635514,0.65502183406114,0.49019607843137,0.56797153024911,0.58849557522124,0.54883081155433
0.37475517206137,0.386337890625,0.36384675568881,0.61268672872916,0.63638407915449,0.59069087873095,0.59289805269187,0.60965842167256,0.57703455964326,0.57936507936508,0.60430463576159,0.55640243902439,0.60560747663551,0.70742358078603,0.52941176470588,0.56939501779359,0.58997050147493,0.55020632737276
0.37836432553462,0.39005859375,0.36735085351034,0.62286209136177,0.64695300202384,0.60050093926111,0.61076746849943,0.62803297997644,0.59442586399108,0.56349206349206,0.58774834437086,0.54115853658537,0.55700934579439,0.65065502183406,0.48692810457516,0.56654804270463,0.58702064896755,0.5474552957359
0.37861061947243,0.3903125,0.36758997829606,0.58389261744966,0.60647627614122,0.56293049467752,0.55830469644903,0.57408716136631,0.54336677814939,0.51587301587302,0.53807947019868,0.49542682926829,0.5196261682243,0.60698689956332,0.45424836601307,0.54946619217082,0.5693215339233,0.53094910591472
0.38982646648643,0.401875,0.37847935315351,0.5050876813163,0.52462334157859,0.48695470674181,0.51477663230241,0.52932862190813,0.50100334448161,0.54285714285714,0.56622516556291,0.52134146341463,0.47102803738318,0.55021834061135,0.41176470588235,0.54946619217082,0.5693215339233,0.53094910591472
0.39616379896308,0.408408203125,0.38463221783225,0.57674821389911,0.59905554306274,0.55604257983719,0.56357388316151,0.57950530035336,0.54849498327759,0.58253968253968,0.60761589403974,0.5594512195122,0.57943925233645,0.67685589519651,0.50653594771242,0.56797153024911,0.58849557522124,0.54883081155433
0.40199907072036,0.414423828125,0.39029763583241,0.59190300930937,0.61479649201709,0.57065330828637,0.5922107674685,0.60895170789164,0.57636566332219,0.60793650793651,0.6341059602649,0.58384146341463,0.57570093457944,0.67248908296943,0.50326797385621,0.57224199288256,0.5929203539823,0.55295735900963
0.40539982163086,0.4179296875,0.39359939729679,0.6077072959515,0.63121205306949,0.58589021081194,0.58327605956472,0.59976442873969,0.56767001114827,0.51746031746032,0.53973509933775,0.4969512195122,0.53457943925234,0.62445414847162,0.46732026143791,0.54661921708185,0.56637168141593,0.52819807427785
0.44871913615366,0.462587890625,0.43565776826226,0.60943927256982,0.63301101866427,0.58756000834899,0.59518900343643,0.61201413427562,0.57926421404682,0.5984126984127,0.62417218543046,0.57469512195122,0.6018691588785,0.70305676855895,0.52614379084967,0.57508896797153,0.59587020648968,0.55570839064649
0.51396808398508,0.529853515625,0.49900744226404,0.62372807967092,0.64785248482123,0.60133583802964,0.61672394043528,0.63415783274441,0.60022296544036,0.56666666666667,0.59105960264901,0.54420731707317,0.56448598130841,0.65938864628821,0.49346405228758,0.57508896797153,0.59587020648968,0.55570839064649
0.46864052658477,0.483125,0.45499928458423,0.59428447715956,0.61727006970992,0.57294927989981,0.59243986254296,0.60918727915194,0.57658862876254,0.60952380952381,0.63576158940397,0.58536585365854,0.57196261682243,0.66812227074236,0.5,0.57935943060498,0.60029498525074,0.55983493810179
0.4461046312754,0.459892578125,0.43311936669076,0.60532582810132,0.62873847537666,0.5835942391985,0.59725085910653,0.61413427561837,0.58127090301003,0.5952380952381,0.62086092715232,0.57164634146341,0.57196261682243,0.66812227074236,0.5,0.57508896797153,0.59587020648968,0.55570839064649
0.62306682558996,0.64232421875,0.60493052523131,0.60467633686945,0.62806386327861,0.5829680651221,0.56746849942726,0.58351001177856,0.55228539576366,0.6047619047619,0.63079470198675,0.58079268292683,0.57570093457944,0.67248908296943,0.50326797385621,0.55516014234875,0.57522123893805,0.53645116918845
0.68351304163414,0.704638671875,0.66361726591153,0.57869668759472,0.60107937935687,0.55792110206637,0.56975945017182,0.58586572438163,0.55451505016722,0.60634920634921,0.63245033112583,0.58231707317073,0.57570093457944,0.67248908296943,0.50326797385621,0.54946619217082,0.5693215339233,0.53094910591472
0.70078203581194,0.72244140625,0.68038359223343,0.57956267590388,0.60197886215426,0.5587560008349,0.55990836197022,0.57573616018846,0.54492753623188,0.59365079365079,0.61920529801325,0.57012195121951,0.58317757009346,0.68122270742358,0.50980392156863,0.54804270462633,0.56784660766962,0.52957359009629
0.7011135853436,0.722783203125,0.68070549098344,0.59168651223208,0.61457162131774,0.57044458359424,0.56907216494845,0.58515901060071,0.55384615384615,0.62857142857143,0.65562913907285,0.60365853658537,0.5981308411215,0.69868995633188,0.52287581699346,0.54377224199288,0.56342182890855,0.52544704264099
0.79149398767513,0.81595703125,0.76845509023591,0.55185105001082,0.57319541263773,0.53203924024212,0.52737686139748,0.54228504122497,0.51326644370123,0.58095238095238,0.60596026490066,0.55792682926829,0.56448598130841,0.65938864628821,0.49346405228758,0.53523131672598,0.55457227138643,0.5171939477304
0.70938337794767,0.73130859375,0.68873456551938,0.57609872266724,0.5983809309647,0.5554164057608,0.55715922107675,0.57290930506478,0.5422519509476,0.58888888888889,0.61423841059603,0.5655487804878,0.55700934579439,0.65065502183406,0.48692810457516,0.54377224199288,0.56342182890855,0.52544704264099
0.71549573038498,0.73760986328125,0.69466899890348,0.57956267590388,0.60197886215426,0.5587560008349,0.57021764032073,0.58633686690224,0.55496098104794,0.58730158730159,0.61258278145695,0.5640243902439,0.57196261682243,0.66812227074236,0.5,0.5508896797153,0.57079646017699,0.53232462173315
